<?xml version="1.0" ?>
<svg height="224" version="1.1" width="224" xmlns="http://www.w3.org/2000/svg">
  <defs/>
  <g>
    <path d="M 135.21975708007812 46.8541259765625 C 162.1709442138672 65.89198303222656 156.05206298828125 65.85125732421875 122.30257415771484 49.23020553588867" fill="none" stroke="rgb(0, 0, 0)" stroke-linecap="round" stroke-linejoin="round" stroke-opacity="1.0" stroke-width="3.0"/>
    <path d="M 184.7795867919922 97.83922576904297 C 149.4188690185547 75.21668243408203 178.3871307373047 85.53892517089844 180.5548095703125 99.16450500488281" fill="none" stroke="rgb(0, 0, 0)" stroke-linecap="round" stroke-linejoin="round" stroke-opacity="1.0" stroke-width="3.0"/>
    <path d="M 61.574886322021484 47.22153091430664 C 23.359027862548828 159.52223205566406 191.07156372070312 24.734445571899414 149.40611267089844 123.18018341064453" fill="none" stroke="rgb(0, 0, 0)" stroke-linecap="round" stroke-linejoin="round" stroke-opacity="1.0" stroke-width="3.0"/>
    <path d="M 103.07009887695312 62.991455078125 C 124.03881072998047 97.12522888183594 96.09030151367188 66.72767639160156 134.6172332763672 83.30950164794922" fill="none" stroke="rgb(0, 0, 0)" stroke-linecap="round" stroke-linejoin="round" stroke-opacity="1.0" stroke-width="3.0"/>
    <path d="M 128.98825073242188 60.29254150390625 C 156.6778106689453 92.01531219482422 180.7672882080078 79.47340393066406 179.1862335205078 102.03218078613281" fill="none" stroke="rgb(0, 0, 0)" stroke-linecap="round" stroke-linejoin="round" stroke-opacity="1.0" stroke-width="3.0"/>
    <path d="M 137.08489990234375 49.81352615356445 C 57.14394760131836 27.552724838256836 97.34596252441406 98.5387191772461 154.2632293701172 80.53194427490234" fill="none" stroke="rgb(0, 0, 0)" stroke-linecap="round" stroke-linejoin="round" stroke-opacity="1.0" stroke-width="3.0"/>
    <path d="M 188.12835693359375 96.77515411376953 C 157.15892028808594 61.325714111328125 156.44601440429688 78.68548583984375 138.2025909423828 52.053489685058594" fill="none" stroke="rgb(0, 0, 0)" stroke-linecap="round" stroke-linejoin="round" stroke-opacity="1.0" stroke-width="3.0"/>
    <path d="M 120.19949340820312 88.94337463378906 C 129.88638305664062 202.4265594482422 136.85362243652344 30.78800392150879 107.63900756835938 203.662841796875" fill="none" stroke="rgb(0, 0, 0)" stroke-linecap="round" stroke-linejoin="round" stroke-opacity="1.0" stroke-width="3.0"/>
  </g>
</svg>
