<?xml version="1.0" ?>
<svg height="224" version="1.1" width="224" xmlns="http://www.w3.org/2000/svg">
  <defs/>
  <g>
    <path d="M 139.14772033691406 56.83492660522461 C 177.32679748535156 91.42523193359375 174.8765411376953 81.77418518066406 114.33470916748047 51.45588684082031" fill="none" stroke="rgb(0, 0, 0)" stroke-linecap="round" stroke-linejoin="round" stroke-opacity="1.0" stroke-width="3.0"/>
    <path d="M 190.54400634765625 97.53544616699219 C 167.88714599609375 92.82599639892578 200.23306274414062 88.38340759277344 171.09637451171875 104.82884979248047" fill="none" stroke="rgb(0, 0, 0)" stroke-linecap="round" stroke-linejoin="round" stroke-opacity="1.0" stroke-width="3.0"/>
    <path d="M 40.927825927734375 41.071434020996094 C 21.829151153564453 147.07369995117188 246.16879272460938 42.10715103149414 143.76947021484375 122.138427734375" fill="none" stroke="rgb(0, 0, 0)" stroke-linecap="round" stroke-linejoin="round" stroke-opacity="1.0" stroke-width="3.0"/>
    <path d="M 93.27519989013672 71.81969451904297 C 114.1506118774414 119.35041046142578 104.7218017578125 78.5213394165039 127.4513931274414 97.60334777832031" fill="none" stroke="rgb(0, 0, 0)" stroke-linecap="round" stroke-linejoin="round" stroke-opacity="1.0" stroke-width="3.0"/>
    <path d="M 109.63800048828125 65.24921417236328 C 136.21258544921875 80.6929931640625 178.0695343017578 84.10174560546875 185.18194580078125 97.14122772216797" fill="none" stroke="rgb(0, 0, 0)" stroke-linecap="round" stroke-linejoin="round" stroke-opacity="1.0" stroke-width="3.0"/>
    <path d="M 145.058837890625 56.4354362487793 C 76.27286529541016 17.244810104370117 40.88151550292969 123.5988540649414 155.58596801757812 77.72663879394531" fill="none" stroke="rgb(0, 0, 0)" stroke-linecap="round" stroke-linejoin="round" stroke-opacity="1.0" stroke-width="3.0"/>
    <path d="M 194.29086303710938 94.49478149414062 C 153.51727294921875 57.653690338134766 146.05116271972656 72.04900360107422 125.173828125 73.5569076538086" fill="none" stroke="rgb(0, 0, 0)" stroke-linecap="round" stroke-linejoin="round" stroke-opacity="1.0" stroke-width="3.0"/>
    <path d="M 128.3440399169922 91.737548828125 C 129.6871795654297 201.85888671875 151.04151916503906 27.99413299560547 104.11637878417969 206.18157958984375" fill="none" stroke="rgb(0, 0, 0)" stroke-linecap="round" stroke-linejoin="round" stroke-opacity="1.0" stroke-width="3.0"/>
  </g>
</svg>
