<?xml version="1.0" ?>
<svg height="224" version="1.1" width="224" xmlns="http://www.w3.org/2000/svg">
  <defs/>
  <g>
    <path d="M 140.4306640625 67.35321044921875 C 150.18435668945312 75.0579833984375 139.0880889892578 74.09703063964844 142.36866760253906 63.08974838256836" fill="none" stroke="rgb(0, 0, 0)" stroke-linecap="round" stroke-linejoin="round" stroke-opacity="1.0" stroke-width="3.0"/>
    <path d="M 177.15672302246094 81.16693115234375 C 174.3821563720703 76.65029907226562 179.19976806640625 80.37227630615234 192.19979858398438 96.00030517578125" fill="none" stroke="rgb(0, 0, 0)" stroke-linecap="round" stroke-linejoin="round" stroke-opacity="1.0" stroke-width="3.0"/>
    <path d="M 82.66077423095703 52.36056137084961 C 74.96927642822266 94.35021209716797 95.69258880615234 76.7948226928711 105.92095947265625 113.7950439453125" fill="none" stroke="rgb(0, 0, 0)" stroke-linecap="round" stroke-linejoin="round" stroke-opacity="1.0" stroke-width="3.0"/>
    <path d="M 96.05947875976562 55.366146087646484 C 104.15859985351562 85.4743881225586 124.1621322631836 76.73222351074219 122.64501190185547 82.50578308105469" fill="none" stroke="rgb(0, 0, 0)" stroke-linecap="round" stroke-linejoin="round" stroke-opacity="1.0" stroke-width="3.0"/>
    <path d="M 160.08755493164062 71.47305297851562 C 167.7611541748047 74.99464416503906 165.93356323242188 70.5340347290039 176.89059448242188 79.6957778930664" fill="none" stroke="rgb(0, 0, 0)" stroke-linecap="round" stroke-linejoin="round" stroke-opacity="1.0" stroke-width="3.0"/>
    <path d="M 136.4824676513672 76.272705078125 C 123.49844360351562 85.98192596435547 125.52047729492188 94.59329223632812 124.67236328125 93.70568084716797" fill="none" stroke="rgb(0, 0, 0)" stroke-linecap="round" stroke-linejoin="round" stroke-opacity="1.0" stroke-width="3.0"/>
    <path d="M 164.9056396484375 72.74134826660156 C 155.1971893310547 59.11726760864258 158.39283752441406 64.98019409179688 148.38111877441406 60.27271270751953" fill="none" stroke="rgb(0, 0, 0)" stroke-linecap="round" stroke-linejoin="round" stroke-opacity="1.0" stroke-width="3.0"/>
    <path d="M 136.39852905273438 121.85526275634766 C 142.6552734375 122.03972625732422 140.47634887695312 106.91438293457031 123.18424224853516 142.7913818359375" fill="none" stroke="rgb(0, 0, 0)" stroke-linecap="round" stroke-linejoin="round" stroke-opacity="1.0" stroke-width="3.0"/>
  </g>
</svg>
