<?xml version="1.0" ?>
<svg height="224" version="1.1" width="224" xmlns="http://www.w3.org/2000/svg">
  <defs/>
  <g>
    <path d="M 129.09266662597656 51.13273620605469 C 161.5542449951172 72.11811065673828 149.56326293945312 73.56537628173828 115.20758819580078 52.22854232788086" fill="none" stroke="rgb(0, 0, 0)" stroke-linecap="round" stroke-linejoin="round" stroke-opacity="1.0" stroke-width="3.0"/>
    <path d="M 192.9117889404297 95.23458862304688 C 157.7628631591797 90.31182098388672 191.96041870117188 91.36270904541016 182.13624572753906 100.68297576904297" fill="none" stroke="rgb(0, 0, 0)" stroke-linecap="round" stroke-linejoin="round" stroke-opacity="1.0" stroke-width="3.0"/>
    <path d="M 58.0380744934082 51.51095962524414 C 25.314271926879883 148.41525268554688 198.25942993164062 25.239511489868164 141.09934997558594 122.18709564208984" fill="none" stroke="rgb(0, 0, 0)" stroke-linecap="round" stroke-linejoin="round" stroke-opacity="1.0" stroke-width="3.0"/>
    <path d="M 88.98776245117188 66.47516632080078 C 109.04863739013672 98.37939453125 79.69959259033203 66.97694396972656 129.72817993164062 73.77877807617188" fill="none" stroke="rgb(0, 0, 0)" stroke-linecap="round" stroke-linejoin="round" stroke-opacity="1.0" stroke-width="3.0"/>
    <path d="M 118.65145111083984 67.51470184326172 C 154.00909423828125 91.7608642578125 162.90188598632812 75.54731750488281 181.06581115722656 97.3980712890625" fill="none" stroke="rgb(0, 0, 0)" stroke-linecap="round" stroke-linejoin="round" stroke-opacity="1.0" stroke-width="3.0"/>
    <path d="M 138.17074584960938 52.02674102783203 C 63.06743240356445 30.206743240356445 84.93523406982422 103.93061828613281 159.41812133789062 70.58474731445312" fill="none" stroke="rgb(0, 0, 0)" stroke-linecap="round" stroke-linejoin="round" stroke-opacity="1.0" stroke-width="3.0"/>
    <path d="M 190.9542236328125 94.51791381835938 C 155.97145080566406 64.34310150146484 155.75146484375 63.580177307128906 121.86732482910156 58.53085708618164" fill="none" stroke="rgb(0, 0, 0)" stroke-linecap="round" stroke-linejoin="round" stroke-opacity="1.0" stroke-width="3.0"/>
    <path d="M 119.59774780273438 86.67428588867188 C 127.1314468383789 215.39158630371094 136.37677001953125 26.74117088317871 105.31861877441406 206.97845458984375" fill="none" stroke="rgb(0, 0, 0)" stroke-linecap="round" stroke-linejoin="round" stroke-opacity="1.0" stroke-width="3.0"/>
  </g>
</svg>
