<?xml version="1.0" ?>
<svg height="224" version="1.1" width="224" xmlns="http://www.w3.org/2000/svg">
  <defs/>
  <g>
    <path d="M 137.33831787109375 56.58927536010742 C 165.26039123535156 64.0849380493164 149.67990112304688 66.35023498535156 125.0521240234375 60.001426696777344" fill="none" stroke="rgb(0, 0, 0)" stroke-linecap="round" stroke-linejoin="round" stroke-opacity="1.0" stroke-width="3.0"/>
    <path d="M 189.67564392089844 96.1454849243164 C 153.60842895507812 64.60193634033203 175.47772216796875 75.45970153808594 183.41488647460938 96.49258422851562" fill="none" stroke="rgb(0, 0, 0)" stroke-linecap="round" stroke-linejoin="round" stroke-opacity="1.0" stroke-width="3.0"/>
    <path d="M 65.38697052001953 46.793121337890625 C 29.92131233215332 150.48721313476562 122.15546417236328 50.70594024658203 126.25697326660156 122.81256103515625" fill="none" stroke="rgb(0, 0, 0)" stroke-linecap="round" stroke-linejoin="round" stroke-opacity="1.0" stroke-width="3.0"/>
    <path d="M 95.64444732666016 49.267765045166016 C 128.10906982421875 88.25450134277344 132.63450622558594 62.23568344116211 136.63198852539062 83.59979248046875" fill="none" stroke="rgb(0, 0, 0)" stroke-linecap="round" stroke-linejoin="round" stroke-opacity="1.0" stroke-width="3.0"/>
    <path d="M 138.49066162109375 63.169403076171875 C 157.41091918945312 88.92134857177734 160.9289093017578 72.78087615966797 184.8849639892578 99.7045669555664" fill="none" stroke="rgb(0, 0, 0)" stroke-linecap="round" stroke-linejoin="round" stroke-opacity="1.0" stroke-width="3.0"/>
    <path d="M 133.98231506347656 52.78923797607422 C 91.89891052246094 65.5427017211914 133.3440399169922 83.28926086425781 154.47227478027344 81.3091812133789" fill="none" stroke="rgb(0, 0, 0)" stroke-linecap="round" stroke-linejoin="round" stroke-opacity="1.0" stroke-width="3.0"/>
    <path d="M 180.6876220703125 91.39358520507812 C 154.98513793945312 67.27938842773438 166.72879028320312 71.29780578613281 132.41636657714844 55.806739807128906" fill="none" stroke="rgb(0, 0, 0)" stroke-linecap="round" stroke-linejoin="round" stroke-opacity="1.0" stroke-width="3.0"/>
    <path d="M 122.38631439208984 119.47273254394531 C 132.453857421875 179.04075622558594 133.15411376953125 51.115867614746094 110.39090728759766 206.5495147705078" fill="none" stroke="rgb(0, 0, 0)" stroke-linecap="round" stroke-linejoin="round" stroke-opacity="1.0" stroke-width="3.0"/>
  </g>
</svg>
