<?xml version="1.0" ?>
<svg height="224" version="1.1" width="224" xmlns="http://www.w3.org/2000/svg">
  <defs/>
  <g>
    <path d="M 139.70703125 56.2765998840332 C 169.75872802734375 61.692508697509766 150.91201782226562 75.34127807617188 127.17994689941406 62.05397415161133" fill="none" stroke="rgb(0, 0, 0)" stroke-linecap="round" stroke-linejoin="round" stroke-opacity="1.0" stroke-width="3.0"/>
    <path d="M 187.56744384765625 94.72119140625 C 156.24729919433594 70.81536865234375 179.0482177734375 74.88623046875 185.32138061523438 99.15962219238281" fill="none" stroke="rgb(0, 0, 0)" stroke-linecap="round" stroke-linejoin="round" stroke-opacity="1.0" stroke-width="3.0"/>
    <path d="M 70.154052734375 45.19205093383789 C 25.84902000427246 136.952880859375 114.3399887084961 68.92646026611328 128.1739501953125 126.10171508789062" fill="none" stroke="rgb(0, 0, 0)" stroke-linecap="round" stroke-linejoin="round" stroke-opacity="1.0" stroke-width="3.0"/>
    <path d="M 87.84593963623047 53.42731475830078 C 117.81494140625 95.66973114013672 124.1788101196289 79.44926452636719 134.41062927246094 96.28114318847656" fill="none" stroke="rgb(0, 0, 0)" stroke-linecap="round" stroke-linejoin="round" stroke-opacity="1.0" stroke-width="3.0"/>
    <path d="M 136.33180236816406 65.83753967285156 C 145.23126220703125 83.48921203613281 151.0473175048828 68.8860855102539 181.92323303222656 94.84801483154297" fill="none" stroke="rgb(0, 0, 0)" stroke-linecap="round" stroke-linejoin="round" stroke-opacity="1.0" stroke-width="3.0"/>
    <path d="M 134.16201782226562 52.636783599853516 C 115.45378875732422 71.17756652832031 143.80184936523438 72.15693664550781 136.67723083496094 95.21063995361328" fill="none" stroke="rgb(0, 0, 0)" stroke-linecap="round" stroke-linejoin="round" stroke-opacity="1.0" stroke-width="3.0"/>
    <path d="M 180.4228515625 90.5462875366211 C 155.3321075439453 62.115516662597656 173.11520385742188 70.86345672607422 129.66415405273438 59.68894577026367" fill="none" stroke="rgb(0, 0, 0)" stroke-linecap="round" stroke-linejoin="round" stroke-opacity="1.0" stroke-width="3.0"/>
    <path d="M 120.6895523071289 128.22116088867188 C 126.0928955078125 177.60202026367188 138.37001037597656 62.92482376098633 104.74440002441406 203.7847442626953" fill="none" stroke="rgb(0, 0, 0)" stroke-linecap="round" stroke-linejoin="round" stroke-opacity="1.0" stroke-width="3.0"/>
  </g>
</svg>
