<?xml version="1.0" ?>
<svg height="224" version="1.1" width="224" xmlns="http://www.w3.org/2000/svg">
  <defs/>
  <g>
    <path d="M 139.1751251220703 54.372840881347656 C 177.71176147460938 88.71127319335938 166.0750732421875 85.29342651367188 122.83454895019531 47.945499420166016" fill="none" stroke="rgb(0, 0, 0)" stroke-linecap="round" stroke-linejoin="round" stroke-opacity="1.0" stroke-width="3.0"/>
    <path d="M 189.41043090820312 99.00009155273438 C 165.20851135253906 90.84565734863281 200.48660278320312 91.25940704345703 164.52491760253906 104.02640533447266" fill="none" stroke="rgb(0, 0, 0)" stroke-linecap="round" stroke-linejoin="round" stroke-opacity="1.0" stroke-width="3.0"/>
    <path d="M 44.59403610229492 38.395179748535156 C 9.100447654724121 141.30813598632812 255.36492919921875 42.00074768066406 139.31668090820312 121.34705352783203" fill="none" stroke="rgb(0, 0, 0)" stroke-linecap="round" stroke-linejoin="round" stroke-opacity="1.0" stroke-width="3.0"/>
    <path d="M 89.71188354492188 70.78221893310547 C 111.48906707763672 109.46160888671875 110.86762237548828 74.09336853027344 116.7537841796875 104.61991119384766" fill="none" stroke="rgb(0, 0, 0)" stroke-linecap="round" stroke-linejoin="round" stroke-opacity="1.0" stroke-width="3.0"/>
    <path d="M 108.73299407958984 68.17377471923828 C 133.9553985595703 83.66435241699219 177.50608825683594 89.15861511230469 182.3302764892578 96.46804809570312" fill="none" stroke="rgb(0, 0, 0)" stroke-linecap="round" stroke-linejoin="round" stroke-opacity="1.0" stroke-width="3.0"/>
    <path d="M 148.48146057128906 56.458221435546875 C 78.51185607910156 11.081204414367676 41.747623443603516 128.29168701171875 156.2724609375 82.54051971435547" fill="none" stroke="rgb(0, 0, 0)" stroke-linecap="round" stroke-linejoin="round" stroke-opacity="1.0" stroke-width="3.0"/>
    <path d="M 191.8652801513672 95.69071197509766 C 159.65805053710938 56.964195251464844 130.02024841308594 64.78205871582031 116.43753051757812 60.22880935668945" fill="none" stroke="rgb(0, 0, 0)" stroke-linecap="round" stroke-linejoin="round" stroke-opacity="1.0" stroke-width="3.0"/>
    <path d="M 126.41032409667969 93.93079376220703 C 131.2353515625 207.40484619140625 148.6451416015625 21.477529525756836 106.05271911621094 203.6817169189453" fill="none" stroke="rgb(0, 0, 0)" stroke-linecap="round" stroke-linejoin="round" stroke-opacity="1.0" stroke-width="3.0"/>
  </g>
</svg>
