<?xml version="1.0" ?>
<svg height="224" version="1.1" width="224" xmlns="http://www.w3.org/2000/svg">
  <defs/>
  <g>
    <path d="M 140.8563995361328 54.702457427978516 C 178.07659912109375 84.19035339355469 172.5572967529297 80.12496948242188 111.7183609008789 50.903648376464844" fill="none" stroke="rgb(0, 0, 0)" stroke-linecap="round" stroke-linejoin="round" stroke-opacity="1.0" stroke-width="3.0"/>
    <path d="M 190.21710205078125 96.84941864013672 C 164.1333770751953 94.75952911376953 200.06178283691406 90.43411254882812 164.17173767089844 107.9212417602539" fill="none" stroke="rgb(0, 0, 0)" stroke-linecap="round" stroke-linejoin="round" stroke-opacity="1.0" stroke-width="3.0"/>
    <path d="M 42.27121353149414 38.666221618652344 C 20.933704376220703 145.688232421875 229.4449005126953 37.48903274536133 142.20111083984375 122.76519012451172" fill="none" stroke="rgb(0, 0, 0)" stroke-linecap="round" stroke-linejoin="round" stroke-opacity="1.0" stroke-width="3.0"/>
    <path d="M 92.3439712524414 69.13794708251953 C 127.71519470214844 114.17723846435547 103.52373504638672 77.40966796875 128.74537658691406 91.6669692993164" fill="none" stroke="rgb(0, 0, 0)" stroke-linecap="round" stroke-linejoin="round" stroke-opacity="1.0" stroke-width="3.0"/>
    <path d="M 114.89600372314453 61.20492172241211 C 137.2359161376953 82.52374267578125 184.87413024902344 83.64242553710938 180.70437622070312 93.02214050292969" fill="none" stroke="rgb(0, 0, 0)" stroke-linecap="round" stroke-linejoin="round" stroke-opacity="1.0" stroke-width="3.0"/>
    <path d="M 147.7624969482422 54.6755256652832 C 76.47664642333984 10.42300796508789 46.51125717163086 119.24881744384766 150.44384765625 76.42679595947266" fill="none" stroke="rgb(0, 0, 0)" stroke-linecap="round" stroke-linejoin="round" stroke-opacity="1.0" stroke-width="3.0"/>
    <path d="M 189.69638061523438 93.8492431640625 C 154.3507080078125 53.69173812866211 143.82064819335938 75.05645751953125 122.94791412353516 70.6666259765625" fill="none" stroke="rgb(0, 0, 0)" stroke-linecap="round" stroke-linejoin="round" stroke-opacity="1.0" stroke-width="3.0"/>
    <path d="M 129.40196228027344 90.0179443359375 C 131.98812866210938 200.075927734375 150.0299072265625 18.695026397705078 106.54248046875 207.05177307128906" fill="none" stroke="rgb(0, 0, 0)" stroke-linecap="round" stroke-linejoin="round" stroke-opacity="1.0" stroke-width="3.0"/>
  </g>
</svg>
