<?xml version="1.0" ?>
<svg height="224" version="1.1" width="224" xmlns="http://www.w3.org/2000/svg">
  <defs/>
  <g>
    <path d="M 135.23741149902344 50.84115219116211 C 170.25494384765625 79.69920349121094 172.19215393066406 74.82471466064453 114.40406799316406 49.4023323059082" fill="none" stroke="rgb(0, 0, 0)" stroke-linecap="round" stroke-linejoin="round" stroke-opacity="1.0" stroke-width="3.0"/>
    <path d="M 189.90460205078125 96.76866912841797 C 169.4944610595703 95.47987365722656 197.4642333984375 86.49126434326172 162.86061096191406 107.93080139160156" fill="none" stroke="rgb(0, 0, 0)" stroke-linecap="round" stroke-linejoin="round" stroke-opacity="1.0" stroke-width="3.0"/>
    <path d="M 48.338619232177734 44.27536392211914 C 17.715686798095703 160.34596252441406 188.15310668945312 31.794334411621094 138.02944946289062 123.2585220336914" fill="none" stroke="rgb(0, 0, 0)" stroke-linecap="round" stroke-linejoin="round" stroke-opacity="1.0" stroke-width="3.0"/>
    <path d="M 84.2313232421875 72.28300476074219 C 95.40711212158203 120.27499389648438 64.70021057128906 72.21258544921875 114.132568359375 101.4419937133789" fill="none" stroke="rgb(0, 0, 0)" stroke-linecap="round" stroke-linejoin="round" stroke-opacity="1.0" stroke-width="3.0"/>
    <path d="M 124.01140594482422 65.92378234863281 C 153.2577667236328 92.16131591796875 177.821533203125 78.1240463256836 182.6321563720703 95.78915405273438" fill="none" stroke="rgb(0, 0, 0)" stroke-linecap="round" stroke-linejoin="round" stroke-opacity="1.0" stroke-width="3.0"/>
    <path d="M 146.7301788330078 57.03477096557617 C 56.75870132446289 21.092376708984375 69.2973861694336 119.3006591796875 155.45260620117188 84.74578094482422" fill="none" stroke="rgb(0, 0, 0)" stroke-linecap="round" stroke-linejoin="round" stroke-opacity="1.0" stroke-width="3.0"/>
    <path d="M 190.53475952148438 94.83912658691406 C 170.086669921875 69.71202087402344 138.31788635253906 68.72098541259766 125.2665786743164 63.01631164550781" fill="none" stroke="rgb(0, 0, 0)" stroke-linecap="round" stroke-linejoin="round" stroke-opacity="1.0" stroke-width="3.0"/>
    <path d="M 120.6105728149414 93.3952407836914 C 133.2618865966797 192.3662567138672 140.58587646484375 30.038843154907227 104.89363861083984 205.53253173828125" fill="none" stroke="rgb(0, 0, 0)" stroke-linecap="round" stroke-linejoin="round" stroke-opacity="1.0" stroke-width="3.0"/>
  </g>
</svg>
