<?xml version="1.0" ?>
<svg height="224" version="1.1" width="224" xmlns="http://www.w3.org/2000/svg">
  <defs/>
  <g>
    <path d="M 139.06439208984375 58.13896942138672 C 166.7846221923828 62.20880889892578 147.9120330810547 74.52656555175781 130.00965881347656 63.565452575683594" fill="none" stroke="rgb(0, 0, 0)" stroke-linecap="round" stroke-linejoin="round" stroke-opacity="1.0" stroke-width="3.0"/>
    <path d="M 189.87586975097656 97.37326049804688 C 154.96356201171875 69.6677474975586 178.3994140625 76.12487030029297 187.40945434570312 98.66617584228516" fill="none" stroke="rgb(0, 0, 0)" stroke-linecap="round" stroke-linejoin="round" stroke-opacity="1.0" stroke-width="3.0"/>
    <path d="M 71.59278869628906 46.54806900024414 C 23.997791290283203 139.79518127441406 113.50216674804688 64.0279769897461 125.53733825683594 129.73741149902344" fill="none" stroke="rgb(0, 0, 0)" stroke-linecap="round" stroke-linejoin="round" stroke-opacity="1.0" stroke-width="3.0"/>
    <path d="M 88.10918426513672 53.40988540649414 C 118.05120086669922 102.60556030273438 133.545166015625 77.20065307617188 139.8945770263672 91.16242218017578" fill="none" stroke="rgb(0, 0, 0)" stroke-linecap="round" stroke-linejoin="round" stroke-opacity="1.0" stroke-width="3.0"/>
    <path d="M 136.30543518066406 67.53500366210938 C 142.62608337402344 86.59284973144531 144.4805145263672 74.44572448730469 183.3968963623047 97.83395385742188" fill="none" stroke="rgb(0, 0, 0)" stroke-linecap="round" stroke-linejoin="round" stroke-opacity="1.0" stroke-width="3.0"/>
    <path d="M 139.64697265625 54.51701354980469 C 110.98074340820312 67.0687026977539 145.346435546875 76.37267303466797 144.65869140625 90.08535766601562" fill="none" stroke="rgb(0, 0, 0)" stroke-linecap="round" stroke-linejoin="round" stroke-opacity="1.0" stroke-width="3.0"/>
    <path d="M 181.38963317871094 88.99510192871094 C 153.1842041015625 65.8758316040039 170.68885803222656 72.745361328125 129.99066162109375 60.711448669433594" fill="none" stroke="rgb(0, 0, 0)" stroke-linecap="round" stroke-linejoin="round" stroke-opacity="1.0" stroke-width="3.0"/>
    <path d="M 120.5616226196289 127.6468734741211 C 128.31201171875 181.63841247558594 138.6831817626953 62.69870376586914 104.29313659667969 203.33367919921875" fill="none" stroke="rgb(0, 0, 0)" stroke-linecap="round" stroke-linejoin="round" stroke-opacity="1.0" stroke-width="3.0"/>
  </g>
</svg>
