<?xml version="1.0" ?>
<svg height="224" version="1.1" width="224" xmlns="http://www.w3.org/2000/svg">
  <defs/>
  <g>
    <path d="M 139.65145874023438 54.58188247680664 C 175.976806640625 83.63591766357422 170.9818878173828 79.64390563964844 114.32454681396484 45.16436004638672" fill="none" stroke="rgb(0, 0, 0)" stroke-linecap="round" stroke-linejoin="round" stroke-opacity="1.0" stroke-width="3.0"/>
    <path d="M 192.10568237304688 94.65589904785156 C 169.59939575195312 94.57827758789062 203.29119873046875 90.1543960571289 164.43978881835938 105.1378173828125" fill="none" stroke="rgb(0, 0, 0)" stroke-linecap="round" stroke-linejoin="round" stroke-opacity="1.0" stroke-width="3.0"/>
    <path d="M 36.25886154174805 42.24140930175781 C 19.028837203979492 148.9120635986328 232.43008422851562 38.231136322021484 142.7691192626953 115.81116485595703" fill="none" stroke="rgb(0, 0, 0)" stroke-linecap="round" stroke-linejoin="round" stroke-opacity="1.0" stroke-width="3.0"/>
    <path d="M 89.19615173339844 70.14143371582031 C 126.66231536865234 117.59541320800781 102.54249572753906 79.19679260253906 125.8814468383789 93.85173034667969" fill="none" stroke="rgb(0, 0, 0)" stroke-linecap="round" stroke-linejoin="round" stroke-opacity="1.0" stroke-width="3.0"/>
    <path d="M 113.8373794555664 61.08790969848633 C 136.3028564453125 83.87215423583984 181.2142791748047 85.30357360839844 180.67807006835938 95.52228546142578" fill="none" stroke="rgb(0, 0, 0)" stroke-linecap="round" stroke-linejoin="round" stroke-opacity="1.0" stroke-width="3.0"/>
    <path d="M 147.1520538330078 56.20580291748047 C 74.3011245727539 12.511751174926758 46.56721496582031 120.23599243164062 152.23788452148438 80.01656341552734" fill="none" stroke="rgb(0, 0, 0)" stroke-linecap="round" stroke-linejoin="round" stroke-opacity="1.0" stroke-width="3.0"/>
    <path d="M 191.86349487304688 95.32250213623047 C 154.49374389648438 55.72638702392578 143.31700134277344 76.88604736328125 123.8504409790039 71.41265106201172" fill="none" stroke="rgb(0, 0, 0)" stroke-linecap="round" stroke-linejoin="round" stroke-opacity="1.0" stroke-width="3.0"/>
    <path d="M 129.1759796142578 92.48736572265625 C 133.9918670654297 201.36964416503906 150.7796630859375 14.005217552185059 105.74546813964844 206.59487915039062" fill="none" stroke="rgb(0, 0, 0)" stroke-linecap="round" stroke-linejoin="round" stroke-opacity="1.0" stroke-width="3.0"/>
  </g>
</svg>
