<?xml version="1.0" ?>
<svg height="224" version="1.1" width="224" xmlns="http://www.w3.org/2000/svg">
  <defs/>
  <g>
    <path d="M 139.92630004882812 55.26414108276367 C 170.29562377929688 61.918914794921875 150.01637268066406 72.16376495361328 125.33480834960938 63.951473236083984" fill="none" stroke="rgb(0, 0, 0)" stroke-linecap="round" stroke-linejoin="round" stroke-opacity="1.0" stroke-width="3.0"/>
    <path d="M 187.97300720214844 95.78789520263672 C 151.31031799316406 71.11367797851562 172.03231811523438 81.85244750976562 184.14979553222656 98.35848999023438" fill="none" stroke="rgb(0, 0, 0)" stroke-linecap="round" stroke-linejoin="round" stroke-opacity="1.0" stroke-width="3.0"/>
    <path d="M 67.79932403564453 46.24251174926758 C 24.996967315673828 150.99339294433594 123.86109924316406 63.48610305786133 125.43731689453125 130.71607971191406" fill="none" stroke="rgb(0, 0, 0)" stroke-linecap="round" stroke-linejoin="round" stroke-opacity="1.0" stroke-width="3.0"/>
    <path d="M 91.53563690185547 52.87701416015625 C 123.25606536865234 101.21981048583984 137.0879364013672 70.13190460205078 138.3946075439453 84.13239288330078" fill="none" stroke="rgb(0, 0, 0)" stroke-linecap="round" stroke-linejoin="round" stroke-opacity="1.0" stroke-width="3.0"/>
    <path d="M 136.16769409179688 67.53079223632812 C 150.59027099609375 88.64436340332031 151.7421417236328 72.54850769042969 183.31398010253906 99.05633544921875" fill="none" stroke="rgb(0, 0, 0)" stroke-linecap="round" stroke-linejoin="round" stroke-opacity="1.0" stroke-width="3.0"/>
    <path d="M 135.7064666748047 51.05132293701172 C 102.6629638671875 69.96102905273438 137.9347381591797 87.31360626220703 152.2034454345703 81.12177276611328" fill="none" stroke="rgb(0, 0, 0)" stroke-linecap="round" stroke-linejoin="round" stroke-opacity="1.0" stroke-width="3.0"/>
    <path d="M 180.14479064941406 89.14814758300781 C 154.01547241210938 64.51874542236328 172.66810607910156 70.75607299804688 130.69219970703125 59.88121795654297" fill="none" stroke="rgb(0, 0, 0)" stroke-linecap="round" stroke-linejoin="round" stroke-opacity="1.0" stroke-width="3.0"/>
    <path d="M 119.20178985595703 122.47659301757812 C 130.07501220703125 174.97340393066406 134.287353515625 55.08738708496094 105.84285736083984 204.7574005126953" fill="none" stroke="rgb(0, 0, 0)" stroke-linecap="round" stroke-linejoin="round" stroke-opacity="1.0" stroke-width="3.0"/>
  </g>
</svg>
