<?xml version="1.0" ?>
<svg height="224" version="1.1" width="224" xmlns="http://www.w3.org/2000/svg">
  <defs/>
  <g>
    <path d="M 136.59283447265625 52.806278228759766 C 162.5236358642578 63.768131256103516 148.37518310546875 64.79239654541016 128.64305114746094 61.160621643066406" fill="none" stroke="rgb(0, 0, 0)" stroke-linecap="round" stroke-linejoin="round" stroke-opacity="1.0" stroke-width="3.0"/>
    <path d="M 189.46153259277344 96.1119613647461 C 154.9352569580078 63.33915328979492 176.4677734375 74.88969421386719 185.69430541992188 96.80188751220703" fill="none" stroke="rgb(0, 0, 0)" stroke-linecap="round" stroke-linejoin="round" stroke-opacity="1.0" stroke-width="3.0"/>
    <path d="M 67.43433380126953 50.09392166137695 C 30.244041442871094 156.45925903320312 120.18976593017578 52.686866760253906 127.23188018798828 125.58863830566406" fill="none" stroke="rgb(0, 0, 0)" stroke-linecap="round" stroke-linejoin="round" stroke-opacity="1.0" stroke-width="3.0"/>
    <path d="M 99.0680160522461 48.445518493652344 C 128.8798065185547 83.76940155029297 131.02085876464844 63.63450241088867 138.95172119140625 81.94700622558594" fill="none" stroke="rgb(0, 0, 0)" stroke-linecap="round" stroke-linejoin="round" stroke-opacity="1.0" stroke-width="3.0"/>
    <path d="M 137.87307739257812 64.74405670166016 C 156.27255249023438 91.6753158569336 160.2166748046875 75.65543365478516 183.93165588378906 101.36932373046875" fill="none" stroke="rgb(0, 0, 0)" stroke-linecap="round" stroke-linejoin="round" stroke-opacity="1.0" stroke-width="3.0"/>
    <path d="M 132.99395751953125 51.7529411315918 C 88.87232208251953 59.27477264404297 132.75584411621094 81.92599487304688 157.01759338378906 82.54512023925781" fill="none" stroke="rgb(0, 0, 0)" stroke-linecap="round" stroke-linejoin="round" stroke-opacity="1.0" stroke-width="3.0"/>
    <path d="M 182.85948181152344 89.10415649414062 C 155.53147888183594 66.71795654296875 167.9122772216797 70.30374908447266 134.22018432617188 55.5302619934082" fill="none" stroke="rgb(0, 0, 0)" stroke-linecap="round" stroke-linejoin="round" stroke-opacity="1.0" stroke-width="3.0"/>
    <path d="M 120.33153533935547 117.91325378417969 C 136.0753631591797 182.7631072998047 136.20143127441406 52.88307571411133 111.0666732788086 206.54385375976562" fill="none" stroke="rgb(0, 0, 0)" stroke-linecap="round" stroke-linejoin="round" stroke-opacity="1.0" stroke-width="3.0"/>
  </g>
</svg>
