<?xml version="1.0" ?>
<svg height="224" version="1.1" width="224" xmlns="http://www.w3.org/2000/svg">
  <defs/>
  <g>
    <path d="M 137.90252685546875 49.597896575927734 C 166.3338165283203 66.24488067626953 150.00381469726562 74.1895980834961 122.32601165771484 48.14921188354492" fill="none" stroke="rgb(0, 0, 0)" stroke-linecap="round" stroke-linejoin="round" stroke-opacity="1.0" stroke-width="3.0"/>
    <path d="M 188.46011352539062 96.861083984375 C 148.40025329589844 74.32074737548828 177.39596557617188 85.40648651123047 184.94866943359375 99.42343139648438" fill="none" stroke="rgb(0, 0, 0)" stroke-linecap="round" stroke-linejoin="round" stroke-opacity="1.0" stroke-width="3.0"/>
    <path d="M 64.02489471435547 58.232540130615234 C 30.63028335571289 157.8770751953125 182.5484161376953 27.772418975830078 142.3294677734375 134.0315399169922" fill="none" stroke="rgb(0, 0, 0)" stroke-linecap="round" stroke-linejoin="round" stroke-opacity="1.0" stroke-width="3.0"/>
    <path d="M 101.9977798461914 58.84199142456055 C 118.51009368896484 97.73258972167969 91.36207580566406 65.65737915039062 138.16461181640625 86.78189849853516" fill="none" stroke="rgb(0, 0, 0)" stroke-linecap="round" stroke-linejoin="round" stroke-opacity="1.0" stroke-width="3.0"/>
    <path d="M 128.6990203857422 64.03950500488281 C 156.6381378173828 97.53363037109375 177.6359405517578 78.62004089355469 180.67291259765625 101.02143096923828" fill="none" stroke="rgb(0, 0, 0)" stroke-linecap="round" stroke-linejoin="round" stroke-opacity="1.0" stroke-width="3.0"/>
    <path d="M 134.57647705078125 50.6292610168457 C 57.942806243896484 24.20432472229004 102.06453704833984 97.9408950805664 164.57382202148438 83.19322967529297" fill="none" stroke="rgb(0, 0, 0)" stroke-linecap="round" stroke-linejoin="round" stroke-opacity="1.0" stroke-width="3.0"/>
    <path d="M 190.5803680419922 94.46624755859375 C 158.52740478515625 57.64617919921875 158.3050537109375 76.22075653076172 140.4431915283203 53.195011138916016" fill="none" stroke="rgb(0, 0, 0)" stroke-linecap="round" stroke-linejoin="round" stroke-opacity="1.0" stroke-width="3.0"/>
    <path d="M 120.30989837646484 91.76251220703125 C 130.82974243164062 204.85658264160156 142.6145782470703 35.238956451416016 108.20227813720703 204.78018188476562" fill="none" stroke="rgb(0, 0, 0)" stroke-linecap="round" stroke-linejoin="round" stroke-opacity="1.0" stroke-width="3.0"/>
  </g>
</svg>
