<?xml version="1.0" ?>
<svg height="224" version="1.1" width="224" xmlns="http://www.w3.org/2000/svg">
  <defs/>
  <g>
    <path d="M 132.05955505371094 54.26008987426758 C 174.62144470214844 77.28916931152344 162.38644409179688 83.09677124023438 111.51014709472656 50.99566650390625" fill="none" stroke="rgb(0, 0, 0)" stroke-linecap="round" stroke-linejoin="round" stroke-opacity="1.0" stroke-width="3.0"/>
    <path d="M 189.22535705566406 97.03886413574219 C 164.09503173828125 85.51258850097656 192.51565551757812 90.84539031982422 177.3031768798828 104.40498352050781" fill="none" stroke="rgb(0, 0, 0)" stroke-linecap="round" stroke-linejoin="round" stroke-opacity="1.0" stroke-width="3.0"/>
    <path d="M 62.3173713684082 53.95623779296875 C 25.37610626220703 152.57424926757812 198.42913818359375 28.037094116210938 139.63063049316406 128.91494750976562" fill="none" stroke="rgb(0, 0, 0)" stroke-linecap="round" stroke-linejoin="round" stroke-opacity="1.0" stroke-width="3.0"/>
    <path d="M 87.59015655517578 68.33342742919922 C 80.54534912109375 111.09648895263672 67.74751281738281 67.75130462646484 128.485107421875 85.93547058105469" fill="none" stroke="rgb(0, 0, 0)" stroke-linecap="round" stroke-linejoin="round" stroke-opacity="1.0" stroke-width="3.0"/>
    <path d="M 112.2387466430664 68.87345886230469 C 154.2113037109375 96.35459899902344 172.1095428466797 84.34413146972656 184.83734130859375 98.03990936279297" fill="none" stroke="rgb(0, 0, 0)" stroke-linecap="round" stroke-linejoin="round" stroke-opacity="1.0" stroke-width="3.0"/>
    <path d="M 142.62664794921875 54.92975997924805 C 51.69367599487305 30.386537551879883 67.62884521484375 117.60320281982422 161.39984130859375 73.08894348144531" fill="none" stroke="rgb(0, 0, 0)" stroke-linecap="round" stroke-linejoin="round" stroke-opacity="1.0" stroke-width="3.0"/>
    <path d="M 191.4263153076172 95.95602416992188 C 164.99188232421875 66.76902770996094 144.9855499267578 66.29981994628906 121.94940185546875 61.59176254272461" fill="none" stroke="rgb(0, 0, 0)" stroke-linecap="round" stroke-linejoin="round" stroke-opacity="1.0" stroke-width="3.0"/>
    <path d="M 116.37644958496094 90.55772399902344 C 133.33340454101562 212.21217346191406 133.83822631835938 33.75900650024414 105.89763641357422 202.59622192382812" fill="none" stroke="rgb(0, 0, 0)" stroke-linecap="round" stroke-linejoin="round" stroke-opacity="1.0" stroke-width="3.0"/>
  </g>
</svg>
