<?xml version="1.0" ?>
<svg height="224" version="1.1" width="224" xmlns="http://www.w3.org/2000/svg">
  <defs/>
  <g>
    <path d="M 135.34722900390625 51.850242614746094 C 158.72691345214844 64.84342956542969 145.1058807373047 66.02667999267578 134.7722625732422 57.33034133911133" fill="none" stroke="rgb(0, 0, 0)" stroke-linecap="round" stroke-linejoin="round" stroke-opacity="1.0" stroke-width="3.0"/>
    <path d="M 189.4558563232422 96.72659301757812 C 153.60202026367188 65.830078125 175.51345825195312 77.50191497802734 185.2788848876953 96.197509765625" fill="none" stroke="rgb(0, 0, 0)" stroke-linecap="round" stroke-linejoin="round" stroke-opacity="1.0" stroke-width="3.0"/>
    <path d="M 71.41814422607422 51.96689224243164 C 33.18310546875 155.74501037597656 125.39270782470703 49.97515869140625 128.15635681152344 126.57523345947266" fill="none" stroke="rgb(0, 0, 0)" stroke-linecap="round" stroke-linejoin="round" stroke-opacity="1.0" stroke-width="3.0"/>
    <path d="M 102.15373992919922 47.31531524658203 C 125.45194244384766 83.0415267944336 128.4127655029297 59.49399185180664 139.8367156982422 80.26554107666016" fill="none" stroke="rgb(0, 0, 0)" stroke-linecap="round" stroke-linejoin="round" stroke-opacity="1.0" stroke-width="3.0"/>
    <path d="M 140.275146484375 61.342674255371094 C 154.5380859375 93.01945495605469 164.68988037109375 75.32423400878906 183.43426513671875 100.57097625732422" fill="none" stroke="rgb(0, 0, 0)" stroke-linecap="round" stroke-linejoin="round" stroke-opacity="1.0" stroke-width="3.0"/>
    <path d="M 133.53050231933594 48.49530029296875 C 86.22700500488281 50.002655029296875 132.44039916992188 80.94815063476562 158.5501251220703 82.40149688720703" fill="none" stroke="rgb(0, 0, 0)" stroke-linecap="round" stroke-linejoin="round" stroke-opacity="1.0" stroke-width="3.0"/>
    <path d="M 180.76171875 90.27104187011719 C 154.5048065185547 69.51170349121094 163.7437286376953 73.9798583984375 137.52256774902344 56.0904426574707" fill="none" stroke="rgb(0, 0, 0)" stroke-linecap="round" stroke-linejoin="round" stroke-opacity="1.0" stroke-width="3.0"/>
    <path d="M 119.09486389160156 117.57344818115234 C 126.9227066040039 184.4601287841797 130.09912109375 52.78956985473633 105.5221939086914 206.823974609375" fill="none" stroke="rgb(0, 0, 0)" stroke-linecap="round" stroke-linejoin="round" stroke-opacity="1.0" stroke-width="3.0"/>
  </g>
</svg>
