<?xml version="1.0" ?>
<svg height="224" version="1.1" width="224" xmlns="http://www.w3.org/2000/svg">
  <defs/>
  <g>
    <path d="M 137.7435302734375 56.157161712646484 C 170.7025604248047 79.98332214355469 168.0002899169922 77.93191528320312 114.23571014404297 48.796234130859375" fill="none" stroke="rgb(0, 0, 0)" stroke-linecap="round" stroke-linejoin="round" stroke-opacity="1.0" stroke-width="3.0"/>
    <path d="M 190.96347045898438 96.23430633544922 C 170.13124084472656 92.31437683105469 202.35494995117188 90.8474349975586 161.924560546875 111.33810424804688" fill="none" stroke="rgb(0, 0, 0)" stroke-linecap="round" stroke-linejoin="round" stroke-opacity="1.0" stroke-width="3.0"/>
    <path d="M 36.554752349853516 42.66207504272461 C 34.646366119384766 166.21194458007812 214.51065063476562 39.04235076904297 140.5355224609375 120.42816162109375" fill="none" stroke="rgb(0, 0, 0)" stroke-linecap="round" stroke-linejoin="round" stroke-opacity="1.0" stroke-width="3.0"/>
    <path d="M 87.580322265625 71.48432159423828 C 135.29306030273438 129.37086486816406 91.1540756225586 80.04129028320312 121.48026275634766 100.56564331054688" fill="none" stroke="rgb(0, 0, 0)" stroke-linecap="round" stroke-linejoin="round" stroke-opacity="1.0" stroke-width="3.0"/>
    <path d="M 120.96305847167969 66.59727478027344 C 146.63330078125 92.75506591796875 185.3011016845703 81.5252685546875 179.80078125 98.8426284790039" fill="none" stroke="rgb(0, 0, 0)" stroke-linecap="round" stroke-linejoin="round" stroke-opacity="1.0" stroke-width="3.0"/>
    <path d="M 144.51893615722656 57.423118591308594 C 61.442626953125 16.655550003051758 57.81528854370117 122.53729248046875 147.19578552246094 78.5551986694336" fill="none" stroke="rgb(0, 0, 0)" stroke-linecap="round" stroke-linejoin="round" stroke-opacity="1.0" stroke-width="3.0"/>
    <path d="M 191.27650451660156 94.50910949707031 C 163.66885375976562 64.47156524658203 133.68917846679688 73.41976928710938 126.55908203125 69.96287536621094" fill="none" stroke="rgb(0, 0, 0)" stroke-linecap="round" stroke-linejoin="round" stroke-opacity="1.0" stroke-width="3.0"/>
    <path d="M 127.277099609375 97.98340606689453 C 131.69815063476562 194.71998596191406 146.8488006591797 38.23516845703125 103.48651123046875 205.1280517578125" fill="none" stroke="rgb(0, 0, 0)" stroke-linecap="round" stroke-linejoin="round" stroke-opacity="1.0" stroke-width="3.0"/>
  </g>
</svg>
