<?xml version="1.0" ?>
<svg height="224" version="1.1" width="224" xmlns="http://www.w3.org/2000/svg">
  <defs/>
  <g>
    <path d="M 138.31307983398438 55.97769546508789 C 172.08416748046875 82.92112731933594 173.44119262695312 75.73994445800781 110.79847717285156 51.01220703125" fill="none" stroke="rgb(0, 0, 0)" stroke-linecap="round" stroke-linejoin="round" stroke-opacity="1.0" stroke-width="3.0"/>
    <path d="M 186.1844482421875 99.1755142211914 C 167.66598510742188 101.11812591552734 200.1127166748047 88.04415893554688 164.73788452148438 106.87017059326172" fill="none" stroke="rgb(0, 0, 0)" stroke-linecap="round" stroke-linejoin="round" stroke-opacity="1.0" stroke-width="3.0"/>
    <path d="M 40.23457336425781 41.53792190551758 C 18.802759170532227 154.88072204589844 233.5596923828125 39.78154754638672 139.20530700683594 121.07102966308594" fill="none" stroke="rgb(0, 0, 0)" stroke-linecap="round" stroke-linejoin="round" stroke-opacity="1.0" stroke-width="3.0"/>
    <path d="M 93.94813537597656 71.52643585205078 C 138.08489990234375 125.9464340209961 112.29119873046875 83.97272491455078 126.63494873046875 95.83197784423828" fill="none" stroke="rgb(0, 0, 0)" stroke-linecap="round" stroke-linejoin="round" stroke-opacity="1.0" stroke-width="3.0"/>
    <path d="M 114.71564483642578 61.083953857421875 C 139.5196533203125 84.97198486328125 180.41722106933594 87.6489028930664 188.417724609375 98.468505859375" fill="none" stroke="rgb(0, 0, 0)" stroke-linecap="round" stroke-linejoin="round" stroke-opacity="1.0" stroke-width="3.0"/>
    <path d="M 145.0570831298828 56.85336685180664 C 72.3202133178711 16.453840255737305 50.04621887207031 126.39195251464844 150.60707092285156 80.06367492675781" fill="none" stroke="rgb(0, 0, 0)" stroke-linecap="round" stroke-linejoin="round" stroke-opacity="1.0" stroke-width="3.0"/>
    <path d="M 191.4842529296875 94.12596893310547 C 157.3225860595703 54.3636474609375 139.29873657226562 74.454833984375 125.66253662109375 70.57907104492188" fill="none" stroke="rgb(0, 0, 0)" stroke-linecap="round" stroke-linejoin="round" stroke-opacity="1.0" stroke-width="3.0"/>
    <path d="M 129.1281280517578 93.47704315185547 C 128.1441192626953 202.47695922851562 151.00567626953125 28.000289916992188 106.31968688964844 204.30191040039062" fill="none" stroke="rgb(0, 0, 0)" stroke-linecap="round" stroke-linejoin="round" stroke-opacity="1.0" stroke-width="3.0"/>
  </g>
</svg>
