<?xml version="1.0" ?>
<svg height="224" version="1.1" width="224" xmlns="http://www.w3.org/2000/svg">
  <defs/>
  <g>
    <path d="M 131.2685546875 53.68486404418945 C 172.91958618164062 72.72682189941406 157.83566284179688 81.74401092529297 110.9805679321289 51.81171798706055" fill="none" stroke="rgb(0, 0, 0)" stroke-linecap="round" stroke-linejoin="round" stroke-opacity="1.0" stroke-width="3.0"/>
    <path d="M 188.77572631835938 94.10356140136719 C 160.93052673339844 86.3661117553711 192.0872344970703 94.35868835449219 179.78416442871094 103.96793365478516" fill="none" stroke="rgb(0, 0, 0)" stroke-linecap="round" stroke-linejoin="round" stroke-opacity="1.0" stroke-width="3.0"/>
    <path d="M 61.897064208984375 55.05556869506836 C 26.004711151123047 154.47227478027344 197.57232666015625 30.91147232055664 136.54205322265625 127.79109191894531" fill="none" stroke="rgb(0, 0, 0)" stroke-linecap="round" stroke-linejoin="round" stroke-opacity="1.0" stroke-width="3.0"/>
    <path d="M 89.81353759765625 67.7824935913086 C 80.74628448486328 111.0582504272461 63.40895080566406 70.37751007080078 128.73898315429688 85.01166534423828" fill="none" stroke="rgb(0, 0, 0)" stroke-linecap="round" stroke-linejoin="round" stroke-opacity="1.0" stroke-width="3.0"/>
    <path d="M 110.39287567138672 64.20278930664062 C 154.5853271484375 94.45616912841797 174.5853271484375 79.26378631591797 186.68618774414062 97.45414733886719" fill="none" stroke="rgb(0, 0, 0)" stroke-linecap="round" stroke-linejoin="round" stroke-opacity="1.0" stroke-width="3.0"/>
    <path d="M 139.59584045410156 54.915924072265625 C 56.81895065307617 32.974605560302734 71.06144714355469 116.98660278320312 159.95326232910156 73.78199005126953" fill="none" stroke="rgb(0, 0, 0)" stroke-linecap="round" stroke-linejoin="round" stroke-opacity="1.0" stroke-width="3.0"/>
    <path d="M 190.91883850097656 93.21221160888672 C 165.4084014892578 65.05018615722656 146.0579833984375 64.91521453857422 120.8080825805664 61.64201736450195" fill="none" stroke="rgb(0, 0, 0)" stroke-linecap="round" stroke-linejoin="round" stroke-opacity="1.0" stroke-width="3.0"/>
    <path d="M 116.01608276367188 86.1692123413086 C 131.20199584960938 206.83026123046875 134.10906982421875 27.792926788330078 108.46253967285156 202.73605346679688" fill="none" stroke="rgb(0, 0, 0)" stroke-linecap="round" stroke-linejoin="round" stroke-opacity="1.0" stroke-width="3.0"/>
  </g>
</svg>
