<?xml version="1.0" ?>
<svg height="224" version="1.1" width="224" xmlns="http://www.w3.org/2000/svg">
  <defs/>
  <g>
    <path d="M 139.7077178955078 57.143489837646484 C 169.37823486328125 80.34603118896484 166.32485961914062 78.62748718261719 114.53404998779297 47.075843811035156" fill="none" stroke="rgb(0, 0, 0)" stroke-linecap="round" stroke-linejoin="round" stroke-opacity="1.0" stroke-width="3.0"/>
    <path d="M 190.13743591308594 98.2339096069336 C 170.6824493408203 91.92882537841797 201.8610382080078 89.11221313476562 156.13551330566406 107.91497802734375" fill="none" stroke="rgb(0, 0, 0)" stroke-linecap="round" stroke-linejoin="round" stroke-opacity="1.0" stroke-width="3.0"/>
    <path d="M 39.17975997924805 39.609779357910156 C 34.39131546020508 162.28018188476562 214.32254028320312 36.4733772277832 140.8098907470703 123.87230682373047" fill="none" stroke="rgb(0, 0, 0)" stroke-linecap="round" stroke-linejoin="round" stroke-opacity="1.0" stroke-width="3.0"/>
    <path d="M 87.12887573242188 70.75943756103516 C 138.255859375 127.3183364868164 93.98776245117188 80.16121673583984 127.5431137084961 99.0321044921875" fill="none" stroke="rgb(0, 0, 0)" stroke-linecap="round" stroke-linejoin="round" stroke-opacity="1.0" stroke-width="3.0"/>
    <path d="M 118.00811004638672 63.73126220703125 C 144.83071899414062 93.84195709228516 185.33261108398438 83.36116790771484 179.61553955078125 97.98612213134766" fill="none" stroke="rgb(0, 0, 0)" stroke-linecap="round" stroke-linejoin="round" stroke-opacity="1.0" stroke-width="3.0"/>
    <path d="M 144.36383056640625 57.09748840332031 C 61.25349426269531 16.199642181396484 57.30878829956055 122.65643310546875 147.7493438720703 81.0279312133789" fill="none" stroke="rgb(0, 0, 0)" stroke-linecap="round" stroke-linejoin="round" stroke-opacity="1.0" stroke-width="3.0"/>
    <path d="M 191.24588012695312 94.26578521728516 C 164.26730346679688 62.955570220947266 135.47328186035156 77.0854721069336 128.9934539794922 70.66767120361328" fill="none" stroke="rgb(0, 0, 0)" stroke-linecap="round" stroke-linejoin="round" stroke-opacity="1.0" stroke-width="3.0"/>
    <path d="M 127.47274017333984 96.22038269042969 C 131.73776245117188 192.382568359375 150.27700805664062 34.9503288269043 102.96027374267578 204.50949096679688" fill="none" stroke="rgb(0, 0, 0)" stroke-linecap="round" stroke-linejoin="round" stroke-opacity="1.0" stroke-width="3.0"/>
  </g>
</svg>
