<?xml version="1.0" ?>
<svg height="224" version="1.1" width="224" xmlns="http://www.w3.org/2000/svg">
  <defs/>
  <g>
    <path d="M 128.89547729492188 53.73799514770508 C 174.68994140625 71.16706848144531 155.9285888671875 81.81624603271484 113.67327117919922 50.27321243286133" fill="none" stroke="rgb(0, 0, 0)" stroke-linecap="round" stroke-linejoin="round" stroke-opacity="1.0" stroke-width="3.0"/>
    <path d="M 190.42356872558594 95.58424377441406 C 161.47537231445312 82.85932159423828 192.09213256835938 95.29315185546875 176.0835723876953 100.68656921386719" fill="none" stroke="rgb(0, 0, 0)" stroke-linecap="round" stroke-linejoin="round" stroke-opacity="1.0" stroke-width="3.0"/>
    <path d="M 53.684898376464844 51.18864059448242 C 26.166290283203125 147.71327209472656 199.93270874023438 26.239778518676758 135.67124938964844 117.35643005371094" fill="none" stroke="rgb(0, 0, 0)" stroke-linecap="round" stroke-linejoin="round" stroke-opacity="1.0" stroke-width="3.0"/>
    <path d="M 89.71182250976562 67.2774887084961 C 86.4711685180664 106.53506469726562 54.71146011352539 66.82264709472656 124.62688446044922 80.67558288574219" fill="none" stroke="rgb(0, 0, 0)" stroke-linecap="round" stroke-linejoin="round" stroke-opacity="1.0" stroke-width="3.0"/>
    <path d="M 105.81594848632812 66.22953033447266 C 155.12762451171875 94.1101303100586 173.700927734375 77.08551788330078 176.25633239746094 99.47827911376953" fill="none" stroke="rgb(0, 0, 0)" stroke-linecap="round" stroke-linejoin="round" stroke-opacity="1.0" stroke-width="3.0"/>
    <path d="M 140.7071075439453 55.46087646484375 C 59.0330924987793 32.06947326660156 73.75865173339844 111.24842834472656 158.1531982421875 70.75933837890625" fill="none" stroke="rgb(0, 0, 0)" stroke-linecap="round" stroke-linejoin="round" stroke-opacity="1.0" stroke-width="3.0"/>
    <path d="M 188.9593505859375 93.81694030761719 C 161.5551300048828 66.79206848144531 147.06759643554688 63.19075393676758 121.09073638916016 60.76920700073242" fill="none" stroke="rgb(0, 0, 0)" stroke-linecap="round" stroke-linejoin="round" stroke-opacity="1.0" stroke-width="3.0"/>
    <path d="M 114.81727600097656 87.44123077392578 C 130.04075622558594 203.3370819091797 137.57174682617188 27.84246063232422 107.08871459960938 203.7653045654297" fill="none" stroke="rgb(0, 0, 0)" stroke-linecap="round" stroke-linejoin="round" stroke-opacity="1.0" stroke-width="3.0"/>
  </g>
</svg>
