<?xml version="1.0" ?>
<svg height="224" version="1.1" width="224" xmlns="http://www.w3.org/2000/svg">
  <defs/>
  <g>
    <path d="M 130.46726989746094 51.341243743896484 C 165.68313598632812 67.7957992553711 151.63499450683594 72.0080337524414 114.92695617675781 52.357242584228516" fill="none" stroke="rgb(0, 0, 0)" stroke-linecap="round" stroke-linejoin="round" stroke-opacity="1.0" stroke-width="3.0"/>
    <path d="M 189.12518310546875 93.71650695800781 C 158.73748779296875 87.06073760986328 191.33642578125 90.8731918334961 178.1557159423828 100.37199401855469" fill="none" stroke="rgb(0, 0, 0)" stroke-linecap="round" stroke-linejoin="round" stroke-opacity="1.0" stroke-width="3.0"/>
    <path d="M 54.25150680541992 51.058006286621094 C 25.92804527282715 147.1570281982422 195.88323974609375 23.718900680541992 139.6116485595703 123.03761291503906" fill="none" stroke="rgb(0, 0, 0)" stroke-linecap="round" stroke-linejoin="round" stroke-opacity="1.0" stroke-width="3.0"/>
    <path d="M 85.88187408447266 64.57112884521484 C 105.50211334228516 95.45404052734375 73.51721954345703 66.10420989990234 129.07278442382812 74.9648208618164" fill="none" stroke="rgb(0, 0, 0)" stroke-linecap="round" stroke-linejoin="round" stroke-opacity="1.0" stroke-width="3.0"/>
    <path d="M 119.4366683959961 63.307987213134766 C 156.01515197753906 90.0577163696289 164.8408966064453 74.42291259765625 180.51791381835938 98.6867446899414" fill="none" stroke="rgb(0, 0, 0)" stroke-linecap="round" stroke-linejoin="round" stroke-opacity="1.0" stroke-width="3.0"/>
    <path d="M 135.6509246826172 50.32527160644531 C 58.68498611450195 29.179597854614258 79.6388931274414 104.5721435546875 156.82589721679688 69.82962036132812" fill="none" stroke="rgb(0, 0, 0)" stroke-linecap="round" stroke-linejoin="round" stroke-opacity="1.0" stroke-width="3.0"/>
    <path d="M 191.79087829589844 94.13868713378906 C 156.9685821533203 64.8091812133789 154.84051513671875 63.43144989013672 121.44524383544922 58.01199722290039" fill="none" stroke="rgb(0, 0, 0)" stroke-linecap="round" stroke-linejoin="round" stroke-opacity="1.0" stroke-width="3.0"/>
    <path d="M 119.4188461303711 86.0638656616211 C 128.49365234375 212.5640869140625 140.21897888183594 23.18783950805664 106.8933334350586 205.4688720703125" fill="none" stroke="rgb(0, 0, 0)" stroke-linecap="round" stroke-linejoin="round" stroke-opacity="1.0" stroke-width="3.0"/>
  </g>
</svg>
