<?xml version="1.0" ?>
<svg height="224" version="1.1" width="224" xmlns="http://www.w3.org/2000/svg">
  <defs/>
  <g>
    <path d="M 135.9380645751953 49.35131072998047 C 172.7080841064453 83.3525619506836 168.07546997070312 82.6399917602539 116.39481353759766 48.100807189941406" fill="none" stroke="rgb(0, 0, 0)" stroke-linecap="round" stroke-linejoin="round" stroke-opacity="1.0" stroke-width="3.0"/>
    <path d="M 188.59144592285156 98.18822479248047 C 165.1239471435547 86.67467498779297 194.30487060546875 93.66805267333984 170.5565185546875 104.92304229736328" fill="none" stroke="rgb(0, 0, 0)" stroke-linecap="round" stroke-linejoin="round" stroke-opacity="1.0" stroke-width="3.0"/>
    <path d="M 58.518863677978516 48.65036392211914 C 24.418441772460938 150.9855194091797 195.6475372314453 29.357074737548828 137.18170166015625 125.28668975830078" fill="none" stroke="rgb(0, 0, 0)" stroke-linecap="round" stroke-linejoin="round" stroke-opacity="1.0" stroke-width="3.0"/>
    <path d="M 94.26229095458984 71.30682373046875 C 91.39353942871094 119.95785522460938 76.19915008544922 73.8729476928711 128.5581512451172 88.544921875" fill="none" stroke="rgb(0, 0, 0)" stroke-linecap="round" stroke-linejoin="round" stroke-opacity="1.0" stroke-width="3.0"/>
    <path d="M 119.90798950195312 63.857486724853516 C 159.462890625 88.08795928955078 169.09454345703125 82.9538803100586 186.22586059570312 95.09933471679688" fill="none" stroke="rgb(0, 0, 0)" stroke-linecap="round" stroke-linejoin="round" stroke-opacity="1.0" stroke-width="3.0"/>
    <path d="M 146.49374389648438 55.166629791259766 C 54.042137145996094 17.008638381958008 72.22443389892578 117.2708511352539 156.9619903564453 81.12969970703125" fill="none" stroke="rgb(0, 0, 0)" stroke-linecap="round" stroke-linejoin="round" stroke-opacity="1.0" stroke-width="3.0"/>
    <path d="M 190.87347412109375 95.20977020263672 C 165.51318359375 66.92704010009766 145.0128173828125 60.83192825317383 122.43816375732422 57.95425033569336" fill="none" stroke="rgb(0, 0, 0)" stroke-linecap="round" stroke-linejoin="round" stroke-opacity="1.0" stroke-width="3.0"/>
    <path d="M 123.52312469482422 94.70478057861328 C 131.826171875 198.57083129882812 144.5455322265625 32.71211242675781 105.42159271240234 203.8454132080078" fill="none" stroke="rgb(0, 0, 0)" stroke-linecap="round" stroke-linejoin="round" stroke-opacity="1.0" stroke-width="3.0"/>
  </g>
</svg>
