<?xml version="1.0" ?>
<svg height="224" version="1.1" width="224" xmlns="http://www.w3.org/2000/svg">
  <defs/>
  <g>
    <path d="M 135.248291015625 49.4342041015625 C 169.95408630371094 79.8172378540039 169.8854217529297 76.5829849243164 112.99930572509766 48.518680572509766" fill="none" stroke="rgb(0, 0, 0)" stroke-linecap="round" stroke-linejoin="round" stroke-opacity="1.0" stroke-width="3.0"/>
    <path d="M 191.7020263671875 97.048828125 C 168.34622192382812 87.18707275390625 197.3837890625 93.65013885498047 169.54574584960938 107.04292297363281" fill="none" stroke="rgb(0, 0, 0)" stroke-linecap="round" stroke-linejoin="round" stroke-opacity="1.0" stroke-width="3.0"/>
    <path d="M 49.36000061035156 53.14921569824219 C 21.850751876831055 157.54678344726562 195.41390991210938 30.509593963623047 135.1384735107422 125.12776947021484" fill="none" stroke="rgb(0, 0, 0)" stroke-linecap="round" stroke-linejoin="round" stroke-opacity="1.0" stroke-width="3.0"/>
    <path d="M 84.18074035644531 70.373046875 C 99.7199935913086 115.80390167236328 75.57815551757812 66.50955963134766 117.22657012939453 96.46233367919922" fill="none" stroke="rgb(0, 0, 0)" stroke-linecap="round" stroke-linejoin="round" stroke-opacity="1.0" stroke-width="3.0"/>
    <path d="M 120.56861877441406 70.66619110107422 C 155.7332000732422 92.46328735351562 169.45091247558594 81.52044677734375 180.9464569091797 96.30158233642578" fill="none" stroke="rgb(0, 0, 0)" stroke-linecap="round" stroke-linejoin="round" stroke-opacity="1.0" stroke-width="3.0"/>
    <path d="M 142.9414825439453 53.47951126098633 C 55.56223678588867 23.206907272338867 66.57035064697266 126.24011993408203 158.92733764648438 84.88412475585938" fill="none" stroke="rgb(0, 0, 0)" stroke-linecap="round" stroke-linejoin="round" stroke-opacity="1.0" stroke-width="3.0"/>
    <path d="M 190.95111083984375 95.21978759765625 C 166.1901092529297 68.87519073486328 141.86537170410156 64.64546203613281 124.2243423461914 59.32688903808594" fill="none" stroke="rgb(0, 0, 0)" stroke-linecap="round" stroke-linejoin="round" stroke-opacity="1.0" stroke-width="3.0"/>
    <path d="M 119.92495727539062 97.47710418701172 C 129.50865173339844 199.5128936767578 142.6302032470703 29.89813995361328 106.37645721435547 206.49949645996094" fill="none" stroke="rgb(0, 0, 0)" stroke-linecap="round" stroke-linejoin="round" stroke-opacity="1.0" stroke-width="3.0"/>
  </g>
</svg>
