<?xml version="1.0" ?>
<svg height="224" version="1.1" width="224" xmlns="http://www.w3.org/2000/svg">
  <defs/>
  <g>
    <path d="M 139.56809997558594 55.25492858886719 C 185.8935089111328 90.86627960205078 178.53672790527344 78.02159881591797 123.60175323486328 56.75044631958008" fill="none" stroke="rgb(0, 0, 0)" stroke-linecap="round" stroke-linejoin="round" stroke-opacity="1.0" stroke-width="3.0"/>
    <path d="M 186.87078857421875 101.76762390136719 C 161.30751037597656 91.74673461914062 197.86936950683594 90.17135620117188 165.4357147216797 103.73604583740234" fill="none" stroke="rgb(0, 0, 0)" stroke-linecap="round" stroke-linejoin="round" stroke-opacity="1.0" stroke-width="3.0"/>
    <path d="M 42.29035568237305 36.5406494140625 C -5.708563804626465 139.75906372070312 291.5974426269531 50.651763916015625 129.68917846679688 121.05152130126953" fill="none" stroke="rgb(0, 0, 0)" stroke-linecap="round" stroke-linejoin="round" stroke-opacity="1.0" stroke-width="3.0"/>
    <path d="M 79.86073303222656 79.70857238769531 C 101.13591003417969 118.59307098388672 100.33759307861328 77.65660858154297 111.7322769165039 112.0164566040039" fill="none" stroke="rgb(0, 0, 0)" stroke-linecap="round" stroke-linejoin="round" stroke-opacity="1.0" stroke-width="3.0"/>
    <path d="M 123.8123550415039 70.40087890625 C 136.0718231201172 76.9715805053711 179.65374755859375 84.2944564819336 179.82501220703125 86.71785736083984" fill="none" stroke="rgb(0, 0, 0)" stroke-linecap="round" stroke-linejoin="round" stroke-opacity="1.0" stroke-width="3.0"/>
    <path d="M 147.1482696533203 56.45582962036133 C 66.93888854980469 17.10881996154785 25.94948387145996 135.93629455566406 151.45152282714844 80.34760284423828" fill="none" stroke="rgb(0, 0, 0)" stroke-linecap="round" stroke-linejoin="round" stroke-opacity="1.0" stroke-width="3.0"/>
    <path d="M 192.66256713867188 98.03605651855469 C 152.60440063476562 40.40325927734375 117.0415267944336 87.5595932006836 99.0591049194336 80.10977172851562" fill="none" stroke="rgb(0, 0, 0)" stroke-linecap="round" stroke-linejoin="round" stroke-opacity="1.0" stroke-width="3.0"/>
    <path d="M 117.42020416259766 93.21263122558594 C 129.27639770507812 223.6630096435547 144.65115356445312 25.99130630493164 106.0255126953125 207.1697998046875" fill="none" stroke="rgb(0, 0, 0)" stroke-linecap="round" stroke-linejoin="round" stroke-opacity="1.0" stroke-width="3.0"/>
  </g>
</svg>
