<?xml version="1.0" ?>
<svg height="224" version="1.1" width="224" xmlns="http://www.w3.org/2000/svg">
  <defs/>
  <g>
    <path d="M 138.14175415039062 55.752532958984375 C 173.27223205566406 78.10971069335938 169.30831909179688 77.62379455566406 116.1270523071289 52.774993896484375" fill="none" stroke="rgb(0, 0, 0)" stroke-linecap="round" stroke-linejoin="round" stroke-opacity="1.0" stroke-width="3.0"/>
    <path d="M 189.45179748535156 99.05118560791016 C 170.4007110595703 98.52131652832031 200.31166076660156 88.3445816040039 160.80596923828125 109.12133026123047" fill="none" stroke="rgb(0, 0, 0)" stroke-linecap="round" stroke-linejoin="round" stroke-opacity="1.0" stroke-width="3.0"/>
    <path d="M 38.00313186645508 43.36928939819336 C 30.11935806274414 167.5208282470703 208.11814880371094 38.61619186401367 145.53102111816406 123.67523956298828" fill="none" stroke="rgb(0, 0, 0)" stroke-linecap="round" stroke-linejoin="round" stroke-opacity="1.0" stroke-width="3.0"/>
    <path d="M 93.0370101928711 70.01756286621094 C 120.01276397705078 131.66270446777344 81.10743713378906 75.46391296386719 122.01295471191406 103.97755432128906" fill="none" stroke="rgb(0, 0, 0)" stroke-linecap="round" stroke-linejoin="round" stroke-opacity="1.0" stroke-width="3.0"/>
    <path d="M 124.6512680053711 64.04293823242188 C 146.89764404296875 94.49880981445312 183.0970458984375 84.74761199951172 178.15139770507812 97.23566436767578" fill="none" stroke="rgb(0, 0, 0)" stroke-linecap="round" stroke-linejoin="round" stroke-opacity="1.0" stroke-width="3.0"/>
    <path d="M 150.15786743164062 59.904781341552734 C 56.86857223510742 16.64286994934082 56.877689361572266 120.81729125976562 141.6832733154297 80.67333984375" fill="none" stroke="rgb(0, 0, 0)" stroke-linecap="round" stroke-linejoin="round" stroke-opacity="1.0" stroke-width="3.0"/>
    <path d="M 191.20535278320312 95.47747802734375 C 167.89035034179688 65.67703247070312 133.16888427734375 75.34278869628906 127.00443267822266 69.59711456298828" fill="none" stroke="rgb(0, 0, 0)" stroke-linecap="round" stroke-linejoin="round" stroke-opacity="1.0" stroke-width="3.0"/>
    <path d="M 127.67195892333984 95.13574981689453 C 132.20724487304688 194.33937072753906 148.53765869140625 36.515193939208984 105.15926361083984 205.449462890625" fill="none" stroke="rgb(0, 0, 0)" stroke-linecap="round" stroke-linejoin="round" stroke-opacity="1.0" stroke-width="3.0"/>
  </g>
</svg>
