<?xml version="1.0" ?>
<svg height="224" version="1.1" width="224" xmlns="http://www.w3.org/2000/svg">
  <defs/>
  <g>
    <path d="M 138.3208465576172 55.698280334472656 C 178.12652587890625 86.10487365722656 167.32632446289062 83.14486694335938 125.20288848876953 47.44392013549805" fill="none" stroke="rgb(0, 0, 0)" stroke-linecap="round" stroke-linejoin="round" stroke-opacity="1.0" stroke-width="3.0"/>
    <path d="M 191.4898681640625 97.73440551757812 C 167.4861602783203 91.4146957397461 198.54603576660156 87.81546020507812 164.141357421875 105.37865447998047" fill="none" stroke="rgb(0, 0, 0)" stroke-linecap="round" stroke-linejoin="round" stroke-opacity="1.0" stroke-width="3.0"/>
    <path d="M 46.24468994140625 39.287147521972656 C 7.14528751373291 138.677490234375 262.95037841796875 43.939735412597656 140.9972381591797 123.75244140625" fill="none" stroke="rgb(0, 0, 0)" stroke-linecap="round" stroke-linejoin="round" stroke-opacity="1.0" stroke-width="3.0"/>
    <path d="M 90.52368927001953 75.09855651855469 C 111.10163116455078 110.10951232910156 108.17860412597656 78.34869384765625 124.3421859741211 100.20758056640625" fill="none" stroke="rgb(0, 0, 0)" stroke-linecap="round" stroke-linejoin="round" stroke-opacity="1.0" stroke-width="3.0"/>
    <path d="M 110.98380279541016 67.98651885986328 C 140.22940063476562 77.19519805908203 181.06935119628906 87.52066040039062 182.9529266357422 91.38522338867188" fill="none" stroke="rgb(0, 0, 0)" stroke-linecap="round" stroke-linejoin="round" stroke-opacity="1.0" stroke-width="3.0"/>
    <path d="M 146.737548828125 58.559818267822266 C 76.60626983642578 10.856492042541504 42.2353401184082 128.73114013671875 154.56393432617188 82.46377563476562" fill="none" stroke="rgb(0, 0, 0)" stroke-linecap="round" stroke-linejoin="round" stroke-opacity="1.0" stroke-width="3.0"/>
    <path d="M 192.8663787841797 93.76114654541016 C 162.43780517578125 59.80615234375 124.99412536621094 67.71150207519531 117.93489837646484 62.10432434082031" fill="none" stroke="rgb(0, 0, 0)" stroke-linecap="round" stroke-linejoin="round" stroke-opacity="1.0" stroke-width="3.0"/>
    <path d="M 130.82325744628906 92.14276885986328 C 136.1717071533203 212.81915283203125 150.07867431640625 23.936420440673828 105.86627197265625 205.04869079589844" fill="none" stroke="rgb(0, 0, 0)" stroke-linecap="round" stroke-linejoin="round" stroke-opacity="1.0" stroke-width="3.0"/>
  </g>
</svg>
