<?xml version="1.0" ?>
<svg height="224" version="1.1" width="224" xmlns="http://www.w3.org/2000/svg">
  <defs/>
  <g>
    <path d="M 140.4251708984375 55.26234817504883 C 173.36920166015625 83.86595153808594 173.93067932128906 75.79060363769531 111.94551086425781 47.851463317871094" fill="none" stroke="rgb(0, 0, 0)" stroke-linecap="round" stroke-linejoin="round" stroke-opacity="1.0" stroke-width="3.0"/>
    <path d="M 191.05157470703125 94.90080261230469 C 165.98068237304688 90.7707748413086 199.80850219726562 88.16050720214844 168.50198364257812 109.2046890258789" fill="none" stroke="rgb(0, 0, 0)" stroke-linecap="round" stroke-linejoin="round" stroke-opacity="1.0" stroke-width="3.0"/>
    <path d="M 39.984249114990234 38.879276275634766 C 22.50873565673828 151.83065795898438 237.4171142578125 40.009212493896484 147.15463256835938 121.38031005859375" fill="none" stroke="rgb(0, 0, 0)" stroke-linecap="round" stroke-linejoin="round" stroke-opacity="1.0" stroke-width="3.0"/>
    <path d="M 91.939697265625 65.5801773071289 C 134.6914520263672 121.99676513671875 112.7193374633789 83.25322723388672 132.29847717285156 92.83147430419922" fill="none" stroke="rgb(0, 0, 0)" stroke-linecap="round" stroke-linejoin="round" stroke-opacity="1.0" stroke-width="3.0"/>
    <path d="M 116.95528411865234 58.36841583251953 C 139.28134155273438 83.09895324707031 180.9097442626953 86.44770812988281 184.32867431640625 98.20401763916016" fill="none" stroke="rgb(0, 0, 0)" stroke-linecap="round" stroke-linejoin="round" stroke-opacity="1.0" stroke-width="3.0"/>
    <path d="M 146.56300354003906 55.320167541503906 C 71.85778045654297 14.603670120239258 44.63738250732422 124.85077667236328 148.9678192138672 77.8852310180664" fill="none" stroke="rgb(0, 0, 0)" stroke-linecap="round" stroke-linejoin="round" stroke-opacity="1.0" stroke-width="3.0"/>
    <path d="M 190.8249969482422 93.14739227294922 C 155.53160095214844 53.20008087158203 141.00802612304688 76.77603912353516 129.1457061767578 68.7500228881836" fill="none" stroke="rgb(0, 0, 0)" stroke-linecap="round" stroke-linejoin="round" stroke-opacity="1.0" stroke-width="3.0"/>
    <path d="M 130.9915008544922 94.42564392089844 C 131.51100158691406 203.55239868164062 149.56715393066406 20.265283584594727 105.83818817138672 206.8299560546875" fill="none" stroke="rgb(0, 0, 0)" stroke-linecap="round" stroke-linejoin="round" stroke-opacity="1.0" stroke-width="3.0"/>
  </g>
</svg>
