<?xml version="1.0" ?>
<svg height="224" version="1.1" width="224" xmlns="http://www.w3.org/2000/svg">
  <defs/>
  <g>
    <path d="M 131.34347534179688 52.60572052001953 C 165.71826171875 68.6082763671875 159.32830810546875 65.5317153930664 127.08750915527344 56.77012634277344" fill="none" stroke="rgb(0, 0, 0)" stroke-linecap="round" stroke-linejoin="round" stroke-opacity="1.0" stroke-width="3.0"/>
    <path d="M 186.77462768554688 98.4801254272461 C 144.9478759765625 76.47526550292969 175.42410278320312 88.77587127685547 189.59779357910156 97.22956085205078" fill="none" stroke="rgb(0, 0, 0)" stroke-linecap="round" stroke-linejoin="round" stroke-opacity="1.0" stroke-width="3.0"/>
    <path d="M 62.43511199951172 46.928226470947266 C 33.34346008300781 155.09237670898438 151.3031768798828 31.833467483520508 129.49110412597656 127.20024108886719" fill="none" stroke="rgb(0, 0, 0)" stroke-linecap="round" stroke-linejoin="round" stroke-opacity="1.0" stroke-width="3.0"/>
    <path d="M 103.57652282714844 53.76185989379883 C 130.97610473632812 67.36996459960938 111.53282928466797 47.01719665527344 140.5452423095703 89.3913803100586" fill="none" stroke="rgb(0, 0, 0)" stroke-linecap="round" stroke-linejoin="round" stroke-opacity="1.0" stroke-width="3.0"/>
    <path d="M 141.14370727539062 69.28599548339844 C 147.6797332763672 93.70079803466797 171.77236938476562 75.72820281982422 179.3636474609375 103.61189270019531" fill="none" stroke="rgb(0, 0, 0)" stroke-linecap="round" stroke-linejoin="round" stroke-opacity="1.0" stroke-width="3.0"/>
    <path d="M 135.00038146972656 49.9061164855957 C 76.39568328857422 24.892898559570312 117.71015930175781 100.48866271972656 151.06527709960938 86.06094360351562" fill="none" stroke="rgb(0, 0, 0)" stroke-linecap="round" stroke-linejoin="round" stroke-opacity="1.0" stroke-width="3.0"/>
    <path d="M 185.8764190673828 92.83123779296875 C 158.09031677246094 65.79805755615234 156.37973022460938 77.32841491699219 138.3084259033203 53.92164611816406" fill="none" stroke="rgb(0, 0, 0)" stroke-linecap="round" stroke-linejoin="round" stroke-opacity="1.0" stroke-width="3.0"/>
    <path d="M 117.32962799072266 92.24645233154297 C 123.98076629638672 217.0951385498047 136.32879638671875 43.86921310424805 104.87181854248047 203.91725158691406" fill="none" stroke="rgb(0, 0, 0)" stroke-linecap="round" stroke-linejoin="round" stroke-opacity="1.0" stroke-width="3.0"/>
  </g>
</svg>
