<?xml version="1.0" ?>
<svg height="224" version="1.1" width="224" xmlns="http://www.w3.org/2000/svg">
  <defs/>
  <g>
    <path d="M 141.3561248779297 56.130165100097656 C 181.5575408935547 90.78253173828125 170.6253662109375 83.49591827392578 119.21906280517578 56.12600326538086" fill="none" stroke="rgb(0, 0, 0)" stroke-linecap="round" stroke-linejoin="round" stroke-opacity="1.0" stroke-width="3.0"/>
    <path d="M 189.076904296875 99.96617126464844 C 157.7346649169922 92.27003479003906 199.33934020996094 94.22196960449219 165.99049377441406 106.04727935791016" fill="none" stroke="rgb(0, 0, 0)" stroke-linecap="round" stroke-linejoin="round" stroke-opacity="1.0" stroke-width="3.0"/>
    <path d="M 45.99717712402344 42.68400955200195 C -5.332327365875244 133.0988311767578 282.4947814941406 43.227508544921875 137.1628875732422 123.67994689941406" fill="none" stroke="rgb(0, 0, 0)" stroke-linecap="round" stroke-linejoin="round" stroke-opacity="1.0" stroke-width="3.0"/>
    <path d="M 85.99388885498047 79.6996841430664 C 107.65686798095703 115.7271957397461 104.62713623046875 71.98757934570312 119.61022186279297 106.66468048095703" fill="none" stroke="rgb(0, 0, 0)" stroke-linecap="round" stroke-linejoin="round" stroke-opacity="1.0" stroke-width="3.0"/>
    <path d="M 122.6050033569336 70.46321868896484 C 138.97129821777344 77.94286346435547 182.35633850097656 82.40744018554688 183.26478576660156 86.53573608398438" fill="none" stroke="rgb(0, 0, 0)" stroke-linecap="round" stroke-linejoin="round" stroke-opacity="1.0" stroke-width="3.0"/>
    <path d="M 147.4338836669922 56.172054290771484 C 65.2669448852539 11.56010627746582 32.03389358520508 127.12801361083984 151.72195434570312 79.40985870361328" fill="none" stroke="rgb(0, 0, 0)" stroke-linecap="round" stroke-linejoin="round" stroke-opacity="1.0" stroke-width="3.0"/>
    <path d="M 191.14547729492188 95.46044921875 C 162.47149658203125 53.055198669433594 117.27788543701172 84.22589874267578 103.29885864257812 73.9081802368164" fill="none" stroke="rgb(0, 0, 0)" stroke-linecap="round" stroke-linejoin="round" stroke-opacity="1.0" stroke-width="3.0"/>
    <path d="M 125.34844970703125 88.34019470214844 C 128.1980743408203 214.5802764892578 148.2782745361328 28.369850158691406 105.08759307861328 206.3188934326172" fill="none" stroke="rgb(0, 0, 0)" stroke-linecap="round" stroke-linejoin="round" stroke-opacity="1.0" stroke-width="3.0"/>
  </g>
</svg>
