<?xml version="1.0" ?>
<svg height="224" version="1.1" width="224" xmlns="http://www.w3.org/2000/svg">
  <defs/>
  <g>
    <path d="M 136.49288940429688 49.42625045776367 C 171.3405303955078 81.80950927734375 166.57286071777344 81.55419158935547 114.64383697509766 48.155120849609375" fill="none" stroke="rgb(0, 0, 0)" stroke-linecap="round" stroke-linejoin="round" stroke-opacity="1.0" stroke-width="3.0"/>
    <path d="M 188.58189392089844 97.59666442871094 C 162.81805419921875 88.42098236083984 192.1658477783203 94.57685852050781 172.46282958984375 105.97221374511719" fill="none" stroke="rgb(0, 0, 0)" stroke-linecap="round" stroke-linejoin="round" stroke-opacity="1.0" stroke-width="3.0"/>
    <path d="M 57.56047439575195 52.67810821533203 C 24.756149291992188 156.5916290283203 197.06326293945312 30.653247833251953 137.66941833496094 125.43386840820312" fill="none" stroke="rgb(0, 0, 0)" stroke-linecap="round" stroke-linejoin="round" stroke-opacity="1.0" stroke-width="3.0"/>
    <path d="M 88.68640899658203 67.818603515625 C 91.73577880859375 116.93601989746094 70.54608154296875 72.60729217529297 124.33568572998047 91.542236328125" fill="none" stroke="rgb(0, 0, 0)" stroke-linecap="round" stroke-linejoin="round" stroke-opacity="1.0" stroke-width="3.0"/>
    <path d="M 119.19950866699219 68.09658813476562 C 158.76905822753906 87.793212890625 169.5044708251953 80.4535903930664 183.25445556640625 96.95146179199219" fill="none" stroke="rgb(0, 0, 0)" stroke-linecap="round" stroke-linejoin="round" stroke-opacity="1.0" stroke-width="3.0"/>
    <path d="M 143.76649475097656 53.968509674072266 C 54.01481246948242 22.06247901916504 67.92928314208984 122.05311584472656 156.4788818359375 80.93549346923828" fill="none" stroke="rgb(0, 0, 0)" stroke-linecap="round" stroke-linejoin="round" stroke-opacity="1.0" stroke-width="3.0"/>
    <path d="M 188.9775848388672 97.21990203857422 C 167.09400939941406 66.25130462646484 144.80496215820312 61.08591842651367 122.30670928955078 58.15541076660156" fill="none" stroke="rgb(0, 0, 0)" stroke-linecap="round" stroke-linejoin="round" stroke-opacity="1.0" stroke-width="3.0"/>
    <path d="M 121.5486068725586 93.8174057006836 C 130.8037872314453 199.95928955078125 144.41732788085938 32.8721809387207 105.70001220703125 205.6623992919922" fill="none" stroke="rgb(0, 0, 0)" stroke-linecap="round" stroke-linejoin="round" stroke-opacity="1.0" stroke-width="3.0"/>
  </g>
</svg>
