<?xml version="1.0" ?>
<svg height="224" version="1.1" width="224" xmlns="http://www.w3.org/2000/svg">
  <defs/>
  <g>
    <path d="M 140.4215087890625 55.04109573364258 C 170.72962951660156 85.96512603759766 173.2592315673828 76.1007308959961 111.90758514404297 47.39409637451172" fill="none" stroke="rgb(0, 0, 0)" stroke-linecap="round" stroke-linejoin="round" stroke-opacity="1.0" stroke-width="3.0"/>
    <path d="M 189.14244079589844 97.16570281982422 C 164.7747039794922 91.76200103759766 199.33905029296875 87.83563995361328 165.75369262695312 106.63450622558594" fill="none" stroke="rgb(0, 0, 0)" stroke-linecap="round" stroke-linejoin="round" stroke-opacity="1.0" stroke-width="3.0"/>
    <path d="M 39.8649787902832 37.87586975097656 C 20.364864349365234 152.2086639404297 236.01246643066406 40.36033630371094 145.32421875 121.8083724975586" fill="none" stroke="rgb(0, 0, 0)" stroke-linecap="round" stroke-linejoin="round" stroke-opacity="1.0" stroke-width="3.0"/>
    <path d="M 94.80751037597656 65.10881805419922 C 138.55577087402344 119.45336151123047 114.1064224243164 81.93970489501953 132.69337463378906 94.85431671142578" fill="none" stroke="rgb(0, 0, 0)" stroke-linecap="round" stroke-linejoin="round" stroke-opacity="1.0" stroke-width="3.0"/>
    <path d="M 114.71463012695312 57.7386589050293 C 140.06289672851562 82.95059204101562 180.33657836914062 87.58429718017578 187.1354217529297 100.04314422607422" fill="none" stroke="rgb(0, 0, 0)" stroke-linecap="round" stroke-linejoin="round" stroke-opacity="1.0" stroke-width="3.0"/>
    <path d="M 144.729736328125 54.36009979248047 C 72.28018188476562 15.505914688110352 45.428131103515625 125.52607727050781 148.7941436767578 78.55233001708984" fill="none" stroke="rgb(0, 0, 0)" stroke-linecap="round" stroke-linejoin="round" stroke-opacity="1.0" stroke-width="3.0"/>
    <path d="M 190.64996337890625 94.12560272216797 C 156.55577087402344 54.295875549316406 140.6147003173828 77.04532623291016 127.85657501220703 70.32781982421875" fill="none" stroke="rgb(0, 0, 0)" stroke-linecap="round" stroke-linejoin="round" stroke-opacity="1.0" stroke-width="3.0"/>
    <path d="M 129.404296875 94.86441802978516 C 133.38742065429688 204.5393524169922 153.09530639648438 22.19854164123535 103.89620971679688 205.66835021972656" fill="none" stroke="rgb(0, 0, 0)" stroke-linecap="round" stroke-linejoin="round" stroke-opacity="1.0" stroke-width="3.0"/>
  </g>
</svg>
