<?xml version="1.0" ?>
<svg height="224" version="1.1" width="224" xmlns="http://www.w3.org/2000/svg">
  <defs/>
  <g>
    <path d="M 140.2545928955078 56.285648345947266 C 191.36257934570312 89.22017669677734 174.75096130371094 83.59906768798828 120.01019287109375 56.13955307006836" fill="none" stroke="rgb(0, 0, 0)" stroke-linecap="round" stroke-linejoin="round" stroke-opacity="1.0" stroke-width="3.0"/>
    <path d="M 190.94871520996094 98.08744812011719 C 163.84097290039062 95.81977081298828 198.442138671875 93.83261108398438 167.73277282714844 106.31668853759766" fill="none" stroke="rgb(0, 0, 0)" stroke-linecap="round" stroke-linejoin="round" stroke-opacity="1.0" stroke-width="3.0"/>
    <path d="M 46.732391357421875 40.68861770629883 C -0.21333836019039154 142.39356994628906 288.9674377441406 49.682491302490234 131.34828186035156 124.09102630615234" fill="none" stroke="rgb(0, 0, 0)" stroke-linecap="round" stroke-linejoin="round" stroke-opacity="1.0" stroke-width="3.0"/>
    <path d="M 77.36632537841797 77.32389831542969 C 99.91615295410156 121.69076538085938 112.43235778808594 71.16783905029297 119.64805603027344 108.40565490722656" fill="none" stroke="rgb(0, 0, 0)" stroke-linecap="round" stroke-linejoin="round" stroke-opacity="1.0" stroke-width="3.0"/>
    <path d="M 123.02178955078125 70.35987091064453 C 135.49549865722656 75.15269470214844 180.2473602294922 80.88788604736328 179.48878479003906 87.91613006591797" fill="none" stroke="rgb(0, 0, 0)" stroke-linecap="round" stroke-linejoin="round" stroke-opacity="1.0" stroke-width="3.0"/>
    <path d="M 146.74766540527344 56.143516540527344 C 64.57757568359375 17.854778289794922 21.283199310302734 132.22288513183594 154.3026580810547 79.75005340576172" fill="none" stroke="rgb(0, 0, 0)" stroke-linecap="round" stroke-linejoin="round" stroke-opacity="1.0" stroke-width="3.0"/>
    <path d="M 191.3214874267578 96.2269287109375 C 144.2939453125 40.06614303588867 109.09927368164062 87.51139831542969 93.37191772460938 80.34677124023438" fill="none" stroke="rgb(0, 0, 0)" stroke-linecap="round" stroke-linejoin="round" stroke-opacity="1.0" stroke-width="3.0"/>
    <path d="M 120.2996597290039 91.5261001586914 C 130.31253051757812 224.41893005371094 148.33389282226562 35.27301788330078 106.29876708984375 206.0607452392578" fill="none" stroke="rgb(0, 0, 0)" stroke-linecap="round" stroke-linejoin="round" stroke-opacity="1.0" stroke-width="3.0"/>
  </g>
</svg>
