<?xml version="1.0" ?>
<svg height="224" version="1.1" width="224" xmlns="http://www.w3.org/2000/svg">
  <defs/>
  <g>
    <path d="M 139.8909912109375 58.206764221191406 C 164.8045654296875 57.02839660644531 145.69984436035156 74.45014190673828 123.2318344116211 62.06863784790039" fill="none" stroke="rgb(0, 0, 0)" stroke-linecap="round" stroke-linejoin="round" stroke-opacity="1.0" stroke-width="3.0"/>
    <path d="M 185.0030975341797 93.83872985839844 C 162.33444213867188 78.6506118774414 178.84608459472656 82.2988510131836 190.49258422851562 98.2481918334961" fill="none" stroke="rgb(0, 0, 0)" stroke-linecap="round" stroke-linejoin="round" stroke-opacity="1.0" stroke-width="3.0"/>
    <path d="M 72.673583984375 48.86686706542969 C 30.296131134033203 134.18081665039062 105.5234146118164 85.18766784667969 120.46977233886719 118.38297271728516" fill="none" stroke="rgb(0, 0, 0)" stroke-linecap="round" stroke-linejoin="round" stroke-opacity="1.0" stroke-width="3.0"/>
    <path d="M 95.45590209960938 57.0158576965332 C 110.20085906982422 90.59516906738281 125.95822143554688 89.8153076171875 131.19869995117188 89.66401672363281" fill="none" stroke="rgb(0, 0, 0)" stroke-linecap="round" stroke-linejoin="round" stroke-opacity="1.0" stroke-width="3.0"/>
    <path d="M 130.54220581054688 66.613525390625 C 144.36746215820312 79.49005126953125 158.31031799316406 71.13717651367188 183.4905548095703 90.22601318359375" fill="none" stroke="rgb(0, 0, 0)" stroke-linecap="round" stroke-linejoin="round" stroke-opacity="1.0" stroke-width="3.0"/>
    <path d="M 136.02517700195312 65.68589782714844 C 115.4633560180664 75.2147445678711 136.49105834960938 94.06501770019531 138.00315856933594 90.56827545166016" fill="none" stroke="rgb(0, 0, 0)" stroke-linecap="round" stroke-linejoin="round" stroke-opacity="1.0" stroke-width="3.0"/>
    <path d="M 177.0223388671875 82.36969757080078 C 152.25672912597656 60.15835189819336 166.04562377929688 67.3638916015625 130.47499084472656 59.728363037109375" fill="none" stroke="rgb(0, 0, 0)" stroke-linecap="round" stroke-linejoin="round" stroke-opacity="1.0" stroke-width="3.0"/>
    <path d="M 126.34606170654297 120.15965270996094 C 143.45632934570312 140.09197998046875 135.15957641601562 63.502098083496094 106.856201171875 204.84107971191406" fill="none" stroke="rgb(0, 0, 0)" stroke-linecap="round" stroke-linejoin="round" stroke-opacity="1.0" stroke-width="3.0"/>
  </g>
</svg>
