<?xml version="1.0" ?>
<svg height="224" version="1.1" width="224" xmlns="http://www.w3.org/2000/svg">
  <defs/>
  <g>
    <path d="M 136.03646850585938 58.97594451904297 C 185.06825256347656 96.9399185180664 171.53964233398438 87.3591079711914 121.65978240966797 58.75028610229492" fill="none" stroke="rgb(0, 0, 0)" stroke-linecap="round" stroke-linejoin="round" stroke-opacity="1.0" stroke-width="3.0"/>
    <path d="M 190.4299774169922 97.7944107055664 C 169.202392578125 91.8330307006836 204.22125244140625 96.85074615478516 168.08082580566406 103.43669128417969" fill="none" stroke="rgb(0, 0, 0)" stroke-linecap="round" stroke-linejoin="round" stroke-opacity="1.0" stroke-width="3.0"/>
    <path d="M 47.49094009399414 38.08024978637695 C -3.0592703819274902 141.14625549316406 280.8697204589844 45.3010139465332 131.62863159179688 124.81595611572266" fill="none" stroke="rgb(0, 0, 0)" stroke-linecap="round" stroke-linejoin="round" stroke-opacity="1.0" stroke-width="3.0"/>
    <path d="M 75.6728744506836 78.14742279052734 C 104.78064727783203 119.85530090332031 113.75724029541016 67.6504898071289 121.0264663696289 104.67259979248047" fill="none" stroke="rgb(0, 0, 0)" stroke-linecap="round" stroke-linejoin="round" stroke-opacity="1.0" stroke-width="3.0"/>
    <path d="M 111.58554077148438 74.38204193115234 C 132.89962768554688 77.92411041259766 180.0603485107422 82.65695190429688 177.19053649902344 84.5380630493164" fill="none" stroke="rgb(0, 0, 0)" stroke-linecap="round" stroke-linejoin="round" stroke-opacity="1.0" stroke-width="3.0"/>
    <path d="M 144.58433532714844 57.994895935058594 C 59.720455169677734 19.714786529541016 12.963347434997559 130.93801879882812 154.9979248046875 78.44588470458984" fill="none" stroke="rgb(0, 0, 0)" stroke-linecap="round" stroke-linejoin="round" stroke-opacity="1.0" stroke-width="3.0"/>
    <path d="M 193.3401641845703 95.05123901367188 C 143.59756469726562 39.04887008666992 107.48118591308594 88.97191619873047 93.20601654052734 83.40701293945312" fill="none" stroke="rgb(0, 0, 0)" stroke-linecap="round" stroke-linejoin="round" stroke-opacity="1.0" stroke-width="3.0"/>
    <path d="M 120.79705047607422 89.20267486572266 C 123.26945495605469 215.0473175048828 144.86178588867188 36.57566833496094 104.51808166503906 206.15335083007812" fill="none" stroke="rgb(0, 0, 0)" stroke-linecap="round" stroke-linejoin="round" stroke-opacity="1.0" stroke-width="3.0"/>
  </g>
</svg>
