<?xml version="1.0" ?>
<svg height="224" version="1.1" width="224" xmlns="http://www.w3.org/2000/svg">
  <defs/>
  <g>
    <path d="M 144.25845336914062 58.751705169677734 C 180.4266357421875 83.14827728271484 164.76373291015625 84.1402587890625 121.81675720214844 51.2263298034668" fill="none" stroke="rgb(0, 0, 0)" stroke-linecap="round" stroke-linejoin="round" stroke-opacity="1.0" stroke-width="3.0"/>
    <path d="M 188.370361328125 97.03392028808594 C 159.11166381835938 92.0279541015625 202.39218139648438 86.81694793701172 168.68099975585938 104.3055648803711" fill="none" stroke="rgb(0, 0, 0)" stroke-linecap="round" stroke-linejoin="round" stroke-opacity="1.0" stroke-width="3.0"/>
    <path d="M 52.05036163330078 40.37548065185547 C -0.9379066228866577 133.9713592529297 273.525146484375 41.890602111816406 138.06666564941406 119.02915954589844" fill="none" stroke="rgb(0, 0, 0)" stroke-linecap="round" stroke-linejoin="round" stroke-opacity="1.0" stroke-width="3.0"/>
    <path d="M 87.04464721679688 74.76386260986328 C 113.3346176147461 112.06068420410156 104.6448745727539 77.85417175292969 117.37357330322266 102.7141342163086" fill="none" stroke="rgb(0, 0, 0)" stroke-linecap="round" stroke-linejoin="round" stroke-opacity="1.0" stroke-width="3.0"/>
    <path d="M 118.16566467285156 67.9862289428711 C 139.4442596435547 77.51818084716797 183.5748291015625 84.12574768066406 183.0347137451172 86.61097717285156" fill="none" stroke="rgb(0, 0, 0)" stroke-linecap="round" stroke-linejoin="round" stroke-opacity="1.0" stroke-width="3.0"/>
    <path d="M 148.67799377441406 59.97418975830078 C 70.99760437011719 15.704805374145508 38.25688552856445 126.27108764648438 155.3255615234375 80.8125228881836" fill="none" stroke="rgb(0, 0, 0)" stroke-linecap="round" stroke-linejoin="round" stroke-opacity="1.0" stroke-width="3.0"/>
    <path d="M 189.98538208007812 96.06647491455078 C 163.42588806152344 54.82014465332031 120.86798858642578 75.77384948730469 116.24143981933594 62.22831726074219" fill="none" stroke="rgb(0, 0, 0)" stroke-linecap="round" stroke-linejoin="round" stroke-opacity="1.0" stroke-width="3.0"/>
    <path d="M 128.25692749023438 90.0394058227539 C 128.86199951171875 210.3562469482422 152.73448181152344 22.207984924316406 108.03074645996094 209.97450256347656" fill="none" stroke="rgb(0, 0, 0)" stroke-linecap="round" stroke-linejoin="round" stroke-opacity="1.0" stroke-width="3.0"/>
  </g>
</svg>
