<?xml version="1.0" ?>
<svg height="224" version="1.1" width="224" xmlns="http://www.w3.org/2000/svg">
  <defs/>
  <g>
    <path d="M 128.92996215820312 54.79711151123047 C 173.2790985107422 71.98274230957031 155.03518676757812 82.55429077148438 113.2494125366211 51.09511947631836" fill="none" stroke="rgb(0, 0, 0)" stroke-linecap="round" stroke-linejoin="round" stroke-opacity="1.0" stroke-width="3.0"/>
    <path d="M 190.31614685058594 97.12833404541016 C 161.4221954345703 83.3115234375 190.78451538085938 94.7523422241211 178.76661682128906 101.26010131835938" fill="none" stroke="rgb(0, 0, 0)" stroke-linecap="round" stroke-linejoin="round" stroke-opacity="1.0" stroke-width="3.0"/>
    <path d="M 59.34996032714844 49.06783676147461 C 25.224632263183594 147.4236602783203 194.54495239257812 25.411306381225586 132.73684692382812 117.80915832519531" fill="none" stroke="rgb(0, 0, 0)" stroke-linecap="round" stroke-linejoin="round" stroke-opacity="1.0" stroke-width="3.0"/>
    <path d="M 87.83817291259766 63.703453063964844 C 82.42679595947266 108.97742462158203 56.06583023071289 68.80357360839844 126.47820281982422 82.25456237792969" fill="none" stroke="rgb(0, 0, 0)" stroke-linecap="round" stroke-linejoin="round" stroke-opacity="1.0" stroke-width="3.0"/>
    <path d="M 108.04525756835938 65.22425079345703 C 156.4034881591797 91.93496704101562 175.2575225830078 76.91693878173828 179.3284454345703 98.68881225585938" fill="none" stroke="rgb(0, 0, 0)" stroke-linecap="round" stroke-linejoin="round" stroke-opacity="1.0" stroke-width="3.0"/>
    <path d="M 139.69297790527344 54.86320114135742 C 54.336463928222656 33.82730484008789 68.80228424072266 116.16541290283203 158.01016235351562 73.66314697265625" fill="none" stroke="rgb(0, 0, 0)" stroke-linecap="round" stroke-linejoin="round" stroke-opacity="1.0" stroke-width="3.0"/>
    <path d="M 188.07949829101562 94.80950164794922 C 162.1732177734375 67.22118377685547 146.02906799316406 64.20375061035156 120.80941009521484 61.143775939941406" fill="none" stroke="rgb(0, 0, 0)" stroke-linecap="round" stroke-linejoin="round" stroke-opacity="1.0" stroke-width="3.0"/>
    <path d="M 113.9799575805664 87.16213989257812 C 130.18630981445312 206.02056884765625 135.45416259765625 27.651426315307617 107.70433044433594 203.2243194580078" fill="none" stroke="rgb(0, 0, 0)" stroke-linecap="round" stroke-linejoin="round" stroke-opacity="1.0" stroke-width="3.0"/>
  </g>
</svg>
