<?xml version="1.0" ?>
<svg height="224" version="1.1" width="224" xmlns="http://www.w3.org/2000/svg">
  <defs/>
  <g>
    <path d="M 139.516845703125 54.73963928222656 C 186.5932159423828 87.51323699951172 178.39556884765625 77.3856201171875 125.02732849121094 53.71921920776367" fill="none" stroke="rgb(0, 0, 0)" stroke-linecap="round" stroke-linejoin="round" stroke-opacity="1.0" stroke-width="3.0"/>
    <path d="M 190.4151611328125 97.31073760986328 C 162.2726593017578 89.77677154541016 202.42324829101562 95.18955993652344 167.08131408691406 104.49890899658203" fill="none" stroke="rgb(0, 0, 0)" stroke-linecap="round" stroke-linejoin="round" stroke-opacity="1.0" stroke-width="3.0"/>
    <path d="M 45.73151779174805 40.50193405151367 C -6.766205787658691 135.76510620117188 281.63525390625 47.0533561706543 131.9033203125 121.8223876953125" fill="none" stroke="rgb(0, 0, 0)" stroke-linecap="round" stroke-linejoin="round" stroke-opacity="1.0" stroke-width="3.0"/>
    <path d="M 88.05762481689453 76.11717987060547 C 103.64651489257812 115.09551239013672 98.35578918457031 71.00489807128906 111.70664978027344 109.76788330078125" fill="none" stroke="rgb(0, 0, 0)" stroke-linecap="round" stroke-linejoin="round" stroke-opacity="1.0" stroke-width="3.0"/>
    <path d="M 122.53636932373047 72.77447509765625 C 137.17941284179688 79.70164489746094 181.8161163330078 82.71337890625 180.34544372558594 86.22537994384766" fill="none" stroke="rgb(0, 0, 0)" stroke-linecap="round" stroke-linejoin="round" stroke-opacity="1.0" stroke-width="3.0"/>
    <path d="M 145.63925170898438 55.99462890625 C 68.44275665283203 10.304174423217773 32.95100402832031 128.60475158691406 156.02944946289062 82.20491790771484" fill="none" stroke="rgb(0, 0, 0)" stroke-linecap="round" stroke-linejoin="round" stroke-opacity="1.0" stroke-width="3.0"/>
    <path d="M 190.81874084472656 93.21967315673828 C 160.61630249023438 49.659542083740234 113.1945571899414 84.32691955566406 101.4872055053711 78.67890167236328" fill="none" stroke="rgb(0, 0, 0)" stroke-linecap="round" stroke-linejoin="round" stroke-opacity="1.0" stroke-width="3.0"/>
    <path d="M 121.88258361816406 89.05377197265625 C 123.09639739990234 216.42861938476562 143.60633850097656 29.19486427307129 101.98040771484375 205.6890411376953" fill="none" stroke="rgb(0, 0, 0)" stroke-linecap="round" stroke-linejoin="round" stroke-opacity="1.0" stroke-width="3.0"/>
  </g>
</svg>
