<?xml version="1.0" ?>
<svg height="224" version="1.1" width="224" xmlns="http://www.w3.org/2000/svg">
  <defs/>
  <g>
    <path d="M 142.01087951660156 56.616397857666016 C 179.6276397705078 85.60862731933594 174.59814453125 80.10057067871094 111.52949523925781 49.93430709838867" fill="none" stroke="rgb(0, 0, 0)" stroke-linecap="round" stroke-linejoin="round" stroke-opacity="1.0" stroke-width="3.0"/>
    <path d="M 189.89047241210938 96.2865982055664 C 170.91368103027344 93.58609008789062 200.5499725341797 86.45674133300781 165.56077575683594 103.91921997070312" fill="none" stroke="rgb(0, 0, 0)" stroke-linecap="round" stroke-linejoin="round" stroke-opacity="1.0" stroke-width="3.0"/>
    <path d="M 39.27375411987305 44.858673095703125 C 17.586435317993164 145.82199096679688 237.75982666015625 39.03955841064453 144.50062561035156 119.70350646972656" fill="none" stroke="rgb(0, 0, 0)" stroke-linecap="round" stroke-linejoin="round" stroke-opacity="1.0" stroke-width="3.0"/>
    <path d="M 92.99370574951172 70.36239624023438 C 120.33401489257812 116.53076171875 104.70071411132812 77.27704620361328 127.86540222167969 94.0074462890625" fill="none" stroke="rgb(0, 0, 0)" stroke-linecap="round" stroke-linejoin="round" stroke-opacity="1.0" stroke-width="3.0"/>
    <path d="M 114.88895416259766 63.179901123046875 C 134.60714721679688 81.02963256835938 185.45159912109375 78.52630615234375 188.86679077148438 91.78630828857422" fill="none" stroke="rgb(0, 0, 0)" stroke-linecap="round" stroke-linejoin="round" stroke-opacity="1.0" stroke-width="3.0"/>
    <path d="M 148.69386291503906 57.133853912353516 C 77.57818603515625 13.66462516784668 43.6153450012207 120.92401885986328 148.8117218017578 74.70143127441406" fill="none" stroke="rgb(0, 0, 0)" stroke-linecap="round" stroke-linejoin="round" stroke-opacity="1.0" stroke-width="3.0"/>
    <path d="M 189.6548614501953 92.80713653564453 C 156.89527893066406 55.015018463134766 145.0372314453125 75.33409881591797 125.94477081298828 68.38206481933594" fill="none" stroke="rgb(0, 0, 0)" stroke-linecap="round" stroke-linejoin="round" stroke-opacity="1.0" stroke-width="3.0"/>
    <path d="M 127.5003890991211 92.83805084228516 C 128.510986328125 201.9327850341797 151.77169799804688 27.11333465576172 105.25276947021484 205.45062255859375" fill="none" stroke="rgb(0, 0, 0)" stroke-linecap="round" stroke-linejoin="round" stroke-opacity="1.0" stroke-width="3.0"/>
  </g>
</svg>
