<?xml version="1.0" ?>
<svg height="224" version="1.1" width="224" xmlns="http://www.w3.org/2000/svg">
  <defs/>
  <g>
    <path d="M 130.2208709716797 49.6804084777832 C 161.44737243652344 66.0759506225586 150.92626953125 66.23847198486328 135.0340576171875 60.857582092285156" fill="none" stroke="rgb(0, 0, 0)" stroke-linecap="round" stroke-linejoin="round" stroke-opacity="1.0" stroke-width="3.0"/>
    <path d="M 190.00181579589844 98.29302215576172 C 152.0729217529297 70.04463195800781 180.1181640625 82.08153533935547 188.4357452392578 96.76888275146484" fill="none" stroke="rgb(0, 0, 0)" stroke-linecap="round" stroke-linejoin="round" stroke-opacity="1.0" stroke-width="3.0"/>
    <path d="M 63.543601989746094 47.8748779296875 C 31.772716522216797 158.38107299804688 145.9070587158203 43.71909713745117 128.97604370117188 128.0550537109375" fill="none" stroke="rgb(0, 0, 0)" stroke-linecap="round" stroke-linejoin="round" stroke-opacity="1.0" stroke-width="3.0"/>
    <path d="M 100.00938415527344 53.88975143432617 C 125.30296325683594 67.01111602783203 113.31231689453125 50.533992767333984 135.35440063476562 81.41265869140625" fill="none" stroke="rgb(0, 0, 0)" stroke-linecap="round" stroke-linejoin="round" stroke-opacity="1.0" stroke-width="3.0"/>
    <path d="M 140.66921997070312 69.12705993652344 C 147.99868774414062 90.43508911132812 163.29566955566406 78.49784851074219 180.7517852783203 103.45924377441406" fill="none" stroke="rgb(0, 0, 0)" stroke-linecap="round" stroke-linejoin="round" stroke-opacity="1.0" stroke-width="3.0"/>
    <path d="M 136.06451416015625 46.90230941772461 C 77.8187484741211 28.859037399291992 125.77726745605469 85.46393585205078 157.378173828125 83.79185485839844" fill="none" stroke="rgb(0, 0, 0)" stroke-linecap="round" stroke-linejoin="round" stroke-opacity="1.0" stroke-width="3.0"/>
    <path d="M 179.19647216796875 93.82341766357422 C 157.98521423339844 67.04914855957031 157.7073974609375 78.83103942871094 140.27267456054688 52.87911605834961" fill="none" stroke="rgb(0, 0, 0)" stroke-linecap="round" stroke-linejoin="round" stroke-opacity="1.0" stroke-width="3.0"/>
    <path d="M 117.75183868408203 102.50700378417969 C 129.07913208007812 203.64308166503906 135.6284637451172 49.47083282470703 105.24600982666016 206.10824584960938" fill="none" stroke="rgb(0, 0, 0)" stroke-linecap="round" stroke-linejoin="round" stroke-opacity="1.0" stroke-width="3.0"/>
  </g>
</svg>
