<?xml version="1.0" ?>
<svg height="224" version="1.1" width="224" xmlns="http://www.w3.org/2000/svg">
  <defs/>
  <g>
    <path d="M 140.54908752441406 60.576995849609375 C 171.70989990234375 62.0214729309082 151.66944885253906 78.8707046508789 125.37452697753906 62.98701095581055" fill="none" stroke="rgb(0, 0, 0)" stroke-linecap="round" stroke-linejoin="round" stroke-opacity="1.0" stroke-width="3.0"/>
    <path d="M 185.69796752929688 95.68038177490234 C 155.92018127441406 77.04183959960938 179.79135131835938 74.79297637939453 190.4171142578125 99.40118408203125" fill="none" stroke="rgb(0, 0, 0)" stroke-linecap="round" stroke-linejoin="round" stroke-opacity="1.0" stroke-width="3.0"/>
    <path d="M 68.15617370605469 43.43584442138672 C 31.448200225830078 130.03515625 103.77918243408203 84.31941986083984 119.93383026123047 124.8504867553711" fill="none" stroke="rgb(0, 0, 0)" stroke-linecap="round" stroke-linejoin="round" stroke-opacity="1.0" stroke-width="3.0"/>
    <path d="M 89.3587875366211 58.55980682373047 C 109.51558685302734 94.25108337402344 120.60260772705078 87.78108978271484 129.733154296875 98.15901184082031" fill="none" stroke="rgb(0, 0, 0)" stroke-linecap="round" stroke-linejoin="round" stroke-opacity="1.0" stroke-width="3.0"/>
    <path d="M 129.19125366210938 65.59215545654297 C 146.6393280029297 83.21199035644531 151.48922729492188 77.37527465820312 183.84188842773438 93.22791290283203" fill="none" stroke="rgb(0, 0, 0)" stroke-linecap="round" stroke-linejoin="round" stroke-opacity="1.0" stroke-width="3.0"/>
    <path d="M 131.11912536621094 54.026344299316406 C 121.23665618896484 73.28864288330078 145.83493041992188 84.82816314697266 134.43850708007812 94.51197052001953" fill="none" stroke="rgb(0, 0, 0)" stroke-linecap="round" stroke-linejoin="round" stroke-opacity="1.0" stroke-width="3.0"/>
    <path d="M 182.2240447998047 88.2906723022461 C 150.619873046875 64.45990753173828 166.90203857421875 68.93828582763672 132.42596435546875 61.97098159790039" fill="none" stroke="rgb(0, 0, 0)" stroke-linecap="round" stroke-linejoin="round" stroke-opacity="1.0" stroke-width="3.0"/>
    <path d="M 116.40840911865234 130.23989868164062 C 126.70682525634766 166.42828369140625 134.16519165039062 61.939002990722656 107.44839477539062 206.41302490234375" fill="none" stroke="rgb(0, 0, 0)" stroke-linecap="round" stroke-linejoin="round" stroke-opacity="1.0" stroke-width="3.0"/>
  </g>
</svg>
