<?xml version="1.0" ?>
<svg height="224" version="1.1" width="224" xmlns="http://www.w3.org/2000/svg">
  <defs/>
  <g>
    <path d="M 139.4274444580078 54.85242462158203 C 170.21368408203125 81.7678451538086 171.19244384765625 77.12715911865234 113.78358459472656 50.12269592285156" fill="none" stroke="rgb(0, 0, 0)" stroke-linecap="round" stroke-linejoin="round" stroke-opacity="1.0" stroke-width="3.0"/>
    <path d="M 189.5464324951172 98.20870971679688 C 166.42184448242188 94.0185775756836 200.33615112304688 90.14810943603516 165.06642150878906 106.61663818359375" fill="none" stroke="rgb(0, 0, 0)" stroke-linecap="round" stroke-linejoin="round" stroke-opacity="1.0" stroke-width="3.0"/>
    <path d="M 46.690006256103516 40.58441162109375 C 21.89382553100586 157.23233032226562 230.522705078125 38.8982048034668 140.8355712890625 123.21603393554688" fill="none" stroke="rgb(0, 0, 0)" stroke-linecap="round" stroke-linejoin="round" stroke-opacity="1.0" stroke-width="3.0"/>
    <path d="M 92.97406005859375 72.33772277832031 C 138.76087951660156 126.0150375366211 108.51436614990234 82.77849578857422 127.62567901611328 94.93761444091797" fill="none" stroke="rgb(0, 0, 0)" stroke-linecap="round" stroke-linejoin="round" stroke-opacity="1.0" stroke-width="3.0"/>
    <path d="M 111.78670501708984 59.66326141357422 C 139.8499755859375 85.46493530273438 180.46348571777344 88.52720642089844 189.41746520996094 97.40918731689453" fill="none" stroke="rgb(0, 0, 0)" stroke-linecap="round" stroke-linejoin="round" stroke-opacity="1.0" stroke-width="3.0"/>
    <path d="M 146.0766143798828 55.6285514831543 C 68.1640625 17.47015380859375 49.339813232421875 127.78926849365234 145.14517211914062 80.63677978515625" fill="none" stroke="rgb(0, 0, 0)" stroke-linecap="round" stroke-linejoin="round" stroke-opacity="1.0" stroke-width="3.0"/>
    <path d="M 191.03970336914062 93.8253173828125 C 158.44473266601562 54.70808410644531 140.04275512695312 73.23797607421875 126.75926208496094 70.51539611816406" fill="none" stroke="rgb(0, 0, 0)" stroke-linecap="round" stroke-linejoin="round" stroke-opacity="1.0" stroke-width="3.0"/>
    <path d="M 130.93153381347656 94.51041412353516 C 129.135009765625 202.69342041015625 152.19314575195312 27.398603439331055 105.163818359375 204.99307250976562" fill="none" stroke="rgb(0, 0, 0)" stroke-linecap="round" stroke-linejoin="round" stroke-opacity="1.0" stroke-width="3.0"/>
  </g>
</svg>
