<?xml version="1.0" ?>
<svg height="224" version="1.1" width="224" xmlns="http://www.w3.org/2000/svg">
  <defs/>
  <g>
    <path d="M 138.51417541503906 53.73044967651367 C 176.4361572265625 90.54048919677734 172.53785705566406 82.06230163574219 116.39154052734375 51.10121154785156" fill="none" stroke="rgb(0, 0, 0)" stroke-linecap="round" stroke-linejoin="round" stroke-opacity="1.0" stroke-width="3.0"/>
    <path d="M 192.47650146484375 95.70263671875 C 166.25547790527344 90.88813781738281 201.10398864746094 91.56743621826172 168.9866943359375 105.30720520019531" fill="none" stroke="rgb(0, 0, 0)" stroke-linecap="round" stroke-linejoin="round" stroke-opacity="1.0" stroke-width="3.0"/>
    <path d="M 41.571311950683594 40.94942092895508 C 14.22075366973877 147.83326721191406 248.8623504638672 43.2945671081543 139.42840576171875 121.37720489501953" fill="none" stroke="rgb(0, 0, 0)" stroke-linecap="round" stroke-linejoin="round" stroke-opacity="1.0" stroke-width="3.0"/>
    <path d="M 95.96603393554688 71.24109649658203 C 114.21871185302734 118.48002624511719 111.90399932861328 76.95964050292969 113.46886444091797 97.51780700683594" fill="none" stroke="rgb(0, 0, 0)" stroke-linecap="round" stroke-linejoin="round" stroke-opacity="1.0" stroke-width="3.0"/>
    <path d="M 109.56890106201172 70.14784240722656 C 133.0986328125 83.68767547607422 177.0615997314453 84.17234802246094 181.26783752441406 96.09840393066406" fill="none" stroke="rgb(0, 0, 0)" stroke-linecap="round" stroke-linejoin="round" stroke-opacity="1.0" stroke-width="3.0"/>
    <path d="M 146.0306854248047 56.74947738647461 C 78.69763946533203 15.073447227478027 40.670616149902344 128.82798767089844 147.57269287109375 78.75788879394531" fill="none" stroke="rgb(0, 0, 0)" stroke-linecap="round" stroke-linejoin="round" stroke-opacity="1.0" stroke-width="3.0"/>
    <path d="M 190.97483825683594 94.66669464111328 C 153.4445343017578 58.76677703857422 136.78611755371094 69.412109375 121.92765808105469 70.21233367919922" fill="none" stroke="rgb(0, 0, 0)" stroke-linecap="round" stroke-linejoin="round" stroke-opacity="1.0" stroke-width="3.0"/>
    <path d="M 128.6691131591797 88.20777130126953 C 131.00909423828125 197.60743713378906 149.58998107910156 26.969919204711914 106.19865417480469 204.57879638671875" fill="none" stroke="rgb(0, 0, 0)" stroke-linecap="round" stroke-linejoin="round" stroke-opacity="1.0" stroke-width="3.0"/>
  </g>
</svg>
