<?xml version="1.0" ?>
<svg height="224" version="1.1" width="224" xmlns="http://www.w3.org/2000/svg">
  <defs/>
  <g>
    <path d="M 137.0205841064453 72.34408569335938 C 145.93545532226562 77.76704406738281 135.10829162597656 75.58967590332031 142.3669891357422 65.36174011230469" fill="none" stroke="rgb(0, 0, 0)" stroke-linecap="round" stroke-linejoin="round" stroke-opacity="1.0" stroke-width="3.0"/>
    <path d="M 176.13841247558594 79.85967254638672 C 176.20321655273438 73.82901763916016 176.6639404296875 82.12965393066406 190.6694793701172 97.79408264160156" fill="none" stroke="rgb(0, 0, 0)" stroke-linecap="round" stroke-linejoin="round" stroke-opacity="1.0" stroke-width="3.0"/>
    <path d="M 81.34770965576172 62.87662887573242 C 81.9091567993164 93.53679656982422 93.13571166992188 78.29026794433594 99.13352966308594 108.02079772949219" fill="none" stroke="rgb(0, 0, 0)" stroke-linecap="round" stroke-linejoin="round" stroke-opacity="1.0" stroke-width="3.0"/>
    <path d="M 99.31098937988281 64.27101135253906 C 107.64635467529297 86.77043151855469 124.19083404541016 76.47444152832031 122.65040588378906 82.508544921875" fill="none" stroke="rgb(0, 0, 0)" stroke-linecap="round" stroke-linejoin="round" stroke-opacity="1.0" stroke-width="3.0"/>
    <path d="M 162.46351623535156 71.80457305908203 C 168.16683959960938 74.14897918701172 164.67819213867188 72.04334259033203 174.9197540283203 79.25894927978516" fill="none" stroke="rgb(0, 0, 0)" stroke-linecap="round" stroke-linejoin="round" stroke-opacity="1.0" stroke-width="3.0"/>
    <path d="M 129.8799591064453 74.72100830078125 C 120.04940795898438 83.9031982421875 120.37467193603516 92.99911499023438 122.43379974365234 89.88903045654297" fill="none" stroke="rgb(0, 0, 0)" stroke-linecap="round" stroke-linejoin="round" stroke-opacity="1.0" stroke-width="3.0"/>
    <path d="M 165.0784454345703 73.54869079589844 C 153.23597717285156 66.65492248535156 156.2053985595703 72.33042907714844 150.2138671875 65.90878295898438" fill="none" stroke="rgb(0, 0, 0)" stroke-linecap="round" stroke-linejoin="round" stroke-opacity="1.0" stroke-width="3.0"/>
    <path d="M 141.94789123535156 117.90272521972656 C 146.3307647705078 115.8285140991211 143.7042236328125 106.38838958740234 128.05087280273438 137.74884033203125" fill="none" stroke="rgb(0, 0, 0)" stroke-linecap="round" stroke-linejoin="round" stroke-opacity="1.0" stroke-width="3.0"/>
  </g>
</svg>
