<?xml version="1.0" ?>
<svg height="224" version="1.1" width="224" xmlns="http://www.w3.org/2000/svg">
  <defs/>
  <g>
    <path d="M 138.0955047607422 55.00480651855469 C 169.95021057128906 80.74920654296875 171.1058349609375 76.6252212524414 119.2440414428711 51.44334411621094" fill="none" stroke="rgb(0, 0, 0)" stroke-linecap="round" stroke-linejoin="round" stroke-opacity="1.0" stroke-width="3.0"/>
    <path d="M 187.28466796875 97.1452407836914 C 165.52268981933594 95.18379211425781 198.43873596191406 86.5792465209961 166.17520141601562 105.04631805419922" fill="none" stroke="rgb(0, 0, 0)" stroke-linecap="round" stroke-linejoin="round" stroke-opacity="1.0" stroke-width="3.0"/>
    <path d="M 48.37731170654297 40.84769058227539 C 21.377925872802734 158.50440979003906 223.06570434570312 38.25752639770508 142.8479766845703 121.52430725097656" fill="none" stroke="rgb(0, 0, 0)" stroke-linecap="round" stroke-linejoin="round" stroke-opacity="1.0" stroke-width="3.0"/>
    <path d="M 92.57965850830078 69.6258316040039 C 136.8000946044922 130.0594482421875 103.06079864501953 80.49043273925781 128.39370727539062 96.22335815429688" fill="none" stroke="rgb(0, 0, 0)" stroke-linecap="round" stroke-linejoin="round" stroke-opacity="1.0" stroke-width="3.0"/>
    <path d="M 111.45345306396484 59.451194763183594 C 140.89271545410156 86.04417419433594 184.86024475097656 85.37860870361328 188.91403198242188 97.3699951171875" fill="none" stroke="rgb(0, 0, 0)" stroke-linecap="round" stroke-linejoin="round" stroke-opacity="1.0" stroke-width="3.0"/>
    <path d="M 145.2820587158203 55.744415283203125 C 69.85787200927734 17.722814559936523 53.44173049926758 128.3997039794922 146.78062438964844 79.57904052734375" fill="none" stroke="rgb(0, 0, 0)" stroke-linecap="round" stroke-linejoin="round" stroke-opacity="1.0" stroke-width="3.0"/>
    <path d="M 190.7021484375 93.42437744140625 C 158.0355987548828 57.257816314697266 138.5358123779297 71.1303482055664 125.74059295654297 70.4041748046875" fill="none" stroke="rgb(0, 0, 0)" stroke-linecap="round" stroke-linejoin="round" stroke-opacity="1.0" stroke-width="3.0"/>
    <path d="M 129.4495391845703 94.34751892089844 C 131.78395080566406 201.53587341308594 149.81350708007812 24.649660110473633 106.4123306274414 207.32493591308594" fill="none" stroke="rgb(0, 0, 0)" stroke-linecap="round" stroke-linejoin="round" stroke-opacity="1.0" stroke-width="3.0"/>
  </g>
</svg>
