<?xml version="1.0" ?>
<svg height="224" version="1.1" width="224" xmlns="http://www.w3.org/2000/svg">
  <defs/>
  <g>
    <path d="M 131.39422607421875 55.796844482421875 C 171.4399871826172 81.70530700683594 161.81732177734375 85.25772094726562 113.1679916381836 50.717247009277344" fill="none" stroke="rgb(0, 0, 0)" stroke-linecap="round" stroke-linejoin="round" stroke-opacity="1.0" stroke-width="3.0"/>
    <path d="M 190.46142578125 94.3432388305664 C 164.093505859375 87.39064025878906 194.49453735351562 90.8643569946289 175.932373046875 105.3631820678711" fill="none" stroke="rgb(0, 0, 0)" stroke-linecap="round" stroke-linejoin="round" stroke-opacity="1.0" stroke-width="3.0"/>
    <path d="M 58.27705001831055 50.02613830566406 C 23.3630428314209 149.2810516357422 198.53292846679688 26.581520080566406 139.9516143798828 129.80252075195312" fill="none" stroke="rgb(0, 0, 0)" stroke-linecap="round" stroke-linejoin="round" stroke-opacity="1.0" stroke-width="3.0"/>
    <path d="M 89.26713562011719 69.40377807617188 C 85.6496353149414 114.97924041748047 73.61299133300781 70.22520446777344 129.30001831054688 84.96924591064453" fill="none" stroke="rgb(0, 0, 0)" stroke-linecap="round" stroke-linejoin="round" stroke-opacity="1.0" stroke-width="3.0"/>
    <path d="M 111.706298828125 70.1073226928711 C 156.2550811767578 93.66112518310547 171.97998046875 82.40937805175781 186.56565856933594 96.1014404296875" fill="none" stroke="rgb(0, 0, 0)" stroke-linecap="round" stroke-linejoin="round" stroke-opacity="1.0" stroke-width="3.0"/>
    <path d="M 145.83863830566406 57.79698944091797 C 53.86103820800781 28.122615814208984 72.39089965820312 124.38560485839844 167.0646209716797 83.32366943359375" fill="none" stroke="rgb(0, 0, 0)" stroke-linecap="round" stroke-linejoin="round" stroke-opacity="1.0" stroke-width="3.0"/>
    <path d="M 191.056396484375 93.7810287475586 C 167.43833923339844 67.35271453857422 143.38612365722656 68.84058380126953 119.1399154663086 65.34088134765625" fill="none" stroke="rgb(0, 0, 0)" stroke-linecap="round" stroke-linejoin="round" stroke-opacity="1.0" stroke-width="3.0"/>
    <path d="M 116.09237670898438 93.25254821777344 C 131.61753845214844 208.70384216308594 135.37350463867188 34.028038024902344 108.03447723388672 202.7801055908203" fill="none" stroke="rgb(0, 0, 0)" stroke-linecap="round" stroke-linejoin="round" stroke-opacity="1.0" stroke-width="3.0"/>
  </g>
</svg>
