<?xml version="1.0" ?>
<svg height="224" version="1.1" width="224" xmlns="http://www.w3.org/2000/svg">
  <defs/>
  <g>
    <path d="M 130.45289611816406 54.19950485229492 C 172.3536376953125 72.97710418701172 156.30239868164062 82.2801513671875 112.46975708007812 51.40391159057617" fill="none" stroke="rgb(0, 0, 0)" stroke-linecap="round" stroke-linejoin="round" stroke-opacity="1.0" stroke-width="3.0"/>
    <path d="M 189.84527587890625 94.81436920166016 C 161.35650634765625 84.7343521118164 192.2910919189453 94.65992736816406 181.39208984375 102.21392059326172" fill="none" stroke="rgb(0, 0, 0)" stroke-linecap="round" stroke-linejoin="round" stroke-opacity="1.0" stroke-width="3.0"/>
    <path d="M 62.29665756225586 52.64203643798828 C 25.778200149536133 151.32476806640625 196.1324005126953 28.716590881347656 133.60118103027344 121.7232894897461" fill="none" stroke="rgb(0, 0, 0)" stroke-linecap="round" stroke-linejoin="round" stroke-opacity="1.0" stroke-width="3.0"/>
    <path d="M 88.172607421875 66.49772644042969 C 81.47499084472656 111.12698364257812 60.67418670654297 70.487060546875 127.96578979492188 83.072021484375" fill="none" stroke="rgb(0, 0, 0)" stroke-linecap="round" stroke-linejoin="round" stroke-opacity="1.0" stroke-width="3.0"/>
    <path d="M 110.94676971435547 63.52009201049805 C 156.4864501953125 91.65660095214844 173.97207641601562 78.48811340332031 181.8451385498047 98.7476806640625" fill="none" stroke="rgb(0, 0, 0)" stroke-linecap="round" stroke-linejoin="round" stroke-opacity="1.0" stroke-width="3.0"/>
    <path d="M 138.68528747558594 53.7718505859375 C 56.00868606567383 31.326475143432617 70.61676788330078 116.15386199951172 158.85708618164062 73.40658569335938" fill="none" stroke="rgb(0, 0, 0)" stroke-linecap="round" stroke-linejoin="round" stroke-opacity="1.0" stroke-width="3.0"/>
    <path d="M 190.2310028076172 93.55884552001953 C 164.46041870117188 65.54915618896484 146.0149383544922 64.79021453857422 119.48200988769531 62.17427444458008" fill="none" stroke="rgb(0, 0, 0)" stroke-linecap="round" stroke-linejoin="round" stroke-opacity="1.0" stroke-width="3.0"/>
    <path d="M 115.89797973632812 85.45266723632812 C 130.44601440429688 205.98133850097656 134.3407745361328 28.918142318725586 108.99656677246094 203.59764099121094" fill="none" stroke="rgb(0, 0, 0)" stroke-linecap="round" stroke-linejoin="round" stroke-opacity="1.0" stroke-width="3.0"/>
  </g>
</svg>
