<?xml version="1.0" ?>
<svg height="224" version="1.1" width="224" xmlns="http://www.w3.org/2000/svg">
  <defs/>
  <g>
    <path d="M 138.57424926757812 51.45466995239258 C 171.77157592773438 80.49211883544922 170.52267456054688 76.97327423095703 117.28115844726562 47.92231369018555" fill="none" stroke="rgb(0, 0, 0)" stroke-linecap="round" stroke-linejoin="round" stroke-opacity="1.0" stroke-width="3.0"/>
    <path d="M 188.07984924316406 99.2647705078125 C 170.4257354736328 100.38612365722656 200.4234619140625 88.41996765136719 166.64508056640625 106.85120391845703" fill="none" stroke="rgb(0, 0, 0)" stroke-linecap="round" stroke-linejoin="round" stroke-opacity="1.0" stroke-width="3.0"/>
    <path d="M 40.38248825073242 38.488868713378906 C 30.84256362915039 167.31068420410156 203.44215393066406 38.7840576171875 145.8157958984375 123.91211700439453" fill="none" stroke="rgb(0, 0, 0)" stroke-linecap="round" stroke-linejoin="round" stroke-opacity="1.0" stroke-width="3.0"/>
    <path d="M 87.36476135253906 70.2462387084961 C 102.27808380126953 128.84765625 71.94564819335938 73.61540222167969 120.45431518554688 106.50386810302734" fill="none" stroke="rgb(0, 0, 0)" stroke-linecap="round" stroke-linejoin="round" stroke-opacity="1.0" stroke-width="3.0"/>
    <path d="M 123.6446762084961 66.53630065917969 C 152.08517456054688 92.79573822021484 183.258056640625 81.97639465332031 181.41148376464844 98.50830841064453" fill="none" stroke="rgb(0, 0, 0)" stroke-linecap="round" stroke-linejoin="round" stroke-opacity="1.0" stroke-width="3.0"/>
    <path d="M 151.97669982910156 58.838138580322266 C 52.90182113647461 14.858145713806152 57.45034408569336 119.14666748046875 138.13877868652344 80.58753204345703" fill="none" stroke="rgb(0, 0, 0)" stroke-linecap="round" stroke-linejoin="round" stroke-opacity="1.0" stroke-width="3.0"/>
    <path d="M 189.83114624023438 96.16497802734375 C 166.73255920410156 63.862186431884766 136.40371704101562 66.82272338867188 127.47959899902344 64.19111633300781" fill="none" stroke="rgb(0, 0, 0)" stroke-linecap="round" stroke-linejoin="round" stroke-opacity="1.0" stroke-width="3.0"/>
    <path d="M 125.82272338867188 96.75914001464844 C 132.06671142578125 194.42620849609375 148.11585998535156 29.989154815673828 105.25173950195312 208.5907745361328" fill="none" stroke="rgb(0, 0, 0)" stroke-linecap="round" stroke-linejoin="round" stroke-opacity="1.0" stroke-width="3.0"/>
  </g>
</svg>
