<?xml version="1.0" ?>
<svg height="224" version="1.1" width="224" xmlns="http://www.w3.org/2000/svg">
  <defs/>
  <g>
    <path d="M 135.4302520751953 51.08869171142578 C 166.99740600585938 66.28191375732422 151.86404418945312 72.64962768554688 121.23200225830078 47.240055084228516" fill="none" stroke="rgb(0, 0, 0)" stroke-linecap="round" stroke-linejoin="round" stroke-opacity="1.0" stroke-width="3.0"/>
    <path d="M 187.50552368164062 98.0234375 C 148.75450134277344 72.89633178710938 180.73434448242188 81.00497436523438 187.79681396484375 95.76700592041016" fill="none" stroke="rgb(0, 0, 0)" stroke-linecap="round" stroke-linejoin="round" stroke-opacity="1.0" stroke-width="3.0"/>
    <path d="M 61.60378646850586 58.156982421875 C 31.829288482666016 157.60650634765625 184.4593963623047 26.28620719909668 144.33908081054688 132.5331268310547" fill="none" stroke="rgb(0, 0, 0)" stroke-linecap="round" stroke-linejoin="round" stroke-opacity="1.0" stroke-width="3.0"/>
    <path d="M 99.99629974365234 61.14185333251953 C 122.00726318359375 97.88532257080078 93.79875946044922 67.49382781982422 136.6570281982422 84.1668472290039" fill="none" stroke="rgb(0, 0, 0)" stroke-linecap="round" stroke-linejoin="round" stroke-opacity="1.0" stroke-width="3.0"/>
    <path d="M 131.7757110595703 62.526214599609375 C 156.42042541503906 95.9402084350586 177.31651306152344 77.18790435791016 182.72093200683594 101.26895904541016" fill="none" stroke="rgb(0, 0, 0)" stroke-linecap="round" stroke-linejoin="round" stroke-opacity="1.0" stroke-width="3.0"/>
    <path d="M 134.943115234375 51.844512939453125 C 58.918819427490234 26.93361473083496 101.27783203125 103.39765167236328 162.61268615722656 84.5378646850586" fill="none" stroke="rgb(0, 0, 0)" stroke-linecap="round" stroke-linejoin="round" stroke-opacity="1.0" stroke-width="3.0"/>
    <path d="M 190.29104614257812 95.4764404296875 C 158.92869567871094 55.93594741821289 154.8308563232422 77.59735107421875 140.5889434814453 52.809059143066406" fill="none" stroke="rgb(0, 0, 0)" stroke-linecap="round" stroke-linejoin="round" stroke-opacity="1.0" stroke-width="3.0"/>
    <path d="M 121.93205261230469 90.95948028564453 C 134.09506225585938 206.50596618652344 139.00927734375 34.664642333984375 109.0327377319336 202.56576538085938" fill="none" stroke="rgb(0, 0, 0)" stroke-linecap="round" stroke-linejoin="round" stroke-opacity="1.0" stroke-width="3.0"/>
  </g>
</svg>
