<?xml version="1.0" ?>
<svg height="224" version="1.1" width="224" xmlns="http://www.w3.org/2000/svg">
  <defs/>
  <g>
    <path d="M 141.29299926757812 56.91954040527344 C 178.11355590820312 90.1658706665039 173.51458740234375 82.62442779541016 114.39546203613281 50.551246643066406" fill="none" stroke="rgb(0, 0, 0)" stroke-linecap="round" stroke-linejoin="round" stroke-opacity="1.0" stroke-width="3.0"/>
    <path d="M 189.51611328125 97.94279479980469 C 169.2051544189453 92.52050018310547 199.30630493164062 86.45237731933594 170.01344299316406 106.18401336669922" fill="none" stroke="rgb(0, 0, 0)" stroke-linecap="round" stroke-linejoin="round" stroke-opacity="1.0" stroke-width="3.0"/>
    <path d="M 41.014488220214844 43.636234283447266 C 20.300495147705078 146.57142639160156 241.3069305419922 41.07666778564453 143.25119018554688 122.2376937866211" fill="none" stroke="rgb(0, 0, 0)" stroke-linecap="round" stroke-linejoin="round" stroke-opacity="1.0" stroke-width="3.0"/>
    <path d="M 93.13410949707031 72.01618194580078 C 115.20392608642578 119.25962829589844 102.97333526611328 76.24268341064453 125.2884521484375 94.94422149658203" fill="none" stroke="rgb(0, 0, 0)" stroke-linecap="round" stroke-linejoin="round" stroke-opacity="1.0" stroke-width="3.0"/>
    <path d="M 110.56462860107422 63.26517105102539 C 134.50599670410156 82.53165435791016 178.90481567382812 84.09010314941406 186.79177856445312 95.99809265136719" fill="none" stroke="rgb(0, 0, 0)" stroke-linecap="round" stroke-linejoin="round" stroke-opacity="1.0" stroke-width="3.0"/>
    <path d="M 146.98060607910156 56.17890167236328 C 76.23079681396484 16.435850143432617 40.6075439453125 124.2923812866211 152.5279998779297 75.847900390625" fill="none" stroke="rgb(0, 0, 0)" stroke-linecap="round" stroke-linejoin="round" stroke-opacity="1.0" stroke-width="3.0"/>
    <path d="M 190.7409210205078 96.83126068115234 C 154.69969177246094 56.78605270385742 146.5777587890625 72.70979309082031 125.72117614746094 71.7158432006836" fill="none" stroke="rgb(0, 0, 0)" stroke-linecap="round" stroke-linejoin="round" stroke-opacity="1.0" stroke-width="3.0"/>
    <path d="M 127.77841186523438 90.30375671386719 C 131.53428649902344 204.43820190429688 151.70098876953125 27.306438446044922 103.79786682128906 206.0593719482422" fill="none" stroke="rgb(0, 0, 0)" stroke-linecap="round" stroke-linejoin="round" stroke-opacity="1.0" stroke-width="3.0"/>
  </g>
</svg>
