<?xml version="1.0" ?>
<svg height="224" version="1.1" width="224" xmlns="http://www.w3.org/2000/svg">
  <defs/>
  <g>
    <path d="M 133.11094665527344 49.7850456237793 C 158.0813446044922 68.849853515625 152.06192016601562 66.48049926757812 118.1824951171875 47.15727233886719" fill="none" stroke="rgb(0, 0, 0)" stroke-linecap="round" stroke-linejoin="round" stroke-opacity="1.0" stroke-width="3.0"/>
    <path d="M 190.9705810546875 96.50056457519531 C 153.9050750732422 82.95069122314453 194.06167602539062 90.21804809570312 181.95849609375 95.82737731933594" fill="none" stroke="rgb(0, 0, 0)" stroke-linecap="round" stroke-linejoin="round" stroke-opacity="1.0" stroke-width="3.0"/>
    <path d="M 61.485206604003906 48.90343475341797 C 21.407503128051758 158.5684814453125 188.8650665283203 35.9249153137207 142.09921264648438 125.71061706542969" fill="none" stroke="rgb(0, 0, 0)" stroke-linecap="round" stroke-linejoin="round" stroke-opacity="1.0" stroke-width="3.0"/>
    <path d="M 99.12747192382812 73.2207260131836 C 115.14498138427734 99.0367431640625 80.98013305664062 74.57514190673828 137.5845489501953 73.3525390625" fill="none" stroke="rgb(0, 0, 0)" stroke-linecap="round" stroke-linejoin="round" stroke-opacity="1.0" stroke-width="3.0"/>
    <path d="M 121.90265655517578 67.03550720214844 C 156.70091247558594 88.29360961914062 170.7832794189453 72.79436492919922 181.22393798828125 98.23558044433594" fill="none" stroke="rgb(0, 0, 0)" stroke-linecap="round" stroke-linejoin="round" stroke-opacity="1.0" stroke-width="3.0"/>
    <path d="M 138.8330841064453 51.33125686645508 C 54.48616027832031 33.52085876464844 82.57559967041016 102.55473327636719 159.50106811523438 76.5762710571289" fill="none" stroke="rgb(0, 0, 0)" stroke-linecap="round" stroke-linejoin="round" stroke-opacity="1.0" stroke-width="3.0"/>
    <path d="M 193.51779174804688 95.62570190429688 C 151.9878387451172 59.31562042236328 159.94329833984375 69.0698013305664 123.60933685302734 53.71847152709961" fill="none" stroke="rgb(0, 0, 0)" stroke-linecap="round" stroke-linejoin="round" stroke-opacity="1.0" stroke-width="3.0"/>
    <path d="M 124.97401428222656 91.5875473022461 C 128.81822204589844 206.71250915527344 143.70916748046875 26.592130661010742 107.1304931640625 205.11892700195312" fill="none" stroke="rgb(0, 0, 0)" stroke-linecap="round" stroke-linejoin="round" stroke-opacity="1.0" stroke-width="3.0"/>
  </g>
</svg>
