<?xml version="1.0" ?>
<svg height="224" version="1.1" width="224" xmlns="http://www.w3.org/2000/svg">
  <defs/>
  <g>
    <path d="M 134.58294677734375 50.345726013183594 C 168.74948120117188 82.17452239990234 165.66268920898438 80.78287506103516 113.03823852539062 49.17982482910156" fill="none" stroke="rgb(0, 0, 0)" stroke-linecap="round" stroke-linejoin="round" stroke-opacity="1.0" stroke-width="3.0"/>
    <path d="M 190.05877685546875 97.66740417480469 C 165.88902282714844 86.66471099853516 193.86270141601562 93.19860076904297 169.77012634277344 105.87056732177734" fill="none" stroke="rgb(0, 0, 0)" stroke-linecap="round" stroke-linejoin="round" stroke-opacity="1.0" stroke-width="3.0"/>
    <path d="M 51.56199264526367 52.658226013183594 C 23.034090042114258 157.9497528076172 197.02236938476562 30.983478546142578 137.22613525390625 125.38414764404297" fill="none" stroke="rgb(0, 0, 0)" stroke-linecap="round" stroke-linejoin="round" stroke-opacity="1.0" stroke-width="3.0"/>
    <path d="M 87.79669952392578 69.14408874511719 C 97.47933959960938 116.1773910522461 72.1604995727539 69.91190338134766 120.18805694580078 94.29882049560547" fill="none" stroke="rgb(0, 0, 0)" stroke-linecap="round" stroke-linejoin="round" stroke-opacity="1.0" stroke-width="3.0"/>
    <path d="M 119.62380981445312 70.53654479980469 C 156.1577911376953 91.27383422851562 167.5334014892578 82.47361755371094 182.16641235351562 99.22381591796875" fill="none" stroke="rgb(0, 0, 0)" stroke-linecap="round" stroke-linejoin="round" stroke-opacity="1.0" stroke-width="3.0"/>
    <path d="M 144.4296112060547 54.01470947265625 C 54.52153778076172 24.443553924560547 66.42517852783203 125.80410766601562 159.27198791503906 84.37986755371094" fill="none" stroke="rgb(0, 0, 0)" stroke-linecap="round" stroke-linejoin="round" stroke-opacity="1.0" stroke-width="3.0"/>
    <path d="M 189.35772705078125 95.2060546875 C 166.13414001464844 67.28045654296875 143.9651336669922 62.08072280883789 124.12004089355469 58.74663543701172" fill="none" stroke="rgb(0, 0, 0)" stroke-linecap="round" stroke-linejoin="round" stroke-opacity="1.0" stroke-width="3.0"/>
    <path d="M 121.52387237548828 93.76731872558594 C 129.17080688476562 200.09609985351562 141.45681762695312 31.119998931884766 104.3446273803711 207.3260955810547" fill="none" stroke="rgb(0, 0, 0)" stroke-linecap="round" stroke-linejoin="round" stroke-opacity="1.0" stroke-width="3.0"/>
  </g>
</svg>
