<?xml version="1.0" ?>
<svg height="224" version="1.1" width="224" xmlns="http://www.w3.org/2000/svg">
  <defs/>
  <g>
    <path d="M 141.51336669921875 62.10101318359375 C 151.30487060546875 67.87239074707031 141.34622192382812 72.9622802734375 138.50173950195312 60.39038848876953" fill="none" stroke="rgb(0, 0, 0)" stroke-linecap="round" stroke-linejoin="round" stroke-opacity="1.0" stroke-width="3.0"/>
    <path d="M 176.68687438964844 84.28202819824219 C 174.1685791015625 77.52789306640625 179.91439819335938 80.23776245117188 189.79893493652344 93.95370483398438" fill="none" stroke="rgb(0, 0, 0)" stroke-linecap="round" stroke-linejoin="round" stroke-opacity="1.0" stroke-width="3.0"/>
    <path d="M 85.87396240234375 50.932403564453125 C 67.8884048461914 100.15021514892578 96.54080200195312 78.69010162353516 113.65924835205078 113.98979187011719" fill="none" stroke="rgb(0, 0, 0)" stroke-linecap="round" stroke-linejoin="round" stroke-opacity="1.0" stroke-width="3.0"/>
    <path d="M 97.28023529052734 51.29348373413086 C 101.4110336303711 87.92754364013672 123.68889617919922 81.147705078125 129.33865356445312 82.6684341430664" fill="none" stroke="rgb(0, 0, 0)" stroke-linecap="round" stroke-linejoin="round" stroke-opacity="1.0" stroke-width="3.0"/>
    <path d="M 148.11886596679688 70.61441040039062 C 166.31690979003906 76.609619140625 164.0067596435547 72.9438247680664 176.10626220703125 81.81218719482422" fill="none" stroke="rgb(0, 0, 0)" stroke-linecap="round" stroke-linejoin="round" stroke-opacity="1.0" stroke-width="3.0"/>
    <path d="M 138.64324951171875 71.37338256835938 C 121.72225952148438 78.82147979736328 129.66915893554688 93.31861877441406 126.93971252441406 96.44872283935547" fill="none" stroke="rgb(0, 0, 0)" stroke-linecap="round" stroke-linejoin="round" stroke-opacity="1.0" stroke-width="3.0"/>
    <path d="M 167.95921325683594 73.52314758300781 C 150.76658630371094 62.20967483520508 159.3562774658203 62.509708404541016 144.1795196533203 58.70767593383789" fill="none" stroke="rgb(0, 0, 0)" stroke-linecap="round" stroke-linejoin="round" stroke-opacity="1.0" stroke-width="3.0"/>
    <path d="M 128.76315307617188 123.3309555053711 C 134.98526000976562 118.00001525878906 135.14596557617188 104.23998260498047 118.51093292236328 152.24700927734375" fill="none" stroke="rgb(0, 0, 0)" stroke-linecap="round" stroke-linejoin="round" stroke-opacity="1.0" stroke-width="3.0"/>
  </g>
</svg>
