<?xml version="1.0" ?>
<svg height="224" version="1.1" width="224" xmlns="http://www.w3.org/2000/svg">
  <defs/>
  <g>
    <path d="M 138.74911499023438 56.088260650634766 C 171.2358856201172 78.6661376953125 167.2834014892578 78.107421875 114.24466705322266 50.68108367919922" fill="none" stroke="rgb(0, 0, 0)" stroke-linecap="round" stroke-linejoin="round" stroke-opacity="1.0" stroke-width="3.0"/>
    <path d="M 189.09519958496094 95.8050765991211 C 170.40542602539062 92.76703643798828 199.77688598632812 87.04295349121094 164.0216827392578 106.91500091552734" fill="none" stroke="rgb(0, 0, 0)" stroke-linecap="round" stroke-linejoin="round" stroke-opacity="1.0" stroke-width="3.0"/>
    <path d="M 44.41904067993164 42.74980545043945 C 36.31711196899414 166.96267700195312 209.24560546875 39.55459213256836 138.94027709960938 122.65909576416016" fill="none" stroke="rgb(0, 0, 0)" stroke-linecap="round" stroke-linejoin="round" stroke-opacity="1.0" stroke-width="3.0"/>
    <path d="M 86.0194320678711 72.09623718261719 C 127.799560546875 132.26710510253906 84.5573959350586 79.07936096191406 120.91364288330078 103.3617172241211" fill="none" stroke="rgb(0, 0, 0)" stroke-linecap="round" stroke-linejoin="round" stroke-opacity="1.0" stroke-width="3.0"/>
    <path d="M 120.29546356201172 65.23357391357422 C 147.26657104492188 93.39958190917969 185.0147247314453 84.78687286376953 180.84596252441406 96.97612762451172" fill="none" stroke="rgb(0, 0, 0)" stroke-linecap="round" stroke-linejoin="round" stroke-opacity="1.0" stroke-width="3.0"/>
    <path d="M 148.53599548339844 59.68584442138672 C 58.45016098022461 20.331995010375977 56.37790298461914 125.84815979003906 147.0624237060547 84.8509521484375" fill="none" stroke="rgb(0, 0, 0)" stroke-linecap="round" stroke-linejoin="round" stroke-opacity="1.0" stroke-width="3.0"/>
    <path d="M 191.750244140625 95.28441619873047 C 166.5437469482422 63.365970611572266 133.95730590820312 74.9091567993164 126.29462432861328 70.63074493408203" fill="none" stroke="rgb(0, 0, 0)" stroke-linecap="round" stroke-linejoin="round" stroke-opacity="1.0" stroke-width="3.0"/>
    <path d="M 126.41011810302734 98.21302795410156 C 132.3160400390625 192.63565063476562 148.22010803222656 35.168846130371094 104.91490173339844 205.5260009765625" fill="none" stroke="rgb(0, 0, 0)" stroke-linecap="round" stroke-linejoin="round" stroke-opacity="1.0" stroke-width="3.0"/>
  </g>
</svg>
