<?xml version="1.0" ?>
<svg height="224" version="1.1" width="224" xmlns="http://www.w3.org/2000/svg">
  <defs/>
  <g>
    <path d="M 129.71640014648438 50.40098190307617 C 164.128173828125 65.03466796875 152.52569580078125 67.89041900634766 132.7391357421875 57.78387451171875" fill="none" stroke="rgb(0, 0, 0)" stroke-linecap="round" stroke-linejoin="round" stroke-opacity="1.0" stroke-width="3.0"/>
    <path d="M 185.1227569580078 99.23400115966797 C 148.39822387695312 70.6974868774414 177.11204528808594 84.73361206054688 189.8431396484375 98.4402084350586" fill="none" stroke="rgb(0, 0, 0)" stroke-linecap="round" stroke-linejoin="round" stroke-opacity="1.0" stroke-width="3.0"/>
    <path d="M 63.08620071411133 50.94526290893555 C 32.036006927490234 154.5812530517578 141.6321563720703 39.73204803466797 128.17959594726562 126.34759521484375" fill="none" stroke="rgb(0, 0, 0)" stroke-linecap="round" stroke-linejoin="round" stroke-opacity="1.0" stroke-width="3.0"/>
    <path d="M 102.0881576538086 50.79098129272461 C 127.8865966796875 65.01181030273438 110.07261657714844 50.91868209838867 137.9827117919922 84.41107177734375" fill="none" stroke="rgb(0, 0, 0)" stroke-linecap="round" stroke-linejoin="round" stroke-opacity="1.0" stroke-width="3.0"/>
    <path d="M 142.25387573242188 67.9099349975586 C 147.47325134277344 89.36994934082031 168.9419708251953 75.7435073852539 182.5220947265625 99.7870864868164" fill="none" stroke="rgb(0, 0, 0)" stroke-linecap="round" stroke-linejoin="round" stroke-opacity="1.0" stroke-width="3.0"/>
    <path d="M 137.46334838867188 47.05744171142578 C 74.2188720703125 33.56730270385742 118.98763275146484 92.58656311035156 154.27456665039062 81.68222045898438" fill="none" stroke="rgb(0, 0, 0)" stroke-linecap="round" stroke-linejoin="round" stroke-opacity="1.0" stroke-width="3.0"/>
    <path d="M 186.60043334960938 90.50133514404297 C 160.9282989501953 63.516971588134766 160.48916625976562 75.96334075927734 139.5760955810547 51.39400100708008" fill="none" stroke="rgb(0, 0, 0)" stroke-linecap="round" stroke-linejoin="round" stroke-opacity="1.0" stroke-width="3.0"/>
    <path d="M 117.31651306152344 98.2817153930664 C 126.7458724975586 211.6400604248047 136.8727264404297 46.89719772338867 105.88467407226562 205.8594512939453" fill="none" stroke="rgb(0, 0, 0)" stroke-linecap="round" stroke-linejoin="round" stroke-opacity="1.0" stroke-width="3.0"/>
  </g>
</svg>
