<?xml version="1.0" ?>
<svg height="224" version="1.1" width="224" xmlns="http://www.w3.org/2000/svg">
  <defs/>
  <g>
    <path d="M 134.742919921875 49.87547302246094 C 170.83489990234375 79.05536651611328 171.20660400390625 75.77301025390625 114.82186126708984 48.05617904663086" fill="none" stroke="rgb(0, 0, 0)" stroke-linecap="round" stroke-linejoin="round" stroke-opacity="1.0" stroke-width="3.0"/>
    <path d="M 189.2598114013672 97.39251708984375 C 167.87571716308594 92.96209716796875 198.1379852294922 90.93895721435547 166.32833862304688 106.91781616210938" fill="none" stroke="rgb(0, 0, 0)" stroke-linecap="round" stroke-linejoin="round" stroke-opacity="1.0" stroke-width="3.0"/>
    <path d="M 49.44583511352539 51.5360107421875 C 17.040199279785156 158.6558380126953 193.65379333496094 31.15637969970703 137.97665405273438 123.67790222167969" fill="none" stroke="rgb(0, 0, 0)" stroke-linecap="round" stroke-linejoin="round" stroke-opacity="1.0" stroke-width="3.0"/>
    <path d="M 85.36856842041016 73.2354507446289 C 106.0911636352539 117.91532135009766 75.46805572509766 69.04793548583984 117.61091613769531 98.87224578857422" fill="none" stroke="rgb(0, 0, 0)" stroke-linecap="round" stroke-linejoin="round" stroke-opacity="1.0" stroke-width="3.0"/>
    <path d="M 119.81246185302734 70.7225570678711 C 150.70428466796875 95.66604614257812 174.58438110351562 80.03009033203125 182.33213806152344 95.65684509277344" fill="none" stroke="rgb(0, 0, 0)" stroke-linecap="round" stroke-linejoin="round" stroke-opacity="1.0" stroke-width="3.0"/>
    <path d="M 145.51722717285156 54.77859115600586 C 56.8570556640625 22.912986755371094 69.69409942626953 120.416259765625 155.51229858398438 84.2498550415039" fill="none" stroke="rgb(0, 0, 0)" stroke-linecap="round" stroke-linejoin="round" stroke-opacity="1.0" stroke-width="3.0"/>
    <path d="M 191.94378662109375 95.37782287597656 C 168.0910186767578 70.15318298339844 139.8899383544922 65.83912658691406 123.10027313232422 60.753841400146484" fill="none" stroke="rgb(0, 0, 0)" stroke-linecap="round" stroke-linejoin="round" stroke-opacity="1.0" stroke-width="3.0"/>
    <path d="M 122.65422058105469 95.06548309326172 C 133.84857177734375 191.9248504638672 141.02578735351562 26.009572982788086 108.04276275634766 204.37985229492188" fill="none" stroke="rgb(0, 0, 0)" stroke-linecap="round" stroke-linejoin="round" stroke-opacity="1.0" stroke-width="3.0"/>
  </g>
</svg>
