<?xml version="1.0" ?>
<svg height="224" version="1.1" width="224" xmlns="http://www.w3.org/2000/svg">
  <defs/>
  <g>
    <path d="M 139.4886016845703 56.16327667236328 C 171.6741180419922 82.40574645996094 174.2161407470703 74.90108489990234 111.05558013916016 50.06288528442383" fill="none" stroke="rgb(0, 0, 0)" stroke-linecap="round" stroke-linejoin="round" stroke-opacity="1.0" stroke-width="3.0"/>
    <path d="M 187.29600524902344 98.99717712402344 C 165.6549530029297 100.38790893554688 200.747802734375 91.32928466796875 165.8725128173828 108.72643280029297" fill="none" stroke="rgb(0, 0, 0)" stroke-linecap="round" stroke-linejoin="round" stroke-opacity="1.0" stroke-width="3.0"/>
    <path d="M 43.709007263183594 44.20865249633789 C 19.373510360717773 156.20126342773438 233.9551239013672 40.322757720947266 140.7273406982422 122.18924713134766" fill="none" stroke="rgb(0, 0, 0)" stroke-linecap="round" stroke-linejoin="round" stroke-opacity="1.0" stroke-width="3.0"/>
    <path d="M 93.28717803955078 71.46966552734375 C 137.46343994140625 125.64064025878906 110.69722747802734 83.10173797607422 127.62271118164062 93.95894622802734" fill="none" stroke="rgb(0, 0, 0)" stroke-linecap="round" stroke-linejoin="round" stroke-opacity="1.0" stroke-width="3.0"/>
    <path d="M 114.16637420654297 61.65935516357422 C 140.00791931152344 83.93108367919922 181.7008514404297 85.74213409423828 188.987548828125 97.42076873779297" fill="none" stroke="rgb(0, 0, 0)" stroke-linecap="round" stroke-linejoin="round" stroke-opacity="1.0" stroke-width="3.0"/>
    <path d="M 145.54086303710938 56.86960983276367 C 71.7298583984375 15.682297706604004 49.82673263549805 126.17584991455078 150.51707458496094 81.13518524169922" fill="none" stroke="rgb(0, 0, 0)" stroke-linecap="round" stroke-linejoin="round" stroke-opacity="1.0" stroke-width="3.0"/>
    <path d="M 190.30946350097656 93.40354919433594 C 158.07611083984375 54.40342330932617 139.21070861816406 74.53640747070312 126.21883392333984 69.47425079345703" fill="none" stroke="rgb(0, 0, 0)" stroke-linecap="round" stroke-linejoin="round" stroke-opacity="1.0" stroke-width="3.0"/>
    <path d="M 128.85452270507812 93.29422760009766 C 126.61518096923828 201.53311157226562 152.38246154785156 28.56143569946289 105.90037536621094 205.30056762695312" fill="none" stroke="rgb(0, 0, 0)" stroke-linecap="round" stroke-linejoin="round" stroke-opacity="1.0" stroke-width="3.0"/>
  </g>
</svg>
