<?xml version="1.0" ?>
<svg height="224" version="1.1" width="224" xmlns="http://www.w3.org/2000/svg">
  <defs/>
  <g>
    <path d="M 137.88417053222656 57.082786560058594 C 170.41432189941406 80.87948608398438 167.66436767578125 78.6514663696289 114.14765930175781 48.43494415283203" fill="none" stroke="rgb(0, 0, 0)" stroke-linecap="round" stroke-linejoin="round" stroke-opacity="1.0" stroke-width="3.0"/>
    <path d="M 193.0096893310547 95.7065200805664 C 170.3941192626953 92.15911865234375 201.32261657714844 88.61168670654297 161.3480224609375 109.43417358398438" fill="none" stroke="rgb(0, 0, 0)" stroke-linecap="round" stroke-linejoin="round" stroke-opacity="1.0" stroke-width="3.0"/>
    <path d="M 37.68879318237305 42.51731872558594 C 33.44184875488281 161.0281524658203 212.86166381835938 37.12199020385742 141.92030334472656 120.27186584472656" fill="none" stroke="rgb(0, 0, 0)" stroke-linecap="round" stroke-linejoin="round" stroke-opacity="1.0" stroke-width="3.0"/>
    <path d="M 86.66645812988281 69.57952117919922 C 137.69778442382812 130.5814971923828 101.37580871582031 79.96163940429688 127.50751495361328 95.0851821899414" fill="none" stroke="rgb(0, 0, 0)" stroke-linecap="round" stroke-linejoin="round" stroke-opacity="1.0" stroke-width="3.0"/>
    <path d="M 116.24617767333984 61.52220153808594 C 143.75759887695312 94.22784423828125 187.5361785888672 84.96858978271484 181.75927734375 97.23324584960938" fill="none" stroke="rgb(0, 0, 0)" stroke-linecap="round" stroke-linejoin="round" stroke-opacity="1.0" stroke-width="3.0"/>
    <path d="M 145.2147979736328 56.03119659423828 C 65.18174743652344 16.082656860351562 57.969093322753906 124.00746154785156 147.54141235351562 81.46826934814453" fill="none" stroke="rgb(0, 0, 0)" stroke-linecap="round" stroke-linejoin="round" stroke-opacity="1.0" stroke-width="3.0"/>
    <path d="M 193.90853881835938 93.23259735107422 C 160.38243103027344 61.326133728027344 136.25958251953125 75.10553741455078 130.04550170898438 69.05818939208984" fill="none" stroke="rgb(0, 0, 0)" stroke-linecap="round" stroke-linejoin="round" stroke-opacity="1.0" stroke-width="3.0"/>
    <path d="M 127.283935546875 92.88533782958984 C 130.48114013671875 190.30874633789062 150.16505432128906 30.554813385009766 103.64423370361328 203.5471954345703" fill="none" stroke="rgb(0, 0, 0)" stroke-linecap="round" stroke-linejoin="round" stroke-opacity="1.0" stroke-width="3.0"/>
  </g>
</svg>
