<?xml version="1.0" ?>
<svg height="224" version="1.1" width="224" xmlns="http://www.w3.org/2000/svg">
  <defs/>
  <g>
    <path d="M 134.6206817626953 49.7230339050293 C 156.74957275390625 68.36940002441406 153.08071899414062 64.9657211303711 117.64238739013672 49.391632080078125" fill="none" stroke="rgb(0, 0, 0)" stroke-linecap="round" stroke-linejoin="round" stroke-opacity="1.0" stroke-width="3.0"/>
    <path d="M 190.41574096679688 97.07986450195312 C 149.9737548828125 83.10131072998047 191.77923583984375 87.39546966552734 181.40386962890625 95.55304718017578" fill="none" stroke="rgb(0, 0, 0)" stroke-linecap="round" stroke-linejoin="round" stroke-opacity="1.0" stroke-width="3.0"/>
    <path d="M 61.42362976074219 50.760475158691406 C 21.028093338012695 163.71804809570312 187.4477996826172 35.020748138427734 141.40716552734375 126.51124572753906" fill="none" stroke="rgb(0, 0, 0)" stroke-linecap="round" stroke-linejoin="round" stroke-opacity="1.0" stroke-width="3.0"/>
    <path d="M 97.875 73.1988296508789 C 122.24119567871094 102.98686218261719 93.91590118408203 73.70668029785156 133.31646728515625 84.85261535644531" fill="none" stroke="rgb(0, 0, 0)" stroke-linecap="round" stroke-linejoin="round" stroke-opacity="1.0" stroke-width="3.0"/>
    <path d="M 127.9627685546875 64.10199737548828 C 153.36932373046875 95.47549438476562 170.06983947753906 77.52659606933594 181.45045471191406 95.79682922363281" fill="none" stroke="rgb(0, 0, 0)" stroke-linecap="round" stroke-linejoin="round" stroke-opacity="1.0" stroke-width="3.0"/>
    <path d="M 136.42822265625 49.71424102783203 C 49.468177795410156 32.883270263671875 81.89482879638672 110.0827407836914 156.57261657714844 80.87281799316406" fill="none" stroke="rgb(0, 0, 0)" stroke-linecap="round" stroke-linejoin="round" stroke-opacity="1.0" stroke-width="3.0"/>
    <path d="M 192.58477783203125 94.72813415527344 C 153.84320068359375 59.520843505859375 160.90097045898438 71.07125091552734 125.22733306884766 54.214317321777344" fill="none" stroke="rgb(0, 0, 0)" stroke-linecap="round" stroke-linejoin="round" stroke-opacity="1.0" stroke-width="3.0"/>
    <path d="M 127.69828033447266 96.26558685302734 C 134.7847137451172 204.7919464111328 143.67857360839844 26.317913055419922 109.72959899902344 202.1421356201172" fill="none" stroke="rgb(0, 0, 0)" stroke-linecap="round" stroke-linejoin="round" stroke-opacity="1.0" stroke-width="3.0"/>
  </g>
</svg>
