<?xml version="1.0" ?>
<svg height="224" version="1.1" width="224" xmlns="http://www.w3.org/2000/svg">
  <defs/>
  <g>
    <path d="M 141.574951171875 54.617027282714844 C 188.88050842285156 89.0693359375 177.874267578125 78.9429931640625 121.11405944824219 55.66830062866211" fill="none" stroke="rgb(0, 0, 0)" stroke-linecap="round" stroke-linejoin="round" stroke-opacity="1.0" stroke-width="3.0"/>
    <path d="M 187.59703063964844 100.43267059326172 C 163.6073455810547 93.7983169555664 199.57180786132812 91.65869140625 166.3590545654297 105.15274810791016" fill="none" stroke="rgb(0, 0, 0)" stroke-linecap="round" stroke-linejoin="round" stroke-opacity="1.0" stroke-width="3.0"/>
    <path d="M 45.376792907714844 39.35990905761719 C -2.5697731971740723 143.05419921875 290.70867919921875 52.88690185546875 128.35595703125 122.67091369628906" fill="none" stroke="rgb(0, 0, 0)" stroke-linecap="round" stroke-linejoin="round" stroke-opacity="1.0" stroke-width="3.0"/>
    <path d="M 81.63090515136719 77.17426300048828 C 100.55145263671875 117.35824584960938 99.4864273071289 76.94291687011719 111.59190368652344 112.55242919921875" fill="none" stroke="rgb(0, 0, 0)" stroke-linecap="round" stroke-linejoin="round" stroke-opacity="1.0" stroke-width="3.0"/>
    <path d="M 125.59195709228516 73.33649444580078 C 134.44276428222656 78.48289489746094 177.75559997558594 86.33747863769531 180.9195098876953 89.0820541381836" fill="none" stroke="rgb(0, 0, 0)" stroke-linecap="round" stroke-linejoin="round" stroke-opacity="1.0" stroke-width="3.0"/>
    <path d="M 147.95767211914062 56.41633987426758 C 62.427696228027344 15.102156639099121 21.486967086791992 133.19241333007812 150.26979064941406 76.43104553222656" fill="none" stroke="rgb(0, 0, 0)" stroke-linecap="round" stroke-linejoin="round" stroke-opacity="1.0" stroke-width="3.0"/>
    <path d="M 190.39927673339844 97.19454193115234 C 150.67434692382812 34.13852310180664 110.98624420166016 83.16334533691406 96.75379180908203 79.08361053466797" fill="none" stroke="rgb(0, 0, 0)" stroke-linecap="round" stroke-linejoin="round" stroke-opacity="1.0" stroke-width="3.0"/>
    <path d="M 117.68136596679688 93.2056655883789 C 129.9986572265625 222.11404418945312 143.0477294921875 24.992311477661133 106.17503356933594 207.69485473632812" fill="none" stroke="rgb(0, 0, 0)" stroke-linecap="round" stroke-linejoin="round" stroke-opacity="1.0" stroke-width="3.0"/>
  </g>
</svg>
