<?xml version="1.0" ?>
<svg height="224" version="1.1" width="224" xmlns="http://www.w3.org/2000/svg">
  <defs/>
  <g>
    <path d="M 140.57662963867188 59.39207077026367 C 169.82701110839844 57.267662048339844 148.3172607421875 75.70671081542969 124.66975402832031 62.49042510986328" fill="none" stroke="rgb(0, 0, 0)" stroke-linecap="round" stroke-linejoin="round" stroke-opacity="1.0" stroke-width="3.0"/>
    <path d="M 184.1195068359375 93.2431869506836 C 158.42213439941406 81.52680969238281 181.15234375 78.70569610595703 188.9008026123047 98.99253845214844" fill="none" stroke="rgb(0, 0, 0)" stroke-linecap="round" stroke-linejoin="round" stroke-opacity="1.0" stroke-width="3.0"/>
    <path d="M 69.78180694580078 44.9412956237793 C 28.329357147216797 131.37315368652344 105.05509185791016 84.80825805664062 121.9887924194336 121.358154296875" fill="none" stroke="rgb(0, 0, 0)" stroke-linecap="round" stroke-linejoin="round" stroke-opacity="1.0" stroke-width="3.0"/>
    <path d="M 91.34346771240234 58.44419479370117 C 109.59339904785156 92.02873229980469 123.83814239501953 90.99478912353516 127.05745697021484 94.45855712890625" fill="none" stroke="rgb(0, 0, 0)" stroke-linecap="round" stroke-linejoin="round" stroke-opacity="1.0" stroke-width="3.0"/>
    <path d="M 127.74531555175781 66.64627075195312 C 144.52517700195312 79.70474243164062 156.3035888671875 72.90835571289062 181.5426788330078 94.42454528808594" fill="none" stroke="rgb(0, 0, 0)" stroke-linecap="round" stroke-linejoin="round" stroke-opacity="1.0" stroke-width="3.0"/>
    <path d="M 134.4803466796875 61.8115234375 C 119.2899398803711 72.64490509033203 139.36415100097656 92.86461639404297 136.80538940429688 94.80278778076172" fill="none" stroke="rgb(0, 0, 0)" stroke-linecap="round" stroke-linejoin="round" stroke-opacity="1.0" stroke-width="3.0"/>
    <path d="M 178.71505737304688 83.23258972167969 C 154.31163024902344 59.88047409057617 169.35507202148438 68.61614990234375 130.07315063476562 61.06867980957031" fill="none" stroke="rgb(0, 0, 0)" stroke-linecap="round" stroke-linejoin="round" stroke-opacity="1.0" stroke-width="3.0"/>
    <path d="M 125.85409545898438 121.49746704101562 C 138.61605834960938 146.4615478515625 137.4025115966797 61.37455749511719 104.84541320800781 207.06459045410156" fill="none" stroke="rgb(0, 0, 0)" stroke-linecap="round" stroke-linejoin="round" stroke-opacity="1.0" stroke-width="3.0"/>
  </g>
</svg>
