<?xml version="1.0" ?>
<svg height="224" version="1.1" width="224" xmlns="http://www.w3.org/2000/svg">
  <defs/>
  <g>
    <path d="M 129.27952575683594 49.34714126586914 C 160.62109375 65.5433120727539 150.7364959716797 63.619590759277344 136.4181365966797 60.18049621582031" fill="none" stroke="rgb(0, 0, 0)" stroke-linecap="round" stroke-linejoin="round" stroke-opacity="1.0" stroke-width="3.0"/>
    <path d="M 187.9016571044922 98.76079559326172 C 153.63592529296875 67.71794891357422 180.84030151367188 79.98222351074219 187.62619018554688 99.12225341796875" fill="none" stroke="rgb(0, 0, 0)" stroke-linecap="round" stroke-linejoin="round" stroke-opacity="1.0" stroke-width="3.0"/>
    <path d="M 68.83147430419922 47.03784942626953 C 34.010982513427734 159.49652099609375 139.2801055908203 44.367408752441406 130.91627502441406 131.9971466064453" fill="none" stroke="rgb(0, 0, 0)" stroke-linecap="round" stroke-linejoin="round" stroke-opacity="1.0" stroke-width="3.0"/>
    <path d="M 101.48206329345703 55.386924743652344 C 125.52228546142578 76.63737487792969 117.19884490966797 53.474220275878906 135.17738342285156 78.93840789794922" fill="none" stroke="rgb(0, 0, 0)" stroke-linecap="round" stroke-linejoin="round" stroke-opacity="1.0" stroke-width="3.0"/>
    <path d="M 139.53073120117188 69.89192199707031 C 146.42933654785156 95.08258056640625 163.49176025390625 81.16068267822266 183.7722930908203 102.03368377685547" fill="none" stroke="rgb(0, 0, 0)" stroke-linecap="round" stroke-linejoin="round" stroke-opacity="1.0" stroke-width="3.0"/>
    <path d="M 135.38397216796875 47.368839263916016 C 76.60964965820312 33.734378814697266 125.90834045410156 83.75389099121094 156.8913116455078 85.9876937866211" fill="none" stroke="rgb(0, 0, 0)" stroke-linecap="round" stroke-linejoin="round" stroke-opacity="1.0" stroke-width="3.0"/>
    <path d="M 178.10328674316406 91.29065704345703 C 156.47622680664062 69.66740417480469 158.148681640625 78.34658813476562 139.83685302734375 54.388004302978516" fill="none" stroke="rgb(0, 0, 0)" stroke-linecap="round" stroke-linejoin="round" stroke-opacity="1.0" stroke-width="3.0"/>
    <path d="M 119.8308334350586 106.83279418945312 C 129.84336853027344 206.64990234375 137.02169799804688 55.22084426879883 109.40116882324219 207.06488037109375" fill="none" stroke="rgb(0, 0, 0)" stroke-linecap="round" stroke-linejoin="round" stroke-opacity="1.0" stroke-width="3.0"/>
  </g>
</svg>
