<?xml version="1.0" ?>
<svg height="224" version="1.1" width="224" xmlns="http://www.w3.org/2000/svg">
  <defs/>
  <g>
    <path d="M 140.14297485351562 54.32915496826172 C 174.93051147460938 91.7141342163086 166.926513671875 85.24022674560547 120.85549926757812 51.17313766479492" fill="none" stroke="rgb(0, 0, 0)" stroke-linecap="round" stroke-linejoin="round" stroke-opacity="1.0" stroke-width="3.0"/>
    <path d="M 191.06069946289062 96.56385803222656 C 166.1272430419922 91.69544982910156 201.81192016601562 93.08723449707031 166.08828735351562 104.67018127441406" fill="none" stroke="rgb(0, 0, 0)" stroke-linecap="round" stroke-linejoin="round" stroke-opacity="1.0" stroke-width="3.0"/>
    <path d="M 44.04581832885742 37.61399841308594 C 12.893209457397461 146.14263916015625 251.39979553222656 42.593997955322266 142.9157257080078 119.6323013305664" fill="none" stroke="rgb(0, 0, 0)" stroke-linecap="round" stroke-linejoin="round" stroke-opacity="1.0" stroke-width="3.0"/>
    <path d="M 91.81621551513672 69.24466705322266 C 108.9747085571289 113.09484100341797 112.91852569580078 72.17961883544922 113.12029266357422 101.1868896484375" fill="none" stroke="rgb(0, 0, 0)" stroke-linecap="round" stroke-linejoin="round" stroke-opacity="1.0" stroke-width="3.0"/>
    <path d="M 108.61497497558594 68.44332122802734 C 132.6776123046875 83.54175567626953 180.3581085205078 81.21675872802734 181.7014923095703 94.8070297241211" fill="none" stroke="rgb(0, 0, 0)" stroke-linecap="round" stroke-linejoin="round" stroke-opacity="1.0" stroke-width="3.0"/>
    <path d="M 145.8728790283203 55.567535400390625 C 79.36286163330078 12.27613353729248 42.75749588012695 130.18881225585938 155.4095916748047 83.13716888427734" fill="none" stroke="rgb(0, 0, 0)" stroke-linecap="round" stroke-linejoin="round" stroke-opacity="1.0" stroke-width="3.0"/>
    <path d="M 191.50759887695312 94.0738525390625 C 155.26272583007812 56.465370178222656 133.3468017578125 65.51485443115234 119.51770782470703 66.46293640136719" fill="none" stroke="rgb(0, 0, 0)" stroke-linecap="round" stroke-linejoin="round" stroke-opacity="1.0" stroke-width="3.0"/>
    <path d="M 127.17374420166016 93.32896423339844 C 128.1082000732422 202.17642211914062 147.99383544921875 25.95370864868164 105.26777648925781 206.5316619873047" fill="none" stroke="rgb(0, 0, 0)" stroke-linecap="round" stroke-linejoin="round" stroke-opacity="1.0" stroke-width="3.0"/>
  </g>
</svg>
