<?xml version="1.0" ?>
<svg height="224" version="1.1" width="224" xmlns="http://www.w3.org/2000/svg">
  <defs/>
  <g>
    <path d="M 98.01344299316406 150.74598693847656 C 119.74465942382812 158.20779418945312 37.14201736450195 89.80514526367188 102.3832778930664 51.1394157409668" fill="none" stroke="rgb(0, 0, 0)" stroke-linecap="round" stroke-linejoin="round" stroke-opacity="1.0" stroke-width="3.0"/>
    <path d="M 115.16665649414062 145.48995971679688 C 191.974365234375 116.90874481201172 142.46624755859375 132.2161407470703 154.37608337402344 58.74357223510742" fill="none" stroke="rgb(0, 0, 0)" stroke-linecap="round" stroke-linejoin="round" stroke-opacity="1.0" stroke-width="3.0"/>
    <path d="M 138.8300018310547 48.40263366699219 C 183.37747192382812 65.86681365966797 171.47276306152344 103.22486877441406 171.88412475585938 95.80674743652344" fill="none" stroke="rgb(0, 0, 0)" stroke-linecap="round" stroke-linejoin="round" stroke-opacity="1.0" stroke-width="3.0"/>
    <path d="M 138.15713500976562 54.89647674560547 C 118.10626983642578 116.89420318603516 103.69862365722656 57.02510452270508 118.97369384765625 102.85572814941406" fill="none" stroke="rgb(0, 0, 0)" stroke-linecap="round" stroke-linejoin="round" stroke-opacity="1.0" stroke-width="3.0"/>
    <path d="M 130.06056213378906 30.712730407714844 C 146.5779266357422 38.056365966796875 141.54159545898438 108.21040344238281 120.88726043701172 93.3403549194336" fill="none" stroke="rgb(0, 0, 0)" stroke-linecap="round" stroke-linejoin="round" stroke-opacity="1.0" stroke-width="3.0"/>
    <path d="M 171.81329345703125 97.09378814697266 C 177.49269104003906 115.86101531982422 171.4032440185547 101.57887268066406 181.5955352783203 134.6914520263672" fill="none" stroke="rgb(0, 0, 0)" stroke-linecap="round" stroke-linejoin="round" stroke-opacity="1.0" stroke-width="3.0"/>
    <path d="M 123.5978012084961 97.96981048583984 C 100.64152526855469 67.72108459472656 83.25735473632812 48.879737854003906 114.05480194091797 28.51659393310547" fill="none" stroke="rgb(0, 0, 0)" stroke-linecap="round" stroke-linejoin="round" stroke-opacity="1.0" stroke-width="3.0"/>
    <path d="M 100.2965316772461 145.2788848876953 C 148.94491577148438 128.82772827148438 113.2016830444336 179.6859893798828 97.5189437866211 157.85641479492188" fill="none" stroke="rgb(0, 0, 0)" stroke-linecap="round" stroke-linejoin="round" stroke-opacity="1.0" stroke-width="3.0"/>
    <path d="M 195.8826904296875 125.85807800292969 C 185.4532012939453 153.80821228027344 209.8607177734375 147.23594665527344 166.92041015625 171.42263793945312" fill="none" stroke="rgb(0, 0, 0)" stroke-linecap="round" stroke-linejoin="round" stroke-opacity="1.0" stroke-width="3.0"/>
    <path d="M 129.96383666992188 36.41250991821289 C 43.68659210205078 36.32451629638672 155.87322998046875 63.83251953125 107.91692352294922 56.474063873291016" fill="none" stroke="rgb(0, 0, 0)" stroke-linecap="round" stroke-linejoin="round" stroke-opacity="1.0" stroke-width="3.0"/>
    <path d="M 168.0073699951172 147.13792419433594 C 185.640380859375 133.16725158691406 173.84999084472656 144.30844116210938 195.18267822265625 120.3939208984375" fill="none" stroke="rgb(0, 0, 0)" stroke-linecap="round" stroke-linejoin="round" stroke-opacity="1.0" stroke-width="3.0"/>
    <path d="M 111.82271575927734 64.65180969238281 C 95.10433197021484 79.57710266113281 148.04351806640625 72.6220474243164 122.81729125976562 67.78963470458984" fill="none" stroke="rgb(0, 0, 0)" stroke-linecap="round" stroke-linejoin="round" stroke-opacity="1.0" stroke-width="3.0"/>
    <path d="M 165.26614379882812 68.75312805175781 C 170.1854705810547 77.13200378417969 172.60748291015625 65.72126770019531 172.3035430908203 82.1269302368164" fill="none" stroke="rgb(0, 0, 0)" stroke-linecap="round" stroke-linejoin="round" stroke-opacity="1.0" stroke-width="3.0"/>
    <path d="M 107.21502685546875 157.29151916503906 C 154.4445037841797 163.8589324951172 105.9068374633789 165.63218688964844 169.3357696533203 146.93438720703125" fill="none" stroke="rgb(0, 0, 0)" stroke-linecap="round" stroke-linejoin="round" stroke-opacity="1.0" stroke-width="3.0"/>
    <path d="M 122.6856689453125 28.3723201751709 C 67.29996490478516 68.39056396484375 132.12112426757812 -24.0848331451416 144.11688232421875 53.996578216552734" fill="none" stroke="rgb(0, 0, 0)" stroke-linecap="round" stroke-linejoin="round" stroke-opacity="1.0" stroke-width="3.0"/>
    <path d="M 137.2860107421875 54.218238830566406 C 101.40171813964844 3.3352768421173096 158.07691955566406 62.19814682006836 127.17926788330078 55.0646858215332" fill="none" stroke="rgb(0, 0, 0)" stroke-linecap="round" stroke-linejoin="round" stroke-opacity="1.0" stroke-width="3.0"/>
  </g>
</svg>
