<?xml version="1.0" ?>
<svg height="224" version="1.1" width="224" xmlns="http://www.w3.org/2000/svg">
  <defs/>
  <g>
    <path d="M 84.2188491821289 142.95883178710938 C 91.2303237915039 137.77452087402344 58.350711822509766 66.11188507080078 97.19905853271484 55.99283218383789" fill="none" stroke="rgb(0, 0, 0)" stroke-linecap="round" stroke-linejoin="round" stroke-opacity="1.0" stroke-width="3.0"/>
    <path d="M 120.25865936279297 140.78787231445312 C 194.93609619140625 131.83706665039062 137.17617797851562 125.73209381103516 147.39683532714844 62.99287796020508" fill="none" stroke="rgb(0, 0, 0)" stroke-linecap="round" stroke-linejoin="round" stroke-opacity="1.0" stroke-width="3.0"/>
    <path d="M 135.3026885986328 50.673561096191406 C 181.3746337890625 63.36296844482422 170.02691650390625 86.6832046508789 181.8406982421875 102.92542266845703" fill="none" stroke="rgb(0, 0, 0)" stroke-linecap="round" stroke-linejoin="round" stroke-opacity="1.0" stroke-width="3.0"/>
    <path d="M 141.04176330566406 57.11524200439453 C 115.40583038330078 107.12561798095703 110.68749237060547 59.718448638916016 124.9281997680664 96.52930450439453" fill="none" stroke="rgb(0, 0, 0)" stroke-linecap="round" stroke-linejoin="round" stroke-opacity="1.0" stroke-width="3.0"/>
    <path d="M 135.49688720703125 41.70062255859375 C 136.1261749267578 71.91587829589844 142.03053283691406 69.24768829345703 127.62725067138672 96.91211700439453" fill="none" stroke="rgb(0, 0, 0)" stroke-linecap="round" stroke-linejoin="round" stroke-opacity="1.0" stroke-width="3.0"/>
    <path d="M 180.23060607910156 98.45341491699219 C 181.28988647460938 100.27001190185547 180.0374298095703 92.7333755493164 186.8622589111328 128.25323486328125" fill="none" stroke="rgb(0, 0, 0)" stroke-linecap="round" stroke-linejoin="round" stroke-opacity="1.0" stroke-width="3.0"/>
    <path d="M 118.3542709350586 97.3662109375 C 102.25931549072266 56.636878967285156 83.36283111572266 73.08374786376953 111.9465103149414 29.078811645507812" fill="none" stroke="rgb(0, 0, 0)" stroke-linecap="round" stroke-linejoin="round" stroke-opacity="1.0" stroke-width="3.0"/>
    <path d="M 102.40232849121094 141.83688354492188 C 155.04067993164062 142.31060791015625 107.09980773925781 169.61819458007812 97.58501434326172 161.76559448242188" fill="none" stroke="rgb(0, 0, 0)" stroke-linecap="round" stroke-linejoin="round" stroke-opacity="1.0" stroke-width="3.0"/>
    <path d="M 196.14334106445312 120.36019134521484 C 184.30824279785156 153.5535430908203 211.43923950195312 150.5438690185547 173.5729217529297 165.2272491455078" fill="none" stroke="rgb(0, 0, 0)" stroke-linecap="round" stroke-linejoin="round" stroke-opacity="1.0" stroke-width="3.0"/>
    <path d="M 128.9744873046875 32.968326568603516 C 58.1877555847168 42.91226577758789 145.8394317626953 59.24718475341797 106.81559753417969 55.88331985473633" fill="none" stroke="rgb(0, 0, 0)" stroke-linecap="round" stroke-linejoin="round" stroke-opacity="1.0" stroke-width="3.0"/>
    <path d="M 174.47203063964844 158.15284729003906 C 190.22666931152344 134.78399658203125 168.67530822753906 158.34400939941406 194.3782958984375 117.62877655029297" fill="none" stroke="rgb(0, 0, 0)" stroke-linecap="round" stroke-linejoin="round" stroke-opacity="1.0" stroke-width="3.0"/>
    <path d="M 111.73351287841797 67.00856018066406 C 101.49940490722656 73.44479370117188 120.29135131835938 75.07020568847656 123.8243408203125 71.31915283203125" fill="none" stroke="rgb(0, 0, 0)" stroke-linecap="round" stroke-linejoin="round" stroke-opacity="1.0" stroke-width="3.0"/>
    <path d="M 153.2271728515625 63.2308235168457 C 162.1085205078125 78.78209686279297 164.71217346191406 65.28913879394531 172.87179565429688 86.38771057128906" fill="none" stroke="rgb(0, 0, 0)" stroke-linecap="round" stroke-linejoin="round" stroke-opacity="1.0" stroke-width="3.0"/>
    <path d="M 97.9090576171875 154.2413330078125 C 177.39686584472656 167.52108764648438 156.00082397460938 159.07305908203125 173.11273193359375 157.75074768066406" fill="none" stroke="rgb(0, 0, 0)" stroke-linecap="round" stroke-linejoin="round" stroke-opacity="1.0" stroke-width="3.0"/>
    <path d="M 121.18031311035156 28.109336853027344 C 72.67327880859375 67.92139434814453 122.93950653076172 -15.616888046264648 142.11570739746094 45.622703552246094" fill="none" stroke="rgb(0, 0, 0)" stroke-linecap="round" stroke-linejoin="round" stroke-opacity="1.0" stroke-width="3.0"/>
    <path d="M 140.93182373046875 51.728797912597656 C 118.40349578857422 19.51754379272461 159.12242126464844 60.13545608520508 125.85244750976562 57.97930145263672" fill="none" stroke="rgb(0, 0, 0)" stroke-linecap="round" stroke-linejoin="round" stroke-opacity="1.0" stroke-width="3.0"/>
  </g>
</svg>
