<?xml version="1.0" ?>
<svg height="224" version="1.1" width="224" xmlns="http://www.w3.org/2000/svg">
  <defs/>
  <g>
    <path d="M 82.6682357788086 140.51327514648438 C 94.40807342529297 141.0567626953125 58.91118240356445 63.975120544433594 95.74405670166016 57.99535369873047" fill="none" stroke="rgb(0, 0, 0)" stroke-linecap="round" stroke-linejoin="round" stroke-opacity="1.0" stroke-width="3.0"/>
    <path d="M 125.49913787841797 134.19534301757812 C 193.74501037597656 132.33380126953125 132.51731872558594 113.51106262207031 158.9022674560547 69.7103500366211" fill="none" stroke="rgb(0, 0, 0)" stroke-linecap="round" stroke-linejoin="round" stroke-opacity="1.0" stroke-width="3.0"/>
    <path d="M 136.54989624023438 46.73875427246094 C 191.10243225097656 80.31730651855469 168.4359130859375 84.29082489013672 175.22671508789062 100.9908447265625" fill="none" stroke="rgb(0, 0, 0)" stroke-linecap="round" stroke-linejoin="round" stroke-opacity="1.0" stroke-width="3.0"/>
    <path d="M 135.0443115234375 60.057716369628906 C 120.34270477294922 108.7718276977539 99.70708465576172 61.61001205444336 123.41382598876953 98.22737884521484" fill="none" stroke="rgb(0, 0, 0)" stroke-linecap="round" stroke-linejoin="round" stroke-opacity="1.0" stroke-width="3.0"/>
    <path d="M 140.6222381591797 42.45036315917969 C 124.66815185546875 89.85958099365234 152.64454650878906 53.48383331298828 126.40302276611328 98.46176147460938" fill="none" stroke="rgb(0, 0, 0)" stroke-linecap="round" stroke-linejoin="round" stroke-opacity="1.0" stroke-width="3.0"/>
    <path d="M 175.44281005859375 106.71846008300781 C 145.47677612304688 111.2748031616211 156.90911865234375 103.07765197753906 161.78590393066406 129.99923706054688" fill="none" stroke="rgb(0, 0, 0)" stroke-linecap="round" stroke-linejoin="round" stroke-opacity="1.0" stroke-width="3.0"/>
    <path d="M 118.92366790771484 99.00560760498047 C 101.76625061035156 58.22142028808594 89.3348159790039 77.18362426757812 103.43574523925781 36.889312744140625" fill="none" stroke="rgb(0, 0, 0)" stroke-linecap="round" stroke-linejoin="round" stroke-opacity="1.0" stroke-width="3.0"/>
    <path d="M 119.9825439453125 159.5197296142578 C 99.82439422607422 168.76467895507812 94.08355712890625 165.10671997070312 101.60482788085938 161.3098602294922" fill="none" stroke="rgb(0, 0, 0)" stroke-linecap="round" stroke-linejoin="round" stroke-opacity="1.0" stroke-width="3.0"/>
    <path d="M 194.00572204589844 121.46329498291016 C 184.9279022216797 159.7069854736328 210.26339721679688 149.5224609375 165.97860717773438 171.6801300048828" fill="none" stroke="rgb(0, 0, 0)" stroke-linecap="round" stroke-linejoin="round" stroke-opacity="1.0" stroke-width="3.0"/>
    <path d="M 119.76554107666016 28.037628173828125 C 68.1289291381836 56.51260757446289 129.01467895507812 49.161766052246094 103.2913589477539 55.26993942260742" fill="none" stroke="rgb(0, 0, 0)" stroke-linecap="round" stroke-linejoin="round" stroke-opacity="1.0" stroke-width="3.0"/>
    <path d="M 181.87648010253906 143.34886169433594 C 190.61585998535156 125.81584167480469 186.15396118164062 139.13584899902344 193.62728881835938 117.05452728271484" fill="none" stroke="rgb(0, 0, 0)" stroke-linecap="round" stroke-linejoin="round" stroke-opacity="1.0" stroke-width="3.0"/>
    <path d="M 111.03961181640625 68.99353790283203 C 118.4924545288086 75.77616882324219 112.44185638427734 72.28202056884766 120.17801666259766 71.23262786865234" fill="none" stroke="rgb(0, 0, 0)" stroke-linecap="round" stroke-linejoin="round" stroke-opacity="1.0" stroke-width="3.0"/>
    <path d="M 157.1475830078125 61.33690643310547 C 160.08103942871094 73.36107635498047 170.3443145751953 55.80080032348633 176.3413848876953 87.34699249267578" fill="none" stroke="rgb(0, 0, 0)" stroke-linecap="round" stroke-linejoin="round" stroke-opacity="1.0" stroke-width="3.0"/>
    <path d="M 106.53816986083984 159.39077758789062 C 174.2230682373047 175.3828582763672 137.27389526367188 170.6248016357422 169.6932373046875 171.4032745361328" fill="none" stroke="rgb(0, 0, 0)" stroke-linecap="round" stroke-linejoin="round" stroke-opacity="1.0" stroke-width="3.0"/>
    <path d="M 100.66033172607422 31.13648223876953 C 85.03673553466797 69.69609832763672 111.34475708007812 -14.729504585266113 141.40037536621094 41.99247741699219" fill="none" stroke="rgb(0, 0, 0)" stroke-linecap="round" stroke-linejoin="round" stroke-opacity="1.0" stroke-width="3.0"/>
    <path d="M 142.88034057617188 49.19887161254883 C 114.22030639648438 22.502721786499023 171.55532836914062 55.43901443481445 120.19581604003906 52.89817810058594" fill="none" stroke="rgb(0, 0, 0)" stroke-linecap="round" stroke-linejoin="round" stroke-opacity="1.0" stroke-width="3.0"/>
  </g>
</svg>
