<?xml version="1.0" ?>
<svg height="224" version="1.1" width="224" xmlns="http://www.w3.org/2000/svg">
  <defs/>
  <g>
    <path d="M 82.94171905517578 113.16105651855469 C 84.52606964111328 80.898193359375 74.14906311035156 91.20757293701172 85.49038696289062 65.53697967529297" fill="none" stroke="rgb(0, 0, 0)" stroke-linecap="round" stroke-linejoin="round" stroke-opacity="1.0" stroke-width="3.0"/>
    <path d="M 126.77648162841797 118.92222595214844 C 145.6888885498047 119.65709686279297 143.65777587890625 120.10234832763672 155.1785125732422 113.94223022460938" fill="none" stroke="rgb(0, 0, 0)" stroke-linecap="round" stroke-linejoin="round" stroke-opacity="1.0" stroke-width="3.0"/>
    <path d="M 157.97911071777344 84.78189086914062 C 155.23391723632812 109.29944610595703 163.83517456054688 103.41693878173828 161.0633087158203 118.93074798583984" fill="none" stroke="rgb(0, 0, 0)" stroke-linecap="round" stroke-linejoin="round" stroke-opacity="1.0" stroke-width="3.0"/>
    <path d="M 145.00625610351562 73.08696746826172 C 126.56485748291016 106.8140869140625 115.79036712646484 83.42166900634766 125.13382720947266 94.84881591796875" fill="none" stroke="rgb(0, 0, 0)" stroke-linecap="round" stroke-linejoin="round" stroke-opacity="1.0" stroke-width="3.0"/>
    <path d="M 134.8791961669922 57.725791931152344 C 133.56646728515625 71.01907348632812 143.3358154296875 61.51546096801758 136.70240783691406 81.90565490722656" fill="none" stroke="rgb(0, 0, 0)" stroke-linecap="round" stroke-linejoin="round" stroke-opacity="1.0" stroke-width="3.0"/>
    <path d="M 166.1363983154297 117.46875762939453 C 174.6876983642578 122.62651062011719 180.53790283203125 118.9556655883789 166.1445770263672 118.36476135253906" fill="none" stroke="rgb(0, 0, 0)" stroke-linecap="round" stroke-linejoin="round" stroke-opacity="1.0" stroke-width="3.0"/>
    <path d="M 123.60448455810547 90.16301727294922 C 100.50886535644531 79.62004089355469 113.64043426513672 84.26114654541016 96.6956558227539 66.91499328613281" fill="none" stroke="rgb(0, 0, 0)" stroke-linecap="round" stroke-linejoin="round" stroke-opacity="1.0" stroke-width="3.0"/>
    <path d="M 98.68553161621094 156.70266723632812 C 87.93163299560547 144.2184600830078 95.88533782958984 149.71780395507812 94.51058197021484 165.37265014648438" fill="none" stroke="rgb(0, 0, 0)" stroke-linecap="round" stroke-linejoin="round" stroke-opacity="1.0" stroke-width="3.0"/>
    <path d="M 179.0657958984375 165.79185485839844 C 177.0240020751953 160.31625366210938 187.33189392089844 159.50108337402344 171.72344970703125 168.11550903320312" fill="none" stroke="rgb(0, 0, 0)" stroke-linecap="round" stroke-linejoin="round" stroke-opacity="1.0" stroke-width="3.0"/>
    <path d="M 96.3529281616211 55.990379333496094 C 90.89996337890625 64.94185638427734 96.24092102050781 68.10426330566406 109.98686218261719 64.6799545288086" fill="none" stroke="rgb(0, 0, 0)" stroke-linecap="round" stroke-linejoin="round" stroke-opacity="1.0" stroke-width="3.0"/>
    <path d="M 183.08203125 146.21539306640625 C 184.4563446044922 137.5225067138672 183.9103240966797 142.36627197265625 180.9710235595703 148.50816345214844" fill="none" stroke="rgb(0, 0, 0)" stroke-linecap="round" stroke-linejoin="round" stroke-opacity="1.0" stroke-width="3.0"/>
    <path d="M 112.9757308959961 76.24622344970703 C 118.15068817138672 78.35435485839844 118.84965515136719 77.29932403564453 123.96784973144531 74.53104400634766" fill="none" stroke="rgb(0, 0, 0)" stroke-linecap="round" stroke-linejoin="round" stroke-opacity="1.0" stroke-width="3.0"/>
    <path d="M 177.7074737548828 86.41156005859375 C 185.0091552734375 101.75640106201172 177.4376220703125 82.17686462402344 181.20254516601562 95.98336791992188" fill="none" stroke="rgb(0, 0, 0)" stroke-linecap="round" stroke-linejoin="round" stroke-opacity="1.0" stroke-width="3.0"/>
    <path d="M 141.7504119873047 168.61378479003906 C 148.69796752929688 167.65689086914062 137.6646728515625 169.0375518798828 143.67320251464844 174.52536010742188" fill="none" stroke="rgb(0, 0, 0)" stroke-linecap="round" stroke-linejoin="round" stroke-opacity="1.0" stroke-width="3.0"/>
    <path d="M 96.17977905273438 50.53163146972656 C 105.56291961669922 44.67742919921875 87.49635314941406 37.12723159790039 111.98715209960938 24.441679000854492" fill="none" stroke="rgb(0, 0, 0)" stroke-linecap="round" stroke-linejoin="round" stroke-opacity="1.0" stroke-width="3.0"/>
    <path d="M 133.07496643066406 37.68743896484375 C 113.36245727539062 26.017475128173828 134.2325897216797 35.20517349243164 132.40476989746094 51.62151336669922" fill="none" stroke="rgb(0, 0, 0)" stroke-linecap="round" stroke-linejoin="round" stroke-opacity="1.0" stroke-width="3.0"/>
  </g>
</svg>
