<?xml version="1.0" ?>
<svg height="224" version="1.1" width="224" xmlns="http://www.w3.org/2000/svg">
  <defs/>
  <g>
    <path d="M 100.6104736328125 155.02713012695312 C 121.2598876953125 162.27183532714844 31.783071517944336 88.56005859375 102.46548461914062 51.018516540527344" fill="none" stroke="rgb(0, 0, 0)" stroke-linecap="round" stroke-linejoin="round" stroke-opacity="1.0" stroke-width="3.0"/>
    <path d="M 111.55721282958984 139.66876220703125 C 192.53720092773438 114.02127838134766 140.7094268798828 137.38784790039062 154.0987548828125 61.800872802734375" fill="none" stroke="rgb(0, 0, 0)" stroke-linecap="round" stroke-linejoin="round" stroke-opacity="1.0" stroke-width="3.0"/>
    <path d="M 137.69210815429688 51.833518981933594 C 181.581787109375 64.50174713134766 168.14935302734375 103.8231201171875 169.5136260986328 94.72525787353516" fill="none" stroke="rgb(0, 0, 0)" stroke-linecap="round" stroke-linejoin="round" stroke-opacity="1.0" stroke-width="3.0"/>
    <path d="M 132.17982482910156 55.15890121459961 C 118.46011352539062 117.3333740234375 102.85157012939453 57.997982025146484 118.13186645507812 101.25018310546875" fill="none" stroke="rgb(0, 0, 0)" stroke-linecap="round" stroke-linejoin="round" stroke-opacity="1.0" stroke-width="3.0"/>
    <path d="M 128.67601013183594 31.135419845581055 C 146.99655151367188 37.9861946105957 139.27975463867188 110.75109100341797 119.1114501953125 93.23104858398438" fill="none" stroke="rgb(0, 0, 0)" stroke-linecap="round" stroke-linejoin="round" stroke-opacity="1.0" stroke-width="3.0"/>
    <path d="M 169.64540100097656 96.1645278930664 C 176.931640625 115.84040069580078 169.48558044433594 102.0193099975586 182.19668579101562 131.9545440673828" fill="none" stroke="rgb(0, 0, 0)" stroke-linecap="round" stroke-linejoin="round" stroke-opacity="1.0" stroke-width="3.0"/>
    <path d="M 122.82316589355469 97.89013671875 C 98.8850326538086 70.49742126464844 83.44683074951172 51.10407257080078 115.91271209716797 29.2603759765625" fill="none" stroke="rgb(0, 0, 0)" stroke-linecap="round" stroke-linejoin="round" stroke-opacity="1.0" stroke-width="3.0"/>
    <path d="M 96.00102996826172 139.88168334960938 C 157.29940795898438 129.4295654296875 115.67404174804688 181.43048095703125 98.38652038574219 159.0027313232422" fill="none" stroke="rgb(0, 0, 0)" stroke-linecap="round" stroke-linejoin="round" stroke-opacity="1.0" stroke-width="3.0"/>
    <path d="M 196.4416046142578 124.63339233398438 C 187.90545654296875 151.76417541503906 218.58277893066406 148.71774291992188 169.04005432128906 171.581787109375" fill="none" stroke="rgb(0, 0, 0)" stroke-linecap="round" stroke-linejoin="round" stroke-opacity="1.0" stroke-width="3.0"/>
    <path d="M 129.29344177246094 33.81230926513672 C 42.70914840698242 34.17649459838867 159.13772583007812 61.88273620605469 112.5376968383789 55.22211456298828" fill="none" stroke="rgb(0, 0, 0)" stroke-linecap="round" stroke-linejoin="round" stroke-opacity="1.0" stroke-width="3.0"/>
    <path d="M 166.70721435546875 146.1449737548828 C 187.3605194091797 131.2620391845703 169.96664428710938 139.00428771972656 195.3828887939453 120.30686950683594" fill="none" stroke="rgb(0, 0, 0)" stroke-linecap="round" stroke-linejoin="round" stroke-opacity="1.0" stroke-width="3.0"/>
    <path d="M 112.84439086914062 68.3931655883789 C 96.88162231445312 81.66168975830078 148.56739807128906 75.83975982666016 122.42735290527344 69.26657104492188" fill="none" stroke="rgb(0, 0, 0)" stroke-linecap="round" stroke-linejoin="round" stroke-opacity="1.0" stroke-width="3.0"/>
    <path d="M 161.9033203125 69.1025161743164 C 166.92433166503906 73.44935607910156 174.8269805908203 76.69792938232422 172.746826171875 85.79265594482422" fill="none" stroke="rgb(0, 0, 0)" stroke-linecap="round" stroke-linejoin="round" stroke-opacity="1.0" stroke-width="3.0"/>
    <path d="M 106.03836822509766 159.87930297851562 C 155.22877502441406 166.76486206054688 101.40257263183594 164.19082641601562 171.1927032470703 144.9269256591797" fill="none" stroke="rgb(0, 0, 0)" stroke-linecap="round" stroke-linejoin="round" stroke-opacity="1.0" stroke-width="3.0"/>
    <path d="M 125.5445785522461 27.874649047851562 C 64.32942199707031 69.18154907226562 131.4957733154297 -26.016674041748047 142.10678100585938 55.46870040893555" fill="none" stroke="rgb(0, 0, 0)" stroke-linecap="round" stroke-linejoin="round" stroke-opacity="1.0" stroke-width="3.0"/>
    <path d="M 138.30929565429688 53.83906555175781 C 101.82443237304688 1.8356127738952637 159.6295928955078 61.233150482177734 131.9897003173828 62.46544647216797" fill="none" stroke="rgb(0, 0, 0)" stroke-linecap="round" stroke-linejoin="round" stroke-opacity="1.0" stroke-width="3.0"/>
  </g>
</svg>
