<?xml version="1.0" ?>
<svg height="224" version="1.1" width="224" xmlns="http://www.w3.org/2000/svg">
  <defs/>
  <g>
    <path d="M 82.06256866455078 138.60252380371094 C 89.73690032958984 116.01611328125 60.76420211791992 66.35086059570312 94.37993621826172 56.912841796875" fill="none" stroke="rgb(0, 0, 0)" stroke-linecap="round" stroke-linejoin="round" stroke-opacity="1.0" stroke-width="3.0"/>
    <path d="M 124.13115692138672 121.3983154296875 C 154.04161071777344 121.90545654296875 149.0404815673828 118.3648910522461 168.6735076904297 91.35993194580078" fill="none" stroke="rgb(0, 0, 0)" stroke-linecap="round" stroke-linejoin="round" stroke-opacity="1.0" stroke-width="3.0"/>
    <path d="M 145.51077270507812 52.53080749511719 C 189.76625061035156 72.32112121582031 166.7818603515625 88.87008666992188 181.8648223876953 113.07246398925781" fill="none" stroke="rgb(0, 0, 0)" stroke-linecap="round" stroke-linejoin="round" stroke-opacity="1.0" stroke-width="3.0"/>
    <path d="M 131.22512817382812 72.13780212402344 C 120.23283386230469 101.11952209472656 102.50602722167969 65.36619567871094 124.73333740234375 95.61390686035156" fill="none" stroke="rgb(0, 0, 0)" stroke-linecap="round" stroke-linejoin="round" stroke-opacity="1.0" stroke-width="3.0"/>
    <path d="M 136.9457550048828 44.41630935668945 C 147.7248992919922 81.23784637451172 141.41432189941406 44.772789001464844 129.70797729492188 95.03105926513672" fill="none" stroke="rgb(0, 0, 0)" stroke-linecap="round" stroke-linejoin="round" stroke-opacity="1.0" stroke-width="3.0"/>
    <path d="M 176.22988891601562 109.41290283203125 C 156.8007049560547 119.69757843017578 165.4385986328125 117.46711730957031 153.87916564941406 122.85379791259766" fill="none" stroke="rgb(0, 0, 0)" stroke-linecap="round" stroke-linejoin="round" stroke-opacity="1.0" stroke-width="3.0"/>
    <path d="M 119.95619201660156 95.16413879394531 C 91.7156982421875 48.83924102783203 105.75926971435547 92.96012115478516 96.3004379272461 42.74930191040039" fill="none" stroke="rgb(0, 0, 0)" stroke-linecap="round" stroke-linejoin="round" stroke-opacity="1.0" stroke-width="3.0"/>
    <path d="M 117.75712585449219 163.3157501220703 C 96.30846405029297 166.8402557373047 96.52002716064453 161.76341247558594 107.74079132080078 167.06387329101562" fill="none" stroke="rgb(0, 0, 0)" stroke-linecap="round" stroke-linejoin="round" stroke-opacity="1.0" stroke-width="3.0"/>
    <path d="M 193.51930236816406 138.18983459472656 C 190.324951171875 172.91232299804688 182.417724609375 158.7398223876953 167.68992614746094 170.15817260742188" fill="none" stroke="rgb(0, 0, 0)" stroke-linecap="round" stroke-linejoin="round" stroke-opacity="1.0" stroke-width="3.0"/>
    <path d="M 101.95117950439453 34.21876907348633 C 86.10286712646484 58.527427673339844 122.37787628173828 48.072574615478516 105.8975601196289 57.18159103393555" fill="none" stroke="rgb(0, 0, 0)" stroke-linecap="round" stroke-linejoin="round" stroke-opacity="1.0" stroke-width="3.0"/>
    <path d="M 192.683837890625 158.0995330810547 C 200.1328887939453 151.66506958007812 186.2601318359375 162.9876251220703 198.76547241210938 152.580322265625" fill="none" stroke="rgb(0, 0, 0)" stroke-linecap="round" stroke-linejoin="round" stroke-opacity="1.0" stroke-width="3.0"/>
    <path d="M 113.67841339111328 67.14936828613281 C 118.04415893554688 74.01042938232422 120.71566009521484 69.26675415039062 123.7392349243164 67.18286895751953" fill="none" stroke="rgb(0, 0, 0)" stroke-linecap="round" stroke-linejoin="round" stroke-opacity="1.0" stroke-width="3.0"/>
    <path d="M 168.390625 76.2043228149414 C 166.30630493164062 102.53943634033203 171.96163940429688 65.0943832397461 172.93026733398438 84.80563354492188" fill="none" stroke="rgb(0, 0, 0)" stroke-linecap="round" stroke-linejoin="round" stroke-opacity="1.0" stroke-width="3.0"/>
    <path d="M 120.68376159667969 161.05569458007812 C 166.23629760742188 169.3109893798828 134.1785125732422 166.41993713378906 165.41921997070312 169.9835662841797" fill="none" stroke="rgb(0, 0, 0)" stroke-linecap="round" stroke-linejoin="round" stroke-opacity="1.0" stroke-width="3.0"/>
    <path d="M 102.44288635253906 36.19586944580078 C 100.17980194091797 78.33247375488281 85.43844604492188 -1.3530824184417725 134.82887268066406 30.690078735351562" fill="none" stroke="rgb(0, 0, 0)" stroke-linecap="round" stroke-linejoin="round" stroke-opacity="1.0" stroke-width="3.0"/>
    <path d="M 135.98236083984375 37.987510681152344 C 125.0843276977539 21.852794647216797 149.11990356445312 33.368988037109375 136.7499542236328 61.200157165527344" fill="none" stroke="rgb(0, 0, 0)" stroke-linecap="round" stroke-linejoin="round" stroke-opacity="1.0" stroke-width="3.0"/>
  </g>
</svg>
