<?xml version="1.0" ?>
<svg height="224" version="1.1" width="224" xmlns="http://www.w3.org/2000/svg">
  <defs/>
  <g>
    <path d="M 78.82658386230469 134.32839965820312 C 89.3517837524414 139.2057647705078 58.91004943847656 65.97431945800781 97.1314926147461 55.783531188964844" fill="none" stroke="rgb(0, 0, 0)" stroke-linecap="round" stroke-linejoin="round" stroke-opacity="1.0" stroke-width="3.0"/>
    <path d="M 119.7037582397461 123.39472198486328 C 190.05198669433594 121.88822937011719 133.95993041992188 118.4533920288086 153.08567810058594 65.96380615234375" fill="none" stroke="rgb(0, 0, 0)" stroke-linecap="round" stroke-linejoin="round" stroke-opacity="1.0" stroke-width="3.0"/>
    <path d="M 133.95697021484375 44.30222702026367 C 182.484375 71.4027099609375 171.44129943847656 79.303466796875 175.9073028564453 101.70320129394531" fill="none" stroke="rgb(0, 0, 0)" stroke-linecap="round" stroke-linejoin="round" stroke-opacity="1.0" stroke-width="3.0"/>
    <path d="M 139.68927001953125 56.398929595947266 C 116.99153137207031 107.9113998413086 101.57257080078125 61.473297119140625 123.70634460449219 95.7214584350586" fill="none" stroke="rgb(0, 0, 0)" stroke-linecap="round" stroke-linejoin="round" stroke-opacity="1.0" stroke-width="3.0"/>
    <path d="M 137.67271423339844 39.28807067871094 C 128.73635864257812 76.32414245605469 146.34942626953125 74.25654602050781 126.64112091064453 95.96031951904297" fill="none" stroke="rgb(0, 0, 0)" stroke-linecap="round" stroke-linejoin="round" stroke-opacity="1.0" stroke-width="3.0"/>
    <path d="M 172.20321655273438 105.8194808959961 C 174.68463134765625 99.59062957763672 174.45384216308594 93.1089859008789 182.6561279296875 126.78892517089844" fill="none" stroke="rgb(0, 0, 0)" stroke-linecap="round" stroke-linejoin="round" stroke-opacity="1.0" stroke-width="3.0"/>
    <path d="M 117.83555603027344 96.07672882080078 C 103.1774673461914 54.60171127319336 84.62969207763672 76.93695831298828 108.14056396484375 31.413196563720703" fill="none" stroke="rgb(0, 0, 0)" stroke-linecap="round" stroke-linejoin="round" stroke-opacity="1.0" stroke-width="3.0"/>
    <path d="M 103.48388671875 152.3627471923828 C 135.95729064941406 165.30650329589844 91.20614624023438 164.4958038330078 93.7075424194336 157.34788513183594" fill="none" stroke="rgb(0, 0, 0)" stroke-linecap="round" stroke-linejoin="round" stroke-opacity="1.0" stroke-width="3.0"/>
    <path d="M 195.57481384277344 124.05860137939453 C 189.6907501220703 161.3126678466797 214.43255615234375 144.55284118652344 166.86801147460938 169.83517456054688" fill="none" stroke="rgb(0, 0, 0)" stroke-linecap="round" stroke-linejoin="round" stroke-opacity="1.0" stroke-width="3.0"/>
    <path d="M 124.58521270751953 30.428783416748047 C 55.3834114074707 50.37363815307617 139.25987243652344 52.16832733154297 104.2937240600586 55.18270492553711" fill="none" stroke="rgb(0, 0, 0)" stroke-linecap="round" stroke-linejoin="round" stroke-opacity="1.0" stroke-width="3.0"/>
    <path d="M 178.97500610351562 149.76634216308594 C 189.467041015625 132.21884155273438 166.0140838623047 143.010009765625 194.38742065429688 119.3846435546875" fill="none" stroke="rgb(0, 0, 0)" stroke-linecap="round" stroke-linejoin="round" stroke-opacity="1.0" stroke-width="3.0"/>
    <path d="M 110.82191467285156 68.54238891601562 C 114.64080047607422 71.95635986328125 121.09075164794922 71.09917449951172 122.49853515625 69.86100769042969" fill="none" stroke="rgb(0, 0, 0)" stroke-linecap="round" stroke-linejoin="round" stroke-opacity="1.0" stroke-width="3.0"/>
    <path d="M 158.5146026611328 59.50817108154297 C 160.1175537109375 69.40812683105469 172.24607849121094 60.945655822753906 175.3897247314453 84.64513397216797" fill="none" stroke="rgb(0, 0, 0)" stroke-linecap="round" stroke-linejoin="round" stroke-opacity="1.0" stroke-width="3.0"/>
    <path d="M 101.95220947265625 157.15188598632812 C 170.99180603027344 166.250244140625 143.9776153564453 167.65882873535156 178.2481689453125 163.2401123046875" fill="none" stroke="rgb(0, 0, 0)" stroke-linecap="round" stroke-linejoin="round" stroke-opacity="1.0" stroke-width="3.0"/>
    <path d="M 116.69697570800781 29.59699821472168 C 73.86990356445312 72.34242248535156 117.5137939453125 -14.780644416809082 140.75799560546875 40.4217643737793" fill="none" stroke="rgb(0, 0, 0)" stroke-linecap="round" stroke-linejoin="round" stroke-opacity="1.0" stroke-width="3.0"/>
    <path d="M 140.66944885253906 48.06924057006836 C 117.32118225097656 17.054113388061523 165.49575805664062 55.4249153137207 122.73682403564453 52.523136138916016" fill="none" stroke="rgb(0, 0, 0)" stroke-linecap="round" stroke-linejoin="round" stroke-opacity="1.0" stroke-width="3.0"/>
  </g>
</svg>
