<?xml version="1.0" ?>
<svg height="224" version="1.1" width="224" xmlns="http://www.w3.org/2000/svg">
  <defs/>
  <g>
    <path d="M 83.37018585205078 145.58021545410156 C 90.71672058105469 115.43777465820312 61.37150192260742 70.93711853027344 94.99687957763672 57.3884162902832" fill="none" stroke="rgb(0, 0, 0)" stroke-linecap="round" stroke-linejoin="round" stroke-opacity="1.0" stroke-width="3.0"/>
    <path d="M 129.5548858642578 121.81807708740234 C 145.21693420410156 120.90451049804688 155.4618682861328 117.92981719970703 168.23452758789062 106.05270385742188" fill="none" stroke="rgb(0, 0, 0)" stroke-linecap="round" stroke-linejoin="round" stroke-opacity="1.0" stroke-width="3.0"/>
    <path d="M 170.6856231689453 69.57659912109375 C 178.98768615722656 111.76323699951172 163.21258544921875 74.24222564697266 176.5497283935547 112.22434997558594" fill="none" stroke="rgb(0, 0, 0)" stroke-linecap="round" stroke-linejoin="round" stroke-opacity="1.0" stroke-width="3.0"/>
    <path d="M 135.78500366210938 68.03523254394531 C 120.3373794555664 100.25543975830078 105.70953369140625 70.09650421142578 124.76338958740234 95.69099426269531" fill="none" stroke="rgb(0, 0, 0)" stroke-linecap="round" stroke-linejoin="round" stroke-opacity="1.0" stroke-width="3.0"/>
    <path d="M 140.3370361328125 50.81651306152344 C 152.44615173339844 61.113746643066406 141.9731903076172 37.407432556152344 130.29063415527344 92.61995697021484" fill="none" stroke="rgb(0, 0, 0)" stroke-linecap="round" stroke-linejoin="round" stroke-opacity="1.0" stroke-width="3.0"/>
    <path d="M 177.8906707763672 119.31734466552734 C 163.5478973388672 121.94284057617188 180.77191162109375 119.27944946289062 154.10462951660156 121.2002944946289" fill="none" stroke="rgb(0, 0, 0)" stroke-linecap="round" stroke-linejoin="round" stroke-opacity="1.0" stroke-width="3.0"/>
    <path d="M 121.17813110351562 94.39590454101562 C 99.18798065185547 54.05759048461914 110.23920440673828 90.06514739990234 99.14765930175781 46.3651123046875" fill="none" stroke="rgb(0, 0, 0)" stroke-linecap="round" stroke-linejoin="round" stroke-opacity="1.0" stroke-width="3.0"/>
    <path d="M 111.96540069580078 162.8195343017578 C 89.98643493652344 157.34677124023438 101.98055267333984 160.7669677734375 109.27364349365234 165.90240478515625" fill="none" stroke="rgb(0, 0, 0)" stroke-linecap="round" stroke-linejoin="round" stroke-opacity="1.0" stroke-width="3.0"/>
    <path d="M 176.6361541748047 165.06179809570312 C 157.06405639648438 172.38414001464844 167.71160888671875 160.5346221923828 164.27566528320312 168.14279174804688" fill="none" stroke="rgb(0, 0, 0)" stroke-linecap="round" stroke-linejoin="round" stroke-opacity="1.0" stroke-width="3.0"/>
    <path d="M 101.03129577636719 32.99042510986328 C 93.1025619506836 57.93087387084961 96.01371765136719 46.60664367675781 114.25360870361328 56.555694580078125" fill="none" stroke="rgb(0, 0, 0)" stroke-linecap="round" stroke-linejoin="round" stroke-opacity="1.0" stroke-width="3.0"/>
    <path d="M 186.2102508544922 137.74716186523438 C 183.23597717285156 139.79473876953125 190.05982971191406 132.9727325439453 180.3443603515625 141.06227111816406" fill="none" stroke="rgb(0, 0, 0)" stroke-linecap="round" stroke-linejoin="round" stroke-opacity="1.0" stroke-width="3.0"/>
    <path d="M 114.5101089477539 70.8947525024414 C 128.39918518066406 73.7113037109375 119.72621154785156 66.30481719970703 128.5596160888672 66.52423858642578" fill="none" stroke="rgb(0, 0, 0)" stroke-linecap="round" stroke-linejoin="round" stroke-opacity="1.0" stroke-width="3.0"/>
    <path d="M 175.0870819091797 76.24457550048828 C 170.11936950683594 97.24781036376953 173.06051635742188 60.8738899230957 173.02613830566406 79.33882904052734" fill="none" stroke="rgb(0, 0, 0)" stroke-linecap="round" stroke-linejoin="round" stroke-opacity="1.0" stroke-width="3.0"/>
    <path d="M 123.21878051757812 162.39895629882812 C 155.80966186523438 167.7171173095703 130.40127563476562 168.04779052734375 159.41275024414062 172.21177673339844" fill="none" stroke="rgb(0, 0, 0)" stroke-linecap="round" stroke-linejoin="round" stroke-opacity="1.0" stroke-width="3.0"/>
    <path d="M 103.21404266357422 31.220075607299805 C 110.64053344726562 48.730918884277344 93.93628692626953 7.147814750671387 135.48797607421875 30.90674591064453" fill="none" stroke="rgb(0, 0, 0)" stroke-linecap="round" stroke-linejoin="round" stroke-opacity="1.0" stroke-width="3.0"/>
    <path d="M 136.00901794433594 47.2567138671875 C 131.25851440429688 30.706815719604492 142.0509490966797 41.20536422729492 139.81109619140625 57.437129974365234" fill="none" stroke="rgb(0, 0, 0)" stroke-linecap="round" stroke-linejoin="round" stroke-opacity="1.0" stroke-width="3.0"/>
  </g>
</svg>
