<?xml version="1.0" ?>
<svg height="224" version="1.1" width="224" xmlns="http://www.w3.org/2000/svg">
  <defs/>
  <g>
    <path d="M 92.59725952148438 151.95774841308594 C 95.73275756835938 131.6094207763672 58.152034759521484 66.5617904663086 94.66914367675781 56.860931396484375" fill="none" stroke="rgb(0, 0, 0)" stroke-linecap="round" stroke-linejoin="round" stroke-opacity="1.0" stroke-width="3.0"/>
    <path d="M 124.93285369873047 145.49072265625 C 188.12254333496094 125.0178451538086 134.19036865234375 128.8839874267578 149.28274536132812 68.1802978515625" fill="none" stroke="rgb(0, 0, 0)" stroke-linecap="round" stroke-linejoin="round" stroke-opacity="1.0" stroke-width="3.0"/>
    <path d="M 137.4637451171875 48.386356353759766 C 185.32896423339844 70.75091552734375 170.0226593017578 90.96385192871094 175.3310089111328 97.07688903808594" fill="none" stroke="rgb(0, 0, 0)" stroke-linecap="round" stroke-linejoin="round" stroke-opacity="1.0" stroke-width="3.0"/>
    <path d="M 143.16893005371094 57.309349060058594 C 115.12542724609375 110.4299545288086 104.65181732177734 63.26136016845703 120.98125457763672 100.61551666259766" fill="none" stroke="rgb(0, 0, 0)" stroke-linecap="round" stroke-linejoin="round" stroke-opacity="1.0" stroke-width="3.0"/>
    <path d="M 135.5475616455078 40.852935791015625 C 139.3144073486328 64.56088256835938 146.40284729003906 84.9503173828125 124.85245513916016 101.69673919677734" fill="none" stroke="rgb(0, 0, 0)" stroke-linecap="round" stroke-linejoin="round" stroke-opacity="1.0" stroke-width="3.0"/>
    <path d="M 175.3754119873047 97.02783966064453 C 179.69036865234375 103.67072296142578 174.67391967773438 96.3245620727539 186.86102294921875 130.938720703125" fill="none" stroke="rgb(0, 0, 0)" stroke-linecap="round" stroke-linejoin="round" stroke-opacity="1.0" stroke-width="3.0"/>
    <path d="M 124.0623779296875 96.26636505126953 C 100.5372085571289 67.05921173095703 86.16545867919922 59.88492965698242 112.4294662475586 29.801145553588867" fill="none" stroke="rgb(0, 0, 0)" stroke-linecap="round" stroke-linejoin="round" stroke-opacity="1.0" stroke-width="3.0"/>
    <path d="M 106.5290756225586 146.58531188964844 C 154.12562561035156 142.63063049316406 114.00614166259766 171.2319793701172 94.45216369628906 157.33599853515625" fill="none" stroke="rgb(0, 0, 0)" stroke-linecap="round" stroke-linejoin="round" stroke-opacity="1.0" stroke-width="3.0"/>
    <path d="M 196.09217834472656 121.94111633300781 C 188.96844482421875 156.14480590820312 211.98403930664062 146.8042449951172 174.0133514404297 166.22999572753906" fill="none" stroke="rgb(0, 0, 0)" stroke-linecap="round" stroke-linejoin="round" stroke-opacity="1.0" stroke-width="3.0"/>
    <path d="M 127.95697784423828 35.48491287231445 C 53.67823028564453 45.24348831176758 145.67359924316406 62.30752182006836 105.986328125 57.319908142089844" fill="none" stroke="rgb(0, 0, 0)" stroke-linecap="round" stroke-linejoin="round" stroke-opacity="1.0" stroke-width="3.0"/>
    <path d="M 173.1595001220703 156.6715545654297 C 189.24180603027344 136.39901733398438 170.1855010986328 161.94140625 194.5041046142578 119.53462982177734" fill="none" stroke="rgb(0, 0, 0)" stroke-linecap="round" stroke-linejoin="round" stroke-opacity="1.0" stroke-width="3.0"/>
    <path d="M 113.65494537353516 63.0074348449707 C 93.66492462158203 74.49451446533203 124.84989929199219 77.09640502929688 121.6242446899414 74.83673858642578" fill="none" stroke="rgb(0, 0, 0)" stroke-linecap="round" stroke-linejoin="round" stroke-opacity="1.0" stroke-width="3.0"/>
    <path d="M 154.93441772460938 62.393489837646484 C 159.90802001953125 77.21231079101562 164.48687744140625 64.70408630371094 171.7410125732422 85.97488403320312" fill="none" stroke="rgb(0, 0, 0)" stroke-linecap="round" stroke-linejoin="round" stroke-opacity="1.0" stroke-width="3.0"/>
    <path d="M 104.99744415283203 153.1104736328125 C 178.26234436035156 162.9867401123047 153.32119750976562 164.343505859375 172.65023803710938 156.95030212402344" fill="none" stroke="rgb(0, 0, 0)" stroke-linecap="round" stroke-linejoin="round" stroke-opacity="1.0" stroke-width="3.0"/>
    <path d="M 122.11698150634766 29.118629455566406 C 69.83399200439453 67.4502944946289 124.46537017822266 -19.958444595336914 142.57933044433594 49.326446533203125" fill="none" stroke="rgb(0, 0, 0)" stroke-linecap="round" stroke-linejoin="round" stroke-opacity="1.0" stroke-width="3.0"/>
    <path d="M 138.07862854003906 53.682437896728516 C 118.28534698486328 20.694143295288086 161.25747680664062 59.80314254760742 124.4029541015625 56.88206481933594" fill="none" stroke="rgb(0, 0, 0)" stroke-linecap="round" stroke-linejoin="round" stroke-opacity="1.0" stroke-width="3.0"/>
  </g>
</svg>
