<?xml version="1.0" ?>
<svg height="224" version="1.1" width="224" xmlns="http://www.w3.org/2000/svg">
  <defs/>
  <g>
    <path d="M 83.70663452148438 138.86587524414062 C 97.42203521728516 135.3731689453125 67.25553131103516 63.88446807861328 96.4684066772461 57.4199104309082" fill="none" stroke="rgb(0, 0, 0)" stroke-linecap="round" stroke-linejoin="round" stroke-opacity="1.0" stroke-width="3.0"/>
    <path d="M 121.5665054321289 131.93045043945312 C 189.4510955810547 132.0191650390625 132.2874298095703 122.93132781982422 152.09140014648438 62.918251037597656" fill="none" stroke="rgb(0, 0, 0)" stroke-linecap="round" stroke-linejoin="round" stroke-opacity="1.0" stroke-width="3.0"/>
    <path d="M 134.25860595703125 49.350528717041016 C 181.3014678955078 66.09820556640625 169.8047637939453 79.11103057861328 179.47177124023438 102.0286636352539" fill="none" stroke="rgb(0, 0, 0)" stroke-linecap="round" stroke-linejoin="round" stroke-opacity="1.0" stroke-width="3.0"/>
    <path d="M 142.5725860595703 56.919776916503906 C 114.10612487792969 108.0065689086914 107.80457305908203 61.10931396484375 124.41368103027344 97.39693450927734" fill="none" stroke="rgb(0, 0, 0)" stroke-linecap="round" stroke-linejoin="round" stroke-opacity="1.0" stroke-width="3.0"/>
    <path d="M 139.948486328125 44.47850036621094 C 131.3253173828125 75.31184387207031 144.55007934570312 73.8154296875 128.5736083984375 97.64592742919922" fill="none" stroke="rgb(0, 0, 0)" stroke-linecap="round" stroke-linejoin="round" stroke-opacity="1.0" stroke-width="3.0"/>
    <path d="M 178.73121643066406 103.57239532470703 C 183.5056610107422 101.6447525024414 179.0514678955078 93.39363098144531 185.02606201171875 129.14488220214844" fill="none" stroke="rgb(0, 0, 0)" stroke-linecap="round" stroke-linejoin="round" stroke-opacity="1.0" stroke-width="3.0"/>
    <path d="M 121.69524383544922 96.32286071777344 C 105.88140106201172 57.91792297363281 87.71039581298828 80.99687194824219 111.524658203125 24.51443099975586" fill="none" stroke="rgb(0, 0, 0)" stroke-linecap="round" stroke-linejoin="round" stroke-opacity="1.0" stroke-width="3.0"/>
    <path d="M 106.26387023925781 144.98948669433594 C 144.8047637939453 156.2177734375 95.00408935546875 165.06407165527344 93.63724517822266 159.93690490722656" fill="none" stroke="rgb(0, 0, 0)" stroke-linecap="round" stroke-linejoin="round" stroke-opacity="1.0" stroke-width="3.0"/>
    <path d="M 194.2335205078125 117.85382080078125 C 186.00384521484375 159.17823791503906 211.05992126464844 143.62997436523438 174.0350799560547 167.5081329345703" fill="none" stroke="rgb(0, 0, 0)" stroke-linecap="round" stroke-linejoin="round" stroke-opacity="1.0" stroke-width="3.0"/>
    <path d="M 128.63467407226562 35.39717483520508 C 60.83866882324219 51.055747985839844 139.57534790039062 59.02908706665039 108.17059326171875 59.48947525024414" fill="none" stroke="rgb(0, 0, 0)" stroke-linecap="round" stroke-linejoin="round" stroke-opacity="1.0" stroke-width="3.0"/>
    <path d="M 176.81776428222656 161.64244079589844 C 193.2108612060547 133.24325561523438 169.5801239013672 143.0409698486328 193.59027099609375 121.14363098144531" fill="none" stroke="rgb(0, 0, 0)" stroke-linecap="round" stroke-linejoin="round" stroke-opacity="1.0" stroke-width="3.0"/>
    <path d="M 112.88768768310547 70.37677764892578 C 113.2956314086914 73.50129699707031 121.27561950683594 74.20756530761719 122.9552230834961 71.18993377685547" fill="none" stroke="rgb(0, 0, 0)" stroke-linecap="round" stroke-linejoin="round" stroke-opacity="1.0" stroke-width="3.0"/>
    <path d="M 160.0880889892578 61.99650573730469 C 162.18980407714844 69.4709243774414 171.8051300048828 61.5963249206543 176.8849639892578 86.2121810913086" fill="none" stroke="rgb(0, 0, 0)" stroke-linecap="round" stroke-linejoin="round" stroke-opacity="1.0" stroke-width="3.0"/>
    <path d="M 105.18124389648438 155.02474975585938 C 174.48028564453125 164.64561462402344 150.4991912841797 166.01235961914062 176.02516174316406 161.7596893310547" fill="none" stroke="rgb(0, 0, 0)" stroke-linecap="round" stroke-linejoin="round" stroke-opacity="1.0" stroke-width="3.0"/>
    <path d="M 120.76681518554688 30.16586685180664 C 74.8890609741211 74.841064453125 116.97399139404297 -12.427175521850586 140.54029846191406 42.81602096557617" fill="none" stroke="rgb(0, 0, 0)" stroke-linecap="round" stroke-linejoin="round" stroke-opacity="1.0" stroke-width="3.0"/>
    <path d="M 140.776123046875 51.124595642089844 C 114.61959838867188 18.158002853393555 162.46194458007812 58.83173370361328 123.24061584472656 58.922264099121094" fill="none" stroke="rgb(0, 0, 0)" stroke-linecap="round" stroke-linejoin="round" stroke-opacity="1.0" stroke-width="3.0"/>
  </g>
</svg>
