<?xml version="1.0" ?>
<svg height="224" version="1.1" width="224" xmlns="http://www.w3.org/2000/svg">
  <defs/>
  <g>
    <path d="M 85.75521850585938 142.543212890625 C 94.61107635498047 113.16255950927734 69.30743408203125 64.61550903320312 96.55790710449219 58.5786018371582" fill="none" stroke="rgb(0, 0, 0)" stroke-linecap="round" stroke-linejoin="round" stroke-opacity="1.0" stroke-width="3.0"/>
    <path d="M 117.70426177978516 117.02252197265625 C 163.46633911132812 123.76209259033203 143.33917236328125 106.10166931152344 165.4781036376953 76.66554260253906" fill="none" stroke="rgb(0, 0, 0)" stroke-linecap="round" stroke-linejoin="round" stroke-opacity="1.0" stroke-width="3.0"/>
    <path d="M 139.0417022705078 50.38840866088867 C 191.87855529785156 75.7284164428711 166.4776153564453 91.60133361816406 173.09835815429688 109.08641815185547" fill="none" stroke="rgb(0, 0, 0)" stroke-linecap="round" stroke-linejoin="round" stroke-opacity="1.0" stroke-width="3.0"/>
    <path d="M 133.38394165039062 67.82685852050781 C 120.60049438476562 97.9656753540039 102.97029876708984 62.814632415771484 127.79936218261719 92.49210357666016" fill="none" stroke="rgb(0, 0, 0)" stroke-linecap="round" stroke-linejoin="round" stroke-opacity="1.0" stroke-width="3.0"/>
    <path d="M 135.34133911132812 37.56095504760742 C 133.39527893066406 93.11762237548828 147.0755157470703 39.19065856933594 131.17034912109375 90.09700012207031" fill="none" stroke="rgb(0, 0, 0)" stroke-linecap="round" stroke-linejoin="round" stroke-opacity="1.0" stroke-width="3.0"/>
    <path d="M 173.13331604003906 111.02229309082031 C 146.5960235595703 120.49797058105469 155.38858032226562 104.11199951171875 146.88975524902344 117.613037109375" fill="none" stroke="rgb(0, 0, 0)" stroke-linecap="round" stroke-linejoin="round" stroke-opacity="1.0" stroke-width="3.0"/>
    <path d="M 122.70883178710938 94.10789489746094 C 104.33565521240234 54.744232177734375 91.6798095703125 81.80501556396484 102.54508209228516 38.26938247680664" fill="none" stroke="rgb(0, 0, 0)" stroke-linecap="round" stroke-linejoin="round" stroke-opacity="1.0" stroke-width="3.0"/>
    <path d="M 110.80534362792969 165.5163116455078 C 111.49671173095703 164.46034240722656 91.89521789550781 155.7096710205078 105.29047393798828 166.78842163085938" fill="none" stroke="rgb(0, 0, 0)" stroke-linecap="round" stroke-linejoin="round" stroke-opacity="1.0" stroke-width="3.0"/>
    <path d="M 198.15347290039062 115.72465515136719 C 201.63111877441406 174.954345703125 183.47372436523438 160.0132293701172 165.11448669433594 172.5845947265625" fill="none" stroke="rgb(0, 0, 0)" stroke-linecap="round" stroke-linejoin="round" stroke-opacity="1.0" stroke-width="3.0"/>
    <path d="M 109.87736511230469 30.3216495513916 C 74.3927230834961 58.87281799316406 126.66299438476562 51.34703826904297 104.61569213867188 58.58915328979492" fill="none" stroke="rgb(0, 0, 0)" stroke-linecap="round" stroke-linejoin="round" stroke-opacity="1.0" stroke-width="3.0"/>
    <path d="M 184.59971618652344 155.1742706298828 C 204.2161865234375 132.16998291015625 197.3578643798828 142.1337890625 196.30601501464844 121.5651626586914" fill="none" stroke="rgb(0, 0, 0)" stroke-linecap="round" stroke-linejoin="round" stroke-opacity="1.0" stroke-width="3.0"/>
    <path d="M 113.39982604980469 71.1849594116211 C 117.8424072265625 73.00907135009766 118.91030883789062 71.29961395263672 123.50739288330078 68.96431732177734" fill="none" stroke="rgb(0, 0, 0)" stroke-linecap="round" stroke-linejoin="round" stroke-opacity="1.0" stroke-width="3.0"/>
    <path d="M 161.57498168945312 64.70372772216797 C 165.99375915527344 88.13903045654297 161.98284912109375 52.607872009277344 173.6628875732422 79.47948455810547" fill="none" stroke="rgb(0, 0, 0)" stroke-linecap="round" stroke-linejoin="round" stroke-opacity="1.0" stroke-width="3.0"/>
    <path d="M 118.50614166259766 164.60520935058594 C 171.5830535888672 174.40020751953125 138.53582763671875 174.3917236328125 165.85586547851562 172.07354736328125" fill="none" stroke="rgb(0, 0, 0)" stroke-linecap="round" stroke-linejoin="round" stroke-opacity="1.0" stroke-width="3.0"/>
    <path d="M 100.41012573242188 35.40362548828125 C 86.7746353149414 73.93679809570312 101.05232238769531 -11.076288223266602 139.945068359375 38.773868560791016" fill="none" stroke="rgb(0, 0, 0)" stroke-linecap="round" stroke-linejoin="round" stroke-opacity="1.0" stroke-width="3.0"/>
    <path d="M 138.19662475585938 50.42972183227539 C 116.74271392822266 9.625371932983398 163.24612426757812 61.60081100463867 121.7757568359375 55.76342010498047" fill="none" stroke="rgb(0, 0, 0)" stroke-linecap="round" stroke-linejoin="round" stroke-opacity="1.0" stroke-width="3.0"/>
  </g>
</svg>
