<?xml version="1.0" ?>
<svg height="224" version="1.1" width="224" xmlns="http://www.w3.org/2000/svg">
  <defs/>
  <g>
    <path d="M 80.03787994384766 137.0515594482422 C 92.72601318359375 132.2030029296875 58.389312744140625 64.64671325683594 97.66864013671875 56.444923400878906" fill="none" stroke="rgb(0, 0, 0)" stroke-linecap="round" stroke-linejoin="round" stroke-opacity="1.0" stroke-width="3.0"/>
    <path d="M 115.53208923339844 144.3317413330078 C 192.00367736816406 132.3475341796875 136.6898193359375 123.0383529663086 149.1627960205078 64.44864654541016" fill="none" stroke="rgb(0, 0, 0)" stroke-linecap="round" stroke-linejoin="round" stroke-opacity="1.0" stroke-width="3.0"/>
    <path d="M 133.5994873046875 52.9647331237793 C 183.18243408203125 63.57307052612305 168.99600219726562 83.48233032226562 180.74432373046875 102.16400909423828" fill="none" stroke="rgb(0, 0, 0)" stroke-linecap="round" stroke-linejoin="round" stroke-opacity="1.0" stroke-width="3.0"/>
    <path d="M 140.7866668701172 56.038917541503906 C 114.28160858154297 107.86538696289062 107.8718490600586 61.115455627441406 124.02769470214844 97.87322235107422" fill="none" stroke="rgb(0, 0, 0)" stroke-linecap="round" stroke-linejoin="round" stroke-opacity="1.0" stroke-width="3.0"/>
    <path d="M 136.66868591308594 43.1176872253418 C 131.3978729248047 75.00170135498047 144.3646240234375 73.69548034667969 125.6559829711914 97.32000732421875" fill="none" stroke="rgb(0, 0, 0)" stroke-linecap="round" stroke-linejoin="round" stroke-opacity="1.0" stroke-width="3.0"/>
    <path d="M 179.5752716064453 99.65657043457031 C 180.992919921875 100.79039001464844 174.71292114257812 94.52456665039062 187.32984924316406 128.71493530273438" fill="none" stroke="rgb(0, 0, 0)" stroke-linecap="round" stroke-linejoin="round" stroke-opacity="1.0" stroke-width="3.0"/>
    <path d="M 119.45172882080078 98.62734985351562 C 105.1952896118164 55.33216857910156 88.67403411865234 78.51094818115234 113.60075378417969 31.583911895751953" fill="none" stroke="rgb(0, 0, 0)" stroke-linecap="round" stroke-linejoin="round" stroke-opacity="1.0" stroke-width="3.0"/>
    <path d="M 102.98617553710938 145.092529296875 C 159.16989135742188 145.952880859375 102.83526611328125 168.4549560546875 98.07368469238281 157.57260131835938" fill="none" stroke="rgb(0, 0, 0)" stroke-linecap="round" stroke-linejoin="round" stroke-opacity="1.0" stroke-width="3.0"/>
    <path d="M 195.9129180908203 120.41609954833984 C 185.85751342773438 154.8385772705078 213.25909423828125 151.17623901367188 175.39170837402344 163.87420654296875" fill="none" stroke="rgb(0, 0, 0)" stroke-linecap="round" stroke-linejoin="round" stroke-opacity="1.0" stroke-width="3.0"/>
    <path d="M 127.94998168945312 32.36160659790039 C 57.07703399658203 49.40638732910156 149.07350158691406 59.6668586730957 110.07022857666016 59.639747619628906" fill="none" stroke="rgb(0, 0, 0)" stroke-linecap="round" stroke-linejoin="round" stroke-opacity="1.0" stroke-width="3.0"/>
    <path d="M 176.31324768066406 156.403076171875 C 192.00791931152344 132.86183166503906 170.44851684570312 153.8497772216797 193.5595245361328 117.4726333618164" fill="none" stroke="rgb(0, 0, 0)" stroke-linecap="round" stroke-linejoin="round" stroke-opacity="1.0" stroke-width="3.0"/>
    <path d="M 112.57628631591797 70.3709716796875 C 111.19082641601562 72.51449584960938 121.46151733398438 73.10965728759766 123.2102279663086 71.54566192626953" fill="none" stroke="rgb(0, 0, 0)" stroke-linecap="round" stroke-linejoin="round" stroke-opacity="1.0" stroke-width="3.0"/>
    <path d="M 154.7227325439453 64.33002471923828 C 159.66273498535156 81.55110168457031 164.51431274414062 65.92843627929688 174.0154571533203 91.35844421386719" fill="none" stroke="rgb(0, 0, 0)" stroke-linecap="round" stroke-linejoin="round" stroke-opacity="1.0" stroke-width="3.0"/>
    <path d="M 99.35508728027344 151.23463439941406 C 175.67196655273438 163.83493041992188 153.49923706054688 160.9114532470703 173.82611083984375 156.81320190429688" fill="none" stroke="rgb(0, 0, 0)" stroke-linecap="round" stroke-linejoin="round" stroke-opacity="1.0" stroke-width="3.0"/>
    <path d="M 122.35057830810547 29.625137329101562 C 73.54071807861328 70.22700500488281 120.8853988647461 -16.01754379272461 141.0162353515625 45.441715240478516" fill="none" stroke="rgb(0, 0, 0)" stroke-linecap="round" stroke-linejoin="round" stroke-opacity="1.0" stroke-width="3.0"/>
    <path d="M 138.9134521484375 51.406494140625 C 118.29790496826172 19.14484977722168 163.4707794189453 65.8377685546875 126.00858306884766 58.83327102661133" fill="none" stroke="rgb(0, 0, 0)" stroke-linecap="round" stroke-linejoin="round" stroke-opacity="1.0" stroke-width="3.0"/>
  </g>
</svg>
