<?xml version="1.0" ?>
<svg height="224" version="1.1" width="224" xmlns="http://www.w3.org/2000/svg">
  <defs/>
  <g>
    <path d="M 87.73169708251953 136.75035095214844 C 95.38116455078125 122.24699401855469 69.9635009765625 64.66334533691406 94.19683074951172 57.04631042480469" fill="none" stroke="rgb(0, 0, 0)" stroke-linecap="round" stroke-linejoin="round" stroke-opacity="1.0" stroke-width="3.0"/>
    <path d="M 129.24195861816406 131.69573974609375 C 146.62937927246094 131.27149963378906 162.41513061523438 123.02913665771484 171.27272033691406 110.09514617919922" fill="none" stroke="rgb(0, 0, 0)" stroke-linecap="round" stroke-linejoin="round" stroke-opacity="1.0" stroke-width="3.0"/>
    <path d="M 165.9475555419922 68.66000366210938 C 179.91639709472656 109.00880432128906 166.89956665039062 81.84615325927734 177.37860107421875 115.26978302001953" fill="none" stroke="rgb(0, 0, 0)" stroke-linecap="round" stroke-linejoin="round" stroke-opacity="1.0" stroke-width="3.0"/>
    <path d="M 135.45619201660156 66.42620849609375 C 119.135009765625 101.05791473388672 102.94024658203125 62.708213806152344 123.61890411376953 94.66859436035156" fill="none" stroke="rgb(0, 0, 0)" stroke-linecap="round" stroke-linejoin="round" stroke-opacity="1.0" stroke-width="3.0"/>
    <path d="M 141.24481201171875 44.99967956542969 C 150.78976440429688 62.49008560180664 144.69480895996094 37.76762390136719 129.1162567138672 94.65929412841797" fill="none" stroke="rgb(0, 0, 0)" stroke-linecap="round" stroke-linejoin="round" stroke-opacity="1.0" stroke-width="3.0"/>
    <path d="M 175.94241333007812 122.48489379882812 C 161.51235961914062 127.56326293945312 176.4361572265625 123.35843658447266 157.7863311767578 127.75672149658203" fill="none" stroke="rgb(0, 0, 0)" stroke-linecap="round" stroke-linejoin="round" stroke-opacity="1.0" stroke-width="3.0"/>
    <path d="M 119.22320556640625 93.18236541748047 C 98.0604476928711 52.336612701416016 107.0179672241211 90.84530639648438 98.11568450927734 44.216060638427734" fill="none" stroke="rgb(0, 0, 0)" stroke-linecap="round" stroke-linejoin="round" stroke-opacity="1.0" stroke-width="3.0"/>
    <path d="M 109.3642807006836 163.69610595703125 C 91.3941650390625 163.9459991455078 96.49449920654297 161.92822265625 106.68626403808594 166.83067321777344" fill="none" stroke="rgb(0, 0, 0)" stroke-linecap="round" stroke-linejoin="round" stroke-opacity="1.0" stroke-width="3.0"/>
    <path d="M 188.6460418701172 156.8129119873047 C 159.93775939941406 169.9195556640625 178.33567810058594 159.86256408691406 169.48477172851562 168.58187866210938" fill="none" stroke="rgb(0, 0, 0)" stroke-linecap="round" stroke-linejoin="round" stroke-opacity="1.0" stroke-width="3.0"/>
    <path d="M 102.10604095458984 31.21760368347168 C 88.41669464111328 56.14225387573242 98.65241241455078 47.38597106933594 113.83650970458984 55.685386657714844" fill="none" stroke="rgb(0, 0, 0)" stroke-linecap="round" stroke-linejoin="round" stroke-opacity="1.0" stroke-width="3.0"/>
    <path d="M 184.98049926757812 147.70562744140625 C 182.77569580078125 149.57814025878906 190.70225524902344 138.4666290283203 181.77322387695312 150.39793395996094" fill="none" stroke="rgb(0, 0, 0)" stroke-linecap="round" stroke-linejoin="round" stroke-opacity="1.0" stroke-width="3.0"/>
    <path d="M 112.86611938476562 68.66378021240234 C 126.36648559570312 71.52689361572266 118.4298095703125 65.14693450927734 125.12599182128906 66.75665283203125" fill="none" stroke="rgb(0, 0, 0)" stroke-linecap="round" stroke-linejoin="round" stroke-opacity="1.0" stroke-width="3.0"/>
    <path d="M 172.53457641601562 86.57121276855469 C 178.62510681152344 93.19988250732422 164.62222290039062 74.3459243774414 176.0480499267578 86.3109130859375" fill="none" stroke="rgb(0, 0, 0)" stroke-linecap="round" stroke-linejoin="round" stroke-opacity="1.0" stroke-width="3.0"/>
    <path d="M 122.52886199951172 163.0813446044922 C 153.13575744628906 169.7277374267578 131.6918182373047 163.68836975097656 164.04034423828125 168.5471649169922" fill="none" stroke="rgb(0, 0, 0)" stroke-linecap="round" stroke-linejoin="round" stroke-opacity="1.0" stroke-width="3.0"/>
    <path d="M 103.62403106689453 32.18363952636719 C 99.90628814697266 59.125267028808594 98.46311950683594 -2.091505527496338 138.4662628173828 33.66597366333008" fill="none" stroke="rgb(0, 0, 0)" stroke-linecap="round" stroke-linejoin="round" stroke-opacity="1.0" stroke-width="3.0"/>
    <path d="M 135.6002197265625 42.99019241333008 C 138.86724853515625 23.74993133544922 141.12518310546875 41.7171745300293 139.03195190429688 54.53752517700195" fill="none" stroke="rgb(0, 0, 0)" stroke-linecap="round" stroke-linejoin="round" stroke-opacity="1.0" stroke-width="3.0"/>
  </g>
</svg>
