<?xml version="1.0" ?>
<svg height="224" version="1.1" width="224" xmlns="http://www.w3.org/2000/svg">
  <defs/>
  <g>
    <path d="M 83.8644027709961 144.6309356689453 C 92.10999298095703 113.80850982666016 69.03926086425781 67.03067779541016 95.39826965332031 57.698184967041016" fill="none" stroke="rgb(0, 0, 0)" stroke-linecap="round" stroke-linejoin="round" stroke-opacity="1.0" stroke-width="3.0"/>
    <path d="M 120.60163879394531 127.6300048828125 C 157.2769775390625 131.03086853027344 166.69578552246094 123.48709869384766 177.1783447265625 107.88699340820312" fill="none" stroke="rgb(0, 0, 0)" stroke-linecap="round" stroke-linejoin="round" stroke-opacity="1.0" stroke-width="3.0"/>
    <path d="M 165.17735290527344 63.07228088378906 C 180.96812438964844 92.11640167236328 168.81265258789062 80.16175079345703 180.9440155029297 118.0808334350586" fill="none" stroke="rgb(0, 0, 0)" stroke-linecap="round" stroke-linejoin="round" stroke-opacity="1.0" stroke-width="3.0"/>
    <path d="M 133.04861450195312 73.14384460449219 C 121.1627197265625 101.08208465576172 100.28180694580078 68.34967041015625 125.04625701904297 95.21151733398438" fill="none" stroke="rgb(0, 0, 0)" stroke-linecap="round" stroke-linejoin="round" stroke-opacity="1.0" stroke-width="3.0"/>
    <path d="M 138.47634887695312 47.2132682800293 C 148.44168090820312 74.9211196899414 146.89312744140625 45.47698211669922 129.70346069335938 96.65985870361328" fill="none" stroke="rgb(0, 0, 0)" stroke-linecap="round" stroke-linejoin="round" stroke-opacity="1.0" stroke-width="3.0"/>
    <path d="M 180.4209747314453 119.31041717529297 C 161.2012481689453 124.93282318115234 178.68154907226562 123.11186218261719 156.41050720214844 129.20054626464844" fill="none" stroke="rgb(0, 0, 0)" stroke-linecap="round" stroke-linejoin="round" stroke-opacity="1.0" stroke-width="3.0"/>
    <path d="M 125.47142028808594 97.9420166015625 C 93.0678939819336 50.739601135253906 109.8860092163086 88.20986938476562 96.9091567993164 42.805274963378906" fill="none" stroke="rgb(0, 0, 0)" stroke-linecap="round" stroke-linejoin="round" stroke-opacity="1.0" stroke-width="3.0"/>
    <path d="M 113.30534362792969 165.0697021484375 C 97.30712890625 168.20082092285156 101.86007690429688 163.66342163085938 107.39176940917969 165.943359375" fill="none" stroke="rgb(0, 0, 0)" stroke-linecap="round" stroke-linejoin="round" stroke-opacity="1.0" stroke-width="3.0"/>
    <path d="M 190.30224609375 161.0684814453125 C 170.7801055908203 172.20079040527344 181.39988708496094 161.38148498535156 165.30075073242188 174.20346069335938" fill="none" stroke="rgb(0, 0, 0)" stroke-linecap="round" stroke-linejoin="round" stroke-opacity="1.0" stroke-width="3.0"/>
    <path d="M 102.8067398071289 31.25366973876953 C 91.11608123779297 54.57802200317383 103.59848022460938 49.680992126464844 110.60936737060547 57.63736343383789" fill="none" stroke="rgb(0, 0, 0)" stroke-linecap="round" stroke-linejoin="round" stroke-opacity="1.0" stroke-width="3.0"/>
    <path d="M 190.07167053222656 157.04324340820312 C 188.54608154296875 152.53407287597656 194.23391723632812 166.27120971679688 189.15478515625 154.9736785888672" fill="none" stroke="rgb(0, 0, 0)" stroke-linecap="round" stroke-linejoin="round" stroke-opacity="1.0" stroke-width="3.0"/>
    <path d="M 115.38501739501953 71.35858154296875 C 125.08588409423828 74.69960021972656 123.52886962890625 69.49549102783203 126.05638885498047 69.26136016845703" fill="none" stroke="rgb(0, 0, 0)" stroke-linecap="round" stroke-linejoin="round" stroke-opacity="1.0" stroke-width="3.0"/>
    <path d="M 172.77096557617188 76.21796417236328 C 174.78890991210938 99.04619598388672 169.75938415527344 67.45740509033203 172.64756774902344 91.73645782470703" fill="none" stroke="rgb(0, 0, 0)" stroke-linecap="round" stroke-linejoin="round" stroke-opacity="1.0" stroke-width="3.0"/>
    <path d="M 122.9721908569336 164.9495849609375 C 162.04249572753906 167.51734924316406 129.5226287841797 169.0003662109375 165.2875213623047 171.82398986816406" fill="none" stroke="rgb(0, 0, 0)" stroke-linecap="round" stroke-linejoin="round" stroke-opacity="1.0" stroke-width="3.0"/>
    <path d="M 102.4970703125 37.43053436279297 C 96.22236633300781 68.45210266113281 95.42278289794922 -2.3466827869415283 136.98355102539062 33.482261657714844" fill="none" stroke="rgb(0, 0, 0)" stroke-linecap="round" stroke-linejoin="round" stroke-opacity="1.0" stroke-width="3.0"/>
    <path d="M 135.55706787109375 38.658058166503906 C 132.7642364501953 24.591821670532227 144.55665588378906 41.61723327636719 137.8343963623047 56.80922317504883" fill="none" stroke="rgb(0, 0, 0)" stroke-linecap="round" stroke-linejoin="round" stroke-opacity="1.0" stroke-width="3.0"/>
  </g>
</svg>
