<?xml version="1.0" ?>
<svg height="224" version="1.1" width="224" xmlns="http://www.w3.org/2000/svg">
  <defs/>
  <g>
    <path d="M 88.23625946044922 142.23390197753906 C 96.71177673339844 116.96436309814453 66.54374694824219 61.2616081237793 94.04259490966797 60.553409576416016" fill="none" stroke="rgb(0, 0, 0)" stroke-linecap="round" stroke-linejoin="round" stroke-opacity="1.0" stroke-width="3.0"/>
    <path d="M 118.74446868896484 116.06929016113281 C 163.279052734375 121.84426879882812 143.32167053222656 113.2145004272461 165.91709899902344 81.77105712890625" fill="none" stroke="rgb(0, 0, 0)" stroke-linecap="round" stroke-linejoin="round" stroke-opacity="1.0" stroke-width="3.0"/>
    <path d="M 140.83895874023438 49.854061126708984 C 190.0946807861328 76.79357147216797 165.67515563964844 87.0515365600586 173.26429748535156 103.52976989746094" fill="none" stroke="rgb(0, 0, 0)" stroke-linecap="round" stroke-linejoin="round" stroke-opacity="1.0" stroke-width="3.0"/>
    <path d="M 131.391845703125 66.89554595947266 C 120.10472869873047 99.36724090576172 96.25432586669922 68.34326934814453 126.98689270019531 95.0275650024414" fill="none" stroke="rgb(0, 0, 0)" stroke-linecap="round" stroke-linejoin="round" stroke-opacity="1.0" stroke-width="3.0"/>
    <path d="M 134.0781707763672 39.78122329711914 C 137.58407592773438 78.94174194335938 137.89764404296875 34.93385696411133 129.0403594970703 89.69998168945312" fill="none" stroke="rgb(0, 0, 0)" stroke-linecap="round" stroke-linejoin="round" stroke-opacity="1.0" stroke-width="3.0"/>
    <path d="M 174.16659545898438 107.17044067382812 C 158.6715087890625 119.95809936523438 152.4676513671875 101.49107360839844 149.20315551757812 115.42522430419922" fill="none" stroke="rgb(0, 0, 0)" stroke-linecap="round" stroke-linejoin="round" stroke-opacity="1.0" stroke-width="3.0"/>
    <path d="M 121.13092803955078 95.8695297241211 C 93.4638442993164 53.68761444091797 97.95218658447266 90.30606842041016 99.48492431640625 36.810882568359375" fill="none" stroke="rgb(0, 0, 0)" stroke-linecap="round" stroke-linejoin="round" stroke-opacity="1.0" stroke-width="3.0"/>
    <path d="M 114.61380004882812 159.9365692138672 C 100.66644287109375 167.97482299804688 96.574462890625 160.959228515625 111.66500091552734 162.31666564941406" fill="none" stroke="rgb(0, 0, 0)" stroke-linecap="round" stroke-linejoin="round" stroke-opacity="1.0" stroke-width="3.0"/>
    <path d="M 197.2932586669922 119.31291961669922 C 198.12969970703125 171.54273986816406 176.9015350341797 163.22647094726562 166.21548461914062 170.17750549316406" fill="none" stroke="rgb(0, 0, 0)" stroke-linecap="round" stroke-linejoin="round" stroke-opacity="1.0" stroke-width="3.0"/>
    <path d="M 106.52315521240234 30.27195167541504 C 75.94832611083984 63.30022430419922 119.52961730957031 53.34215545654297 103.39167785644531 58.648719787597656" fill="none" stroke="rgb(0, 0, 0)" stroke-linecap="round" stroke-linejoin="round" stroke-opacity="1.0" stroke-width="3.0"/>
    <path d="M 185.09889221191406 159.8797607421875 C 208.79635620117188 140.02806091308594 203.09373474121094 147.78892517089844 198.75454711914062 141.65103149414062" fill="none" stroke="rgb(0, 0, 0)" stroke-linecap="round" stroke-linejoin="round" stroke-opacity="1.0" stroke-width="3.0"/>
    <path d="M 112.43214416503906 69.52893829345703 C 118.5035629272461 75.56285095214844 117.25894927978516 70.03699493408203 121.20731353759766 68.10073852539062" fill="none" stroke="rgb(0, 0, 0)" stroke-linecap="round" stroke-linejoin="round" stroke-opacity="1.0" stroke-width="3.0"/>
    <path d="M 168.6177520751953 71.3323745727539 C 164.08543395996094 99.35139465332031 166.98208618164062 58.47632598876953 172.81369018554688 80.76071166992188" fill="none" stroke="rgb(0, 0, 0)" stroke-linecap="round" stroke-linejoin="round" stroke-opacity="1.0" stroke-width="3.0"/>
    <path d="M 116.29561614990234 163.60951232910156 C 165.1190948486328 170.4998321533203 136.78070068359375 177.01568603515625 164.59161376953125 170.9505615234375" fill="none" stroke="rgb(0, 0, 0)" stroke-linecap="round" stroke-linejoin="round" stroke-opacity="1.0" stroke-width="3.0"/>
    <path d="M 96.36531066894531 33.874454498291016 C 89.85643768310547 78.51376342773438 92.25534057617188 -3.589935064315796 136.57550048828125 31.859111785888672" fill="none" stroke="rgb(0, 0, 0)" stroke-linecap="round" stroke-linejoin="round" stroke-opacity="1.0" stroke-width="3.0"/>
    <path d="M 136.66796875 39.79281234741211 C 116.02617645263672 16.03306770324707 155.91506958007812 36.99931335449219 129.61033630371094 54.432212829589844" fill="none" stroke="rgb(0, 0, 0)" stroke-linecap="round" stroke-linejoin="round" stroke-opacity="1.0" stroke-width="3.0"/>
  </g>
</svg>
