<?xml version="1.0" ?>
<svg height="224" version="1.1" width="224" xmlns="http://www.w3.org/2000/svg">
  <defs/>
  <g>
    <path d="M 81.61272430419922 143.2318878173828 C 94.50431060791016 136.38279724121094 55.40083312988281 67.94229125976562 96.46390533447266 57.09211730957031" fill="none" stroke="rgb(0, 0, 0)" stroke-linecap="round" stroke-linejoin="round" stroke-opacity="1.0" stroke-width="3.0"/>
    <path d="M 120.60186767578125 120.8608169555664 C 197.08575439453125 119.07565307617188 137.12681579589844 110.1728515625 157.19178771972656 74.6824722290039" fill="none" stroke="rgb(0, 0, 0)" stroke-linecap="round" stroke-linejoin="round" stroke-opacity="1.0" stroke-width="3.0"/>
    <path d="M 134.02381896972656 44.974002838134766 C 185.21543884277344 76.55534362792969 168.15695190429688 81.74455261230469 178.7236328125 103.71702575683594" fill="none" stroke="rgb(0, 0, 0)" stroke-linecap="round" stroke-linejoin="round" stroke-opacity="1.0" stroke-width="3.0"/>
    <path d="M 139.93495178222656 58.032073974609375 C 117.81066131591797 109.08759307861328 98.20632934570312 63.035072326660156 123.76690673828125 98.79682159423828" fill="none" stroke="rgb(0, 0, 0)" stroke-linecap="round" stroke-linejoin="round" stroke-opacity="1.0" stroke-width="3.0"/>
    <path d="M 138.590576171875 42.3157958984375 C 127.21807861328125 81.09607696533203 144.13502502441406 65.76097869873047 125.42289733886719 96.4442367553711" fill="none" stroke="rgb(0, 0, 0)" stroke-linecap="round" stroke-linejoin="round" stroke-opacity="1.0" stroke-width="3.0"/>
    <path d="M 173.3024139404297 103.46712493896484 C 173.87185668945312 104.68196868896484 170.71405029296875 95.60560607910156 183.92300415039062 126.77472686767578" fill="none" stroke="rgb(0, 0, 0)" stroke-linecap="round" stroke-linejoin="round" stroke-opacity="1.0" stroke-width="3.0"/>
    <path d="M 121.65330505371094 101.61367797851562 C 100.8532943725586 59.15284729003906 88.21257781982422 78.06365966796875 107.2236557006836 30.336530685424805" fill="none" stroke="rgb(0, 0, 0)" stroke-linecap="round" stroke-linejoin="round" stroke-opacity="1.0" stroke-width="3.0"/>
    <path d="M 120.74578857421875 158.37005615234375 C 114.98735809326172 169.2378692626953 97.010498046875 163.99227905273438 99.88612365722656 163.1575927734375" fill="none" stroke="rgb(0, 0, 0)" stroke-linecap="round" stroke-linejoin="round" stroke-opacity="1.0" stroke-width="3.0"/>
    <path d="M 194.0517578125 123.09178924560547 C 185.1409912109375 156.11953735351562 212.78689575195312 148.1575927734375 170.69564819335938 170.9402618408203" fill="none" stroke="rgb(0, 0, 0)" stroke-linecap="round" stroke-linejoin="round" stroke-opacity="1.0" stroke-width="3.0"/>
    <path d="M 125.78772735595703 31.36626625061035 C 59.24409866333008 53.46017074584961 139.5757598876953 52.480224609375 107.07367706298828 57.14096450805664" fill="none" stroke="rgb(0, 0, 0)" stroke-linecap="round" stroke-linejoin="round" stroke-opacity="1.0" stroke-width="3.0"/>
    <path d="M 172.22918701171875 145.63995361328125 C 187.0750274658203 126.42756652832031 182.28082275390625 147.44869995117188 194.83070373535156 118.2496337890625" fill="none" stroke="rgb(0, 0, 0)" stroke-linecap="round" stroke-linejoin="round" stroke-opacity="1.0" stroke-width="3.0"/>
    <path d="M 114.16374969482422 70.55169677734375 C 119.28123474121094 75.99822998046875 115.34784698486328 69.94612884521484 122.63198852539062 68.95532989501953" fill="none" stroke="rgb(0, 0, 0)" stroke-linecap="round" stroke-linejoin="round" stroke-opacity="1.0" stroke-width="3.0"/>
    <path d="M 155.35919189453125 59.52116012573242 C 161.57882690429688 67.35269927978516 168.63296508789062 55.29011917114258 173.5941162109375 81.6778564453125" fill="none" stroke="rgb(0, 0, 0)" stroke-linecap="round" stroke-linejoin="round" stroke-opacity="1.0" stroke-width="3.0"/>
    <path d="M 101.7701644897461 157.7720184326172 C 169.7336883544922 171.8660125732422 142.82737731933594 173.60006713867188 169.94468688964844 167.193603515625" fill="none" stroke="rgb(0, 0, 0)" stroke-linecap="round" stroke-linejoin="round" stroke-opacity="1.0" stroke-width="3.0"/>
    <path d="M 116.487548828125 28.476642608642578 C 75.80390930175781 71.97581481933594 116.13309478759766 -15.067852973937988 138.9374237060547 40.48820495605469" fill="none" stroke="rgb(0, 0, 0)" stroke-linecap="round" stroke-linejoin="round" stroke-opacity="1.0" stroke-width="3.0"/>
    <path d="M 142.0889129638672 50.47872543334961 C 119.71736145019531 19.417247772216797 162.2435302734375 53.30672836303711 122.98068237304688 56.581993103027344" fill="none" stroke="rgb(0, 0, 0)" stroke-linecap="round" stroke-linejoin="round" stroke-opacity="1.0" stroke-width="3.0"/>
  </g>
</svg>
