<?xml version="1.0" ?>
<svg height="224" version="1.1" width="224" xmlns="http://www.w3.org/2000/svg">
  <defs/>
  <g>
    <path d="M 83.70235443115234 143.39651489257812 C 92.9063720703125 113.71569061279297 69.22025299072266 65.26502990722656 96.7305679321289 58.40739059448242" fill="none" stroke="rgb(0, 0, 0)" stroke-linecap="round" stroke-linejoin="round" stroke-opacity="1.0" stroke-width="3.0"/>
    <path d="M 120.08855438232422 115.42064666748047 C 163.73609924316406 121.99677276611328 145.0222930908203 106.84699249267578 166.371337890625 77.42727661132812" fill="none" stroke="rgb(0, 0, 0)" stroke-linecap="round" stroke-linejoin="round" stroke-opacity="1.0" stroke-width="3.0"/>
    <path d="M 138.4737548828125 50.51350021362305 C 191.28204345703125 76.51986694335938 166.09915161132812 92.51629638671875 173.5654296875 107.07673645019531" fill="none" stroke="rgb(0, 0, 0)" stroke-linecap="round" stroke-linejoin="round" stroke-opacity="1.0" stroke-width="3.0"/>
    <path d="M 134.24685668945312 69.4672622680664 C 121.02800750732422 100.46163940429688 104.85672760009766 63.443504333496094 128.3334197998047 92.26481628417969" fill="none" stroke="rgb(0, 0, 0)" stroke-linecap="round" stroke-linejoin="round" stroke-opacity="1.0" stroke-width="3.0"/>
    <path d="M 133.4331512451172 37.462867736816406 C 135.4169921875 89.28750610351562 146.305908203125 36.83802032470703 131.36569213867188 91.03199005126953" fill="none" stroke="rgb(0, 0, 0)" stroke-linecap="round" stroke-linejoin="round" stroke-opacity="1.0" stroke-width="3.0"/>
    <path d="M 171.58778381347656 111.31165313720703 C 148.83595275878906 118.25901794433594 155.5631103515625 102.25608825683594 148.02333068847656 118.28771209716797" fill="none" stroke="rgb(0, 0, 0)" stroke-linecap="round" stroke-linejoin="round" stroke-opacity="1.0" stroke-width="3.0"/>
    <path d="M 122.17398071289062 95.40277862548828 C 103.12979125976562 54.77427291870117 92.99430084228516 79.22482299804688 101.34211730957031 36.861488342285156" fill="none" stroke="rgb(0, 0, 0)" stroke-linecap="round" stroke-linejoin="round" stroke-opacity="1.0" stroke-width="3.0"/>
    <path d="M 112.09751892089844 166.3872833251953 C 110.04711151123047 165.99765014648438 91.49354553222656 157.37547302246094 107.73094177246094 165.04190063476562" fill="none" stroke="rgb(0, 0, 0)" stroke-linecap="round" stroke-linejoin="round" stroke-opacity="1.0" stroke-width="3.0"/>
    <path d="M 192.96739196777344 120.84169006347656 C 199.33078002929688 176.8523406982422 184.0836639404297 160.59861755371094 164.3841094970703 173.24295043945312" fill="none" stroke="rgb(0, 0, 0)" stroke-linecap="round" stroke-linejoin="round" stroke-opacity="1.0" stroke-width="3.0"/>
    <path d="M 109.95277404785156 30.989147186279297 C 74.87680053710938 63.129364013671875 124.36168670654297 50.83402633666992 103.09486389160156 57.30183029174805" fill="none" stroke="rgb(0, 0, 0)" stroke-linecap="round" stroke-linejoin="round" stroke-opacity="1.0" stroke-width="3.0"/>
    <path d="M 185.19796752929688 153.4091033935547 C 207.70594787597656 132.5341796875 193.86720275878906 146.74339294433594 191.11280822753906 125.4997329711914" fill="none" stroke="rgb(0, 0, 0)" stroke-linecap="round" stroke-linejoin="round" stroke-opacity="1.0" stroke-width="3.0"/>
    <path d="M 112.39266204833984 69.06681060791016 C 117.89653778076172 71.73603057861328 117.82880401611328 70.22354888916016 123.12751770019531 67.71587371826172" fill="none" stroke="rgb(0, 0, 0)" stroke-linecap="round" stroke-linejoin="round" stroke-opacity="1.0" stroke-width="3.0"/>
    <path d="M 161.35446166992188 65.95227813720703 C 164.9862060546875 89.20502471923828 162.38531494140625 52.34291076660156 171.71278381347656 80.23246765136719" fill="none" stroke="rgb(0, 0, 0)" stroke-linecap="round" stroke-linejoin="round" stroke-opacity="1.0" stroke-width="3.0"/>
    <path d="M 117.36097717285156 165.23861694335938 C 169.42535400390625 177.780517578125 137.518798828125 173.67539978027344 163.47381591796875 171.36709594726562" fill="none" stroke="rgb(0, 0, 0)" stroke-linecap="round" stroke-linejoin="round" stroke-opacity="1.0" stroke-width="3.0"/>
    <path d="M 100.5745620727539 34.952579498291016 C 87.25200653076172 74.85308074951172 99.88420867919922 -8.849287033081055 137.93699645996094 40.293617248535156" fill="none" stroke="rgb(0, 0, 0)" stroke-linecap="round" stroke-linejoin="round" stroke-opacity="1.0" stroke-width="3.0"/>
    <path d="M 139.4957733154297 48.86852264404297 C 118.19193267822266 8.306018829345703 161.55380249023438 51.92903137207031 120.93376922607422 57.57213592529297" fill="none" stroke="rgb(0, 0, 0)" stroke-linecap="round" stroke-linejoin="round" stroke-opacity="1.0" stroke-width="3.0"/>
  </g>
</svg>
