<?xml version="1.0" ?>
<svg height="224" version="1.1" width="224" xmlns="http://www.w3.org/2000/svg">
  <defs/>
  <g>
    <path d="M 85.96815490722656 139.45803833007812 C 100.488037109375 138.0441131591797 57.03773880004883 70.56983947753906 93.39912414550781 58.385353088378906" fill="none" stroke="rgb(0, 0, 0)" stroke-linecap="round" stroke-linejoin="round" stroke-opacity="1.0" stroke-width="3.0"/>
    <path d="M 125.28607940673828 130.19113159179688 C 201.0697784423828 128.45433044433594 137.911376953125 112.07575225830078 159.6914825439453 71.59132385253906" fill="none" stroke="rgb(0, 0, 0)" stroke-linecap="round" stroke-linejoin="round" stroke-opacity="1.0" stroke-width="3.0"/>
    <path d="M 134.56492614746094 46.640995025634766 C 188.90676879882812 76.9466323852539 165.00863647460938 85.58184814453125 175.6920623779297 103.98723602294922" fill="none" stroke="rgb(0, 0, 0)" stroke-linecap="round" stroke-linejoin="round" stroke-opacity="1.0" stroke-width="3.0"/>
    <path d="M 136.15699768066406 62.14126968383789 C 115.4770736694336 110.5978012084961 100.76065063476562 64.02742767333984 121.17840576171875 98.9910888671875" fill="none" stroke="rgb(0, 0, 0)" stroke-linecap="round" stroke-linejoin="round" stroke-opacity="1.0" stroke-width="3.0"/>
    <path d="M 139.39089965820312 42.574405670166016 C 121.0000228881836 93.81348419189453 147.76051330566406 58.09521484375 125.86971282958984 99.19154357910156" fill="none" stroke="rgb(0, 0, 0)" stroke-linecap="round" stroke-linejoin="round" stroke-opacity="1.0" stroke-width="3.0"/>
    <path d="M 174.72103881835938 102.53685760498047 C 161.85086059570312 113.7292251586914 163.78012084960938 99.46244812011719 165.1118927001953 131.0334930419922" fill="none" stroke="rgb(0, 0, 0)" stroke-linecap="round" stroke-linejoin="round" stroke-opacity="1.0" stroke-width="3.0"/>
    <path d="M 117.3429183959961 98.23372650146484 C 98.17724609375 57.36627197265625 82.71788787841797 72.98194885253906 103.41151428222656 40.43811798095703" fill="none" stroke="rgb(0, 0, 0)" stroke-linecap="round" stroke-linejoin="round" stroke-opacity="1.0" stroke-width="3.0"/>
    <path d="M 118.95787048339844 162.372802734375 C 112.97766876220703 173.43649291992188 97.91481018066406 165.65911865234375 102.66461944580078 168.3551788330078" fill="none" stroke="rgb(0, 0, 0)" stroke-linecap="round" stroke-linejoin="round" stroke-opacity="1.0" stroke-width="3.0"/>
    <path d="M 193.84593200683594 120.65279388427734 C 185.46412658691406 157.37144470214844 211.2611846923828 150.1874542236328 167.72544860839844 169.81109619140625" fill="none" stroke="rgb(0, 0, 0)" stroke-linecap="round" stroke-linejoin="round" stroke-opacity="1.0" stroke-width="3.0"/>
    <path d="M 123.11425018310547 29.866159439086914 C 59.52546310424805 54.78472900390625 124.90338897705078 53.9231071472168 102.47480773925781 58.58953094482422" fill="none" stroke="rgb(0, 0, 0)" stroke-linecap="round" stroke-linejoin="round" stroke-opacity="1.0" stroke-width="3.0"/>
    <path d="M 179.46722412109375 146.2169952392578 C 192.06980895996094 129.9576416015625 184.80538940429688 142.37643432617188 193.47659301757812 117.92798614501953" fill="none" stroke="rgb(0, 0, 0)" stroke-linecap="round" stroke-linejoin="round" stroke-opacity="1.0" stroke-width="3.0"/>
    <path d="M 109.65045928955078 71.65345764160156 C 119.55668640136719 75.40205383300781 114.80729675292969 73.8674545288086 119.82036590576172 71.2125244140625" fill="none" stroke="rgb(0, 0, 0)" stroke-linecap="round" stroke-linejoin="round" stroke-opacity="1.0" stroke-width="3.0"/>
    <path d="M 153.96456909179688 59.93937301635742 C 161.6790771484375 67.41023254394531 167.11192321777344 62.47784423828125 173.06263732910156 87.65496826171875" fill="none" stroke="rgb(0, 0, 0)" stroke-linecap="round" stroke-linejoin="round" stroke-opacity="1.0" stroke-width="3.0"/>
    <path d="M 99.76811981201172 165.2410125732422 C 173.40762329101562 173.22291564941406 144.57131958007812 173.10108947753906 164.96047973632812 167.11929321289062" fill="none" stroke="rgb(0, 0, 0)" stroke-linecap="round" stroke-linejoin="round" stroke-opacity="1.0" stroke-width="3.0"/>
    <path d="M 101.55652618408203 32.46855926513672 C 82.37147521972656 69.9835433959961 114.8927001953125 -8.653387069702148 141.0090789794922 42.35260009765625" fill="none" stroke="rgb(0, 0, 0)" stroke-linecap="round" stroke-linejoin="round" stroke-opacity="1.0" stroke-width="3.0"/>
    <path d="M 141.41110229492188 48.52125549316406 C 117.26888275146484 22.43864631652832 169.23739624023438 56.73860549926758 120.1341323852539 54.28772735595703" fill="none" stroke="rgb(0, 0, 0)" stroke-linecap="round" stroke-linejoin="round" stroke-opacity="1.0" stroke-width="3.0"/>
  </g>
</svg>
