<?xml version="1.0" ?>
<svg height="224" version="1.1" width="224" xmlns="http://www.w3.org/2000/svg">
  <defs/>
  <g>
    <path d="M 82.0723648071289 140.6262969970703 C 88.50902557373047 118.663330078125 61.082767486572266 67.17304229736328 94.58097076416016 53.53868103027344" fill="none" stroke="rgb(0, 0, 0)" stroke-linecap="round" stroke-linejoin="round" stroke-opacity="1.0" stroke-width="3.0"/>
    <path d="M 122.18710327148438 125.30228424072266 C 167.53762817382812 130.2897491455078 144.76397705078125 107.28333282470703 163.29273986816406 79.14942169189453" fill="none" stroke="rgb(0, 0, 0)" stroke-linecap="round" stroke-linejoin="round" stroke-opacity="1.0" stroke-width="3.0"/>
    <path d="M 139.53163146972656 48.4790153503418 C 191.20242309570312 81.61929321289062 167.68333435058594 92.10108947753906 174.70204162597656 110.99394989013672" fill="none" stroke="rgb(0, 0, 0)" stroke-linecap="round" stroke-linejoin="round" stroke-opacity="1.0" stroke-width="3.0"/>
    <path d="M 132.61558532714844 65.76737976074219 C 115.21200561523438 98.59010314941406 96.8423843383789 68.90296936035156 122.68061065673828 93.65674591064453" fill="none" stroke="rgb(0, 0, 0)" stroke-linecap="round" stroke-linejoin="round" stroke-opacity="1.0" stroke-width="3.0"/>
    <path d="M 136.93374633789062 38.67988967895508 C 130.20274353027344 97.61532592773438 145.90017700195312 41.050811767578125 126.87798309326172 92.02820587158203" fill="none" stroke="rgb(0, 0, 0)" stroke-linecap="round" stroke-linejoin="round" stroke-opacity="1.0" stroke-width="3.0"/>
    <path d="M 174.07015991210938 112.22772216796875 C 146.7010040283203 114.87247467041016 156.32460021972656 97.84635925292969 151.629638671875 122.00656127929688" fill="none" stroke="rgb(0, 0, 0)" stroke-linecap="round" stroke-linejoin="round" stroke-opacity="1.0" stroke-width="3.0"/>
    <path d="M 117.23826599121094 94.65252685546875 C 98.15772247314453 59.128265380859375 92.43368530273438 78.07484436035156 101.82963562011719 37.18231201171875" fill="none" stroke="rgb(0, 0, 0)" stroke-linecap="round" stroke-linejoin="round" stroke-opacity="1.0" stroke-width="3.0"/>
    <path d="M 108.83533477783203 164.2350311279297 C 110.16775512695312 166.8001708984375 94.70667266845703 155.60781860351562 101.75174713134766 166.00892639160156" fill="none" stroke="rgb(0, 0, 0)" stroke-linecap="round" stroke-linejoin="round" stroke-opacity="1.0" stroke-width="3.0"/>
    <path d="M 197.40203857421875 117.90716552734375 C 199.729248046875 178.47683715820312 189.2242889404297 159.84349060058594 168.27120971679688 171.7492218017578" fill="none" stroke="rgb(0, 0, 0)" stroke-linecap="round" stroke-linejoin="round" stroke-opacity="1.0" stroke-width="3.0"/>
    <path d="M 110.30303192138672 31.9400691986084 C 70.23394775390625 57.02512741088867 128.14202880859375 52.90154266357422 104.13851928710938 58.26557159423828" fill="none" stroke="rgb(0, 0, 0)" stroke-linecap="round" stroke-linejoin="round" stroke-opacity="1.0" stroke-width="3.0"/>
    <path d="M 186.40475463867188 153.63815307617188 C 199.22776794433594 135.4373779296875 190.58444213867188 138.16836547851562 197.98399353027344 119.4486083984375" fill="none" stroke="rgb(0, 0, 0)" stroke-linecap="round" stroke-linejoin="round" stroke-opacity="1.0" stroke-width="3.0"/>
    <path d="M 110.90412139892578 69.55571746826172 C 120.59740447998047 73.54035949707031 116.75402069091797 67.58876037597656 121.47673797607422 68.19563293457031" fill="none" stroke="rgb(0, 0, 0)" stroke-linecap="round" stroke-linejoin="round" stroke-opacity="1.0" stroke-width="3.0"/>
    <path d="M 162.54776000976562 64.75065612792969 C 170.05300903320312 85.37701416015625 163.29360961914062 54.70852279663086 173.27951049804688 81.54818725585938" fill="none" stroke="rgb(0, 0, 0)" stroke-linecap="round" stroke-linejoin="round" stroke-opacity="1.0" stroke-width="3.0"/>
    <path d="M 114.10029602050781 167.8433380126953 C 169.93344116210938 169.4936981201172 135.9351043701172 173.96820068359375 166.4605712890625 170.08421325683594" fill="none" stroke="rgb(0, 0, 0)" stroke-linecap="round" stroke-linejoin="round" stroke-opacity="1.0" stroke-width="3.0"/>
    <path d="M 98.88856506347656 36.78180694580078 C 87.08554077148438 74.4129409790039 106.83380889892578 -12.576457023620605 141.3480224609375 41.25205612182617" fill="none" stroke="rgb(0, 0, 0)" stroke-linecap="round" stroke-linejoin="round" stroke-opacity="1.0" stroke-width="3.0"/>
    <path d="M 138.76950073242188 48.54218292236328 C 117.12096405029297 9.325209617614746 165.1744384765625 61.07413864135742 119.12885284423828 54.58784103393555" fill="none" stroke="rgb(0, 0, 0)" stroke-linecap="round" stroke-linejoin="round" stroke-opacity="1.0" stroke-width="3.0"/>
  </g>
</svg>
