<?xml version="1.0" ?>
<svg height="224" version="1.1" width="224" xmlns="http://www.w3.org/2000/svg">
  <defs/>
  <g>
    <path d="M 82.59031677246094 141.27767944335938 C 87.5262451171875 103.99238586425781 66.5960922241211 69.52095794677734 94.42074584960938 57.94069290161133" fill="none" stroke="rgb(0, 0, 0)" stroke-linecap="round" stroke-linejoin="round" stroke-opacity="1.0" stroke-width="3.0"/>
    <path d="M 124.93755340576172 121.904052734375 C 152.5518035888672 122.23798370361328 151.69723510742188 118.17826080322266 170.48162841796875 109.90994262695312" fill="none" stroke="rgb(0, 0, 0)" stroke-linecap="round" stroke-linejoin="round" stroke-opacity="1.0" stroke-width="3.0"/>
    <path d="M 166.5674591064453 67.2475357055664 C 180.08360290527344 124.62217712402344 169.59121704101562 86.18169403076172 172.38735961914062 120.32589721679688" fill="none" stroke="rgb(0, 0, 0)" stroke-linecap="round" stroke-linejoin="round" stroke-opacity="1.0" stroke-width="3.0"/>
    <path d="M 133.6240692138672 72.16256713867188 C 123.25587463378906 93.85895538330078 109.4704818725586 69.99285888671875 125.93024444580078 91.0782241821289" fill="none" stroke="rgb(0, 0, 0)" stroke-linecap="round" stroke-linejoin="round" stroke-opacity="1.0" stroke-width="3.0"/>
    <path d="M 138.65647888183594 52.37603759765625 C 148.22329711914062 68.37152099609375 148.99630737304688 49.29547882080078 133.5398406982422 94.58303833007812" fill="none" stroke="rgb(0, 0, 0)" stroke-linecap="round" stroke-linejoin="round" stroke-opacity="1.0" stroke-width="3.0"/>
    <path d="M 168.31460571289062 126.72756958007812 C 163.117919921875 135.7161865234375 172.94387817382812 127.92166900634766 154.26596069335938 130.74632263183594" fill="none" stroke="rgb(0, 0, 0)" stroke-linecap="round" stroke-linejoin="round" stroke-opacity="1.0" stroke-width="3.0"/>
    <path d="M 123.1117935180664 95.86486053466797 C 110.53982543945312 63.8623161315918 110.34596252441406 81.60211181640625 97.03394317626953 46.192832946777344" fill="none" stroke="rgb(0, 0, 0)" stroke-linecap="round" stroke-linejoin="round" stroke-opacity="1.0" stroke-width="3.0"/>
    <path d="M 104.48145294189453 165.72421264648438 C 87.57484436035156 163.7698516845703 100.43222045898438 162.24488830566406 103.3455581665039 166.28240966796875" fill="none" stroke="rgb(0, 0, 0)" stroke-linecap="round" stroke-linejoin="round" stroke-opacity="1.0" stroke-width="3.0"/>
    <path d="M 171.35629272460938 166.15274047851562 C 161.76548767089844 176.33950805664062 173.2638702392578 166.3230438232422 165.6516876220703 170.0160369873047" fill="none" stroke="rgb(0, 0, 0)" stroke-linecap="round" stroke-linejoin="round" stroke-opacity="1.0" stroke-width="3.0"/>
    <path d="M 99.60768127441406 35.59393310546875 C 94.4729232788086 55.473819732666016 100.81430053710938 46.773582458496094 113.31370544433594 57.22881317138672" fill="none" stroke="rgb(0, 0, 0)" stroke-linecap="round" stroke-linejoin="round" stroke-opacity="1.0" stroke-width="3.0"/>
    <path d="M 182.55043029785156 145.4894561767578 C 185.3992919921875 148.50119018554688 184.55577087402344 143.52938842773438 174.288330078125 147.5432891845703" fill="none" stroke="rgb(0, 0, 0)" stroke-linecap="round" stroke-linejoin="round" stroke-opacity="1.0" stroke-width="3.0"/>
    <path d="M 114.08258819580078 67.8349380493164 C 122.08795928955078 71.29782104492188 120.65508270263672 66.51573181152344 124.16806030273438 67.45677185058594" fill="none" stroke="rgb(0, 0, 0)" stroke-linecap="round" stroke-linejoin="round" stroke-opacity="1.0" stroke-width="3.0"/>
    <path d="M 167.264892578125 71.86618041992188 C 171.98187255859375 104.91111755371094 173.2831268310547 79.9144058227539 172.6016082763672 82.29422760009766" fill="none" stroke="rgb(0, 0, 0)" stroke-linecap="round" stroke-linejoin="round" stroke-opacity="1.0" stroke-width="3.0"/>
    <path d="M 135.90618896484375 158.26515197753906 C 158.04013061523438 164.84963989257812 132.533447265625 161.6153564453125 155.58755493164062 165.2277069091797" fill="none" stroke="rgb(0, 0, 0)" stroke-linecap="round" stroke-linejoin="round" stroke-opacity="1.0" stroke-width="3.0"/>
    <path d="M 100.42962646484375 33.80820846557617 C 113.75190734863281 38.5617790222168 89.41606903076172 19.532283782958984 123.36317443847656 26.944734573364258" fill="none" stroke="rgb(0, 0, 0)" stroke-linecap="round" stroke-linejoin="round" stroke-opacity="1.0" stroke-width="3.0"/>
    <path d="M 138.51405334472656 47.83226013183594 C 129.8003692626953 31.632774353027344 143.88844299316406 40.13435745239258 137.85955810546875 57.369991302490234" fill="none" stroke="rgb(0, 0, 0)" stroke-linecap="round" stroke-linejoin="round" stroke-opacity="1.0" stroke-width="3.0"/>
  </g>
</svg>
