<?xml version="1.0" ?>
<svg height="224" version="1.1" width="224" xmlns="http://www.w3.org/2000/svg">
  <defs/>
  <g>
    <path d="M 80.1985855102539 141.15834045410156 C 86.19207000732422 121.9384536743164 60.98503875732422 70.3056640625 94.98253631591797 59.353126525878906" fill="none" stroke="rgb(0, 0, 0)" stroke-linecap="round" stroke-linejoin="round" stroke-opacity="1.0" stroke-width="3.0"/>
    <path d="M 124.7634048461914 123.01824188232422 C 157.56614685058594 123.68856811523438 145.46131896972656 116.78170013427734 168.61264038085938 86.42141723632812" fill="none" stroke="rgb(0, 0, 0)" stroke-linecap="round" stroke-linejoin="round" stroke-opacity="1.0" stroke-width="3.0"/>
    <path d="M 142.17706298828125 50.569583892822266 C 188.98841857910156 73.69000244140625 166.62777709960938 91.35106658935547 177.31454467773438 105.73241424560547" fill="none" stroke="rgb(0, 0, 0)" stroke-linecap="round" stroke-linejoin="round" stroke-opacity="1.0" stroke-width="3.0"/>
    <path d="M 130.5554962158203 72.82002258300781 C 118.42317199707031 101.1427001953125 102.68196105957031 66.01595306396484 125.3790512084961 96.17790222167969" fill="none" stroke="rgb(0, 0, 0)" stroke-linecap="round" stroke-linejoin="round" stroke-opacity="1.0" stroke-width="3.0"/>
    <path d="M 135.13214111328125 41.0587272644043 C 144.108154296875 80.2125244140625 140.71066284179688 43.9274787902832 129.8433380126953 90.87957763671875" fill="none" stroke="rgb(0, 0, 0)" stroke-linecap="round" stroke-linejoin="round" stroke-opacity="1.0" stroke-width="3.0"/>
    <path d="M 176.85968017578125 106.22300720214844 C 157.10235595703125 120.24227905273438 162.1940155029297 115.18543243408203 151.24720764160156 118.95044708251953" fill="none" stroke="rgb(0, 0, 0)" stroke-linecap="round" stroke-linejoin="round" stroke-opacity="1.0" stroke-width="3.0"/>
    <path d="M 120.64691162109375 97.62146759033203 C 94.9068832397461 47.66567611694336 104.67921447753906 91.58585357666016 97.53816223144531 37.988765716552734" fill="none" stroke="rgb(0, 0, 0)" stroke-linecap="round" stroke-linejoin="round" stroke-opacity="1.0" stroke-width="3.0"/>
    <path d="M 117.84217071533203 163.55043029785156 C 95.65275573730469 168.9937744140625 95.3785400390625 162.48406982421875 111.482421875 161.48773193359375" fill="none" stroke="rgb(0, 0, 0)" stroke-linecap="round" stroke-linejoin="round" stroke-opacity="1.0" stroke-width="3.0"/>
    <path d="M 193.99754333496094 132.66847229003906 C 197.3343048095703 172.2544403076172 183.10128784179688 159.42897033691406 167.84622192382812 171.80735778808594" fill="none" stroke="rgb(0, 0, 0)" stroke-linecap="round" stroke-linejoin="round" stroke-opacity="1.0" stroke-width="3.0"/>
    <path d="M 103.5952377319336 34.756744384765625 C 83.71617889404297 57.31940460205078 123.70927429199219 50.24101638793945 106.15119171142578 56.463863372802734" fill="none" stroke="rgb(0, 0, 0)" stroke-linecap="round" stroke-linejoin="round" stroke-opacity="1.0" stroke-width="3.0"/>
    <path d="M 188.26589965820312 163.58079528808594 C 199.16432189941406 149.1548614501953 184.16810607910156 160.1750946044922 195.84750366210938 148.1318359375" fill="none" stroke="rgb(0, 0, 0)" stroke-linecap="round" stroke-linejoin="round" stroke-opacity="1.0" stroke-width="3.0"/>
    <path d="M 112.85368347167969 71.46147918701172 C 117.60025024414062 75.84452056884766 121.27857208251953 69.58550262451172 123.66612243652344 69.769287109375" fill="none" stroke="rgb(0, 0, 0)" stroke-linecap="round" stroke-linejoin="round" stroke-opacity="1.0" stroke-width="3.0"/>
    <path d="M 171.02108764648438 76.0459976196289 C 164.61279296875 102.27001953125 171.48854064941406 65.60133361816406 173.86093139648438 83.4203872680664" fill="none" stroke="rgb(0, 0, 0)" stroke-linecap="round" stroke-linejoin="round" stroke-opacity="1.0" stroke-width="3.0"/>
    <path d="M 119.54541015625 161.1192169189453 C 166.87648010253906 170.67933654785156 135.1616973876953 170.56906127929688 165.0287628173828 173.26394653320312" fill="none" stroke="rgb(0, 0, 0)" stroke-linecap="round" stroke-linejoin="round" stroke-opacity="1.0" stroke-width="3.0"/>
    <path d="M 99.3228759765625 35.278499603271484 C 99.05192565917969 79.11046600341797 91.36870574951172 -2.2873406410217285 134.91036987304688 28.811809539794922" fill="none" stroke="rgb(0, 0, 0)" stroke-linecap="round" stroke-linejoin="round" stroke-opacity="1.0" stroke-width="3.0"/>
    <path d="M 137.18157958984375 39.682865142822266 C 123.56443786621094 19.88381576538086 148.04600524902344 32.2961540222168 133.8176727294922 58.62933349609375" fill="none" stroke="rgb(0, 0, 0)" stroke-linecap="round" stroke-linejoin="round" stroke-opacity="1.0" stroke-width="3.0"/>
  </g>
</svg>
