<?xml version="1.0" ?>
<svg height="224" version="1.1" width="224" xmlns="http://www.w3.org/2000/svg">
  <defs/>
  <g>
    <path d="M 82.00688171386719 113.02510070800781 C 82.78443145751953 81.80934143066406 74.53059387207031 88.19352722167969 84.06060028076172 67.36019134521484" fill="none" stroke="rgb(0, 0, 0)" stroke-linecap="round" stroke-linejoin="round" stroke-opacity="1.0" stroke-width="3.0"/>
    <path d="M 127.11299896240234 119.365478515625 C 150.35659790039062 120.81251525878906 140.9529266357422 120.92662048339844 154.76271057128906 115.7125015258789" fill="none" stroke="rgb(0, 0, 0)" stroke-linecap="round" stroke-linejoin="round" stroke-opacity="1.0" stroke-width="3.0"/>
    <path d="M 158.21543884277344 85.23886108398438 C 153.0226593017578 111.04016876220703 161.61996459960938 103.05657196044922 158.40625 118.67021942138672" fill="none" stroke="rgb(0, 0, 0)" stroke-linecap="round" stroke-linejoin="round" stroke-opacity="1.0" stroke-width="3.0"/>
    <path d="M 141.13189697265625 76.8347396850586 C 129.5130615234375 108.4998550415039 120.68587493896484 81.92532348632812 127.65567016601562 95.01183319091797" fill="none" stroke="rgb(0, 0, 0)" stroke-linecap="round" stroke-linejoin="round" stroke-opacity="1.0" stroke-width="3.0"/>
    <path d="M 134.89747619628906 59.55317687988281 C 131.9149932861328 71.33470153808594 141.60565185546875 63.8521728515625 136.1781463623047 81.23700714111328" fill="none" stroke="rgb(0, 0, 0)" stroke-linecap="round" stroke-linejoin="round" stroke-opacity="1.0" stroke-width="3.0"/>
    <path d="M 164.0570068359375 118.15235137939453 C 172.93374633789062 117.95122528076172 180.21788024902344 114.03752136230469 166.3330535888672 117.41657257080078" fill="none" stroke="rgb(0, 0, 0)" stroke-linecap="round" stroke-linejoin="round" stroke-opacity="1.0" stroke-width="3.0"/>
    <path d="M 123.8392105102539 89.70536041259766 C 98.67652130126953 79.63919067382812 111.68060302734375 85.41053771972656 98.23551177978516 66.31352233886719" fill="none" stroke="rgb(0, 0, 0)" stroke-linecap="round" stroke-linejoin="round" stroke-opacity="1.0" stroke-width="3.0"/>
    <path d="M 97.33506774902344 156.6829833984375 C 84.77226257324219 147.4428253173828 95.54476165771484 148.80722045898438 95.61669158935547 163.5613250732422" fill="none" stroke="rgb(0, 0, 0)" stroke-linecap="round" stroke-linejoin="round" stroke-opacity="1.0" stroke-width="3.0"/>
    <path d="M 180.6540985107422 164.61337280273438 C 179.83004760742188 162.20809936523438 187.2218780517578 159.8453826904297 172.84681701660156 168.19976806640625" fill="none" stroke="rgb(0, 0, 0)" stroke-linecap="round" stroke-linejoin="round" stroke-opacity="1.0" stroke-width="3.0"/>
    <path d="M 97.20214080810547 56.776710510253906 C 91.47504425048828 64.9392318725586 96.71918487548828 66.09613800048828 109.95925903320312 64.98696899414062" fill="none" stroke="rgb(0, 0, 0)" stroke-linecap="round" stroke-linejoin="round" stroke-opacity="1.0" stroke-width="3.0"/>
    <path d="M 183.6136474609375 147.6067352294922 C 184.7523651123047 137.70913696289062 184.92567443847656 143.41268920898438 181.80157470703125 148.96348571777344" fill="none" stroke="rgb(0, 0, 0)" stroke-linecap="round" stroke-linejoin="round" stroke-opacity="1.0" stroke-width="3.0"/>
    <path d="M 111.38760375976562 76.36720275878906 C 116.21905517578125 81.39008331298828 119.14430236816406 80.3091812133789 124.00054931640625 76.0665054321289" fill="none" stroke="rgb(0, 0, 0)" stroke-linecap="round" stroke-linejoin="round" stroke-opacity="1.0" stroke-width="3.0"/>
    <path d="M 177.68344116210938 85.59296417236328 C 184.37281799316406 101.22087097167969 180.16751098632812 78.42804718017578 180.32867431640625 97.99378967285156" fill="none" stroke="rgb(0, 0, 0)" stroke-linecap="round" stroke-linejoin="round" stroke-opacity="1.0" stroke-width="3.0"/>
    <path d="M 140.27471923828125 168.13084411621094 C 148.47801208496094 169.8627166748047 142.32293701171875 170.58824157714844 146.4698944091797 171.52345275878906" fill="none" stroke="rgb(0, 0, 0)" stroke-linecap="round" stroke-linejoin="round" stroke-opacity="1.0" stroke-width="3.0"/>
    <path d="M 96.70149230957031 50.8762092590332 C 106.05632781982422 43.86443328857422 88.01734161376953 38.07006072998047 111.85835266113281 24.561073303222656" fill="none" stroke="rgb(0, 0, 0)" stroke-linecap="round" stroke-linejoin="round" stroke-opacity="1.0" stroke-width="3.0"/>
    <path d="M 134.57217407226562 36.05363464355469 C 116.67902374267578 22.995384216308594 136.2019500732422 32.421287536621094 134.409423828125 49.17096710205078" fill="none" stroke="rgb(0, 0, 0)" stroke-linecap="round" stroke-linejoin="round" stroke-opacity="1.0" stroke-width="3.0"/>
  </g>
</svg>
