<?xml version="1.0" ?>
<svg height="224" version="1.1" width="224" xmlns="http://www.w3.org/2000/svg">
  <defs/>
  <g>
    <path d="M 85.51402282714844 140.99505615234375 C 94.00325775146484 112.66024017333984 66.6339111328125 64.40985107421875 95.87145233154297 58.731040954589844" fill="none" stroke="rgb(0, 0, 0)" stroke-linecap="round" stroke-linejoin="round" stroke-opacity="1.0" stroke-width="3.0"/>
    <path d="M 115.54054260253906 119.09160614013672 C 162.389404296875 122.8616943359375 146.39869689941406 105.92276000976562 166.24822998046875 77.33804321289062" fill="none" stroke="rgb(0, 0, 0)" stroke-linecap="round" stroke-linejoin="round" stroke-opacity="1.0" stroke-width="3.0"/>
    <path d="M 139.26193237304688 49.47757339477539 C 191.2991943359375 78.83196258544922 165.964111328125 92.46548461914062 173.72601318359375 110.63133239746094" fill="none" stroke="rgb(0, 0, 0)" stroke-linecap="round" stroke-linejoin="round" stroke-opacity="1.0" stroke-width="3.0"/>
    <path d="M 132.78822326660156 67.0986328125 C 119.83409118652344 98.43286895751953 100.11823272705078 65.30332946777344 126.8817367553711 94.69102478027344" fill="none" stroke="rgb(0, 0, 0)" stroke-linecap="round" stroke-linejoin="round" stroke-opacity="1.0" stroke-width="3.0"/>
    <path d="M 136.74249267578125 38.04343795776367 C 131.85093688964844 96.17571258544922 146.05567932128906 40.23480987548828 129.07073974609375 90.18115997314453" fill="none" stroke="rgb(0, 0, 0)" stroke-linecap="round" stroke-linejoin="round" stroke-opacity="1.0" stroke-width="3.0"/>
    <path d="M 173.7096405029297 111.6777572631836 C 146.76077270507812 117.63377380371094 155.39329528808594 101.95825958251953 146.8258514404297 120.70002746582031" fill="none" stroke="rgb(0, 0, 0)" stroke-linecap="round" stroke-linejoin="round" stroke-opacity="1.0" stroke-width="3.0"/>
    <path d="M 120.69012451171875 94.80711364746094 C 102.17166137695312 58.19781494140625 93.00457000732422 82.13678741455078 102.70193481445312 37.665706634521484" fill="none" stroke="rgb(0, 0, 0)" stroke-linecap="round" stroke-linejoin="round" stroke-opacity="1.0" stroke-width="3.0"/>
    <path d="M 110.54671478271484 165.39987182617188 C 111.81410217285156 164.56304931640625 91.87503814697266 155.2235107421875 104.35426330566406 165.38433837890625" fill="none" stroke="rgb(0, 0, 0)" stroke-linecap="round" stroke-linejoin="round" stroke-opacity="1.0" stroke-width="3.0"/>
    <path d="M 199.77012634277344 115.01131439208984 C 200.92591857910156 176.23684692382812 185.60877990722656 158.4402313232422 167.0736846923828 173.00961303710938" fill="none" stroke="rgb(0, 0, 0)" stroke-linecap="round" stroke-linejoin="round" stroke-opacity="1.0" stroke-width="3.0"/>
    <path d="M 112.25220489501953 32.34650421142578 C 74.0346908569336 57.64787292480469 127.62792205810547 51.61157989501953 104.43247985839844 58.192745208740234" fill="none" stroke="rgb(0, 0, 0)" stroke-linecap="round" stroke-linejoin="round" stroke-opacity="1.0" stroke-width="3.0"/>
    <path d="M 183.6331024169922 153.99009704589844 C 204.34429931640625 132.71641540527344 196.1260528564453 140.1500244140625 199.964111328125 118.08045959472656" fill="none" stroke="rgb(0, 0, 0)" stroke-linecap="round" stroke-linejoin="round" stroke-opacity="1.0" stroke-width="3.0"/>
    <path d="M 111.05661010742188 68.53610229492188 C 116.02154541015625 72.9162826538086 117.2043685913086 68.66615295410156 121.73339080810547 68.86917114257812" fill="none" stroke="rgb(0, 0, 0)" stroke-linecap="round" stroke-linejoin="round" stroke-opacity="1.0" stroke-width="3.0"/>
    <path d="M 161.4568634033203 63.775840759277344 C 167.23101806640625 87.16421508789062 161.12936401367188 54.34663009643555 173.1457061767578 81.09939575195312" fill="none" stroke="rgb(0, 0, 0)" stroke-linecap="round" stroke-linejoin="round" stroke-opacity="1.0" stroke-width="3.0"/>
    <path d="M 116.27372741699219 166.6232147216797 C 172.85081481933594 172.09945678710938 140.09523010253906 172.310546875 165.1929168701172 173.37051391601562" fill="none" stroke="rgb(0, 0, 0)" stroke-linecap="round" stroke-linejoin="round" stroke-opacity="1.0" stroke-width="3.0"/>
    <path d="M 99.73463439941406 35.754276275634766 C 89.60661315917969 77.59143829345703 104.8637924194336 -8.905047416687012 139.26927185058594 41.429595947265625" fill="none" stroke="rgb(0, 0, 0)" stroke-linecap="round" stroke-linejoin="round" stroke-opacity="1.0" stroke-width="3.0"/>
    <path d="M 137.7738800048828 50.709285736083984 C 115.02368927001953 10.970254898071289 163.76426696777344 66.50789642333984 122.38744354248047 52.11788558959961" fill="none" stroke="rgb(0, 0, 0)" stroke-linecap="round" stroke-linejoin="round" stroke-opacity="1.0" stroke-width="3.0"/>
  </g>
</svg>
