<?xml version="1.0" ?>
<svg height="224" version="1.1" width="224" xmlns="http://www.w3.org/2000/svg">
  <defs/>
  <g>
    <path d="M 82.68891143798828 119.17638397216797 C 84.4224853515625 75.07343292236328 73.52587127685547 86.02333068847656 88.49271392822266 62.316959381103516" fill="none" stroke="rgb(0, 0, 0)" stroke-linecap="round" stroke-linejoin="round" stroke-opacity="1.0" stroke-width="3.0"/>
    <path d="M 126.56512451171875 118.82376098632812 C 140.08973693847656 120.44662475585938 144.6157989501953 118.45781707763672 159.93650817871094 109.84741973876953" fill="none" stroke="rgb(0, 0, 0)" stroke-linecap="round" stroke-linejoin="round" stroke-opacity="1.0" stroke-width="3.0"/>
    <path d="M 157.28990173339844 86.663818359375 C 153.34596252441406 105.23422241210938 160.2207794189453 104.18245697021484 160.93446350097656 118.0786361694336" fill="none" stroke="rgb(0, 0, 0)" stroke-linecap="round" stroke-linejoin="round" stroke-opacity="1.0" stroke-width="3.0"/>
    <path d="M 142.6060791015625 69.7461166381836 C 125.70877838134766 105.29146575927734 117.46593475341797 80.77780151367188 128.138427734375 96.4050064086914" fill="none" stroke="rgb(0, 0, 0)" stroke-linecap="round" stroke-linejoin="round" stroke-opacity="1.0" stroke-width="3.0"/>
    <path d="M 137.2458038330078 56.18414306640625 C 141.97691345214844 64.38518524169922 144.81570434570312 46.3881721496582 132.30194091796875 85.81344604492188" fill="none" stroke="rgb(0, 0, 0)" stroke-linecap="round" stroke-linejoin="round" stroke-opacity="1.0" stroke-width="3.0"/>
    <path d="M 166.85714721679688 116.09746551513672 C 171.70513916015625 128.4439697265625 173.46092224121094 130.43850708007812 169.3091278076172 122.34349060058594" fill="none" stroke="rgb(0, 0, 0)" stroke-linecap="round" stroke-linejoin="round" stroke-opacity="1.0" stroke-width="3.0"/>
    <path d="M 128.27859497070312 90.6640853881836 C 104.8902587890625 82.43516540527344 111.6869888305664 86.95381927490234 96.13971710205078 63.082801818847656" fill="none" stroke="rgb(0, 0, 0)" stroke-linecap="round" stroke-linejoin="round" stroke-opacity="1.0" stroke-width="3.0"/>
    <path d="M 102.82117462158203 155.0008544921875 C 90.82439422607422 146.4019775390625 104.73868560791016 153.30142211914062 98.57296752929688 168.08709716796875" fill="none" stroke="rgb(0, 0, 0)" stroke-linecap="round" stroke-linejoin="round" stroke-opacity="1.0" stroke-width="3.0"/>
    <path d="M 174.6644287109375 166.59925842285156 C 175.72633361816406 162.08836364746094 187.4120330810547 161.90879821777344 165.76193237304688 167.0424346923828" fill="none" stroke="rgb(0, 0, 0)" stroke-linecap="round" stroke-linejoin="round" stroke-opacity="1.0" stroke-width="3.0"/>
    <path d="M 95.34297180175781 52.482540130615234 C 88.55299377441406 61.43403244018555 95.74398803710938 61.22697830200195 110.43157196044922 64.0923080444336" fill="none" stroke="rgb(0, 0, 0)" stroke-linecap="round" stroke-linejoin="round" stroke-opacity="1.0" stroke-width="3.0"/>
    <path d="M 180.97409057617188 144.6138916015625 C 186.095947265625 139.6645050048828 183.517333984375 140.87225341796875 180.17713928222656 146.95469665527344" fill="none" stroke="rgb(0, 0, 0)" stroke-linecap="round" stroke-linejoin="round" stroke-opacity="1.0" stroke-width="3.0"/>
    <path d="M 111.4415054321289 73.1137466430664 C 116.96992492675781 78.60225677490234 119.62248229980469 75.26697540283203 124.9479751586914 71.43291473388672" fill="none" stroke="rgb(0, 0, 0)" stroke-linecap="round" stroke-linejoin="round" stroke-opacity="1.0" stroke-width="3.0"/>
    <path d="M 172.15774536132812 83.27144622802734 C 182.82337951660156 105.12969207763672 176.1127166748047 85.20614624023438 177.29515075683594 94.69892883300781" fill="none" stroke="rgb(0, 0, 0)" stroke-linecap="round" stroke-linejoin="round" stroke-opacity="1.0" stroke-width="3.0"/>
    <path d="M 136.3355255126953 170.19058227539062 C 143.40701293945312 177.77853393554688 134.2683868408203 161.3260040283203 145.51519775390625 172.68995666503906" fill="none" stroke="rgb(0, 0, 0)" stroke-linecap="round" stroke-linejoin="round" stroke-opacity="1.0" stroke-width="3.0"/>
    <path d="M 94.4939956665039 48.15482711791992 C 103.01139831542969 43.6751708984375 84.08360290527344 34.514244079589844 113.07488250732422 26.17584991455078" fill="none" stroke="rgb(0, 0, 0)" stroke-linecap="round" stroke-linejoin="round" stroke-opacity="1.0" stroke-width="3.0"/>
    <path d="M 133.23916625976562 40.262977600097656 C 114.45710754394531 25.688512802124023 136.30447387695312 36.62326431274414 131.03379821777344 53.24112319946289" fill="none" stroke="rgb(0, 0, 0)" stroke-linecap="round" stroke-linejoin="round" stroke-opacity="1.0" stroke-width="3.0"/>
  </g>
</svg>
