<?xml version="1.0" ?>
<svg height="224" version="1.1" width="224" xmlns="http://www.w3.org/2000/svg">
  <defs/>
  <g>
    <path d="M 82.15928649902344 141.21006774902344 C 94.98687744140625 139.7002410888672 57.98455047607422 68.01719665527344 95.62368774414062 55.87007522583008" fill="none" stroke="rgb(0, 0, 0)" stroke-linecap="round" stroke-linejoin="round" stroke-opacity="1.0" stroke-width="3.0"/>
    <path d="M 121.95122528076172 128.49447631835938 C 197.77859497070312 128.46234130859375 142.49429321289062 110.43476104736328 158.80950927734375 71.9007568359375" fill="none" stroke="rgb(0, 0, 0)" stroke-linecap="round" stroke-linejoin="round" stroke-opacity="1.0" stroke-width="3.0"/>
    <path d="M 135.55718994140625 46.469120025634766 C 191.25933837890625 77.46234130859375 171.06643676757812 80.11662292480469 175.81553649902344 102.12351989746094" fill="none" stroke="rgb(0, 0, 0)" stroke-linecap="round" stroke-linejoin="round" stroke-opacity="1.0" stroke-width="3.0"/>
    <path d="M 133.722412109375 59.0828971862793 C 118.54569244384766 106.77637481689453 96.22330474853516 61.74513626098633 122.95878601074219 98.61881256103516" fill="none" stroke="rgb(0, 0, 0)" stroke-linecap="round" stroke-linejoin="round" stroke-opacity="1.0" stroke-width="3.0"/>
    <path d="M 140.7097625732422 43.77420425415039 C 125.89273834228516 90.57968139648438 151.2545928955078 46.7585563659668 128.14186096191406 97.69869995117188" fill="none" stroke="rgb(0, 0, 0)" stroke-linecap="round" stroke-linejoin="round" stroke-opacity="1.0" stroke-width="3.0"/>
    <path d="M 173.86837768554688 103.94563293457031 C 145.10992431640625 117.09033203125 161.34432983398438 103.13606262207031 165.11875915527344 127.36636352539062" fill="none" stroke="rgb(0, 0, 0)" stroke-linecap="round" stroke-linejoin="round" stroke-opacity="1.0" stroke-width="3.0"/>
    <path d="M 117.24752044677734 98.57266235351562 C 101.9066162109375 59.300132751464844 86.01725769042969 76.38919830322266 103.2825927734375 37.9899787902832" fill="none" stroke="rgb(0, 0, 0)" stroke-linecap="round" stroke-linejoin="round" stroke-opacity="1.0" stroke-width="3.0"/>
    <path d="M 118.92127990722656 162.39013671875 C 99.8305892944336 168.56300354003906 93.8125228881836 161.6695098876953 106.26045227050781 162.5756378173828" fill="none" stroke="rgb(0, 0, 0)" stroke-linecap="round" stroke-linejoin="round" stroke-opacity="1.0" stroke-width="3.0"/>
    <path d="M 193.53062438964844 120.00457000732422 C 188.44374084472656 158.00367736816406 209.8058624267578 151.2639923095703 163.6103515625 173.8986358642578" fill="none" stroke="rgb(0, 0, 0)" stroke-linecap="round" stroke-linejoin="round" stroke-opacity="1.0" stroke-width="3.0"/>
    <path d="M 116.36585998535156 30.11068344116211 C 65.81111907958984 56.629451751708984 128.42356872558594 49.94548034667969 103.54533386230469 55.15177917480469" fill="none" stroke="rgb(0, 0, 0)" stroke-linecap="round" stroke-linejoin="round" stroke-opacity="1.0" stroke-width="3.0"/>
    <path d="M 183.4864044189453 144.7538299560547 C 193.7907257080078 128.52430725097656 185.2980499267578 140.2690887451172 195.74205017089844 117.30419921875" fill="none" stroke="rgb(0, 0, 0)" stroke-linecap="round" stroke-linejoin="round" stroke-opacity="1.0" stroke-width="3.0"/>
    <path d="M 109.7666244506836 69.42769622802734 C 119.68145751953125 74.9885025024414 111.97197723388672 70.57270050048828 119.91014099121094 69.38238525390625" fill="none" stroke="rgb(0, 0, 0)" stroke-linecap="round" stroke-linejoin="round" stroke-opacity="1.0" stroke-width="3.0"/>
    <path d="M 156.33595275878906 58.61685562133789 C 161.0412139892578 69.82272338867188 169.1690673828125 59.09687423706055 175.0027313232422 88.93489837646484" fill="none" stroke="rgb(0, 0, 0)" stroke-linecap="round" stroke-linejoin="round" stroke-opacity="1.0" stroke-width="3.0"/>
    <path d="M 106.83370208740234 159.09002685546875 C 174.29873657226562 170.5380401611328 135.717529296875 170.05540466308594 169.32730102539062 168.01766967773438" fill="none" stroke="rgb(0, 0, 0)" stroke-linecap="round" stroke-linejoin="round" stroke-opacity="1.0" stroke-width="3.0"/>
    <path d="M 101.3623275756836 31.08867073059082 C 84.3564453125 70.4673080444336 111.48682403564453 -14.958205223083496 142.39459228515625 41.45842742919922" fill="none" stroke="rgb(0, 0, 0)" stroke-linecap="round" stroke-linejoin="round" stroke-opacity="1.0" stroke-width="3.0"/>
    <path d="M 142.41883850097656 48.843544006347656 C 117.10186004638672 16.472564697265625 171.3722381591797 57.52729415893555 118.69075775146484 51.15708923339844" fill="none" stroke="rgb(0, 0, 0)" stroke-linecap="round" stroke-linejoin="round" stroke-opacity="1.0" stroke-width="3.0"/>
  </g>
</svg>
