<?xml version="1.0" ?>
<svg height="224" version="1.1" width="224" xmlns="http://www.w3.org/2000/svg">
  <defs/>
  <g>
    <path d="M 83.84016418457031 137.59979248046875 C 92.34674835205078 97.3806381225586 68.9759521484375 72.55226135253906 94.57023620605469 58.63325881958008" fill="none" stroke="rgb(0, 0, 0)" stroke-linecap="round" stroke-linejoin="round" stroke-opacity="1.0" stroke-width="3.0"/>
    <path d="M 125.97590637207031 122.670166015625 C 152.76083374023438 121.72100830078125 151.3450469970703 119.84516906738281 166.4415283203125 107.7066879272461" fill="none" stroke="rgb(0, 0, 0)" stroke-linecap="round" stroke-linejoin="round" stroke-opacity="1.0" stroke-width="3.0"/>
    <path d="M 166.24880981445312 65.06442260742188 C 174.04591369628906 125.5832748413086 170.1392822265625 85.2259521484375 170.414306640625 117.6660385131836" fill="none" stroke="rgb(0, 0, 0)" stroke-linecap="round" stroke-linejoin="round" stroke-opacity="1.0" stroke-width="3.0"/>
    <path d="M 138.13414001464844 71.57794952392578 C 124.54863739013672 92.77899169921875 111.5723648071289 68.30329895019531 124.70445251464844 92.49578857421875" fill="none" stroke="rgb(0, 0, 0)" stroke-linecap="round" stroke-linejoin="round" stroke-opacity="1.0" stroke-width="3.0"/>
    <path d="M 138.2757568359375 52.09034729003906 C 144.9805450439453 62.95497512817383 141.73330688476562 42.190391540527344 130.98959350585938 86.75931549072266" fill="none" stroke="rgb(0, 0, 0)" stroke-linecap="round" stroke-linejoin="round" stroke-opacity="1.0" stroke-width="3.0"/>
    <path d="M 165.000244140625 123.18389892578125 C 156.2524871826172 131.21583557128906 167.20867919921875 133.5729522705078 158.4752655029297 129.9832763671875" fill="none" stroke="rgb(0, 0, 0)" stroke-linecap="round" stroke-linejoin="round" stroke-opacity="1.0" stroke-width="3.0"/>
    <path d="M 127.94727325439453 88.49767303466797 C 104.86753845214844 70.79751586914062 106.84536743164062 82.87178039550781 98.68455505371094 48.64313507080078" fill="none" stroke="rgb(0, 0, 0)" stroke-linecap="round" stroke-linejoin="round" stroke-opacity="1.0" stroke-width="3.0"/>
    <path d="M 103.71768951416016 163.10354614257812 C 89.0739517211914 158.4432373046875 98.70195007324219 164.51858520507812 102.57539367675781 167.24435424804688" fill="none" stroke="rgb(0, 0, 0)" stroke-linecap="round" stroke-linejoin="round" stroke-opacity="1.0" stroke-width="3.0"/>
    <path d="M 170.81309509277344 165.34710693359375 C 162.5251922607422 173.47637939453125 171.8475799560547 165.20687866210938 165.35711669921875 170.71160888671875" fill="none" stroke="rgb(0, 0, 0)" stroke-linecap="round" stroke-linejoin="round" stroke-opacity="1.0" stroke-width="3.0"/>
    <path d="M 98.26702880859375 41.799163818359375 C 91.62084197998047 59.4987678527832 100.96112060546875 50.29549789428711 107.88089752197266 60.4766845703125" fill="none" stroke="rgb(0, 0, 0)" stroke-linecap="round" stroke-linejoin="round" stroke-opacity="1.0" stroke-width="3.0"/>
    <path d="M 183.96505737304688 146.094482421875 C 184.46107482910156 144.38133239746094 186.88690185546875 142.18446350097656 181.14698791503906 149.0826873779297" fill="none" stroke="rgb(0, 0, 0)" stroke-linecap="round" stroke-linejoin="round" stroke-opacity="1.0" stroke-width="3.0"/>
    <path d="M 111.6666030883789 68.54594421386719 C 120.11449432373047 74.37654113769531 119.62478637695312 66.79417419433594 124.0147705078125 66.60869598388672" fill="none" stroke="rgb(0, 0, 0)" stroke-linecap="round" stroke-linejoin="round" stroke-opacity="1.0" stroke-width="3.0"/>
    <path d="M 169.39402770996094 71.1428451538086 C 173.109619140625 104.52017211914062 173.82485961914062 81.66915893554688 173.6696014404297 86.08527374267578" fill="none" stroke="rgb(0, 0, 0)" stroke-linecap="round" stroke-linejoin="round" stroke-opacity="1.0" stroke-width="3.0"/>
    <path d="M 138.48304748535156 160.24761962890625 C 154.78271484375 169.88697814941406 133.25711059570312 158.6557159423828 155.82029724121094 166.79136657714844" fill="none" stroke="rgb(0, 0, 0)" stroke-linecap="round" stroke-linejoin="round" stroke-opacity="1.0" stroke-width="3.0"/>
    <path d="M 99.96395111083984 36.908790588378906 C 111.32225036621094 46.651153564453125 91.03081512451172 28.095470428466797 116.69120025634766 24.035625457763672" fill="none" stroke="rgb(0, 0, 0)" stroke-linecap="round" stroke-linejoin="round" stroke-opacity="1.0" stroke-width="3.0"/>
    <path d="M 135.56068420410156 47.34247589111328 C 125.63651275634766 30.62984275817871 142.71412658691406 39.827491760253906 136.6101837158203 56.31257629394531" fill="none" stroke="rgb(0, 0, 0)" stroke-linecap="round" stroke-linejoin="round" stroke-opacity="1.0" stroke-width="3.0"/>
  </g>
</svg>
