<?xml version="1.0" ?>
<svg height="224" version="1.1" width="224" xmlns="http://www.w3.org/2000/svg">
  <defs/>
  <g>
    <path d="M 92.67719268798828 153.4254913330078 C 97.23402404785156 134.47933959960938 56.73698425292969 71.99954986572266 92.98045349121094 56.90351104736328" fill="none" stroke="rgb(0, 0, 0)" stroke-linecap="round" stroke-linejoin="round" stroke-opacity="1.0" stroke-width="3.0"/>
    <path d="M 122.94883728027344 144.08229064941406 C 187.09603881835938 127.34317779541016 133.69190979003906 129.2399139404297 147.95594787597656 66.1927490234375" fill="none" stroke="rgb(0, 0, 0)" stroke-linecap="round" stroke-linejoin="round" stroke-opacity="1.0" stroke-width="3.0"/>
    <path d="M 137.62684631347656 47.89326477050781 C 186.80909729003906 72.45926666259766 171.4121551513672 92.72079467773438 174.51815795898438 95.47003173828125" fill="none" stroke="rgb(0, 0, 0)" stroke-linecap="round" stroke-linejoin="round" stroke-opacity="1.0" stroke-width="3.0"/>
    <path d="M 141.66796875 57.21672058105469 C 116.29026794433594 112.89611053466797 104.2317123413086 64.88003540039062 121.04698944091797 102.15431213378906" fill="none" stroke="rgb(0, 0, 0)" stroke-linecap="round" stroke-linejoin="round" stroke-opacity="1.0" stroke-width="3.0"/>
    <path d="M 137.3206329345703 39.749168395996094 C 137.6635284423828 61.766902923583984 142.1819305419922 86.6824722290039 124.74708557128906 103.67820739746094" fill="none" stroke="rgb(0, 0, 0)" stroke-linecap="round" stroke-linejoin="round" stroke-opacity="1.0" stroke-width="3.0"/>
    <path d="M 175.65573120117188 96.86017608642578 C 180.5027313232422 104.21794891357422 173.66705322265625 97.183349609375 186.5644073486328 131.838623046875" fill="none" stroke="rgb(0, 0, 0)" stroke-linecap="round" stroke-linejoin="round" stroke-opacity="1.0" stroke-width="3.0"/>
    <path d="M 124.21747589111328 97.46206665039062 C 96.9156265258789 69.78861999511719 84.21070861816406 61.466793060302734 112.91606140136719 30.456693649291992" fill="none" stroke="rgb(0, 0, 0)" stroke-linecap="round" stroke-linejoin="round" stroke-opacity="1.0" stroke-width="3.0"/>
    <path d="M 105.8095474243164 142.53469848632812 C 154.119384765625 142.97396850585938 116.94437408447266 170.05990600585938 93.63123321533203 157.41062927246094" fill="none" stroke="rgb(0, 0, 0)" stroke-linecap="round" stroke-linejoin="round" stroke-opacity="1.0" stroke-width="3.0"/>
    <path d="M 197.0802001953125 120.24565124511719 C 188.70285034179688 154.58164978027344 214.7383575439453 149.21034240722656 173.39088439941406 168.2195587158203" fill="none" stroke="rgb(0, 0, 0)" stroke-linecap="round" stroke-linejoin="round" stroke-opacity="1.0" stroke-width="3.0"/>
    <path d="M 127.84765625 35.58837890625 C 53.386295318603516 42.89823532104492 146.91143798828125 60.75187301635742 104.94364166259766 56.69065856933594" fill="none" stroke="rgb(0, 0, 0)" stroke-linecap="round" stroke-linejoin="round" stroke-opacity="1.0" stroke-width="3.0"/>
    <path d="M 173.1702880859375 156.8765106201172 C 189.74867248535156 136.7923583984375 171.18084716796875 162.5054168701172 194.37863159179688 118.34845733642578" fill="none" stroke="rgb(0, 0, 0)" stroke-linecap="round" stroke-linejoin="round" stroke-opacity="1.0" stroke-width="3.0"/>
    <path d="M 110.39926147460938 63.427040100097656 C 97.05525970458984 73.35476684570312 126.7155990600586 77.69337463378906 124.45596313476562 71.67047119140625" fill="none" stroke="rgb(0, 0, 0)" stroke-linecap="round" stroke-linejoin="round" stroke-opacity="1.0" stroke-width="3.0"/>
    <path d="M 154.50814819335938 63.14280700683594 C 159.96322631835938 76.30900573730469 165.90081787109375 62.128849029541016 170.53306579589844 88.09122467041016" fill="none" stroke="rgb(0, 0, 0)" stroke-linecap="round" stroke-linejoin="round" stroke-opacity="1.0" stroke-width="3.0"/>
    <path d="M 102.76217651367188 153.21046447753906 C 177.13816833496094 163.0460205078125 152.87503051757812 163.26902770996094 172.5065460205078 156.46527099609375" fill="none" stroke="rgb(0, 0, 0)" stroke-linecap="round" stroke-linejoin="round" stroke-opacity="1.0" stroke-width="3.0"/>
    <path d="M 121.9582748413086 29.360149383544922 C 68.89921569824219 66.1995849609375 123.28511047363281 -20.353740692138672 141.81137084960938 49.347923278808594" fill="none" stroke="rgb(0, 0, 0)" stroke-linecap="round" stroke-linejoin="round" stroke-opacity="1.0" stroke-width="3.0"/>
    <path d="M 138.25827026367188 53.75700759887695 C 117.51691436767578 21.445602416992188 160.49288940429688 62.761497497558594 125.06704711914062 56.341426849365234" fill="none" stroke="rgb(0, 0, 0)" stroke-linecap="round" stroke-linejoin="round" stroke-opacity="1.0" stroke-width="3.0"/>
  </g>
</svg>
