<?xml version="1.0" ?>
<svg height="224" version="1.1" width="224" xmlns="http://www.w3.org/2000/svg">
  <defs/>
  <g>
    <path d="M 88.03868103027344 131.1056671142578 C 89.7389144897461 85.08677673339844 70.00489807128906 80.03202819824219 92.1910629272461 58.77897262573242" fill="none" stroke="rgb(0, 0, 0)" stroke-linecap="round" stroke-linejoin="round" stroke-opacity="1.0" stroke-width="3.0"/>
    <path d="M 122.0311279296875 124.74842834472656 C 146.38504028320312 126.39116668701172 144.4203643798828 121.93699645996094 161.56961059570312 110.33208465576172" fill="none" stroke="rgb(0, 0, 0)" stroke-linecap="round" stroke-linejoin="round" stroke-opacity="1.0" stroke-width="3.0"/>
    <path d="M 166.7581787109375 71.16305541992188 C 162.02633666992188 109.09027099609375 166.58131408691406 80.90206909179688 159.5050811767578 116.72346496582031" fill="none" stroke="rgb(0, 0, 0)" stroke-linecap="round" stroke-linejoin="round" stroke-opacity="1.0" stroke-width="3.0"/>
    <path d="M 142.9178009033203 75.02253723144531 C 129.79690551757812 102.44994354248047 112.28189086914062 75.32559204101562 126.3471450805664 94.2234878540039" fill="none" stroke="rgb(0, 0, 0)" stroke-linecap="round" stroke-linejoin="round" stroke-opacity="1.0" stroke-width="3.0"/>
    <path d="M 141.38580322265625 53.834529876708984 C 148.69146728515625 64.69532012939453 143.63172912597656 46.60548782348633 137.10328674316406 82.7211685180664" fill="none" stroke="rgb(0, 0, 0)" stroke-linecap="round" stroke-linejoin="round" stroke-opacity="1.0" stroke-width="3.0"/>
    <path d="M 156.46273803710938 119.51715087890625 C 159.65045166015625 132.71575927734375 153.28648376464844 135.46322631835938 159.54270935058594 127.15401458740234" fill="none" stroke="rgb(0, 0, 0)" stroke-linecap="round" stroke-linejoin="round" stroke-opacity="1.0" stroke-width="3.0"/>
    <path d="M 129.00848388671875 91.30326843261719 C 106.01083374023438 74.64073944091797 111.94133758544922 87.37886047363281 98.08893585205078 54.797706604003906" fill="none" stroke="rgb(0, 0, 0)" stroke-linecap="round" stroke-linejoin="round" stroke-opacity="1.0" stroke-width="3.0"/>
    <path d="M 103.72428894042969 160.51666259765625 C 85.73090362548828 155.97474670410156 100.8652572631836 157.00607299804688 103.30226135253906 163.8134002685547" fill="none" stroke="rgb(0, 0, 0)" stroke-linecap="round" stroke-linejoin="round" stroke-opacity="1.0" stroke-width="3.0"/>
    <path d="M 171.76226806640625 169.52056884765625 C 168.74392700195312 170.36146545410156 179.6939239501953 164.8114776611328 167.88360595703125 174.42994689941406" fill="none" stroke="rgb(0, 0, 0)" stroke-linecap="round" stroke-linejoin="round" stroke-opacity="1.0" stroke-width="3.0"/>
    <path d="M 99.1699447631836 49.47279357910156 C 97.724853515625 57.09130859375 101.78244018554688 51.56694030761719 111.75106811523438 56.80306625366211" fill="none" stroke="rgb(0, 0, 0)" stroke-linecap="round" stroke-linejoin="round" stroke-opacity="1.0" stroke-width="3.0"/>
    <path d="M 186.1015625 146.1957550048828 C 186.9940948486328 144.09580993652344 188.23780822753906 145.47775268554688 180.2589874267578 146.45394897460938" fill="none" stroke="rgb(0, 0, 0)" stroke-linecap="round" stroke-linejoin="round" stroke-opacity="1.0" stroke-width="3.0"/>
    <path d="M 113.02391052246094 70.6701431274414 C 117.9321060180664 74.25254821777344 119.03712463378906 70.14546203613281 124.20160675048828 69.97876739501953" fill="none" stroke="rgb(0, 0, 0)" stroke-linecap="round" stroke-linejoin="round" stroke-opacity="1.0" stroke-width="3.0"/>
    <path d="M 171.45370483398438 75.8437271118164 C 180.1449432373047 100.2236557006836 173.56895446777344 82.14092254638672 174.3966064453125 86.6874771118164" fill="none" stroke="rgb(0, 0, 0)" stroke-linecap="round" stroke-linejoin="round" stroke-opacity="1.0" stroke-width="3.0"/>
    <path d="M 150.3487548828125 156.26426696777344 C 155.73033142089844 170.92996215820312 142.874755859375 147.64747619628906 156.44664001464844 165.09718322753906" fill="none" stroke="rgb(0, 0, 0)" stroke-linecap="round" stroke-linejoin="round" stroke-opacity="1.0" stroke-width="3.0"/>
    <path d="M 99.03494262695312 45.208072662353516 C 108.2008056640625 45.314815521240234 88.5123062133789 31.015871047973633 115.88729095458984 22.55156707763672" fill="none" stroke="rgb(0, 0, 0)" stroke-linecap="round" stroke-linejoin="round" stroke-opacity="1.0" stroke-width="3.0"/>
    <path d="M 136.24984741210938 45.427711486816406 C 123.66268920898438 27.958045959472656 142.22047424316406 38.8752555847168 137.75550842285156 51.60383224487305" fill="none" stroke="rgb(0, 0, 0)" stroke-linecap="round" stroke-linejoin="round" stroke-opacity="1.0" stroke-width="3.0"/>
  </g>
</svg>
