<?xml version="1.0" ?>
<svg height="224" version="1.1" width="224" xmlns="http://www.w3.org/2000/svg">
  <defs/>
  <g>
    <path d="M 81.24302673339844 129.01051330566406 C 84.41743469238281 80.14319610595703 68.92134857177734 78.72477722167969 88.41557312011719 56.240840911865234" fill="none" stroke="rgb(0, 0, 0)" stroke-linecap="round" stroke-linejoin="round" stroke-opacity="1.0" stroke-width="3.0"/>
    <path d="M 122.65369415283203 120.66323852539062 C 142.31546020507812 122.49380493164062 141.06410217285156 118.63501739501953 158.81698608398438 109.1152114868164" fill="none" stroke="rgb(0, 0, 0)" stroke-linecap="round" stroke-linejoin="round" stroke-opacity="1.0" stroke-width="3.0"/>
    <path d="M 160.98553466796875 77.3799819946289 C 154.89004516601562 99.8210220336914 160.8559112548828 91.45404815673828 159.68080139160156 115.17347717285156" fill="none" stroke="rgb(0, 0, 0)" stroke-linecap="round" stroke-linejoin="round" stroke-opacity="1.0" stroke-width="3.0"/>
    <path d="M 143.3634796142578 70.76082611083984 C 124.6416244506836 99.94886016845703 113.50041198730469 78.16850280761719 126.40316772460938 93.38288879394531" fill="none" stroke="rgb(0, 0, 0)" stroke-linecap="round" stroke-linejoin="round" stroke-opacity="1.0" stroke-width="3.0"/>
    <path d="M 140.5496063232422 47.757511138916016 C 150.45233154296875 57.15913391113281 143.55108642578125 43.444374084472656 134.3002471923828 82.33931732177734" fill="none" stroke="rgb(0, 0, 0)" stroke-linecap="round" stroke-linejoin="round" stroke-opacity="1.0" stroke-width="3.0"/>
    <path d="M 163.51712036132812 119.86212921142578 C 167.27926635742188 128.00413513183594 168.80723571777344 131.808349609375 166.56015014648438 124.65706634521484" fill="none" stroke="rgb(0, 0, 0)" stroke-linecap="round" stroke-linejoin="round" stroke-opacity="1.0" stroke-width="3.0"/>
    <path d="M 128.58192443847656 87.98397827148438 C 108.39176940917969 83.59403228759766 112.1410903930664 85.650146484375 98.60852813720703 57.67429733276367" fill="none" stroke="rgb(0, 0, 0)" stroke-linecap="round" stroke-linejoin="round" stroke-opacity="1.0" stroke-width="3.0"/>
    <path d="M 101.11566162109375 161.60694885253906 C 87.73786926269531 158.25425720214844 99.02787780761719 158.83311462402344 101.8747329711914 167.07456970214844" fill="none" stroke="rgb(0, 0, 0)" stroke-linecap="round" stroke-linejoin="round" stroke-opacity="1.0" stroke-width="3.0"/>
    <path d="M 174.19662475585938 167.62261962890625 C 173.3538055419922 166.5463104248047 184.5159912109375 165.90823364257812 159.72808837890625 172.14312744140625" fill="none" stroke="rgb(0, 0, 0)" stroke-linecap="round" stroke-linejoin="round" stroke-opacity="1.0" stroke-width="3.0"/>
    <path d="M 97.8761978149414 48.20542526245117 C 94.41513061523438 58.58791732788086 99.68499755859375 57.171817779541016 109.71097564697266 62.464263916015625" fill="none" stroke="rgb(0, 0, 0)" stroke-linecap="round" stroke-linejoin="round" stroke-opacity="1.0" stroke-width="3.0"/>
    <path d="M 184.4143524169922 147.50534057617188 C 188.15675354003906 143.40496826171875 186.91908264160156 145.17001342773438 182.5110626220703 149.87673950195312" fill="none" stroke="rgb(0, 0, 0)" stroke-linecap="round" stroke-linejoin="round" stroke-opacity="1.0" stroke-width="3.0"/>
    <path d="M 113.80206298828125 70.61511993408203 C 118.66002655029297 73.83348846435547 116.91434478759766 68.95342254638672 124.22227478027344 68.35380554199219" fill="none" stroke="rgb(0, 0, 0)" stroke-linecap="round" stroke-linejoin="round" stroke-opacity="1.0" stroke-width="3.0"/>
    <path d="M 169.13763427734375 76.0373306274414 C 179.6992645263672 102.72368621826172 173.02694702148438 85.3626480102539 174.8075408935547 89.2739486694336" fill="none" stroke="rgb(0, 0, 0)" stroke-linecap="round" stroke-linejoin="round" stroke-opacity="1.0" stroke-width="3.0"/>
    <path d="M 141.80386352539062 162.03500366210938 C 144.56227111816406 174.02394104003906 137.43133544921875 151.91690063476562 150.51797485351562 168.79006958007812" fill="none" stroke="rgb(0, 0, 0)" stroke-linecap="round" stroke-linejoin="round" stroke-opacity="1.0" stroke-width="3.0"/>
    <path d="M 98.69734191894531 44.35481262207031 C 107.85823822021484 44.27113723754883 89.28197479248047 33.60416793823242 116.20709991455078 25.30316162109375" fill="none" stroke="rgb(0, 0, 0)" stroke-linecap="round" stroke-linejoin="round" stroke-opacity="1.0" stroke-width="3.0"/>
    <path d="M 133.6907958984375 39.97234344482422 C 116.61011505126953 25.530797958374023 138.83697509765625 35.336429595947266 134.9713134765625 45.471527099609375" fill="none" stroke="rgb(0, 0, 0)" stroke-linecap="round" stroke-linejoin="round" stroke-opacity="1.0" stroke-width="3.0"/>
  </g>
</svg>
