<?xml version="1.0" ?>
<svg height="224" version="1.1" width="224" xmlns="http://www.w3.org/2000/svg">
  <defs/>
  <g>
    <path d="M 82.4317855834961 138.71739196777344 C 89.51683807373047 101.1680908203125 68.1053466796875 68.62936401367188 93.77423095703125 57.65128707885742" fill="none" stroke="rgb(0, 0, 0)" stroke-linecap="round" stroke-linejoin="round" stroke-opacity="1.0" stroke-width="3.0"/>
    <path d="M 126.62051391601562 121.95902252197266 C 154.52528381347656 121.95045471191406 153.25991821289062 120.05496215820312 170.74354553222656 109.46173858642578" fill="none" stroke="rgb(0, 0, 0)" stroke-linecap="round" stroke-linejoin="round" stroke-opacity="1.0" stroke-width="3.0"/>
    <path d="M 165.7123260498047 64.1572265625 C 176.6372833251953 125.78893280029297 167.48391723632812 86.29589080810547 171.55667114257812 121.16321563720703" fill="none" stroke="rgb(0, 0, 0)" stroke-linecap="round" stroke-linejoin="round" stroke-opacity="1.0" stroke-width="3.0"/>
    <path d="M 134.1583709716797 70.72940826416016 C 123.8320541381836 96.58283233642578 110.29717254638672 71.53954315185547 127.54647064208984 88.94184875488281" fill="none" stroke="rgb(0, 0, 0)" stroke-linecap="round" stroke-linejoin="round" stroke-opacity="1.0" stroke-width="3.0"/>
    <path d="M 138.59051513671875 51.941749572753906 C 146.6226043701172 64.23957061767578 145.9251251220703 45.341094970703125 132.72967529296875 91.38945770263672" fill="none" stroke="rgb(0, 0, 0)" stroke-linecap="round" stroke-linejoin="round" stroke-opacity="1.0" stroke-width="3.0"/>
    <path d="M 169.41696166992188 125.20297241210938 C 161.01663208007812 136.37657165527344 169.2259979248047 130.24610900878906 157.2470703125 130.77784729003906" fill="none" stroke="rgb(0, 0, 0)" stroke-linecap="round" stroke-linejoin="round" stroke-opacity="1.0" stroke-width="3.0"/>
    <path d="M 125.719482421875 93.32150268554688 C 106.15634155273438 68.74221801757812 107.66605377197266 81.94601440429688 97.03597259521484 48.420379638671875" fill="none" stroke="rgb(0, 0, 0)" stroke-linecap="round" stroke-linejoin="round" stroke-opacity="1.0" stroke-width="3.0"/>
    <path d="M 103.74117279052734 164.52096557617188 C 89.27925872802734 159.04190063476562 100.21991729736328 161.47584533691406 103.7245864868164 169.06106567382812" fill="none" stroke="rgb(0, 0, 0)" stroke-linecap="round" stroke-linejoin="round" stroke-opacity="1.0" stroke-width="3.0"/>
    <path d="M 170.13145446777344 164.02210998535156 C 162.30421447753906 175.36082458496094 171.55859375 164.915283203125 164.85377502441406 170.5064697265625" fill="none" stroke="rgb(0, 0, 0)" stroke-linecap="round" stroke-linejoin="round" stroke-opacity="1.0" stroke-width="3.0"/>
    <path d="M 99.8583755493164 39.15317153930664 C 91.31580352783203 59.2916145324707 100.65730285644531 48.278072357177734 110.60890197753906 59.16575622558594" fill="none" stroke="rgb(0, 0, 0)" stroke-linecap="round" stroke-linejoin="round" stroke-opacity="1.0" stroke-width="3.0"/>
    <path d="M 182.97459411621094 145.3529815673828 C 183.70851135253906 144.62933349609375 184.32867431640625 140.33514404296875 179.21551513671875 150.58071899414062" fill="none" stroke="rgb(0, 0, 0)" stroke-linecap="round" stroke-linejoin="round" stroke-opacity="1.0" stroke-width="3.0"/>
    <path d="M 111.68411254882812 69.5766830444336 C 121.44857025146484 73.89800262451172 119.87300109863281 66.29161834716797 122.89430236816406 67.23065948486328" fill="none" stroke="rgb(0, 0, 0)" stroke-linecap="round" stroke-linejoin="round" stroke-opacity="1.0" stroke-width="3.0"/>
    <path d="M 168.54989624023438 70.51969146728516 C 171.12551879882812 105.65776824951172 173.2305145263672 80.83950805664062 173.2391815185547 83.56865692138672" fill="none" stroke="rgb(0, 0, 0)" stroke-linecap="round" stroke-linejoin="round" stroke-opacity="1.0" stroke-width="3.0"/>
    <path d="M 136.97079467773438 157.1708221435547 C 156.1243896484375 168.0353240966797 132.588134765625 160.97647094726562 155.21046447753906 166.34292602539062" fill="none" stroke="rgb(0, 0, 0)" stroke-linecap="round" stroke-linejoin="round" stroke-opacity="1.0" stroke-width="3.0"/>
    <path d="M 99.60811614990234 36.05775451660156 C 111.49060821533203 42.71068572998047 88.73932647705078 24.416940689086914 119.37210845947266 24.942352294921875" fill="none" stroke="rgb(0, 0, 0)" stroke-linecap="round" stroke-linejoin="round" stroke-opacity="1.0" stroke-width="3.0"/>
    <path d="M 137.2543182373047 47.794921875 C 126.39234161376953 30.613910675048828 141.59120178222656 39.76570510864258 137.0311737060547 57.82062911987305" fill="none" stroke="rgb(0, 0, 0)" stroke-linecap="round" stroke-linejoin="round" stroke-opacity="1.0" stroke-width="3.0"/>
  </g>
</svg>
