<?xml version="1.0" ?>
<svg height="224" version="1.1" width="224" xmlns="http://www.w3.org/2000/svg">
  <defs/>
  <g>
    <path d="M 93.09616088867188 156.37042236328125 C 112.07525634765625 155.80828857421875 46.81377029418945 83.39614868164062 99.02499389648438 55.61890411376953" fill="none" stroke="rgb(0, 0, 0)" stroke-linecap="round" stroke-linejoin="round" stroke-opacity="1.0" stroke-width="3.0"/>
    <path d="M 112.95218658447266 138.04812622070312 C 191.96812438964844 117.529541015625 136.64962768554688 135.03121948242188 151.12002563476562 62.48389434814453" fill="none" stroke="rgb(0, 0, 0)" stroke-linecap="round" stroke-linejoin="round" stroke-opacity="1.0" stroke-width="3.0"/>
    <path d="M 135.6607666015625 50.09501266479492 C 187.30960083007812 65.09111022949219 168.10604858398438 96.4573974609375 171.88536071777344 97.86895751953125" fill="none" stroke="rgb(0, 0, 0)" stroke-linecap="round" stroke-linejoin="round" stroke-opacity="1.0" stroke-width="3.0"/>
    <path d="M 141.72056579589844 59.58446502685547 C 113.8543472290039 113.6855697631836 111.3791732788086 57.65457534790039 120.67806243896484 99.19316101074219" fill="none" stroke="rgb(0, 0, 0)" stroke-linecap="round" stroke-linejoin="round" stroke-opacity="1.0" stroke-width="3.0"/>
    <path d="M 130.87359619140625 31.94334602355957 C 149.2599334716797 45.57331466674805 138.0797882080078 112.12477111816406 121.78121948242188 98.92999267578125" fill="none" stroke="rgb(0, 0, 0)" stroke-linecap="round" stroke-linejoin="round" stroke-opacity="1.0" stroke-width="3.0"/>
    <path d="M 170.17333984375 95.01821899414062 C 178.15322875976562 111.32801055908203 171.75216674804688 103.2151107788086 183.96530151367188 134.99403381347656" fill="none" stroke="rgb(0, 0, 0)" stroke-linecap="round" stroke-linejoin="round" stroke-opacity="1.0" stroke-width="3.0"/>
    <path d="M 128.60830688476562 97.24220275878906 C 100.82241821289062 73.00459289550781 88.44389343261719 47.42147445678711 115.96932220458984 30.03766632080078" fill="none" stroke="rgb(0, 0, 0)" stroke-linecap="round" stroke-linejoin="round" stroke-opacity="1.0" stroke-width="3.0"/>
    <path d="M 93.67658996582031 140.80076599121094 C 160.78334045410156 122.41142272949219 115.36551666259766 175.95359802246094 98.86404418945312 158.95460510253906" fill="none" stroke="rgb(0, 0, 0)" stroke-linecap="round" stroke-linejoin="round" stroke-opacity="1.0" stroke-width="3.0"/>
    <path d="M 196.49819946289062 120.95512390136719 C 188.59619140625 153.17269897460938 213.1061553955078 148.2021942138672 169.83058166503906 169.33277893066406" fill="none" stroke="rgb(0, 0, 0)" stroke-linecap="round" stroke-linejoin="round" stroke-opacity="1.0" stroke-width="3.0"/>
    <path d="M 125.18616485595703 38.129940032958984 C 52.58443832397461 35.84209060668945 155.12948608398438 60.99029541015625 109.3066177368164 56.48048400878906" fill="none" stroke="rgb(0, 0, 0)" stroke-linecap="round" stroke-linejoin="round" stroke-opacity="1.0" stroke-width="3.0"/>
    <path d="M 170.38577270507812 151.10833740234375 C 186.2463836669922 136.6912078857422 171.89537048339844 151.34732055664062 194.68630981445312 118.02586364746094" fill="none" stroke="rgb(0, 0, 0)" stroke-linecap="round" stroke-linejoin="round" stroke-opacity="1.0" stroke-width="3.0"/>
    <path d="M 115.11260986328125 69.03999328613281 C 100.70588684082031 80.160400390625 142.034423828125 72.27064514160156 123.55747985839844 64.57632446289062" fill="none" stroke="rgb(0, 0, 0)" stroke-linecap="round" stroke-linejoin="round" stroke-opacity="1.0" stroke-width="3.0"/>
    <path d="M 163.48440551757812 70.3192138671875 C 165.57113647460938 84.62035369873047 164.05577087402344 68.70249938964844 169.6157989501953 90.22407531738281" fill="none" stroke="rgb(0, 0, 0)" stroke-linecap="round" stroke-linejoin="round" stroke-opacity="1.0" stroke-width="3.0"/>
    <path d="M 106.13218688964844 156.87130737304688 C 157.62644958496094 163.12188720703125 133.1289825439453 160.79689025878906 172.9542694091797 152.11314392089844" fill="none" stroke="rgb(0, 0, 0)" stroke-linecap="round" stroke-linejoin="round" stroke-opacity="1.0" stroke-width="3.0"/>
    <path d="M 124.1506118774414 27.63350486755371 C 74.5884017944336 66.7508316040039 128.76112365722656 -16.303611755371094 143.8173065185547 48.34539031982422" fill="none" stroke="rgb(0, 0, 0)" stroke-linecap="round" stroke-linejoin="round" stroke-opacity="1.0" stroke-width="3.0"/>
    <path d="M 132.8822784423828 46.44707107543945 C 112.50196838378906 9.8357572555542 155.0050811767578 65.05879211425781 130.7721710205078 58.96575164794922" fill="none" stroke="rgb(0, 0, 0)" stroke-linecap="round" stroke-linejoin="round" stroke-opacity="1.0" stroke-width="3.0"/>
  </g>
</svg>
