<?xml version="1.0" ?>
<svg height="224" version="1.1" width="224" xmlns="http://www.w3.org/2000/svg">
  <defs/>
  <g>
    <path d="M 99.76278686523438 155.39743041992188 C 118.2790756225586 155.4571075439453 38.882843017578125 83.37356567382812 103.57176208496094 51.00041198730469" fill="none" stroke="rgb(0, 0, 0)" stroke-linecap="round" stroke-linejoin="round" stroke-opacity="1.0" stroke-width="3.0"/>
    <path d="M 112.47517395019531 142.4817352294922 C 190.86508178710938 112.7774658203125 140.9486541748047 133.9351043701172 155.87832641601562 67.58946228027344" fill="none" stroke="rgb(0, 0, 0)" stroke-linecap="round" stroke-linejoin="round" stroke-opacity="1.0" stroke-width="3.0"/>
    <path d="M 137.22377014160156 53.0442008972168 C 185.099365234375 61.126888275146484 167.7615509033203 98.02440643310547 169.34915161132812 94.88333892822266" fill="none" stroke="rgb(0, 0, 0)" stroke-linecap="round" stroke-linejoin="round" stroke-opacity="1.0" stroke-width="3.0"/>
    <path d="M 141.77664184570312 55.005924224853516 C 113.98175048828125 112.87012481689453 108.50670623779297 55.01718521118164 116.15101623535156 102.30748748779297" fill="none" stroke="rgb(0, 0, 0)" stroke-linecap="round" stroke-linejoin="round" stroke-opacity="1.0" stroke-width="3.0"/>
    <path d="M 131.00186157226562 25.014808654785156 C 149.84393310546875 35.35377883911133 135.84158325195312 112.06343841552734 125.1545639038086 95.16389465332031" fill="none" stroke="rgb(0, 0, 0)" stroke-linecap="round" stroke-linejoin="round" stroke-opacity="1.0" stroke-width="3.0"/>
    <path d="M 169.26077270507812 95.80940246582031 C 176.00057983398438 116.06714630126953 167.8738555908203 103.29479217529297 183.88221740722656 135.0114288330078" fill="none" stroke="rgb(0, 0, 0)" stroke-linecap="round" stroke-linejoin="round" stroke-opacity="1.0" stroke-width="3.0"/>
    <path d="M 125.21632385253906 100.13372802734375 C 102.41049194335938 65.48529815673828 83.99252319335938 47.57815170288086 115.56985473632812 28.84208106994629" fill="none" stroke="rgb(0, 0, 0)" stroke-linecap="round" stroke-linejoin="round" stroke-opacity="1.0" stroke-width="3.0"/>
    <path d="M 97.78602600097656 142.7122344970703 C 145.3204345703125 125.06510162353516 110.53123474121094 179.12217712402344 96.59798431396484 157.7611846923828" fill="none" stroke="rgb(0, 0, 0)" stroke-linecap="round" stroke-linejoin="round" stroke-opacity="1.0" stroke-width="3.0"/>
    <path d="M 196.7154083251953 124.43724822998047 C 190.27090454101562 149.9476318359375 216.1635284423828 147.42417907714844 167.91766357421875 170.97508239746094" fill="none" stroke="rgb(0, 0, 0)" stroke-linecap="round" stroke-linejoin="round" stroke-opacity="1.0" stroke-width="3.0"/>
    <path d="M 128.59646606445312 34.70492935180664 C 43.064056396484375 29.85696029663086 151.7800750732422 63.84170150756836 108.57782745361328 55.24937438964844" fill="none" stroke="rgb(0, 0, 0)" stroke-linecap="round" stroke-linejoin="round" stroke-opacity="1.0" stroke-width="3.0"/>
    <path d="M 168.13623046875 148.61300659179688 C 185.47459411621094 134.35543823242188 174.63491821289062 148.6487579345703 194.9759063720703 119.61161804199219" fill="none" stroke="rgb(0, 0, 0)" stroke-linecap="round" stroke-linejoin="round" stroke-opacity="1.0" stroke-width="3.0"/>
    <path d="M 116.10884857177734 64.69674682617188 C 95.58596801757812 81.40996551513672 146.2427520751953 71.69636535644531 126.3766098022461 63.79035949707031" fill="none" stroke="rgb(0, 0, 0)" stroke-linecap="round" stroke-linejoin="round" stroke-opacity="1.0" stroke-width="3.0"/>
    <path d="M 167.48280334472656 72.26699829101562 C 171.7475128173828 83.0608901977539 170.76065063476562 66.77412414550781 173.6685791015625 81.8260726928711" fill="none" stroke="rgb(0, 0, 0)" stroke-linecap="round" stroke-linejoin="round" stroke-opacity="1.0" stroke-width="3.0"/>
    <path d="M 106.0717544555664 157.8627166748047 C 146.6577606201172 162.48388671875 108.13018798828125 158.00509643554688 170.20826721191406 149.26162719726562" fill="none" stroke="rgb(0, 0, 0)" stroke-linecap="round" stroke-linejoin="round" stroke-opacity="1.0" stroke-width="3.0"/>
    <path d="M 121.879150390625 30.034732818603516 C 63.906768798828125 66.366455078125 130.98782348632812 -18.975255966186523 144.59585571289062 50.832706451416016" fill="none" stroke="rgb(0, 0, 0)" stroke-linecap="round" stroke-linejoin="round" stroke-opacity="1.0" stroke-width="3.0"/>
    <path d="M 135.40420532226562 54.1383056640625 C 105.83248901367188 -1.3963854312896729 162.43057250976562 63.56480407714844 125.70880126953125 56.99522399902344" fill="none" stroke="rgb(0, 0, 0)" stroke-linecap="round" stroke-linejoin="round" stroke-opacity="1.0" stroke-width="3.0"/>
  </g>
</svg>
