<?xml version="1.0" ?>
<svg height="224" version="1.1" width="224" xmlns="http://www.w3.org/2000/svg">
  <defs/>
  <g>
    <path d="M 95.17993927001953 153.72996520996094 C 114.92342376708984 162.51876831054688 39.98123550415039 88.58224487304688 102.22716522216797 49.77681350708008" fill="none" stroke="rgb(0, 0, 0)" stroke-linecap="round" stroke-linejoin="round" stroke-opacity="1.0" stroke-width="3.0"/>
    <path d="M 112.36624908447266 140.7480010986328 C 194.05320739746094 113.698974609375 142.049072265625 134.0807647705078 153.5608673095703 63.09855651855469" fill="none" stroke="rgb(0, 0, 0)" stroke-linecap="round" stroke-linejoin="round" stroke-opacity="1.0" stroke-width="3.0"/>
    <path d="M 132.96221923828125 53.750335693359375 C 186.3621826171875 62.229400634765625 167.99478149414062 95.52301025390625 169.08631896972656 94.02780151367188" fill="none" stroke="rgb(0, 0, 0)" stroke-linecap="round" stroke-linejoin="round" stroke-opacity="1.0" stroke-width="3.0"/>
    <path d="M 144.4497528076172 54.32551193237305 C 117.11865234375 114.40371704101562 108.12789916992188 56.86527633666992 118.96700286865234 102.8539810180664" fill="none" stroke="rgb(0, 0, 0)" stroke-linecap="round" stroke-linejoin="round" stroke-opacity="1.0" stroke-width="3.0"/>
    <path d="M 129.05686950683594 24.630544662475586 C 145.7356414794922 38.32054138183594 134.86190795898438 113.78297424316406 124.82091522216797 97.85181427001953" fill="none" stroke="rgb(0, 0, 0)" stroke-linecap="round" stroke-linejoin="round" stroke-opacity="1.0" stroke-width="3.0"/>
    <path d="M 169.64031982421875 94.20706176757812 C 177.77236938476562 114.26478576660156 168.6007080078125 103.0767822265625 183.51559448242188 133.8547821044922" fill="none" stroke="rgb(0, 0, 0)" stroke-linecap="round" stroke-linejoin="round" stroke-opacity="1.0" stroke-width="3.0"/>
    <path d="M 125.93550872802734 99.78872680664062 C 102.78923034667969 66.13667297363281 85.02490234375 44.193416595458984 114.33086395263672 26.492347717285156" fill="none" stroke="rgb(0, 0, 0)" stroke-linecap="round" stroke-linejoin="round" stroke-opacity="1.0" stroke-width="3.0"/>
    <path d="M 96.96926879882812 142.5416259765625 C 154.44593811035156 122.83761596679688 112.33773040771484 179.4442596435547 96.37244415283203 158.41073608398438" fill="none" stroke="rgb(0, 0, 0)" stroke-linecap="round" stroke-linejoin="round" stroke-opacity="1.0" stroke-width="3.0"/>
    <path d="M 197.6068878173828 120.87952423095703 C 191.11512756347656 148.07716369628906 215.18460083007812 147.8574981689453 169.44493103027344 169.74986267089844" fill="none" stroke="rgb(0, 0, 0)" stroke-linecap="round" stroke-linejoin="round" stroke-opacity="1.0" stroke-width="3.0"/>
    <path d="M 128.5658721923828 39.24811935424805 C 43.12521743774414 32.3875732421875 147.7257080078125 63.59235763549805 108.35604095458984 56.48060607910156" fill="none" stroke="rgb(0, 0, 0)" stroke-linecap="round" stroke-linejoin="round" stroke-opacity="1.0" stroke-width="3.0"/>
    <path d="M 165.9293212890625 148.94309997558594 C 188.75328063964844 137.89341735839844 174.3621063232422 149.8677978515625 193.8276824951172 120.22537994384766" fill="none" stroke="rgb(0, 0, 0)" stroke-linecap="round" stroke-linejoin="round" stroke-opacity="1.0" stroke-width="3.0"/>
    <path d="M 111.53137969970703 66.93900299072266 C 97.5032730102539 81.47232818603516 146.85911560058594 73.86428833007812 128.2268524169922 66.0745849609375" fill="none" stroke="rgb(0, 0, 0)" stroke-linecap="round" stroke-linejoin="round" stroke-opacity="1.0" stroke-width="3.0"/>
    <path d="M 168.4870147705078 69.08833312988281 C 171.09991455078125 82.8536376953125 167.97625732421875 68.33748626708984 173.4495849609375 85.27156066894531" fill="none" stroke="rgb(0, 0, 0)" stroke-linecap="round" stroke-linejoin="round" stroke-opacity="1.0" stroke-width="3.0"/>
    <path d="M 104.02484893798828 157.31964111328125 C 154.0967254638672 163.5734100341797 121.4270248413086 166.38693237304688 168.9298095703125 148.72845458984375" fill="none" stroke="rgb(0, 0, 0)" stroke-linecap="round" stroke-linejoin="round" stroke-opacity="1.0" stroke-width="3.0"/>
    <path d="M 124.3056411743164 29.784400939941406 C 66.46796417236328 63.80076599121094 130.3809051513672 -19.911293029785156 143.12864685058594 51.87868881225586" fill="none" stroke="rgb(0, 0, 0)" stroke-linecap="round" stroke-linejoin="round" stroke-opacity="1.0" stroke-width="3.0"/>
    <path d="M 137.77272033691406 54.13920974731445 C 106.89298248291016 3.1658849716186523 157.8942413330078 67.60575103759766 125.42770385742188 57.7105712890625" fill="none" stroke="rgb(0, 0, 0)" stroke-linecap="round" stroke-linejoin="round" stroke-opacity="1.0" stroke-width="3.0"/>
  </g>
</svg>
