<?xml version="1.0" ?>
<svg height="224" version="1.1" width="224" xmlns="http://www.w3.org/2000/svg">
  <defs/>
  <g>
    <path d="M 84.88932800292969 137.280517578125 C 98.0226821899414 136.76051330566406 57.74800109863281 71.8988265991211 95.5752182006836 59.62576675415039" fill="none" stroke="rgb(0, 0, 0)" stroke-linecap="round" stroke-linejoin="round" stroke-opacity="1.0" stroke-width="3.0"/>
    <path d="M 122.8809585571289 128.58030700683594 C 196.21990966796875 129.05445861816406 137.1549072265625 113.20256042480469 161.5504150390625 72.1390609741211" fill="none" stroke="rgb(0, 0, 0)" stroke-linecap="round" stroke-linejoin="round" stroke-opacity="1.0" stroke-width="3.0"/>
    <path d="M 136.2308807373047 46.58189010620117 C 188.55148315429688 76.90419006347656 167.13522338867188 86.12200164794922 174.5942840576172 103.72468566894531" fill="none" stroke="rgb(0, 0, 0)" stroke-linecap="round" stroke-linejoin="round" stroke-opacity="1.0" stroke-width="3.0"/>
    <path d="M 137.3689422607422 59.22825241088867 C 114.87622833251953 108.82213592529297 99.9122543334961 62.59814453125 121.0848617553711 100.48047637939453" fill="none" stroke="rgb(0, 0, 0)" stroke-linecap="round" stroke-linejoin="round" stroke-opacity="1.0" stroke-width="3.0"/>
    <path d="M 138.9437255859375 41.488582611083984 C 126.61611938476562 87.70181274414062 150.49862670898438 54.139747619628906 124.79170989990234 100.3307113647461" fill="none" stroke="rgb(0, 0, 0)" stroke-linecap="round" stroke-linejoin="round" stroke-opacity="1.0" stroke-width="3.0"/>
    <path d="M 173.12811279296875 103.6289291381836 C 161.77835083007812 112.07737731933594 158.71726989746094 97.8704605102539 164.37127685546875 131.4650421142578" fill="none" stroke="rgb(0, 0, 0)" stroke-linecap="round" stroke-linejoin="round" stroke-opacity="1.0" stroke-width="3.0"/>
    <path d="M 116.33541107177734 100.11724090576172 C 96.29138946533203 59.855735778808594 84.08531951904297 78.35655975341797 102.5030517578125 37.758914947509766" fill="none" stroke="rgb(0, 0, 0)" stroke-linecap="round" stroke-linejoin="round" stroke-opacity="1.0" stroke-width="3.0"/>
    <path d="M 118.92754364013672 165.3277587890625 C 111.97402954101562 170.55978393554688 96.51705932617188 168.37477111816406 99.1764907836914 169.25657653808594" fill="none" stroke="rgb(0, 0, 0)" stroke-linecap="round" stroke-linejoin="round" stroke-opacity="1.0" stroke-width="3.0"/>
    <path d="M 194.64195251464844 121.76309967041016 C 186.70736694335938 157.73704528808594 212.345458984375 149.81222534179688 168.67942810058594 168.66957092285156" fill="none" stroke="rgb(0, 0, 0)" stroke-linecap="round" stroke-linejoin="round" stroke-opacity="1.0" stroke-width="3.0"/>
    <path d="M 118.88036346435547 27.74855613708496 C 58.523765563964844 55.76457595825195 128.0736846923828 54.1650390625 102.68667602539062 57.8179817199707" fill="none" stroke="rgb(0, 0, 0)" stroke-linecap="round" stroke-linejoin="round" stroke-opacity="1.0" stroke-width="3.0"/>
    <path d="M 177.66221618652344 142.64645385742188 C 192.83558654785156 130.12705993652344 182.9292755126953 143.67404174804688 194.3319091796875 116.47998809814453" fill="none" stroke="rgb(0, 0, 0)" stroke-linecap="round" stroke-linejoin="round" stroke-opacity="1.0" stroke-width="3.0"/>
    <path d="M 108.41429138183594 72.20033264160156 C 117.66763305664062 74.9677963256836 113.78357696533203 72.53385925292969 119.67271423339844 68.01251220703125" fill="none" stroke="rgb(0, 0, 0)" stroke-linecap="round" stroke-linejoin="round" stroke-opacity="1.0" stroke-width="3.0"/>
    <path d="M 154.47792053222656 59.04273223876953 C 159.45022583007812 73.69290924072266 169.56678771972656 60.13901138305664 173.30496215820312 86.51042175292969" fill="none" stroke="rgb(0, 0, 0)" stroke-linecap="round" stroke-linejoin="round" stroke-opacity="1.0" stroke-width="3.0"/>
    <path d="M 102.73928833007812 152.92529296875 C 170.699462890625 166.95777893066406 141.98036193847656 168.09130859375 166.2924041748047 165.70455932617188" fill="none" stroke="rgb(0, 0, 0)" stroke-linecap="round" stroke-linejoin="round" stroke-opacity="1.0" stroke-width="3.0"/>
    <path d="M 102.95618438720703 29.92275619506836 C 81.93217468261719 67.24150848388672 115.77454376220703 -11.690851211547852 140.69776916503906 41.2481803894043" fill="none" stroke="rgb(0, 0, 0)" stroke-linecap="round" stroke-linejoin="round" stroke-opacity="1.0" stroke-width="3.0"/>
    <path d="M 142.37457275390625 48.07029724121094 C 119.27261352539062 19.605958938598633 168.99801635742188 56.03597640991211 120.35163116455078 54.40912628173828" fill="none" stroke="rgb(0, 0, 0)" stroke-linecap="round" stroke-linejoin="round" stroke-opacity="1.0" stroke-width="3.0"/>
  </g>
</svg>
