<?xml version="1.0" ?>
<svg height="224" version="1.1" width="224" xmlns="http://www.w3.org/2000/svg">
  <defs/>
  <g>
    <path d="M 90.666748046875 149.5934600830078 C 95.90846252441406 131.48062133789062 61.62057113647461 66.49855041503906 96.24066162109375 56.506591796875" fill="none" stroke="rgb(0, 0, 0)" stroke-linecap="round" stroke-linejoin="round" stroke-opacity="1.0" stroke-width="3.0"/>
    <path d="M 124.49365997314453 146.52157592773438 C 188.80947875976562 126.14971923828125 133.703125 127.88560485839844 150.71385192871094 65.77925872802734" fill="none" stroke="rgb(0, 0, 0)" stroke-linecap="round" stroke-linejoin="round" stroke-opacity="1.0" stroke-width="3.0"/>
    <path d="M 137.68601989746094 48.29471206665039 C 185.313232421875 68.00376892089844 169.36380004882812 89.04292297363281 175.6727294921875 98.57781982421875" fill="none" stroke="rgb(0, 0, 0)" stroke-linecap="round" stroke-linejoin="round" stroke-opacity="1.0" stroke-width="3.0"/>
    <path d="M 143.63519287109375 57.229766845703125 C 115.58147430419922 107.12590789794922 102.87786102294922 60.76023483276367 119.968505859375 98.73693084716797" fill="none" stroke="rgb(0, 0, 0)" stroke-linecap="round" stroke-linejoin="round" stroke-opacity="1.0" stroke-width="3.0"/>
    <path d="M 135.15646362304688 42.23251724243164 C 138.75042724609375 66.70924377441406 146.7640380859375 81.00910949707031 123.61460876464844 99.76460266113281" fill="none" stroke="rgb(0, 0, 0)" stroke-linecap="round" stroke-linejoin="round" stroke-opacity="1.0" stroke-width="3.0"/>
    <path d="M 175.23060607910156 97.63827514648438 C 179.680419921875 102.60894012451172 174.24783325195312 95.65023040771484 186.6671600341797 129.32081604003906" fill="none" stroke="rgb(0, 0, 0)" stroke-linecap="round" stroke-linejoin="round" stroke-opacity="1.0" stroke-width="3.0"/>
    <path d="M 124.68515014648438 95.56990814208984 C 101.51893615722656 69.29700469970703 89.7933120727539 64.24651336669922 112.86045837402344 30.467496871948242" fill="none" stroke="rgb(0, 0, 0)" stroke-linecap="round" stroke-linejoin="round" stroke-opacity="1.0" stroke-width="3.0"/>
    <path d="M 106.0322036743164 148.41110229492188 C 151.1693115234375 142.19064331054688 112.05406188964844 170.905029296875 97.73770141601562 156.8014373779297" fill="none" stroke="rgb(0, 0, 0)" stroke-linecap="round" stroke-linejoin="round" stroke-opacity="1.0" stroke-width="3.0"/>
    <path d="M 196.1908721923828 123.58036804199219 C 188.17222595214844 156.72186279296875 210.21702575683594 145.9105987548828 173.65371704101562 166.14630126953125" fill="none" stroke="rgb(0, 0, 0)" stroke-linecap="round" stroke-linejoin="round" stroke-opacity="1.0" stroke-width="3.0"/>
    <path d="M 126.98719787597656 35.93186950683594 C 54.23042297363281 45.822879791259766 146.1992645263672 59.969871520996094 107.89299011230469 56.7721061706543" fill="none" stroke="rgb(0, 0, 0)" stroke-linecap="round" stroke-linejoin="round" stroke-opacity="1.0" stroke-width="3.0"/>
    <path d="M 173.71844482421875 156.33473205566406 C 189.66476440429688 136.223388671875 168.49447631835938 159.90576171875 194.76942443847656 120.21610260009766" fill="none" stroke="rgb(0, 0, 0)" stroke-linecap="round" stroke-linejoin="round" stroke-opacity="1.0" stroke-width="3.0"/>
    <path d="M 115.22836303710938 61.424102783203125 C 93.80144500732422 73.36493682861328 124.39628601074219 76.47118377685547 119.55892944335938 73.74630737304688" fill="none" stroke="rgb(0, 0, 0)" stroke-linecap="round" stroke-linejoin="round" stroke-opacity="1.0" stroke-width="3.0"/>
    <path d="M 155.3937225341797 63.51482009887695 C 160.42857360839844 79.07941436767578 164.95726013183594 63.69486618041992 170.01487731933594 84.85276794433594" fill="none" stroke="rgb(0, 0, 0)" stroke-linecap="round" stroke-linejoin="round" stroke-opacity="1.0" stroke-width="3.0"/>
    <path d="M 103.81368255615234 155.11817932128906 C 179.35879516601562 166.63563537597656 156.0348358154297 166.04042053222656 173.14820861816406 157.08322143554688" fill="none" stroke="rgb(0, 0, 0)" stroke-linecap="round" stroke-linejoin="round" stroke-opacity="1.0" stroke-width="3.0"/>
    <path d="M 122.67533874511719 30.110965728759766 C 71.12334442138672 66.64310455322266 124.37181854248047 -19.873083114624023 141.96485900878906 49.98927307128906" fill="none" stroke="rgb(0, 0, 0)" stroke-linecap="round" stroke-linejoin="round" stroke-opacity="1.0" stroke-width="3.0"/>
    <path d="M 139.0950927734375 53.200321197509766 C 117.4959716796875 23.539522171020508 160.2797088623047 61.544734954833984 127.31736755371094 56.927513122558594" fill="none" stroke="rgb(0, 0, 0)" stroke-linecap="round" stroke-linejoin="round" stroke-opacity="1.0" stroke-width="3.0"/>
  </g>
</svg>
