<?xml version="1.0" ?>
<svg height="224" version="1.1" width="224" xmlns="http://www.w3.org/2000/svg">
  <defs/>
  <g>
    <path d="M 84.10426330566406 139.0191650390625 C 91.58470916748047 124.98015594482422 61.2459831237793 64.12200927734375 94.99005126953125 56.12677764892578" fill="none" stroke="rgb(0, 0, 0)" stroke-linecap="round" stroke-linejoin="round" stroke-opacity="1.0" stroke-width="3.0"/>
    <path d="M 128.9349822998047 127.76699829101562 C 150.12120056152344 126.21834564208984 163.2205047607422 122.57305908203125 170.97218322753906 107.37882232666016" fill="none" stroke="rgb(0, 0, 0)" stroke-linecap="round" stroke-linejoin="round" stroke-opacity="1.0" stroke-width="3.0"/>
    <path d="M 168.61131286621094 67.0277328491211 C 178.1525421142578 110.96339416503906 163.65733337402344 81.06666564941406 176.59954833984375 113.91548919677734" fill="none" stroke="rgb(0, 0, 0)" stroke-linecap="round" stroke-linejoin="round" stroke-opacity="1.0" stroke-width="3.0"/>
    <path d="M 134.68072509765625 64.89757537841797 C 119.5342025756836 101.01671600341797 105.37911987304688 62.216896057128906 126.60459899902344 95.83395385742188" fill="none" stroke="rgb(0, 0, 0)" stroke-linecap="round" stroke-linejoin="round" stroke-opacity="1.0" stroke-width="3.0"/>
    <path d="M 142.27706909179688 45.6371955871582 C 153.1724853515625 64.01583862304688 142.30760192871094 38.546783447265625 131.01800537109375 96.28273010253906" fill="none" stroke="rgb(0, 0, 0)" stroke-linecap="round" stroke-linejoin="round" stroke-opacity="1.0" stroke-width="3.0"/>
    <path d="M 176.51251220703125 118.46427917480469 C 160.12745666503906 126.29801940917969 173.86058044433594 121.48500061035156 160.7410125732422 126.13858032226562" fill="none" stroke="rgb(0, 0, 0)" stroke-linecap="round" stroke-linejoin="round" stroke-opacity="1.0" stroke-width="3.0"/>
    <path d="M 122.09770202636719 96.45396423339844 C 101.00357818603516 51.96989059448242 105.87602996826172 90.85871124267578 99.36314392089844 45.52197265625" fill="none" stroke="rgb(0, 0, 0)" stroke-linecap="round" stroke-linejoin="round" stroke-opacity="1.0" stroke-width="3.0"/>
    <path d="M 109.27965545654297 163.0358428955078 C 91.43936157226562 159.54603576660156 100.59599304199219 159.70799255371094 107.23279571533203 166.26390075683594" fill="none" stroke="rgb(0, 0, 0)" stroke-linecap="round" stroke-linejoin="round" stroke-opacity="1.0" stroke-width="3.0"/>
    <path d="M 182.83163452148438 156.82595825195312 C 157.45323181152344 172.51416015625 177.11468505859375 162.51438903808594 166.95803833007812 172.935302734375" fill="none" stroke="rgb(0, 0, 0)" stroke-linecap="round" stroke-linejoin="round" stroke-opacity="1.0" stroke-width="3.0"/>
    <path d="M 100.34259796142578 31.025758743286133 C 90.49742126464844 61.03522872924805 94.65950012207031 44.70488739013672 109.99152374267578 56.62467575073242" fill="none" stroke="rgb(0, 0, 0)" stroke-linecap="round" stroke-linejoin="round" stroke-opacity="1.0" stroke-width="3.0"/>
    <path d="M 182.2044677734375 144.59170532226562 C 180.94232177734375 145.95143127441406 187.3118896484375 134.96554565429688 180.92327880859375 147.00706481933594" fill="none" stroke="rgb(0, 0, 0)" stroke-linecap="round" stroke-linejoin="round" stroke-opacity="1.0" stroke-width="3.0"/>
    <path d="M 113.0511703491211 68.28044891357422 C 123.88330841064453 71.47993469238281 118.0135498046875 66.37576293945312 124.27706909179688 65.8463363647461" fill="none" stroke="rgb(0, 0, 0)" stroke-linecap="round" stroke-linejoin="round" stroke-opacity="1.0" stroke-width="3.0"/>
    <path d="M 174.25697326660156 85.58253479003906 C 178.55340576171875 93.8211898803711 168.5198974609375 62.38569259643555 174.36822509765625 81.41767883300781" fill="none" stroke="rgb(0, 0, 0)" stroke-linecap="round" stroke-linejoin="round" stroke-opacity="1.0" stroke-width="3.0"/>
    <path d="M 122.52574920654297 167.97216796875 C 152.32701110839844 168.82119750976562 130.08599853515625 169.57789611816406 160.80369567871094 173.58505249023438" fill="none" stroke="rgb(0, 0, 0)" stroke-linecap="round" stroke-linejoin="round" stroke-opacity="1.0" stroke-width="3.0"/>
    <path d="M 105.28874969482422 31.001771926879883 C 104.00912475585938 54.09819412231445 99.56470489501953 -1.2343182563781738 138.13621520996094 33.01605224609375" fill="none" stroke="rgb(0, 0, 0)" stroke-linecap="round" stroke-linejoin="round" stroke-opacity="1.0" stroke-width="3.0"/>
    <path d="M 137.91384887695312 44.53716278076172 C 138.0567169189453 23.339094161987305 142.59976196289062 40.58993911743164 141.31011962890625 56.306156158447266" fill="none" stroke="rgb(0, 0, 0)" stroke-linecap="round" stroke-linejoin="round" stroke-opacity="1.0" stroke-width="3.0"/>
  </g>
</svg>
