<?xml version="1.0" ?>
<svg height="224" version="1.1" width="224" xmlns="http://www.w3.org/2000/svg">
  <defs/>
  <g>
    <path d="M 84.92894744873047 138.64158630371094 C 98.76322937011719 129.09153747558594 57.72077560424805 65.57245635986328 94.52674102783203 61.10715866088867" fill="none" stroke="rgb(0, 0, 0)" stroke-linecap="round" stroke-linejoin="round" stroke-opacity="1.0" stroke-width="3.0"/>
    <path d="M 120.73249816894531 123.6953125 C 202.019287109375 124.65481567382812 146.07814025878906 109.55077362060547 155.64715576171875 68.44359588623047" fill="none" stroke="rgb(0, 0, 0)" stroke-linecap="round" stroke-linejoin="round" stroke-opacity="1.0" stroke-width="3.0"/>
    <path d="M 135.4269561767578 42.005741119384766 C 187.88038635253906 81.3292465209961 169.01071166992188 79.39397430419922 177.1835479736328 105.91569519042969" fill="none" stroke="rgb(0, 0, 0)" stroke-linecap="round" stroke-linejoin="round" stroke-opacity="1.0" stroke-width="3.0"/>
    <path d="M 136.37831115722656 57.79509735107422 C 115.3656005859375 104.54945373535156 98.80912780761719 65.88871002197266 124.66275787353516 100.57878112792969" fill="none" stroke="rgb(0, 0, 0)" stroke-linecap="round" stroke-linejoin="round" stroke-opacity="1.0" stroke-width="3.0"/>
    <path d="M 141.9170684814453 42.2375373840332 C 130.73922729492188 91.26165008544922 150.90603637695312 43.38149642944336 124.84474182128906 96.919677734375" fill="none" stroke="rgb(0, 0, 0)" stroke-linecap="round" stroke-linejoin="round" stroke-opacity="1.0" stroke-width="3.0"/>
    <path d="M 174.95541381835938 104.57199096679688 C 151.85154724121094 117.2078857421875 177.8163604736328 101.81314849853516 158.5413818359375 126.58013916015625" fill="none" stroke="rgb(0, 0, 0)" stroke-linecap="round" stroke-linejoin="round" stroke-opacity="1.0" stroke-width="3.0"/>
    <path d="M 118.53309631347656 97.88107299804688 C 104.23150634765625 62.426448822021484 88.62194061279297 81.34080505371094 100.93470764160156 37.297454833984375" fill="none" stroke="rgb(0, 0, 0)" stroke-linecap="round" stroke-linejoin="round" stroke-opacity="1.0" stroke-width="3.0"/>
    <path d="M 120.20954895019531 165.45497131347656 C 102.58218383789062 173.5536346435547 97.56201171875 160.98802185058594 103.1099853515625 169.0801239013672" fill="none" stroke="rgb(0, 0, 0)" stroke-linecap="round" stroke-linejoin="round" stroke-opacity="1.0" stroke-width="3.0"/>
    <path d="M 191.54656982421875 121.13709259033203 C 185.8069305419922 164.18113708496094 198.6931915283203 150.4538116455078 163.0496063232422 170.39096069335938" fill="none" stroke="rgb(0, 0, 0)" stroke-linecap="round" stroke-linejoin="round" stroke-opacity="1.0" stroke-width="3.0"/>
    <path d="M 113.86119079589844 30.74087142944336 C 71.54576873779297 56.86307144165039 126.75337982177734 55.59318542480469 104.11026763916016 59.37923812866211" fill="none" stroke="rgb(0, 0, 0)" stroke-linecap="round" stroke-linejoin="round" stroke-opacity="1.0" stroke-width="3.0"/>
    <path d="M 182.38218688964844 139.9493865966797 C 190.86378479003906 132.7812957763672 184.6062774658203 137.50469970703125 193.8540802001953 119.02521514892578" fill="none" stroke="rgb(0, 0, 0)" stroke-linecap="round" stroke-linejoin="round" stroke-opacity="1.0" stroke-width="3.0"/>
    <path d="M 110.78632354736328 70.54077911376953 C 116.72222137451172 75.35266876220703 114.84203338623047 72.0733642578125 120.15097045898438 72.23672485351562" fill="none" stroke="rgb(0, 0, 0)" stroke-linecap="round" stroke-linejoin="round" stroke-opacity="1.0" stroke-width="3.0"/>
    <path d="M 158.75924682617188 58.916015625 C 165.1691436767578 73.99357604980469 168.3587188720703 60.24370574951172 174.345458984375 85.03874969482422" fill="none" stroke="rgb(0, 0, 0)" stroke-linecap="round" stroke-linejoin="round" stroke-opacity="1.0" stroke-width="3.0"/>
    <path d="M 109.14530181884766 163.6400146484375 C 170.33322143554688 174.59571838378906 134.604736328125 173.04092407226562 169.21038818359375 167.42758178710938" fill="none" stroke="rgb(0, 0, 0)" stroke-linecap="round" stroke-linejoin="round" stroke-opacity="1.0" stroke-width="3.0"/>
    <path d="M 101.51457214355469 31.65869903564453 C 84.3263931274414 72.6903076171875 107.19752502441406 -12.887726783752441 143.18080139160156 42.64800262451172" fill="none" stroke="rgb(0, 0, 0)" stroke-linecap="round" stroke-linejoin="round" stroke-opacity="1.0" stroke-width="3.0"/>
    <path d="M 141.8182830810547 45.85371398925781 C 118.99470520019531 15.802623748779297 169.9575653076172 64.87928771972656 120.3251724243164 52.88840866088867" fill="none" stroke="rgb(0, 0, 0)" stroke-linecap="round" stroke-linejoin="round" stroke-opacity="1.0" stroke-width="3.0"/>
  </g>
</svg>
