<?xml version="1.0" ?>
<svg height="224" version="1.1" width="224" xmlns="http://www.w3.org/2000/svg">
  <defs/>
  <g>
    <path d="M 81.91258239746094 142.52166748046875 C 94.69442749023438 139.61392211914062 58.347991943359375 68.55521392822266 95.93768310546875 56.498233795166016" fill="none" stroke="rgb(0, 0, 0)" stroke-linecap="round" stroke-linejoin="round" stroke-opacity="1.0" stroke-width="3.0"/>
    <path d="M 118.95903778076172 120.39077758789062 C 196.5586395263672 120.03958892822266 137.76885986328125 111.75250244140625 158.37669372558594 73.00143432617188" fill="none" stroke="rgb(0, 0, 0)" stroke-linecap="round" stroke-linejoin="round" stroke-opacity="1.0" stroke-width="3.0"/>
    <path d="M 135.41583251953125 44.456886291503906 C 184.58004760742188 75.77426147460938 168.51983642578125 83.37145233154297 175.03802490234375 103.43024444580078" fill="none" stroke="rgb(0, 0, 0)" stroke-linecap="round" stroke-linejoin="round" stroke-opacity="1.0" stroke-width="3.0"/>
    <path d="M 138.8258819580078 58.52230453491211 C 119.13560485839844 110.19707489013672 101.14559936523438 62.07353591918945 126.49844360351562 95.80512237548828" fill="none" stroke="rgb(0, 0, 0)" stroke-linecap="round" stroke-linejoin="round" stroke-opacity="1.0" stroke-width="3.0"/>
    <path d="M 139.26177978515625 41.49535369873047 C 129.017578125 80.7313232421875 144.69810485839844 67.8038101196289 126.47930145263672 97.72684478759766" fill="none" stroke="rgb(0, 0, 0)" stroke-linecap="round" stroke-linejoin="round" stroke-opacity="1.0" stroke-width="3.0"/>
    <path d="M 174.89781188964844 102.51319885253906 C 174.43310546875 102.68647766113281 169.7569122314453 95.1645736694336 184.6116180419922 127.4831314086914" fill="none" stroke="rgb(0, 0, 0)" stroke-linecap="round" stroke-linejoin="round" stroke-opacity="1.0" stroke-width="3.0"/>
    <path d="M 120.74949645996094 102.03848266601562 C 104.30333709716797 56.78190231323242 91.57759857177734 77.77027893066406 109.15303802490234 31.559202194213867" fill="none" stroke="rgb(0, 0, 0)" stroke-linecap="round" stroke-linejoin="round" stroke-opacity="1.0" stroke-width="3.0"/>
    <path d="M 116.95159912109375 158.1336669921875 C 115.90852355957031 168.03660583496094 96.8960189819336 162.33731079101562 97.82268524169922 161.80723571777344" fill="none" stroke="rgb(0, 0, 0)" stroke-linecap="round" stroke-linejoin="round" stroke-opacity="1.0" stroke-width="3.0"/>
    <path d="M 195.34451293945312 123.20647430419922 C 183.1053466796875 154.9394989013672 208.90988159179688 147.0537567138672 167.72128295898438 168.01222229003906" fill="none" stroke="rgb(0, 0, 0)" stroke-linecap="round" stroke-linejoin="round" stroke-opacity="1.0" stroke-width="3.0"/>
    <path d="M 126.75521087646484 32.36357498168945 C 58.913021087646484 55.23953628540039 139.19032287597656 51.5472297668457 106.19954681396484 55.33106231689453" fill="none" stroke="rgb(0, 0, 0)" stroke-linecap="round" stroke-linejoin="round" stroke-opacity="1.0" stroke-width="3.0"/>
    <path d="M 172.59654235839844 146.23341369628906 C 188.3397674560547 129.04544067382812 180.21002197265625 145.2912139892578 194.56275939941406 118.7088394165039" fill="none" stroke="rgb(0, 0, 0)" stroke-linecap="round" stroke-linejoin="round" stroke-opacity="1.0" stroke-width="3.0"/>
    <path d="M 113.29203796386719 71.07970428466797 C 120.48902130126953 74.2369384765625 116.48934936523438 72.14444732666016 123.9781494140625 70.65734100341797" fill="none" stroke="rgb(0, 0, 0)" stroke-linecap="round" stroke-linejoin="round" stroke-opacity="1.0" stroke-width="3.0"/>
    <path d="M 155.03013610839844 59.59790802001953 C 160.35853576660156 66.99671936035156 166.686767578125 58.453224182128906 176.359619140625 80.59054565429688" fill="none" stroke="rgb(0, 0, 0)" stroke-linecap="round" stroke-linejoin="round" stroke-opacity="1.0" stroke-width="3.0"/>
    <path d="M 100.91886901855469 158.0334930419922 C 170.85995483398438 170.48204040527344 147.21896362304688 170.8590545654297 171.87591552734375 168.1861114501953" fill="none" stroke="rgb(0, 0, 0)" stroke-linecap="round" stroke-linejoin="round" stroke-opacity="1.0" stroke-width="3.0"/>
    <path d="M 117.07002258300781 30.845916748046875 C 75.00856018066406 72.44767761230469 116.43871307373047 -14.625163078308105 140.07489013671875 40.6027717590332" fill="none" stroke="rgb(0, 0, 0)" stroke-linecap="round" stroke-linejoin="round" stroke-opacity="1.0" stroke-width="3.0"/>
    <path d="M 142.31863403320312 50.13074493408203 C 120.16006469726562 19.76065444946289 163.51309204101562 54.21295166015625 125.05073547363281 56.883506774902344" fill="none" stroke="rgb(0, 0, 0)" stroke-linecap="round" stroke-linejoin="round" stroke-opacity="1.0" stroke-width="3.0"/>
  </g>
</svg>
