<?xml version="1.0" ?>
<svg height="224" version="1.1" width="224" xmlns="http://www.w3.org/2000/svg">
  <defs/>
  <g>
    <path d="M 83.62698364257812 140.2201690673828 C 90.09542846679688 123.98011779785156 59.677085876464844 71.56965637207031 97.43669128417969 58.01686477661133" fill="none" stroke="rgb(0, 0, 0)" stroke-linecap="round" stroke-linejoin="round" stroke-opacity="1.0" stroke-width="3.0"/>
    <path d="M 129.4143829345703 124.37117767333984 C 149.79220581054688 125.98426818847656 161.5673828125 121.95747375488281 172.5969696044922 105.01597595214844" fill="none" stroke="rgb(0, 0, 0)" stroke-linecap="round" stroke-linejoin="round" stroke-opacity="1.0" stroke-width="3.0"/>
    <path d="M 169.94345092773438 73.49464416503906 C 177.1023712158203 108.77267456054688 165.4893798828125 75.23889923095703 177.71124267578125 112.42051696777344" fill="none" stroke="rgb(0, 0, 0)" stroke-linecap="round" stroke-linejoin="round" stroke-opacity="1.0" stroke-width="3.0"/>
    <path d="M 136.53976440429688 62.82618713378906 C 122.76016998291016 101.24491119384766 104.97807312011719 63.579627990722656 126.29983520507812 95.3504638671875" fill="none" stroke="rgb(0, 0, 0)" stroke-linecap="round" stroke-linejoin="round" stroke-opacity="1.0" stroke-width="3.0"/>
    <path d="M 142.8060760498047 46.39097595214844 C 151.2803497314453 63.25893020629883 140.8431396484375 38.63907241821289 128.85791015625 94.41981506347656" fill="none" stroke="rgb(0, 0, 0)" stroke-linecap="round" stroke-linejoin="round" stroke-opacity="1.0" stroke-width="3.0"/>
    <path d="M 178.83277893066406 117.63449096679688 C 160.11917114257812 120.66120147705078 173.41156005859375 117.76718139648438 157.7178955078125 124.07536315917969" fill="none" stroke="rgb(0, 0, 0)" stroke-linecap="round" stroke-linejoin="round" stroke-opacity="1.0" stroke-width="3.0"/>
    <path d="M 121.42668914794922 95.15155792236328 C 99.27983856201172 53.28419876098633 107.65914916992188 91.4577865600586 99.62584686279297 45.63642883300781" fill="none" stroke="rgb(0, 0, 0)" stroke-linecap="round" stroke-linejoin="round" stroke-opacity="1.0" stroke-width="3.0"/>
    <path d="M 109.25672912597656 164.55270385742188 C 90.01496124267578 164.1367645263672 100.63169860839844 162.55679321289062 107.0910415649414 166.39105224609375" fill="none" stroke="rgb(0, 0, 0)" stroke-linecap="round" stroke-linejoin="round" stroke-opacity="1.0" stroke-width="3.0"/>
    <path d="M 179.16488647460938 165.7626953125 C 160.19473266601562 174.626708984375 176.9488067626953 162.94918823242188 166.82656860351562 173.2445068359375" fill="none" stroke="rgb(0, 0, 0)" stroke-linecap="round" stroke-linejoin="round" stroke-opacity="1.0" stroke-width="3.0"/>
    <path d="M 100.97284698486328 33.29957580566406 C 95.59545135498047 56.757965087890625 94.92636108398438 42.81458282470703 111.92000579833984 52.716373443603516" fill="none" stroke="rgb(0, 0, 0)" stroke-linecap="round" stroke-linejoin="round" stroke-opacity="1.0" stroke-width="3.0"/>
    <path d="M 184.04043579101562 141.85264587402344 C 180.98721313476562 143.95176696777344 188.60443115234375 134.93798828125 180.327392578125 146.44032287597656" fill="none" stroke="rgb(0, 0, 0)" stroke-linecap="round" stroke-linejoin="round" stroke-opacity="1.0" stroke-width="3.0"/>
    <path d="M 113.27189636230469 68.51187896728516 C 120.8302993774414 71.83157348632812 118.61351776123047 67.14329528808594 124.44768524169922 64.900634765625" fill="none" stroke="rgb(0, 0, 0)" stroke-linecap="round" stroke-linejoin="round" stroke-opacity="1.0" stroke-width="3.0"/>
    <path d="M 174.5697021484375 81.02133178710938 C 173.91384887695312 97.02106475830078 167.41680908203125 65.39627075195312 173.7053680419922 82.06673431396484" fill="none" stroke="rgb(0, 0, 0)" stroke-linecap="round" stroke-linejoin="round" stroke-opacity="1.0" stroke-width="3.0"/>
    <path d="M 126.95530700683594 164.98147583007812 C 152.71836853027344 167.02102661132812 129.88279724121094 169.2989959716797 160.55381774902344 171.2148895263672" fill="none" stroke="rgb(0, 0, 0)" stroke-linecap="round" stroke-linejoin="round" stroke-opacity="1.0" stroke-width="3.0"/>
    <path d="M 103.72615814208984 30.966272354125977 C 102.58270263671875 56.855960845947266 99.75054168701172 3.518803834915161 138.9578857421875 35.71316909790039" fill="none" stroke="rgb(0, 0, 0)" stroke-linecap="round" stroke-linejoin="round" stroke-opacity="1.0" stroke-width="3.0"/>
    <path d="M 135.72897338867188 47.20340347290039 C 139.03651428222656 21.763179779052734 141.43838500976562 39.713294982910156 141.21168518066406 57.21343231201172" fill="none" stroke="rgb(0, 0, 0)" stroke-linecap="round" stroke-linejoin="round" stroke-opacity="1.0" stroke-width="3.0"/>
  </g>
</svg>
