<?xml version="1.0" ?>
<svg height="224" version="1.1" width="224" xmlns="http://www.w3.org/2000/svg">
  <defs/>
  <g>
    <path d="M 99.2059097290039 150.47158813476562 C 119.32780456542969 156.80870056152344 37.323768615722656 90.08221435546875 101.64408874511719 52.448143005371094" fill="none" stroke="rgb(0, 0, 0)" stroke-linecap="round" stroke-linejoin="round" stroke-opacity="1.0" stroke-width="3.0"/>
    <path d="M 114.3355712890625 145.30979919433594 C 192.3000030517578 115.88670349121094 141.89210510253906 132.23318481445312 155.3865509033203 60.70929718017578" fill="none" stroke="rgb(0, 0, 0)" stroke-linecap="round" stroke-linejoin="round" stroke-opacity="1.0" stroke-width="3.0"/>
    <path d="M 138.3844451904297 50.0346565246582 C 184.462646484375 65.82904815673828 172.47552490234375 102.82781982421875 172.43304443359375 95.83306121826172" fill="none" stroke="rgb(0, 0, 0)" stroke-linecap="round" stroke-linejoin="round" stroke-opacity="1.0" stroke-width="3.0"/>
    <path d="M 137.258544921875 54.29208755493164 C 114.69014739990234 117.45536041259766 105.6842269897461 58.28707504272461 118.65473175048828 104.3080825805664" fill="none" stroke="rgb(0, 0, 0)" stroke-linecap="round" stroke-linejoin="round" stroke-opacity="1.0" stroke-width="3.0"/>
    <path d="M 128.87557983398438 30.341222763061523 C 146.18069458007812 36.147464752197266 137.9381103515625 105.12339782714844 119.70482635498047 93.47757720947266" fill="none" stroke="rgb(0, 0, 0)" stroke-linecap="round" stroke-linejoin="round" stroke-opacity="1.0" stroke-width="3.0"/>
    <path d="M 172.1984100341797 96.22401428222656 C 179.50306701660156 115.40508270263672 172.55755615234375 100.59580993652344 183.8597412109375 133.71144104003906" fill="none" stroke="rgb(0, 0, 0)" stroke-linecap="round" stroke-linejoin="round" stroke-opacity="1.0" stroke-width="3.0"/>
    <path d="M 122.69209289550781 98.36912536621094 C 100.72981262207031 67.46441650390625 83.0008544921875 46.47350311279297 114.97167205810547 29.98086929321289" fill="none" stroke="rgb(0, 0, 0)" stroke-linecap="round" stroke-linejoin="round" stroke-opacity="1.0" stroke-width="3.0"/>
    <path d="M 100.70831298828125 143.9647216796875 C 149.03384399414062 128.90057373046875 118.58490753173828 181.9277801513672 98.22929382324219 155.3346710205078" fill="none" stroke="rgb(0, 0, 0)" stroke-linecap="round" stroke-linejoin="round" stroke-opacity="1.0" stroke-width="3.0"/>
    <path d="M 195.3142852783203 126.64802551269531 C 187.14234924316406 154.5399932861328 212.35426330566406 147.86196899414062 168.4928741455078 171.87088012695312" fill="none" stroke="rgb(0, 0, 0)" stroke-linecap="round" stroke-linejoin="round" stroke-opacity="1.0" stroke-width="3.0"/>
    <path d="M 130.12232971191406 34.70864486694336 C 43.52798080444336 35.33126449584961 155.7271728515625 65.29769897460938 107.8428955078125 57.22077178955078" fill="none" stroke="rgb(0, 0, 0)" stroke-linecap="round" stroke-linejoin="round" stroke-opacity="1.0" stroke-width="3.0"/>
    <path d="M 168.13348388671875 147.5233612060547 C 185.90670776367188 133.5618133544922 174.88043212890625 145.5261688232422 195.44813537597656 119.95884704589844" fill="none" stroke="rgb(0, 0, 0)" stroke-linecap="round" stroke-linejoin="round" stroke-opacity="1.0" stroke-width="3.0"/>
    <path d="M 114.66035461425781 67.53052520751953 C 93.37039184570312 81.82379150390625 148.091064453125 72.5709228515625 124.42513275146484 68.03966522216797" fill="none" stroke="rgb(0, 0, 0)" stroke-linecap="round" stroke-linejoin="round" stroke-opacity="1.0" stroke-width="3.0"/>
    <path d="M 165.6979217529297 69.2019271850586 C 169.79298400878906 79.2309341430664 170.97116088867188 66.49368286132812 171.35205078125 81.25325775146484" fill="none" stroke="rgb(0, 0, 0)" stroke-linecap="round" stroke-linejoin="round" stroke-opacity="1.0" stroke-width="3.0"/>
    <path d="M 108.33816528320312 157.3265838623047 C 155.59217834472656 162.56459045410156 105.9165267944336 163.2887420654297 169.16232299804688 146.79583740234375" fill="none" stroke="rgb(0, 0, 0)" stroke-linecap="round" stroke-linejoin="round" stroke-opacity="1.0" stroke-width="3.0"/>
    <path d="M 122.24402618408203 29.301353454589844 C 66.16431427001953 68.02593994140625 131.23170471191406 -23.148433685302734 142.53341674804688 53.540283203125" fill="none" stroke="rgb(0, 0, 0)" stroke-linecap="round" stroke-linejoin="round" stroke-opacity="1.0" stroke-width="3.0"/>
    <path d="M 137.47879028320312 53.94578552246094 C 105.05078125 0.8652127981185913 161.2815704345703 63.941104888916016 127.11865997314453 54.64447784423828" fill="none" stroke="rgb(0, 0, 0)" stroke-linecap="round" stroke-linejoin="round" stroke-opacity="1.0" stroke-width="3.0"/>
  </g>
</svg>
