<?xml version="1.0" ?>
<svg height="224" version="1.1" width="224" xmlns="http://www.w3.org/2000/svg">
  <defs/>
  <g>
    <path d="M 100.07613372802734 152.87423706054688 C 124.08919525146484 159.2356719970703 33.545921325683594 88.50569152832031 102.42534637451172 51.68999099731445" fill="none" stroke="rgb(0, 0, 0)" stroke-linecap="round" stroke-linejoin="round" stroke-opacity="1.0" stroke-width="3.0"/>
    <path d="M 111.87923431396484 141.6278076171875 C 192.49966430664062 113.13900756835938 140.46514892578125 138.87539672851562 152.91061401367188 63.80070114135742" fill="none" stroke="rgb(0, 0, 0)" stroke-linecap="round" stroke-linejoin="round" stroke-opacity="1.0" stroke-width="3.0"/>
    <path d="M 138.73638916015625 49.685733795166016 C 182.22906494140625 62.38918685913086 168.8330078125 104.16311645507812 170.99050903320312 95.20187377929688" fill="none" stroke="rgb(0, 0, 0)" stroke-linecap="round" stroke-linejoin="round" stroke-opacity="1.0" stroke-width="3.0"/>
    <path d="M 130.9581298828125 55.30327606201172 C 118.75516510009766 115.37028503417969 101.53395080566406 56.49190139770508 117.47158813476562 102.58747863769531" fill="none" stroke="rgb(0, 0, 0)" stroke-linecap="round" stroke-linejoin="round" stroke-opacity="1.0" stroke-width="3.0"/>
    <path d="M 129.2004852294922 29.17246437072754 C 146.6657257080078 36.132164001464844 138.31210327148438 109.2357406616211 117.78534698486328 92.85018157958984" fill="none" stroke="rgb(0, 0, 0)" stroke-linecap="round" stroke-linejoin="round" stroke-opacity="1.0" stroke-width="3.0"/>
    <path d="M 169.2286834716797 95.93118286132812 C 176.29791259765625 115.36091613769531 168.87112426757812 101.90739440917969 180.19680786132812 132.94850158691406" fill="none" stroke="rgb(0, 0, 0)" stroke-linecap="round" stroke-linejoin="round" stroke-opacity="1.0" stroke-width="3.0"/>
    <path d="M 121.96009063720703 98.87882232666016 C 97.91786193847656 69.4912109375 80.0066909790039 46.47479248046875 113.5622787475586 28.300512313842773" fill="none" stroke="rgb(0, 0, 0)" stroke-linecap="round" stroke-linejoin="round" stroke-opacity="1.0" stroke-width="3.0"/>
    <path d="M 96.36827087402344 140.12867736816406 C 161.3496551513672 128.66880798339844 117.34123992919922 181.75408935546875 99.16620635986328 160.63681030273438" fill="none" stroke="rgb(0, 0, 0)" stroke-linecap="round" stroke-linejoin="round" stroke-opacity="1.0" stroke-width="3.0"/>
    <path d="M 195.7620391845703 123.07211303710938 C 186.90902709960938 151.24884033203125 218.11026000976562 148.24407958984375 171.50779724121094 172.99192810058594" fill="none" stroke="rgb(0, 0, 0)" stroke-linecap="round" stroke-linejoin="round" stroke-opacity="1.0" stroke-width="3.0"/>
    <path d="M 129.10690307617188 33.924800872802734 C 41.5306396484375 34.252952575683594 158.60342407226562 61.1665153503418 112.2084732055664 57.72446823120117" fill="none" stroke="rgb(0, 0, 0)" stroke-linecap="round" stroke-linejoin="round" stroke-opacity="1.0" stroke-width="3.0"/>
    <path d="M 166.29156494140625 146.503173828125 C 190.35098266601562 133.6670379638672 171.11593627929688 139.99314880371094 194.09230041503906 119.82579040527344" fill="none" stroke="rgb(0, 0, 0)" stroke-linecap="round" stroke-linejoin="round" stroke-opacity="1.0" stroke-width="3.0"/>
    <path d="M 111.47415161132812 66.7999038696289 C 93.07489013671875 81.5263900756836 146.31033325195312 74.68749237060547 121.81925964355469 67.11985778808594" fill="none" stroke="rgb(0, 0, 0)" stroke-linecap="round" stroke-linejoin="round" stroke-opacity="1.0" stroke-width="3.0"/>
    <path d="M 162.949951171875 67.92649841308594 C 168.116943359375 70.94131469726562 176.9819793701172 76.28455352783203 172.6701202392578 87.6624755859375" fill="none" stroke="rgb(0, 0, 0)" stroke-linecap="round" stroke-linejoin="round" stroke-opacity="1.0" stroke-width="3.0"/>
    <path d="M 106.49202728271484 161.59417724609375 C 153.9079132080078 168.70953369140625 100.97296142578125 165.20655822753906 171.72024536132812 145.3564910888672" fill="none" stroke="rgb(0, 0, 0)" stroke-linecap="round" stroke-linejoin="round" stroke-opacity="1.0" stroke-width="3.0"/>
    <path d="M 125.77210235595703 28.080759048461914 C 62.972251892089844 68.79354858398438 133.1350860595703 -25.339035034179688 143.49171447753906 56.297176361083984" fill="none" stroke="rgb(0, 0, 0)" stroke-linecap="round" stroke-linejoin="round" stroke-opacity="1.0" stroke-width="3.0"/>
    <path d="M 139.15020751953125 53.841312408447266 C 101.31649017333984 2.7664809226989746 158.10421752929688 62.5711669921875 132.17453002929688 61.17524337768555" fill="none" stroke="rgb(0, 0, 0)" stroke-linecap="round" stroke-linejoin="round" stroke-opacity="1.0" stroke-width="3.0"/>
  </g>
</svg>
