<?xml version="1.0" ?>
<svg height="224" version="1.1" width="224" xmlns="http://www.w3.org/2000/svg">
  <defs/>
  <g>
    <path d="M 98.51255798339844 155.24624633789062 C 128.6396026611328 167.96505737304688 34.915130615234375 86.84000396728516 93.12462615966797 54.42384338378906" fill="none" stroke="rgb(0, 0, 0)" stroke-linecap="round" stroke-linejoin="round" stroke-opacity="1.0" stroke-width="3.0"/>
    <path d="M 116.70726013183594 142.5039825439453 C 189.59397888183594 121.41773223876953 149.97462463378906 148.9293975830078 160.9025421142578 70.89732360839844" fill="none" stroke="rgb(0, 0, 0)" stroke-linecap="round" stroke-linejoin="round" stroke-opacity="1.0" stroke-width="3.0"/>
    <path d="M 138.9617156982422 51.04258728027344 C 178.63597106933594 60.62527847290039 168.56658935546875 107.63224029541016 170.59066772460938 95.73687744140625" fill="none" stroke="rgb(0, 0, 0)" stroke-linecap="round" stroke-linejoin="round" stroke-opacity="1.0" stroke-width="3.0"/>
    <path d="M 132.7530059814453 59.7059326171875 C 115.06832885742188 108.30647277832031 97.901611328125 55.366695404052734 117.78692626953125 103.15397644042969" fill="none" stroke="rgb(0, 0, 0)" stroke-linecap="round" stroke-linejoin="round" stroke-opacity="1.0" stroke-width="3.0"/>
    <path d="M 129.40438842773438 30.49090003967285 C 146.51461791992188 37.68309020996094 138.52102661132812 117.10234069824219 117.55448150634766 91.6498031616211" fill="none" stroke="rgb(0, 0, 0)" stroke-linecap="round" stroke-linejoin="round" stroke-opacity="1.0" stroke-width="3.0"/>
    <path d="M 170.75665283203125 96.59915924072266 C 178.95094299316406 114.20270538330078 169.4569854736328 98.83256530761719 183.78076171875 134.54034423828125" fill="none" stroke="rgb(0, 0, 0)" stroke-linecap="round" stroke-linejoin="round" stroke-opacity="1.0" stroke-width="3.0"/>
    <path d="M 118.54118347167969 96.77989959716797 C 102.67928314208984 71.46641540527344 88.563720703125 49.555294036865234 114.8223648071289 30.33513641357422" fill="none" stroke="rgb(0, 0, 0)" stroke-linecap="round" stroke-linejoin="round" stroke-opacity="1.0" stroke-width="3.0"/>
    <path d="M 97.31086730957031 139.62319946289062 C 161.43218994140625 130.0428009033203 113.13277435302734 182.3663787841797 98.73866271972656 160.39707946777344" fill="none" stroke="rgb(0, 0, 0)" stroke-linecap="round" stroke-linejoin="round" stroke-opacity="1.0" stroke-width="3.0"/>
    <path d="M 194.74459838867188 118.82234191894531 C 185.80470275878906 150.3303680419922 208.23934936523438 146.04238891601562 171.86044311523438 172.2583465576172" fill="none" stroke="rgb(0, 0, 0)" stroke-linecap="round" stroke-linejoin="round" stroke-opacity="1.0" stroke-width="3.0"/>
    <path d="M 125.88288879394531 35.93841552734375 C 39.13066101074219 39.33354949951172 158.4868621826172 61.13394546508789 114.9806900024414 57.84835433959961" fill="none" stroke="rgb(0, 0, 0)" stroke-linecap="round" stroke-linejoin="round" stroke-opacity="1.0" stroke-width="3.0"/>
    <path d="M 168.16476440429688 144.94224548339844 C 196.2944793701172 130.67747497558594 173.5972900390625 137.5831298828125 193.73806762695312 122.46511840820312" fill="none" stroke="rgb(0, 0, 0)" stroke-linecap="round" stroke-linejoin="round" stroke-opacity="1.0" stroke-width="3.0"/>
    <path d="M 106.78355407714844 60.5419807434082 C 86.18695068359375 81.30332946777344 148.46914672851562 77.66109466552734 119.53369140625 67.9417724609375" fill="none" stroke="rgb(0, 0, 0)" stroke-linecap="round" stroke-linejoin="round" stroke-opacity="1.0" stroke-width="3.0"/>
    <path d="M 164.65728759765625 70.64209747314453 C 164.53048706054688 71.46723937988281 177.0218963623047 74.05572509765625 172.32350158691406 91.0579605102539" fill="none" stroke="rgb(0, 0, 0)" stroke-linecap="round" stroke-linejoin="round" stroke-opacity="1.0" stroke-width="3.0"/>
    <path d="M 104.79288482666016 161.161376953125 C 143.05014038085938 169.25640869140625 89.04561614990234 159.7742919921875 169.54891967773438 144.24609375" fill="none" stroke="rgb(0, 0, 0)" stroke-linecap="round" stroke-linejoin="round" stroke-opacity="1.0" stroke-width="3.0"/>
    <path d="M 122.98651123046875 29.55436897277832 C 61.57982635498047 73.12677001953125 131.2528533935547 -26.6436767578125 142.1923370361328 53.996681213378906" fill="none" stroke="rgb(0, 0, 0)" stroke-linecap="round" stroke-linejoin="round" stroke-opacity="1.0" stroke-width="3.0"/>
    <path d="M 141.7161102294922 56.21448516845703 C 99.86518096923828 6.500657081604004 158.4205780029297 60.944881439208984 133.3959197998047 62.454498291015625" fill="none" stroke="rgb(0, 0, 0)" stroke-linecap="round" stroke-linejoin="round" stroke-opacity="1.0" stroke-width="3.0"/>
  </g>
</svg>
