<?xml version="1.0" ?>
<svg height="224" version="1.1" width="224" xmlns="http://www.w3.org/2000/svg">
  <defs/>
  <g>
    <path d="M 93.13026428222656 152.19711303710938 C 100.79063415527344 141.8597412109375 54.34858322143555 78.17201232910156 95.06143188476562 56.85844802856445" fill="none" stroke="rgb(0, 0, 0)" stroke-linecap="round" stroke-linejoin="round" stroke-opacity="1.0" stroke-width="3.0"/>
    <path d="M 118.9694595336914 139.13504028320312 C 191.3468017578125 128.0654296875 138.45526123046875 127.61742401123047 148.7836151123047 63.83369064331055" fill="none" stroke="rgb(0, 0, 0)" stroke-linecap="round" stroke-linejoin="round" stroke-opacity="1.0" stroke-width="3.0"/>
    <path d="M 136.7574920654297 50.10591506958008 C 188.7726287841797 73.6807632446289 172.89178466796875 94.53116607666016 173.80120849609375 95.26161193847656" fill="none" stroke="rgb(0, 0, 0)" stroke-linecap="round" stroke-linejoin="round" stroke-opacity="1.0" stroke-width="3.0"/>
    <path d="M 143.8804168701172 55.369197845458984 C 120.16834259033203 113.94100189208984 107.79826354980469 60.74130630493164 121.20507049560547 102.3362808227539" fill="none" stroke="rgb(0, 0, 0)" stroke-linecap="round" stroke-linejoin="round" stroke-opacity="1.0" stroke-width="3.0"/>
    <path d="M 131.036376953125 32.471351623535156 C 143.4591522216797 59.1616325378418 142.92063903808594 92.77021789550781 123.59226989746094 103.20991516113281" fill="none" stroke="rgb(0, 0, 0)" stroke-linecap="round" stroke-linejoin="round" stroke-opacity="1.0" stroke-width="3.0"/>
    <path d="M 174.11798095703125 95.33480072021484 C 180.19769287109375 106.15595245361328 173.1692657470703 98.7324447631836 188.74853515625 129.80123901367188" fill="none" stroke="rgb(0, 0, 0)" stroke-linecap="round" stroke-linejoin="round" stroke-opacity="1.0" stroke-width="3.0"/>
    <path d="M 126.75875091552734 100.37200927734375 C 100.91816711425781 67.1352767944336 88.11817932128906 57.25045394897461 111.01028442382812 28.794788360595703" fill="none" stroke="rgb(0, 0, 0)" stroke-linecap="round" stroke-linejoin="round" stroke-opacity="1.0" stroke-width="3.0"/>
    <path d="M 97.63224029541016 142.11607360839844 C 148.4921112060547 137.56500244140625 114.57101440429688 171.6302947998047 94.78311157226562 155.73683166503906" fill="none" stroke="rgb(0, 0, 0)" stroke-linecap="round" stroke-linejoin="round" stroke-opacity="1.0" stroke-width="3.0"/>
    <path d="M 194.8324737548828 121.12200927734375 C 187.0572967529297 152.0639190673828 204.76170349121094 148.90196228027344 171.84312438964844 170.3451385498047" fill="none" stroke="rgb(0, 0, 0)" stroke-linecap="round" stroke-linejoin="round" stroke-opacity="1.0" stroke-width="3.0"/>
    <path d="M 127.58927917480469 30.24690055847168 C 51.8458137512207 44.00129318237305 152.3615264892578 58.737422943115234 108.05789184570312 56.427242279052734" fill="none" stroke="rgb(0, 0, 0)" stroke-linecap="round" stroke-linejoin="round" stroke-opacity="1.0" stroke-width="3.0"/>
    <path d="M 167.25698852539062 153.1908416748047 C 187.91720581054688 135.42831420898438 171.20079040527344 160.1181182861328 194.59507751464844 117.27029418945312" fill="none" stroke="rgb(0, 0, 0)" stroke-linecap="round" stroke-linejoin="round" stroke-opacity="1.0" stroke-width="3.0"/>
    <path d="M 117.07240295410156 64.60189056396484 C 99.69802856445312 70.2469711303711 127.1246566772461 76.39835357666016 125.35712432861328 72.15055084228516" fill="none" stroke="rgb(0, 0, 0)" stroke-linecap="round" stroke-linejoin="round" stroke-opacity="1.0" stroke-width="3.0"/>
    <path d="M 156.23619079589844 61.561279296875 C 158.54708862304688 80.08126831054688 161.4693603515625 59.89460372924805 173.2018585205078 86.2570571899414" fill="none" stroke="rgb(0, 0, 0)" stroke-linecap="round" stroke-linejoin="round" stroke-opacity="1.0" stroke-width="3.0"/>
    <path d="M 99.58155059814453 151.0793914794922 C 173.35287475585938 166.92503356933594 154.894287109375 158.25250244140625 169.11962890625 152.2596435546875" fill="none" stroke="rgb(0, 0, 0)" stroke-linecap="round" stroke-linejoin="round" stroke-opacity="1.0" stroke-width="3.0"/>
    <path d="M 119.30860900878906 27.02478790283203 C 70.39986419677734 65.18492126464844 126.0740737915039 -17.659847259521484 142.53955078125 50.49065399169922" fill="none" stroke="rgb(0, 0, 0)" stroke-linecap="round" stroke-linejoin="round" stroke-opacity="1.0" stroke-width="3.0"/>
    <path d="M 137.8011016845703 53.553855895996094 C 117.50706481933594 17.536041259765625 161.2003936767578 62.03644561767578 126.15513610839844 56.87776184082031" fill="none" stroke="rgb(0, 0, 0)" stroke-linecap="round" stroke-linejoin="round" stroke-opacity="1.0" stroke-width="3.0"/>
  </g>
</svg>
