<?xml version="1.0" ?>
<svg height="224" version="1.1" width="224" xmlns="http://www.w3.org/2000/svg">
  <defs/>
  <g>
    <path d="M 86.24148559570312 139.01121520996094 C 97.84000396728516 126.71753692626953 69.13114929199219 61.65127182006836 97.86666107177734 58.75895690917969" fill="none" stroke="rgb(0, 0, 0)" stroke-linecap="round" stroke-linejoin="round" stroke-opacity="1.0" stroke-width="3.0"/>
    <path d="M 123.41404724121094 115.65326690673828 C 178.4356689453125 127.24468994140625 142.5764617919922 106.53697204589844 156.45916748046875 68.83065032958984" fill="none" stroke="rgb(0, 0, 0)" stroke-linecap="round" stroke-linejoin="round" stroke-opacity="1.0" stroke-width="3.0"/>
    <path d="M 134.05442810058594 48.87710189819336 C 194.87364196777344 77.85724639892578 167.18017578125 84.33735656738281 175.89700317382812 109.7507095336914" fill="none" stroke="rgb(0, 0, 0)" stroke-linecap="round" stroke-linejoin="round" stroke-opacity="1.0" stroke-width="3.0"/>
    <path d="M 135.41995239257812 63.617942810058594 C 120.22891235351562 108.44156646728516 106.23117065429688 73.16299438476562 122.61187744140625 103.05776977539062" fill="none" stroke="rgb(0, 0, 0)" stroke-linecap="round" stroke-linejoin="round" stroke-opacity="1.0" stroke-width="3.0"/>
    <path d="M 139.5248260498047 40.46257019042969 C 131.60108947753906 93.41291809082031 149.38339233398438 43.90634536743164 129.37335205078125 99.68018341064453" fill="none" stroke="rgb(0, 0, 0)" stroke-linecap="round" stroke-linejoin="round" stroke-opacity="1.0" stroke-width="3.0"/>
    <path d="M 173.6123809814453 109.78319549560547 C 146.3003387451172 117.53932189941406 168.10150146484375 98.98556518554688 156.83091735839844 125.2401123046875" fill="none" stroke="rgb(0, 0, 0)" stroke-linecap="round" stroke-linejoin="round" stroke-opacity="1.0" stroke-width="3.0"/>
    <path d="M 113.21365356445312 98.0020751953125 C 100.6522445678711 57.63019561767578 91.92257690429688 79.91321563720703 101.40628814697266 41.04763412475586" fill="none" stroke="rgb(0, 0, 0)" stroke-linecap="round" stroke-linejoin="round" stroke-opacity="1.0" stroke-width="3.0"/>
    <path d="M 119.16426849365234 166.8684844970703 C 100.14376831054688 168.999755859375 99.9853744506836 158.07476806640625 105.97897338867188 167.9172821044922" fill="none" stroke="rgb(0, 0, 0)" stroke-linecap="round" stroke-linejoin="round" stroke-opacity="1.0" stroke-width="3.0"/>
    <path d="M 193.4246826171875 115.25059509277344 C 186.61521911621094 173.3529052734375 197.21066284179688 159.22332763671875 165.6414031982422 171.66148376464844" fill="none" stroke="rgb(0, 0, 0)" stroke-linecap="round" stroke-linejoin="round" stroke-opacity="1.0" stroke-width="3.0"/>
    <path d="M 111.66130065917969 28.277395248413086 C 73.15984344482422 61.23923873901367 127.72052764892578 53.79106140136719 106.35177612304688 61.8919677734375" fill="none" stroke="rgb(0, 0, 0)" stroke-linecap="round" stroke-linejoin="round" stroke-opacity="1.0" stroke-width="3.0"/>
    <path d="M 181.44769287109375 144.76724243164062 C 193.85879516601562 129.7458953857422 187.42108154296875 136.999267578125 193.46617126464844 119.75782012939453" fill="none" stroke="rgb(0, 0, 0)" stroke-linecap="round" stroke-linejoin="round" stroke-opacity="1.0" stroke-width="3.0"/>
    <path d="M 110.23068237304688 71.72396087646484 C 116.98944091796875 76.49750518798828 118.93309783935547 71.67809295654297 119.64946746826172 72.017822265625" fill="none" stroke="rgb(0, 0, 0)" stroke-linecap="round" stroke-linejoin="round" stroke-opacity="1.0" stroke-width="3.0"/>
    <path d="M 158.40782165527344 59.90056610107422 C 167.0374755859375 79.0538101196289 166.2270050048828 58.67194747924805 173.9957275390625 81.0084457397461" fill="none" stroke="rgb(0, 0, 0)" stroke-linecap="round" stroke-linejoin="round" stroke-opacity="1.0" stroke-width="3.0"/>
    <path d="M 110.5461196899414 161.53347778320312 C 164.27320861816406 177.18975830078125 130.96319580078125 170.44932556152344 166.2477569580078 170.48509216308594" fill="none" stroke="rgb(0, 0, 0)" stroke-linecap="round" stroke-linejoin="round" stroke-opacity="1.0" stroke-width="3.0"/>
    <path d="M 98.1405258178711 37.010440826416016 C 88.04666900634766 73.47327423095703 106.32952880859375 -13.707192420959473 140.3889617919922 40.56489181518555" fill="none" stroke="rgb(0, 0, 0)" stroke-linecap="round" stroke-linejoin="round" stroke-opacity="1.0" stroke-width="3.0"/>
    <path d="M 139.71945190429688 47.83292770385742 C 116.25224304199219 12.744221687316895 167.8292236328125 62.528995513916016 119.33574676513672 54.07772445678711" fill="none" stroke="rgb(0, 0, 0)" stroke-linecap="round" stroke-linejoin="round" stroke-opacity="1.0" stroke-width="3.0"/>
  </g>
</svg>
