<?xml version="1.0" ?>
<svg height="224" version="1.1" width="224" xmlns="http://www.w3.org/2000/svg">
  <defs/>
  <g>
    <path d="M 85.86933135986328 140.82415771484375 C 98.6998519897461 138.09605407714844 57.2990837097168 69.94341278076172 93.79483795166016 58.621238708496094" fill="none" stroke="rgb(0, 0, 0)" stroke-linecap="round" stroke-linejoin="round" stroke-opacity="1.0" stroke-width="3.0"/>
    <path d="M 120.16027069091797 127.93077850341797 C 194.4703369140625 129.94952392578125 136.51602172851562 114.14246368408203 161.27581787109375 72.96670532226562" fill="none" stroke="rgb(0, 0, 0)" stroke-linecap="round" stroke-linejoin="round" stroke-opacity="1.0" stroke-width="3.0"/>
    <path d="M 135.31884765625 46.81389236450195 C 189.4217071533203 76.7581787109375 168.25665283203125 86.38927459716797 174.96250915527344 103.21427154541016" fill="none" stroke="rgb(0, 0, 0)" stroke-linecap="round" stroke-linejoin="round" stroke-opacity="1.0" stroke-width="3.0"/>
    <path d="M 136.05807495117188 56.572479248046875 C 113.57262420654297 109.40129089355469 102.55145263671875 63.275203704833984 122.81572723388672 101.06502532958984" fill="none" stroke="rgb(0, 0, 0)" stroke-linecap="round" stroke-linejoin="round" stroke-opacity="1.0" stroke-width="3.0"/>
    <path d="M 138.86048889160156 41.95257568359375 C 125.57062530517578 86.83302307128906 151.3555145263672 54.47991943359375 125.57743072509766 100.74725341796875" fill="none" stroke="rgb(0, 0, 0)" stroke-linecap="round" stroke-linejoin="round" stroke-opacity="1.0" stroke-width="3.0"/>
    <path d="M 171.90423583984375 103.99978637695312 C 162.2480010986328 113.64022827148438 157.63783264160156 99.14196014404297 165.18284606933594 128.5635986328125" fill="none" stroke="rgb(0, 0, 0)" stroke-linecap="round" stroke-linejoin="round" stroke-opacity="1.0" stroke-width="3.0"/>
    <path d="M 116.31110382080078 100.28003692626953 C 98.7234878540039 58.338680267333984 87.19676971435547 77.42459106445312 102.95818328857422 38.70516586303711" fill="none" stroke="rgb(0, 0, 0)" stroke-linecap="round" stroke-linejoin="round" stroke-opacity="1.0" stroke-width="3.0"/>
    <path d="M 119.21467590332031 166.1847686767578 C 110.98039245605469 169.43360900878906 95.87621307373047 167.23367309570312 96.6099624633789 165.5860595703125" fill="none" stroke="rgb(0, 0, 0)" stroke-linecap="round" stroke-linejoin="round" stroke-opacity="1.0" stroke-width="3.0"/>
    <path d="M 192.9337158203125 122.52276611328125 C 189.5533905029297 154.8240966796875 215.32064819335938 152.20030212402344 169.16265869140625 165.78184509277344" fill="none" stroke="rgb(0, 0, 0)" stroke-linecap="round" stroke-linejoin="round" stroke-opacity="1.0" stroke-width="3.0"/>
    <path d="M 119.74182891845703 30.35298728942871 C 59.46809387207031 57.36092758178711 130.33042907714844 54.723388671875 102.66351318359375 59.24541091918945" fill="none" stroke="rgb(0, 0, 0)" stroke-linecap="round" stroke-linejoin="round" stroke-opacity="1.0" stroke-width="3.0"/>
    <path d="M 178.00363159179688 142.38858032226562 C 190.2561492919922 126.1312026977539 183.80490112304688 142.23365783691406 195.1969757080078 117.021728515625" fill="none" stroke="rgb(0, 0, 0)" stroke-linecap="round" stroke-linejoin="round" stroke-opacity="1.0" stroke-width="3.0"/>
    <path d="M 111.09893798828125 71.75738525390625 C 118.50692749023438 75.88741302490234 114.28498077392578 73.55333709716797 122.33818817138672 71.27013397216797" fill="none" stroke="rgb(0, 0, 0)" stroke-linecap="round" stroke-linejoin="round" stroke-opacity="1.0" stroke-width="3.0"/>
    <path d="M 154.64134216308594 58.02089309692383 C 159.5514678955078 73.5081558227539 169.28219604492188 59.513607025146484 173.035888671875 87.9279556274414" fill="none" stroke="rgb(0, 0, 0)" stroke-linecap="round" stroke-linejoin="round" stroke-opacity="1.0" stroke-width="3.0"/>
    <path d="M 102.45533752441406 152.47288513183594 C 169.45675659179688 167.2295379638672 142.8431396484375 168.2041015625 165.64186096191406 165.67584228515625" fill="none" stroke="rgb(0, 0, 0)" stroke-linecap="round" stroke-linejoin="round" stroke-opacity="1.0" stroke-width="3.0"/>
    <path d="M 102.45259094238281 29.823020935058594 C 80.77706909179688 65.97917938232422 116.72371673583984 -11.64897632598877 141.7576141357422 41.283424377441406" fill="none" stroke="rgb(0, 0, 0)" stroke-linecap="round" stroke-linejoin="round" stroke-opacity="1.0" stroke-width="3.0"/>
    <path d="M 141.7895965576172 48.85572814941406 C 117.54837036132812 20.217941284179688 167.944580078125 55.73531723022461 119.92545318603516 55.27661895751953" fill="none" stroke="rgb(0, 0, 0)" stroke-linecap="round" stroke-linejoin="round" stroke-opacity="1.0" stroke-width="3.0"/>
  </g>
</svg>
