<?xml version="1.0" ?>
<svg height="224" version="1.1" width="224" xmlns="http://www.w3.org/2000/svg">
  <defs/>
  <g>
    <path d="M 96.70153045654297 152.0260009765625 C 114.50296020507812 158.1250762939453 41.858306884765625 91.97953796386719 100.5154800415039 51.28346252441406" fill="none" stroke="rgb(0, 0, 0)" stroke-linecap="round" stroke-linejoin="round" stroke-opacity="1.0" stroke-width="3.0"/>
    <path d="M 114.62708282470703 138.39114379882812 C 193.92474365234375 111.95892333984375 140.73794555664062 135.04788208007812 153.1725616455078 62.8848762512207" fill="none" stroke="rgb(0, 0, 0)" stroke-linecap="round" stroke-linejoin="round" stroke-opacity="1.0" stroke-width="3.0"/>
    <path d="M 129.658447265625 48.58463668823242 C 187.3305206298828 62.761810302734375 170.2964324951172 95.9324951171875 171.0961456298828 94.98955535888672" fill="none" stroke="rgb(0, 0, 0)" stroke-linecap="round" stroke-linejoin="round" stroke-opacity="1.0" stroke-width="3.0"/>
    <path d="M 144.2143096923828 54.65515899658203 C 116.73063659667969 115.12345886230469 108.26128387451172 58.4921760559082 121.2002944946289 99.15573120117188" fill="none" stroke="rgb(0, 0, 0)" stroke-linecap="round" stroke-linejoin="round" stroke-opacity="1.0" stroke-width="3.0"/>
    <path d="M 128.3383331298828 26.780561447143555 C 148.9154052734375 41.223453521728516 135.44374084472656 109.68224334716797 123.2745361328125 97.9140853881836" fill="none" stroke="rgb(0, 0, 0)" stroke-linecap="round" stroke-linejoin="round" stroke-opacity="1.0" stroke-width="3.0"/>
    <path d="M 170.01434326171875 94.29976654052734 C 177.31350708007812 113.63085174560547 169.69378662109375 103.44693756103516 181.57469177246094 133.03353881835938" fill="none" stroke="rgb(0, 0, 0)" stroke-linecap="round" stroke-linejoin="round" stroke-opacity="1.0" stroke-width="3.0"/>
    <path d="M 128.5308074951172 95.26605224609375 C 98.93669891357422 68.91117858886719 83.2173843383789 47.740638732910156 113.64922332763672 24.689878463745117" fill="none" stroke="rgb(0, 0, 0)" stroke-linecap="round" stroke-linejoin="round" stroke-opacity="1.0" stroke-width="3.0"/>
    <path d="M 94.62095642089844 140.48748779296875 C 158.61526489257812 119.54727935791016 113.04560852050781 178.4232940673828 99.36756134033203 157.95018005371094" fill="none" stroke="rgb(0, 0, 0)" stroke-linecap="round" stroke-linejoin="round" stroke-opacity="1.0" stroke-width="3.0"/>
    <path d="M 196.4607696533203 123.4651107788086 C 188.6483612060547 151.43081665039062 214.21585083007812 152.17625427246094 171.62069702148438 169.7725830078125" fill="none" stroke="rgb(0, 0, 0)" stroke-linecap="round" stroke-linejoin="round" stroke-opacity="1.0" stroke-width="3.0"/>
    <path d="M 125.85678100585938 33.750038146972656 C 48.17839813232422 34.62618637084961 148.3745574951172 61.86948776245117 108.22149658203125 54.86256408691406" fill="none" stroke="rgb(0, 0, 0)" stroke-linecap="round" stroke-linejoin="round" stroke-opacity="1.0" stroke-width="3.0"/>
    <path d="M 167.51373291015625 148.89439392089844 C 186.988525390625 137.34019470214844 170.6161346435547 146.5769805908203 194.9325408935547 119.70820617675781" fill="none" stroke="rgb(0, 0, 0)" stroke-linecap="round" stroke-linejoin="round" stroke-opacity="1.0" stroke-width="3.0"/>
    <path d="M 111.95410919189453 64.9587631225586 C 99.20333099365234 84.0334243774414 134.87255859375 73.92400360107422 121.37247467041016 71.7624282836914" fill="none" stroke="rgb(0, 0, 0)" stroke-linecap="round" stroke-linejoin="round" stroke-opacity="1.0" stroke-width="3.0"/>
    <path d="M 165.65682983398438 68.96612548828125 C 166.9811553955078 81.98210144042969 163.9368438720703 71.61753845214844 172.5077667236328 89.69403839111328" fill="none" stroke="rgb(0, 0, 0)" stroke-linecap="round" stroke-linejoin="round" stroke-opacity="1.0" stroke-width="3.0"/>
    <path d="M 106.40271759033203 156.860595703125 C 157.72994995117188 161.887451171875 123.0279541015625 163.58102416992188 168.7560272216797 148.99563598632812" fill="none" stroke="rgb(0, 0, 0)" stroke-linecap="round" stroke-linejoin="round" stroke-opacity="1.0" stroke-width="3.0"/>
    <path d="M 124.56669616699219 28.033658981323242 C 65.06890106201172 62.48155975341797 131.17030334472656 -19.223533630371094 141.68238830566406 51.830387115478516" fill="none" stroke="rgb(0, 0, 0)" stroke-linecap="round" stroke-linejoin="round" stroke-opacity="1.0" stroke-width="3.0"/>
    <path d="M 138.48043823242188 55.914955139160156 C 112.04632568359375 7.659735202789307 160.29673767089844 66.88233184814453 126.9878158569336 56.681549072265625" fill="none" stroke="rgb(0, 0, 0)" stroke-linecap="round" stroke-linejoin="round" stroke-opacity="1.0" stroke-width="3.0"/>
  </g>
</svg>
