<?xml version="1.0" ?>
<svg height="224" version="1.1" width="224" xmlns="http://www.w3.org/2000/svg">
  <defs/>
  <g>
    <path d="M 95.25536346435547 155.12123107910156 C 108.21891021728516 151.39804077148438 47.98915100097656 79.67951965332031 100.19818878173828 55.3892707824707" fill="none" stroke="rgb(0, 0, 0)" stroke-linecap="round" stroke-linejoin="round" stroke-opacity="1.0" stroke-width="3.0"/>
    <path d="M 113.94844818115234 135.07992553710938 C 192.3058624267578 111.77691650390625 137.78189086914062 129.61572265625 150.7913055419922 63.417720794677734" fill="none" stroke="rgb(0, 0, 0)" stroke-linecap="round" stroke-linejoin="round" stroke-opacity="1.0" stroke-width="3.0"/>
    <path d="M 134.92127990722656 51.35380935668945 C 189.89291381835938 67.83106231689453 171.3774871826172 95.19464874267578 172.56314086914062 96.31913757324219" fill="none" stroke="rgb(0, 0, 0)" stroke-linecap="round" stroke-linejoin="round" stroke-opacity="1.0" stroke-width="3.0"/>
    <path d="M 141.75369262695312 53.674530029296875 C 112.52810668945312 113.7251205444336 108.53459167480469 61.37218475341797 121.9930191040039 98.06320190429688" fill="none" stroke="rgb(0, 0, 0)" stroke-linecap="round" stroke-linejoin="round" stroke-opacity="1.0" stroke-width="3.0"/>
    <path d="M 130.13209533691406 35.91657257080078 C 142.71902465820312 51.9567756652832 138.22439575195312 103.9610595703125 122.72369384765625 97.5678939819336" fill="none" stroke="rgb(0, 0, 0)" stroke-linecap="round" stroke-linejoin="round" stroke-opacity="1.0" stroke-width="3.0"/>
    <path d="M 172.29725646972656 93.74246215820312 C 178.04722595214844 109.14883422851562 172.8885040283203 101.42359161376953 182.2566375732422 129.20310974121094" fill="none" stroke="rgb(0, 0, 0)" stroke-linecap="round" stroke-linejoin="round" stroke-opacity="1.0" stroke-width="3.0"/>
    <path d="M 128.32366943359375 95.30946350097656 C 100.61544799804688 74.43763732910156 89.62651824951172 47.38663101196289 115.29947662353516 29.23542594909668" fill="none" stroke="rgb(0, 0, 0)" stroke-linecap="round" stroke-linejoin="round" stroke-opacity="1.0" stroke-width="3.0"/>
    <path d="M 95.43905639648438 139.35104370117188 C 157.9345245361328 124.29254150390625 113.52156066894531 173.20802307128906 100.0169677734375 161.08355712890625" fill="none" stroke="rgb(0, 0, 0)" stroke-linecap="round" stroke-linejoin="round" stroke-opacity="1.0" stroke-width="3.0"/>
    <path d="M 195.1167449951172 121.27367401123047 C 185.70751953125 151.91302490234375 209.68019104003906 147.9973602294922 169.85557556152344 170.8101806640625" fill="none" stroke="rgb(0, 0, 0)" stroke-linecap="round" stroke-linejoin="round" stroke-opacity="1.0" stroke-width="3.0"/>
    <path d="M 125.53217315673828 35.72208786010742 C 50.660926818847656 45.01365280151367 155.22512817382812 60.84282302856445 106.07394409179688 57.078857421875" fill="none" stroke="rgb(0, 0, 0)" stroke-linecap="round" stroke-linejoin="round" stroke-opacity="1.0" stroke-width="3.0"/>
    <path d="M 168.4210968017578 152.85874938964844 C 187.59512329101562 136.28485107421875 172.580078125 152.6450958251953 192.923828125 118.90872955322266" fill="none" stroke="rgb(0, 0, 0)" stroke-linecap="round" stroke-linejoin="round" stroke-opacity="1.0" stroke-width="3.0"/>
    <path d="M 112.75438690185547 66.28514862060547 C 93.2109375 80.02833557128906 144.87208557128906 77.7283935546875 120.36717987060547 67.69200897216797" fill="none" stroke="rgb(0, 0, 0)" stroke-linecap="round" stroke-linejoin="round" stroke-opacity="1.0" stroke-width="3.0"/>
    <path d="M 163.04190063476562 65.27153015136719 C 165.5138397216797 82.91057586669922 163.49838256835938 64.3447265625 171.30726623535156 87.41148376464844" fill="none" stroke="rgb(0, 0, 0)" stroke-linecap="round" stroke-linejoin="round" stroke-opacity="1.0" stroke-width="3.0"/>
    <path d="M 104.9531021118164 156.80104064941406 C 176.66452026367188 163.67356872558594 146.8412322998047 161.39385986328125 168.5911865234375 152.46124267578125" fill="none" stroke="rgb(0, 0, 0)" stroke-linecap="round" stroke-linejoin="round" stroke-opacity="1.0" stroke-width="3.0"/>
    <path d="M 122.56717681884766 29.075929641723633 C 73.78155517578125 65.62640380859375 128.0140838623047 -17.426504135131836 139.32766723632812 53.30421829223633" fill="none" stroke="rgb(0, 0, 0)" stroke-linecap="round" stroke-linejoin="round" stroke-opacity="1.0" stroke-width="3.0"/>
    <path d="M 136.02569580078125 49.69044494628906 C 109.94597625732422 18.64029312133789 153.87184143066406 64.96662139892578 126.19927215576172 58.452430725097656" fill="none" stroke="rgb(0, 0, 0)" stroke-linecap="round" stroke-linejoin="round" stroke-opacity="1.0" stroke-width="3.0"/>
  </g>
</svg>
