<?xml version="1.0" ?>
<svg height="224" version="1.1" width="224" xmlns="http://www.w3.org/2000/svg">
  <defs/>
  <g>
    <path d="M 87.3900146484375 148.45350646972656 C 96.92900848388672 145.0592498779297 56.47543716430664 66.99573516845703 93.02381896972656 58.23845672607422" fill="none" stroke="rgb(0, 0, 0)" stroke-linecap="round" stroke-linejoin="round" stroke-opacity="1.0" stroke-width="3.0"/>
    <path d="M 125.62040710449219 133.11227416992188 C 200.4586944580078 129.97291564941406 133.85665893554688 111.54480743408203 156.0284881591797 67.85843658447266" fill="none" stroke="rgb(0, 0, 0)" stroke-linecap="round" stroke-linejoin="round" stroke-opacity="1.0" stroke-width="3.0"/>
    <path d="M 133.48048400878906 46.80222702026367 C 192.3525848388672 74.01834869384766 167.9071807861328 83.77046203613281 176.71469116210938 100.22964477539062" fill="none" stroke="rgb(0, 0, 0)" stroke-linecap="round" stroke-linejoin="round" stroke-opacity="1.0" stroke-width="3.0"/>
    <path d="M 136.4480438232422 63.709896087646484 C 116.07775115966797 107.72505187988281 98.26807403564453 62.43409729003906 123.07858276367188 97.42481994628906" fill="none" stroke="rgb(0, 0, 0)" stroke-linecap="round" stroke-linejoin="round" stroke-opacity="1.0" stroke-width="3.0"/>
    <path d="M 139.35189819335938 42.40925979614258 C 120.67144012451172 90.9476547241211 147.9181671142578 56.83860778808594 126.25604248046875 97.61542510986328" fill="none" stroke="rgb(0, 0, 0)" stroke-linecap="round" stroke-linejoin="round" stroke-opacity="1.0" stroke-width="3.0"/>
    <path d="M 172.76028442382812 103.67630767822266 C 157.9364471435547 113.05512237548828 163.07391357421875 99.8282699584961 165.3004150390625 132.90956115722656" fill="none" stroke="rgb(0, 0, 0)" stroke-linecap="round" stroke-linejoin="round" stroke-opacity="1.0" stroke-width="3.0"/>
    <path d="M 117.59635162353516 99.9327163696289 C 98.99614715576172 57.975494384765625 82.69125366210938 75.05577087402344 102.20862579345703 37.38179016113281" fill="none" stroke="rgb(0, 0, 0)" stroke-linecap="round" stroke-linejoin="round" stroke-opacity="1.0" stroke-width="3.0"/>
    <path d="M 117.71561431884766 157.46829223632812 C 106.05357360839844 168.3314208984375 96.96410369873047 161.24476623535156 102.45092010498047 164.62010192871094" fill="none" stroke="rgb(0, 0, 0)" stroke-linecap="round" stroke-linejoin="round" stroke-opacity="1.0" stroke-width="3.0"/>
    <path d="M 193.94924926757812 119.94058990478516 C 186.39244079589844 154.73538208007812 212.50331115722656 149.2769317626953 168.78790283203125 171.23960876464844" fill="none" stroke="rgb(0, 0, 0)" stroke-linecap="round" stroke-linejoin="round" stroke-opacity="1.0" stroke-width="3.0"/>
    <path d="M 122.75379943847656 33.611026763916016 C 57.345672607421875 53.184547424316406 123.07903289794922 50.54086685180664 99.70848083496094 57.43585205078125" fill="none" stroke="rgb(0, 0, 0)" stroke-linecap="round" stroke-linejoin="round" stroke-opacity="1.0" stroke-width="3.0"/>
    <path d="M 180.98385620117188 143.96170043945312 C 191.51580810546875 132.4954071044922 184.96652221679688 139.8599853515625 192.70166015625 116.6012954711914" fill="none" stroke="rgb(0, 0, 0)" stroke-linecap="round" stroke-linejoin="round" stroke-opacity="1.0" stroke-width="3.0"/>
    <path d="M 111.66602325439453 70.81652069091797 C 122.12123107910156 74.71295166015625 114.57278442382812 71.83121490478516 121.91252136230469 70.72331237792969" fill="none" stroke="rgb(0, 0, 0)" stroke-linecap="round" stroke-linejoin="round" stroke-opacity="1.0" stroke-width="3.0"/>
    <path d="M 155.40283203125 60.71503448486328 C 160.14389038085938 71.14762115478516 170.64137268066406 57.35853958129883 174.69351196289062 87.21729278564453" fill="none" stroke="rgb(0, 0, 0)" stroke-linecap="round" stroke-linejoin="round" stroke-opacity="1.0" stroke-width="3.0"/>
    <path d="M 97.90308380126953 157.64309692382812 C 176.72412109375 173.2781524658203 142.08229064941406 171.9011688232422 166.75477600097656 167.73788452148438" fill="none" stroke="rgb(0, 0, 0)" stroke-linecap="round" stroke-linejoin="round" stroke-opacity="1.0" stroke-width="3.0"/>
    <path d="M 99.59674072265625 31.74552345275879 C 84.21228790283203 67.88196563720703 112.01335144042969 -13.329264640808105 142.05984497070312 42.37507629394531" fill="none" stroke="rgb(0, 0, 0)" stroke-linecap="round" stroke-linejoin="round" stroke-opacity="1.0" stroke-width="3.0"/>
    <path d="M 141.10467529296875 48.72431564331055 C 115.70022583007812 22.213119506835938 168.4755859375 54.73166275024414 119.75254821777344 57.067039489746094" fill="none" stroke="rgb(0, 0, 0)" stroke-linecap="round" stroke-linejoin="round" stroke-opacity="1.0" stroke-width="3.0"/>
  </g>
</svg>
