<?xml version="1.0" ?>
<svg height="224" version="1.1" width="224" xmlns="http://www.w3.org/2000/svg">
  <defs/>
  <g>
    <path d="M 79.89592742919922 135.14300537109375 C 91.54296875 138.35169982910156 59.10748291015625 63.878074645996094 95.44750213623047 55.959922790527344" fill="none" stroke="rgb(0, 0, 0)" stroke-linecap="round" stroke-linejoin="round" stroke-opacity="1.0" stroke-width="3.0"/>
    <path d="M 119.86044311523438 120.47401428222656 C 189.75047302246094 117.12648010253906 135.78688049316406 116.19033813476562 154.2288360595703 67.03369140625" fill="none" stroke="rgb(0, 0, 0)" stroke-linecap="round" stroke-linejoin="round" stroke-opacity="1.0" stroke-width="3.0"/>
    <path d="M 134.07546997070312 46.535552978515625 C 182.0128631591797 69.40250396728516 168.08407592773438 78.4621353149414 171.85255432128906 102.09784698486328" fill="none" stroke="rgb(0, 0, 0)" stroke-linecap="round" stroke-linejoin="round" stroke-opacity="1.0" stroke-width="3.0"/>
    <path d="M 139.85574340820312 56.36436462402344 C 117.036865234375 108.84724426269531 102.7549057006836 61.8325080871582 123.8614730834961 95.80070495605469" fill="none" stroke="rgb(0, 0, 0)" stroke-linecap="round" stroke-linejoin="round" stroke-opacity="1.0" stroke-width="3.0"/>
    <path d="M 138.30596923828125 39.31373977661133 C 130.00836181640625 77.37364196777344 145.8730926513672 74.15702819824219 126.93403625488281 96.65095520019531" fill="none" stroke="rgb(0, 0, 0)" stroke-linecap="round" stroke-linejoin="round" stroke-opacity="1.0" stroke-width="3.0"/>
    <path d="M 171.9053497314453 107.13626098632812 C 173.38845825195312 99.88483428955078 171.2154541015625 93.77279663085938 180.40928649902344 129.10491943359375" fill="none" stroke="rgb(0, 0, 0)" stroke-linecap="round" stroke-linejoin="round" stroke-opacity="1.0" stroke-width="3.0"/>
    <path d="M 114.97673034667969 96.40882110595703 C 102.84612274169922 53.26500701904297 85.4427490234375 78.57492065429688 107.9175796508789 31.352218627929688" fill="none" stroke="rgb(0, 0, 0)" stroke-linecap="round" stroke-linejoin="round" stroke-opacity="1.0" stroke-width="3.0"/>
    <path d="M 104.58270263671875 151.29080200195312 C 131.00430297851562 166.324462890625 92.20579528808594 161.6437225341797 95.04908752441406 157.906005859375" fill="none" stroke="rgb(0, 0, 0)" stroke-linecap="round" stroke-linejoin="round" stroke-opacity="1.0" stroke-width="3.0"/>
    <path d="M 193.4447479248047 123.47280883789062 C 187.92356872558594 158.61463928222656 211.7021484375 144.32180786132812 168.40328979492188 170.02174377441406" fill="none" stroke="rgb(0, 0, 0)" stroke-linecap="round" stroke-linejoin="round" stroke-opacity="1.0" stroke-width="3.0"/>
    <path d="M 125.08536529541016 30.97747039794922 C 57.17603302001953 51.4754524230957 139.7222137451172 53.79180145263672 105.10808563232422 55.237762451171875" fill="none" stroke="rgb(0, 0, 0)" stroke-linecap="round" stroke-linejoin="round" stroke-opacity="1.0" stroke-width="3.0"/>
    <path d="M 181.3556365966797 151.6213836669922 C 189.65953063964844 132.9787139892578 169.57447814941406 145.00741577148438 194.33413696289062 120.54277038574219" fill="none" stroke="rgb(0, 0, 0)" stroke-linecap="round" stroke-linejoin="round" stroke-opacity="1.0" stroke-width="3.0"/>
    <path d="M 113.70257568359375 71.891357421875 C 113.67459869384766 73.6900634765625 121.34744262695312 72.62915802001953 122.75172424316406 70.37340545654297" fill="none" stroke="rgb(0, 0, 0)" stroke-linecap="round" stroke-linejoin="round" stroke-opacity="1.0" stroke-width="3.0"/>
    <path d="M 157.09695434570312 60.54105758666992 C 160.54830932617188 68.11175537109375 170.85801696777344 61.29257583618164 174.94647216796875 87.06342315673828" fill="none" stroke="rgb(0, 0, 0)" stroke-linecap="round" stroke-linejoin="round" stroke-opacity="1.0" stroke-width="3.0"/>
    <path d="M 103.1260986328125 157.04527282714844 C 171.6526336669922 164.8221893310547 143.36814880371094 168.74159240722656 177.3215789794922 162.8419189453125" fill="none" stroke="rgb(0, 0, 0)" stroke-linecap="round" stroke-linejoin="round" stroke-opacity="1.0" stroke-width="3.0"/>
    <path d="M 115.22128295898438 26.32832908630371 C 73.0779800415039 71.7517318725586 118.65554809570312 -15.524831771850586 139.62039184570312 40.979759216308594" fill="none" stroke="rgb(0, 0, 0)" stroke-linecap="round" stroke-linejoin="round" stroke-opacity="1.0" stroke-width="3.0"/>
    <path d="M 140.2890167236328 48.98788070678711 C 117.31136322021484 17.3309383392334 165.5393829345703 57.17030334472656 122.67372131347656 52.256038665771484" fill="none" stroke="rgb(0, 0, 0)" stroke-linecap="round" stroke-linejoin="round" stroke-opacity="1.0" stroke-width="3.0"/>
  </g>
</svg>
