<?xml version="1.0" ?>
<svg height="224" version="1.1" width="224" xmlns="http://www.w3.org/2000/svg">
  <defs/>
  <g>
    <path d="M 85.5487289428711 135.876708984375 C 97.08474731445312 137.098876953125 67.04606628417969 63.10646438598633 96.9945297241211 56.33444595336914" fill="none" stroke="rgb(0, 0, 0)" stroke-linecap="round" stroke-linejoin="round" stroke-opacity="1.0" stroke-width="3.0"/>
    <path d="M 120.28490447998047 137.209228515625 C 190.84884643554688 135.0577850341797 135.44908142089844 122.2426986694336 150.31675720214844 62.05349349975586" fill="none" stroke="rgb(0, 0, 0)" stroke-linecap="round" stroke-linejoin="round" stroke-opacity="1.0" stroke-width="3.0"/>
    <path d="M 134.19729614257812 52.682071685791016 C 181.4949188232422 64.20185089111328 169.70252990722656 79.05927276611328 181.67147827148438 101.12606811523438" fill="none" stroke="rgb(0, 0, 0)" stroke-linecap="round" stroke-linejoin="round" stroke-opacity="1.0" stroke-width="3.0"/>
    <path d="M 143.4690399169922 58.30320739746094 C 113.41358947753906 110.17813110351562 108.58226013183594 63.427207946777344 123.73339080810547 97.6972885131836" fill="none" stroke="rgb(0, 0, 0)" stroke-linecap="round" stroke-linejoin="round" stroke-opacity="1.0" stroke-width="3.0"/>
    <path d="M 142.1318817138672 46.749332427978516 C 131.02272033691406 75.80654907226562 145.53189086914062 73.48584747314453 128.44557189941406 96.74769592285156" fill="none" stroke="rgb(0, 0, 0)" stroke-linecap="round" stroke-linejoin="round" stroke-opacity="1.0" stroke-width="3.0"/>
    <path d="M 182.3909149169922 100.75247192382812 C 180.0113525390625 101.07232666015625 177.11355590820312 93.44585418701172 186.12356567382812 127.5903549194336" fill="none" stroke="rgb(0, 0, 0)" stroke-linecap="round" stroke-linejoin="round" stroke-opacity="1.0" stroke-width="3.0"/>
    <path d="M 121.35552978515625 97.6617431640625 C 104.97279357910156 55.92137908935547 86.66561889648438 79.9574966430664 114.36931610107422 29.880298614501953" fill="none" stroke="rgb(0, 0, 0)" stroke-linecap="round" stroke-linejoin="round" stroke-opacity="1.0" stroke-width="3.0"/>
    <path d="M 106.67459869384766 143.05654907226562 C 146.52293395996094 154.29930114746094 96.842041015625 170.12969970703125 94.0039291381836 160.41758728027344" fill="none" stroke="rgb(0, 0, 0)" stroke-linecap="round" stroke-linejoin="round" stroke-opacity="1.0" stroke-width="3.0"/>
    <path d="M 194.9833221435547 120.86763763427734 C 184.3938446044922 158.34280395507812 211.4122314453125 145.17405700683594 174.7532196044922 169.27804565429688" fill="none" stroke="rgb(0, 0, 0)" stroke-linecap="round" stroke-linejoin="round" stroke-opacity="1.0" stroke-width="3.0"/>
    <path d="M 125.82989501953125 32.67794418334961 C 59.691978454589844 51.517845153808594 140.35397338867188 60.42788314819336 109.00119018554688 60.142154693603516" fill="none" stroke="rgb(0, 0, 0)" stroke-linecap="round" stroke-linejoin="round" stroke-opacity="1.0" stroke-width="3.0"/>
    <path d="M 175.45394897460938 160.56539916992188 C 193.62538146972656 133.8538360595703 169.01846313476562 147.55650329589844 191.55921936035156 119.82015991210938" fill="none" stroke="rgb(0, 0, 0)" stroke-linecap="round" stroke-linejoin="round" stroke-opacity="1.0" stroke-width="3.0"/>
    <path d="M 113.0574722290039 70.04985046386719 C 111.98477935791016 73.0845947265625 122.33993530273438 73.74018096923828 123.075927734375 72.08624267578125" fill="none" stroke="rgb(0, 0, 0)" stroke-linecap="round" stroke-linejoin="round" stroke-opacity="1.0" stroke-width="3.0"/>
    <path d="M 161.02883911132812 62.28187561035156 C 161.0922088623047 71.4162826538086 170.08279418945312 64.21289825439453 174.119873046875 90.49026489257812" fill="none" stroke="rgb(0, 0, 0)" stroke-linecap="round" stroke-linejoin="round" stroke-opacity="1.0" stroke-width="3.0"/>
    <path d="M 104.79759216308594 153.39283752441406 C 176.16026306152344 163.66900634765625 153.34954833984375 164.0389862060547 177.04103088378906 159.29396057128906" fill="none" stroke="rgb(0, 0, 0)" stroke-linecap="round" stroke-linejoin="round" stroke-opacity="1.0" stroke-width="3.0"/>
    <path d="M 119.96751403808594 27.72328758239746 C 73.47633361816406 69.79019927978516 118.14144134521484 -13.823771476745605 140.4430389404297 42.673614501953125" fill="none" stroke="rgb(0, 0, 0)" stroke-linecap="round" stroke-linejoin="round" stroke-opacity="1.0" stroke-width="3.0"/>
    <path d="M 139.60415649414062 51.07758331298828 C 115.92508697509766 17.687381744384766 164.13790893554688 60.756614685058594 124.70355224609375 58.02812957763672" fill="none" stroke="rgb(0, 0, 0)" stroke-linecap="round" stroke-linejoin="round" stroke-opacity="1.0" stroke-width="3.0"/>
  </g>
</svg>
