<?xml version="1.0" ?>
<svg height="224" version="1.1" width="224" xmlns="http://www.w3.org/2000/svg">
  <defs/>
  <g>
    <path d="M 84.86725616455078 130.46035766601562 C 89.92731475830078 84.30532836914062 71.1016616821289 81.40557098388672 90.82655334472656 57.92560958862305" fill="none" stroke="rgb(0, 0, 0)" stroke-linecap="round" stroke-linejoin="round" stroke-opacity="1.0" stroke-width="3.0"/>
    <path d="M 122.14215850830078 124.94222259521484 C 147.13233947753906 125.68224334716797 146.55380249023438 122.43490600585938 159.979736328125 109.28816986083984" fill="none" stroke="rgb(0, 0, 0)" stroke-linecap="round" stroke-linejoin="round" stroke-opacity="1.0" stroke-width="3.0"/>
    <path d="M 163.87002563476562 75.3775634765625 C 158.01480102539062 105.90153503417969 164.7332763671875 83.22926330566406 161.26683044433594 116.66500854492188" fill="none" stroke="rgb(0, 0, 0)" stroke-linecap="round" stroke-linejoin="round" stroke-opacity="1.0" stroke-width="3.0"/>
    <path d="M 142.09031677246094 72.10862731933594 C 129.67437744140625 101.74854278564453 112.65422821044922 75.34343719482422 125.8688735961914 94.75770568847656" fill="none" stroke="rgb(0, 0, 0)" stroke-linecap="round" stroke-linejoin="round" stroke-opacity="1.0" stroke-width="3.0"/>
    <path d="M 142.5019989013672 53.32041549682617 C 148.6920928955078 65.02616882324219 141.9365997314453 46.29957962036133 137.26229858398438 81.08181762695312" fill="none" stroke="rgb(0, 0, 0)" stroke-linecap="round" stroke-linejoin="round" stroke-opacity="1.0" stroke-width="3.0"/>
    <path d="M 157.0547637939453 121.2285385131836 C 162.3238067626953 131.2364959716797 161.0191192626953 135.41680908203125 160.9179229736328 127.20574951171875" fill="none" stroke="rgb(0, 0, 0)" stroke-linecap="round" stroke-linejoin="round" stroke-opacity="1.0" stroke-width="3.0"/>
    <path d="M 129.47340393066406 90.5196762084961 C 106.26214599609375 75.84246063232422 112.4019546508789 87.1393814086914 99.9488525390625 55.44101333618164" fill="none" stroke="rgb(0, 0, 0)" stroke-linecap="round" stroke-linejoin="round" stroke-opacity="1.0" stroke-width="3.0"/>
    <path d="M 100.80722045898438 158.53768920898438 C 85.42548370361328 158.85533142089844 99.68730163574219 160.9953155517578 104.8594970703125 164.96327209472656" fill="none" stroke="rgb(0, 0, 0)" stroke-linecap="round" stroke-linejoin="round" stroke-opacity="1.0" stroke-width="3.0"/>
    <path d="M 173.41067504882812 170.49559020996094 C 170.36924743652344 170.40646362304688 180.88670349121094 164.78724670410156 162.8247833251953 172.62850952148438" fill="none" stroke="rgb(0, 0, 0)" stroke-linecap="round" stroke-linejoin="round" stroke-opacity="1.0" stroke-width="3.0"/>
    <path d="M 97.8355712890625 49.00135040283203 C 95.95103454589844 56.34522247314453 103.00895690917969 50.597023010253906 110.01861572265625 56.987403869628906" fill="none" stroke="rgb(0, 0, 0)" stroke-linecap="round" stroke-linejoin="round" stroke-opacity="1.0" stroke-width="3.0"/>
    <path d="M 186.31077575683594 146.36343383789062 C 187.6671905517578 144.46792602539062 188.18370056152344 146.51068115234375 180.6713104248047 148.78089904785156" fill="none" stroke="rgb(0, 0, 0)" stroke-linecap="round" stroke-linejoin="round" stroke-opacity="1.0" stroke-width="3.0"/>
    <path d="M 112.76811981201172 69.30575561523438 C 118.84420013427734 73.18865966796875 119.33988189697266 70.07655334472656 123.617431640625 68.63789367675781" fill="none" stroke="rgb(0, 0, 0)" stroke-linecap="round" stroke-linejoin="round" stroke-opacity="1.0" stroke-width="3.0"/>
    <path d="M 169.498291015625 75.70853424072266 C 177.21914672851562 102.71099853515625 172.80357360839844 83.23542022705078 173.29258728027344 87.41545867919922" fill="none" stroke="rgb(0, 0, 0)" stroke-linecap="round" stroke-linejoin="round" stroke-opacity="1.0" stroke-width="3.0"/>
    <path d="M 149.8289337158203 157.8205108642578 C 151.8039093017578 172.94198608398438 142.30093383789062 147.84645080566406 155.1571044921875 166.9988555908203" fill="none" stroke="rgb(0, 0, 0)" stroke-linecap="round" stroke-linejoin="round" stroke-opacity="1.0" stroke-width="3.0"/>
    <path d="M 98.65621948242188 45.54290008544922 C 106.88357543945312 47.240604400634766 88.87702941894531 34.52476501464844 117.00068664550781 22.786930084228516" fill="none" stroke="rgb(0, 0, 0)" stroke-linecap="round" stroke-linejoin="round" stroke-opacity="1.0" stroke-width="3.0"/>
    <path d="M 135.06126403808594 44.406982421875 C 121.05699157714844 26.625234603881836 139.8258514404297 37.389671325683594 136.6087188720703 51.855167388916016" fill="none" stroke="rgb(0, 0, 0)" stroke-linecap="round" stroke-linejoin="round" stroke-opacity="1.0" stroke-width="3.0"/>
  </g>
</svg>
