<?xml version="1.0" ?>
<svg height="224" version="1.1" width="224" xmlns="http://www.w3.org/2000/svg">
  <defs/>
  <g>
    <path d="M 83.01524353027344 138.9075164794922 C 90.04883575439453 132.5767059326172 59.42055892944336 62.16519546508789 97.60680389404297 60.61258316040039" fill="none" stroke="rgb(0, 0, 0)" stroke-linecap="round" stroke-linejoin="round" stroke-opacity="1.0" stroke-width="3.0"/>
    <path d="M 123.60743713378906 117.04193878173828 C 184.5093536376953 131.12844848632812 141.27549743652344 109.95095825195312 157.2696533203125 70.36772918701172" fill="none" stroke="rgb(0, 0, 0)" stroke-linecap="round" stroke-linejoin="round" stroke-opacity="1.0" stroke-width="3.0"/>
    <path d="M 134.90599060058594 41.79942321777344 C 190.45840454101562 81.36698150634766 166.55477905273438 85.66915893554688 174.8642578125 102.80681610107422" fill="none" stroke="rgb(0, 0, 0)" stroke-linecap="round" stroke-linejoin="round" stroke-opacity="1.0" stroke-width="3.0"/>
    <path d="M 139.19866943359375 61.74159622192383 C 124.07584381103516 112.18417358398438 104.57926177978516 76.44605255126953 125.13870239257812 101.99271392822266" fill="none" stroke="rgb(0, 0, 0)" stroke-linecap="round" stroke-linejoin="round" stroke-opacity="1.0" stroke-width="3.0"/>
    <path d="M 142.0751190185547 42.37567901611328 C 133.48226928710938 91.20610809326172 151.94088745117188 44.15242385864258 130.3296661376953 103.5948257446289" fill="none" stroke="rgb(0, 0, 0)" stroke-linecap="round" stroke-linejoin="round" stroke-opacity="1.0" stroke-width="3.0"/>
    <path d="M 174.75660705566406 103.38660430908203 C 149.25 110.89309692382812 178.65003967285156 99.9262924194336 160.12318420410156 123.9125747680664" fill="none" stroke="rgb(0, 0, 0)" stroke-linecap="round" stroke-linejoin="round" stroke-opacity="1.0" stroke-width="3.0"/>
    <path d="M 115.27983856201172 95.49180603027344 C 98.1689682006836 61.84278106689453 89.37588500976562 80.38298034667969 100.5298080444336 47.499534606933594" fill="none" stroke="rgb(0, 0, 0)" stroke-linecap="round" stroke-linejoin="round" stroke-opacity="1.0" stroke-width="3.0"/>
    <path d="M 120.68595123291016 164.57818603515625 C 101.68771362304688 170.65554809570312 98.35780334472656 158.95828247070312 106.1989517211914 168.63064575195312" fill="none" stroke="rgb(0, 0, 0)" stroke-linecap="round" stroke-linejoin="round" stroke-opacity="1.0" stroke-width="3.0"/>
    <path d="M 192.8002471923828 114.8028564453125 C 187.48484802246094 172.3321990966797 199.50160217285156 158.55921936035156 165.1766357421875 172.3743133544922" fill="none" stroke="rgb(0, 0, 0)" stroke-linecap="round" stroke-linejoin="round" stroke-opacity="1.0" stroke-width="3.0"/>
    <path d="M 112.74410247802734 31.13640022277832 C 72.1443099975586 60.79863357543945 125.7608871459961 55.5028076171875 105.26518249511719 60.262535095214844" fill="none" stroke="rgb(0, 0, 0)" stroke-linecap="round" stroke-linejoin="round" stroke-opacity="1.0" stroke-width="3.0"/>
    <path d="M 181.37725830078125 145.95147705078125 C 192.97991943359375 131.8903350830078 183.19554138183594 134.19705200195312 192.6558380126953 117.15025329589844" fill="none" stroke="rgb(0, 0, 0)" stroke-linecap="round" stroke-linejoin="round" stroke-opacity="1.0" stroke-width="3.0"/>
    <path d="M 109.95985412597656 72.79830169677734 C 119.55441284179688 77.8586196899414 118.44279479980469 72.77295684814453 120.24650573730469 72.87201690673828" fill="none" stroke="rgb(0, 0, 0)" stroke-linecap="round" stroke-linejoin="round" stroke-opacity="1.0" stroke-width="3.0"/>
    <path d="M 158.02406311035156 62.40245056152344 C 168.02085876464844 73.14781188964844 165.4506378173828 60.89107131958008 173.2763671875 82.76768493652344" fill="none" stroke="rgb(0, 0, 0)" stroke-linecap="round" stroke-linejoin="round" stroke-opacity="1.0" stroke-width="3.0"/>
    <path d="M 111.26079559326172 160.8886260986328 C 167.9144744873047 175.36767578125 134.16529846191406 170.90451049804688 167.6871337890625 171.67738342285156" fill="none" stroke="rgb(0, 0, 0)" stroke-linecap="round" stroke-linejoin="round" stroke-opacity="1.0" stroke-width="3.0"/>
    <path d="M 100.0221939086914 34.6781005859375 C 88.89524841308594 74.51952362060547 109.73682403564453 -14.651718139648438 140.05345153808594 40.628231048583984" fill="none" stroke="rgb(0, 0, 0)" stroke-linecap="round" stroke-linejoin="round" stroke-opacity="1.0" stroke-width="3.0"/>
    <path d="M 143.75531005859375 45.729881286621094 C 117.06627655029297 14.753035545349121 167.1045684814453 67.75656127929688 123.16796112060547 60.309329986572266" fill="none" stroke="rgb(0, 0, 0)" stroke-linecap="round" stroke-linejoin="round" stroke-opacity="1.0" stroke-width="3.0"/>
  </g>
</svg>
