<?xml version="1.0" ?>
<svg height="224" version="1.1" width="224" xmlns="http://www.w3.org/2000/svg">
  <defs/>
  <g>
    <path d="M 81.83763885498047 138.3157501220703 C 87.43167114257812 118.52557373046875 66.35416412353516 69.57067108154297 95.07902526855469 61.680763244628906" fill="none" stroke="rgb(0, 0, 0)" stroke-linecap="round" stroke-linejoin="round" stroke-opacity="1.0" stroke-width="3.0"/>
    <path d="M 115.85331726074219 124.83434295654297 C 151.0287322998047 126.50235748291016 156.3909454345703 118.4245834350586 172.05780029296875 106.02677917480469" fill="none" stroke="rgb(0, 0, 0)" stroke-linecap="round" stroke-linejoin="round" stroke-opacity="1.0" stroke-width="3.0"/>
    <path d="M 152.0841522216797 59.48992919921875 C 185.59593200683594 79.55941772460938 167.75128173828125 75.91531372070312 178.63119506835938 116.27985382080078" fill="none" stroke="rgb(0, 0, 0)" stroke-linecap="round" stroke-linejoin="round" stroke-opacity="1.0" stroke-width="3.0"/>
    <path d="M 131.42218017578125 69.31369018554688 C 117.03065490722656 97.05523681640625 101.28683471679688 66.24018859863281 127.56676483154297 95.53150939941406" fill="none" stroke="rgb(0, 0, 0)" stroke-linecap="round" stroke-linejoin="round" stroke-opacity="1.0" stroke-width="3.0"/>
    <path d="M 139.6552734375 46.00843048095703 C 155.41683959960938 79.29644775390625 143.92247009277344 43.158775329589844 131.94119262695312 94.08096313476562" fill="none" stroke="rgb(0, 0, 0)" stroke-linecap="round" stroke-linejoin="round" stroke-opacity="1.0" stroke-width="3.0"/>
    <path d="M 176.91050720214844 116.69324493408203 C 159.1034393310547 123.13489532470703 172.38214111328125 120.62913513183594 155.84356689453125 122.35102081298828" fill="none" stroke="rgb(0, 0, 0)" stroke-linecap="round" stroke-linejoin="round" stroke-opacity="1.0" stroke-width="3.0"/>
    <path d="M 120.11742401123047 92.90898895263672 C 91.76753234863281 48.86368179321289 109.30101776123047 90.26107788085938 97.36968231201172 40.04114532470703" fill="none" stroke="rgb(0, 0, 0)" stroke-linecap="round" stroke-linejoin="round" stroke-opacity="1.0" stroke-width="3.0"/>
    <path d="M 113.64422607421875 166.50074768066406 C 94.65071105957031 164.6372833251953 98.0019760131836 163.89352416992188 107.05089569091797 165.41851806640625" fill="none" stroke="rgb(0, 0, 0)" stroke-linecap="round" stroke-linejoin="round" stroke-opacity="1.0" stroke-width="3.0"/>
    <path d="M 193.738525390625 157.67514038085938 C 174.98150634765625 172.33177185058594 181.49285888671875 161.13803100585938 165.50494384765625 172.43968200683594" fill="none" stroke="rgb(0, 0, 0)" stroke-linecap="round" stroke-linejoin="round" stroke-opacity="1.0" stroke-width="3.0"/>
    <path d="M 101.57630157470703 33.610713958740234 C 88.39922332763672 56.000213623046875 105.66790771484375 50.6539421081543 110.04175567626953 56.6441650390625" fill="none" stroke="rgb(0, 0, 0)" stroke-linecap="round" stroke-linejoin="round" stroke-opacity="1.0" stroke-width="3.0"/>
    <path d="M 190.9293670654297 157.9677276611328 C 194.04225158691406 150.9879913330078 188.34800720214844 167.7506561279297 189.61334228515625 154.6879119873047" fill="none" stroke="rgb(0, 0, 0)" stroke-linecap="round" stroke-linejoin="round" stroke-opacity="1.0" stroke-width="3.0"/>
    <path d="M 112.68071746826172 70.03814697265625 C 120.01824951171875 74.59854888916016 119.89892578125 67.23358917236328 123.19864654541016 68.23360443115234" fill="none" stroke="rgb(0, 0, 0)" stroke-linecap="round" stroke-linejoin="round" stroke-opacity="1.0" stroke-width="3.0"/>
    <path d="M 169.9403533935547 74.97307586669922 C 171.51315307617188 102.32660675048828 171.08352661132812 67.04280853271484 169.2470703125 84.63370513916016" fill="none" stroke="rgb(0, 0, 0)" stroke-linecap="round" stroke-linejoin="round" stroke-opacity="1.0" stroke-width="3.0"/>
    <path d="M 113.42527770996094 162.5688934326172 C 164.64938354492188 170.74400329589844 129.0196533203125 169.0318145751953 164.8189239501953 172.84552001953125" fill="none" stroke="rgb(0, 0, 0)" stroke-linecap="round" stroke-linejoin="round" stroke-opacity="1.0" stroke-width="3.0"/>
    <path d="M 101.87211608886719 37.3473014831543 C 100.32542419433594 73.96479797363281 90.41470336914062 -0.23859652876853943 137.43072509765625 30.678007125854492" fill="none" stroke="rgb(0, 0, 0)" stroke-linecap="round" stroke-linejoin="round" stroke-opacity="1.0" stroke-width="3.0"/>
    <path d="M 137.45774841308594 37.89250946044922 C 129.97738647460938 23.201175689697266 148.99147033691406 36.21688461303711 140.48338317871094 62.21128845214844" fill="none" stroke="rgb(0, 0, 0)" stroke-linecap="round" stroke-linejoin="round" stroke-opacity="1.0" stroke-width="3.0"/>
  </g>
</svg>
