<?xml version="1.0" ?>
<svg height="224" version="1.1" width="224" xmlns="http://www.w3.org/2000/svg">
  <defs/>
  <g>
    <path d="M 81.78771209716797 141.7008056640625 C 88.65592956542969 138.68885803222656 56.77280044555664 66.46332550048828 97.06675720214844 55.637542724609375" fill="none" stroke="rgb(0, 0, 0)" stroke-linecap="round" stroke-linejoin="round" stroke-opacity="1.0" stroke-width="3.0"/>
    <path d="M 119.3865737915039 140.7997283935547 C 194.01036071777344 131.30738830566406 137.19692993164062 125.48432922363281 147.90126037597656 62.2439079284668" fill="none" stroke="rgb(0, 0, 0)" stroke-linecap="round" stroke-linejoin="round" stroke-opacity="1.0" stroke-width="3.0"/>
    <path d="M 135.125 52.33982467651367 C 183.26222229003906 63.288936614990234 171.29464721679688 83.85419464111328 181.6039276123047 101.44393157958984" fill="none" stroke="rgb(0, 0, 0)" stroke-linecap="round" stroke-linejoin="round" stroke-opacity="1.0" stroke-width="3.0"/>
    <path d="M 140.92510986328125 56.95956039428711 C 115.76738739013672 110.43035888671875 109.75894165039062 62.821292877197266 124.6312484741211 97.70990753173828" fill="none" stroke="rgb(0, 0, 0)" stroke-linecap="round" stroke-linejoin="round" stroke-opacity="1.0" stroke-width="3.0"/>
    <path d="M 134.7877197265625 42.5459098815918 C 135.9103546142578 72.40128326416016 143.81980895996094 70.81851196289062 128.10377502441406 97.02520751953125" fill="none" stroke="rgb(0, 0, 0)" stroke-linecap="round" stroke-linejoin="round" stroke-opacity="1.0" stroke-width="3.0"/>
    <path d="M 180.855224609375 99.24541473388672 C 183.04171752929688 100.7675552368164 177.436279296875 93.95008087158203 187.02696228027344 128.2483367919922" fill="none" stroke="rgb(0, 0, 0)" stroke-linecap="round" stroke-linejoin="round" stroke-opacity="1.0" stroke-width="3.0"/>
    <path d="M 120.45093536376953 96.81944274902344 C 103.41761016845703 56.08782958984375 84.76774597167969 77.1414566040039 113.47775268554688 29.91327476501465" fill="none" stroke="rgb(0, 0, 0)" stroke-linecap="round" stroke-linejoin="round" stroke-opacity="1.0" stroke-width="3.0"/>
    <path d="M 100.38843536376953 141.38116455078125 C 157.8568572998047 143.3960723876953 107.3355712890625 167.8536834716797 97.56120300292969 161.32391357421875" fill="none" stroke="rgb(0, 0, 0)" stroke-linecap="round" stroke-linejoin="round" stroke-opacity="1.0" stroke-width="3.0"/>
    <path d="M 194.59063720703125 120.12551879882812 C 184.78590393066406 152.90264892578125 210.88995361328125 150.43182373046875 172.57667541503906 165.51661682128906" fill="none" stroke="rgb(0, 0, 0)" stroke-linecap="round" stroke-linejoin="round" stroke-opacity="1.0" stroke-width="3.0"/>
    <path d="M 128.02540588378906 34.021751403808594 C 56.88561248779297 43.65056610107422 146.79977416992188 57.575199127197266 108.38081359863281 55.628360748291016" fill="none" stroke="rgb(0, 0, 0)" stroke-linecap="round" stroke-linejoin="round" stroke-opacity="1.0" stroke-width="3.0"/>
    <path d="M 174.5186004638672 156.69224548339844 C 190.77037048339844 136.1595001220703 168.0618896484375 157.78753662109375 194.2268524169922 117.74348449707031" fill="none" stroke="rgb(0, 0, 0)" stroke-linecap="round" stroke-linejoin="round" stroke-opacity="1.0" stroke-width="3.0"/>
    <path d="M 115.0388412475586 68.56367492675781 C 111.12518310546875 73.32820892333984 120.68123626708984 73.8744888305664 123.54409790039062 71.5447006225586" fill="none" stroke="rgb(0, 0, 0)" stroke-linecap="round" stroke-linejoin="round" stroke-opacity="1.0" stroke-width="3.0"/>
    <path d="M 155.1212158203125 63.185203552246094 C 161.6044158935547 80.87449645996094 164.1509246826172 64.58688354492188 172.73062133789062 88.4231948852539" fill="none" stroke="rgb(0, 0, 0)" stroke-linecap="round" stroke-linejoin="round" stroke-opacity="1.0" stroke-width="3.0"/>
    <path d="M 97.57271575927734 151.16751098632812 C 177.6748046875 165.59674072265625 156.09593200683594 159.84259033203125 174.46697998046875 157.63525390625" fill="none" stroke="rgb(0, 0, 0)" stroke-linecap="round" stroke-linejoin="round" stroke-opacity="1.0" stroke-width="3.0"/>
    <path d="M 122.00972747802734 29.39670753479004 C 71.52595520019531 71.18527221679688 121.44365692138672 -14.541707992553711 141.40432739257812 46.046791076660156" fill="none" stroke="rgb(0, 0, 0)" stroke-linecap="round" stroke-linejoin="round" stroke-opacity="1.0" stroke-width="3.0"/>
    <path d="M 139.30023193359375 52.57295227050781 C 116.11209106445312 21.45185089111328 160.03140258789062 62.40106964111328 126.8316421508789 58.873863220214844" fill="none" stroke="rgb(0, 0, 0)" stroke-linecap="round" stroke-linejoin="round" stroke-opacity="1.0" stroke-width="3.0"/>
  </g>
</svg>
