<?xml version="1.0" ?>
<svg height="224" version="1.1" width="224" xmlns="http://www.w3.org/2000/svg">
  <defs/>
  <g>
    <path d="M 83.896484375 138.34153747558594 C 93.9130859375 115.79998779296875 64.74819946289062 66.6498794555664 93.50362396240234 55.37346649169922" fill="none" stroke="rgb(0, 0, 0)" stroke-linecap="round" stroke-linejoin="round" stroke-opacity="1.0" stroke-width="3.0"/>
    <path d="M 124.14740753173828 122.80326843261719 C 151.0244903564453 124.44180297851562 153.150634765625 119.75422668457031 171.48495483398438 92.48616790771484" fill="none" stroke="rgb(0, 0, 0)" stroke-linecap="round" stroke-linejoin="round" stroke-opacity="1.0" stroke-width="3.0"/>
    <path d="M 144.74070739746094 53.013912200927734 C 188.3834991455078 75.11054229736328 165.7800750732422 84.34733581542969 180.20242309570312 115.37379455566406" fill="none" stroke="rgb(0, 0, 0)" stroke-linecap="round" stroke-linejoin="round" stroke-opacity="1.0" stroke-width="3.0"/>
    <path d="M 133.53103637695312 71.2673110961914 C 121.91791534423828 99.88069152832031 102.4675521850586 64.04078674316406 125.2560043334961 96.74374389648438" fill="none" stroke="rgb(0, 0, 0)" stroke-linecap="round" stroke-linejoin="round" stroke-opacity="1.0" stroke-width="3.0"/>
    <path d="M 137.17227172851562 44.99380874633789 C 148.4096221923828 82.65126037597656 142.58607482910156 47.84483337402344 132.91256713867188 95.98863220214844" fill="none" stroke="rgb(0, 0, 0)" stroke-linecap="round" stroke-linejoin="round" stroke-opacity="1.0" stroke-width="3.0"/>
    <path d="M 176.70556640625 111.3374252319336 C 158.89627075195312 120.03507232666016 168.32589721679688 119.05547332763672 152.41249084472656 123.01738739013672" fill="none" stroke="rgb(0, 0, 0)" stroke-linecap="round" stroke-linejoin="round" stroke-opacity="1.0" stroke-width="3.0"/>
    <path d="M 121.95714569091797 96.14173126220703 C 91.31751251220703 49.760005950927734 108.0099868774414 89.58784484863281 96.64348602294922 45.660091400146484" fill="none" stroke="rgb(0, 0, 0)" stroke-linecap="round" stroke-linejoin="round" stroke-opacity="1.0" stroke-width="3.0"/>
    <path d="M 118.07532501220703 167.94235229492188 C 93.19097900390625 170.57281494140625 95.76715087890625 166.9934539794922 103.65953826904297 169.98983764648438" fill="none" stroke="rgb(0, 0, 0)" stroke-linecap="round" stroke-linejoin="round" stroke-opacity="1.0" stroke-width="3.0"/>
    <path d="M 194.04312133789062 143.40142822265625 C 186.0579376220703 175.14797973632812 185.07774353027344 163.35836791992188 165.89361572265625 171.30043029785156" fill="none" stroke="rgb(0, 0, 0)" stroke-linecap="round" stroke-linejoin="round" stroke-opacity="1.0" stroke-width="3.0"/>
    <path d="M 101.55038452148438 33.04967498779297 C 88.337646484375 61.364410400390625 119.48238372802734 51.55917739868164 107.78862762451172 58.57347106933594" fill="none" stroke="rgb(0, 0, 0)" stroke-linecap="round" stroke-linejoin="round" stroke-opacity="1.0" stroke-width="3.0"/>
    <path d="M 191.44845581054688 156.69151306152344 C 197.03260803222656 149.59640502929688 185.01478576660156 161.76611328125 192.93661499023438 158.32247924804688" fill="none" stroke="rgb(0, 0, 0)" stroke-linecap="round" stroke-linejoin="round" stroke-opacity="1.0" stroke-width="3.0"/>
    <path d="M 113.00053405761719 67.64261627197266 C 119.78675842285156 73.37911224365234 117.87977600097656 67.6458740234375 123.72285461425781 66.4564208984375" fill="none" stroke="rgb(0, 0, 0)" stroke-linecap="round" stroke-linejoin="round" stroke-opacity="1.0" stroke-width="3.0"/>
    <path d="M 169.9212646484375 76.00735473632812 C 167.7239990234375 102.30620574951172 172.4562530517578 64.80152893066406 171.8362579345703 85.78895568847656" fill="none" stroke="rgb(0, 0, 0)" stroke-linecap="round" stroke-linejoin="round" stroke-opacity="1.0" stroke-width="3.0"/>
    <path d="M 119.66332244873047 164.19590759277344 C 165.44952392578125 171.86663818359375 134.1566925048828 163.99258422851562 164.78688049316406 171.06561279296875" fill="none" stroke="rgb(0, 0, 0)" stroke-linecap="round" stroke-linejoin="round" stroke-opacity="1.0" stroke-width="3.0"/>
    <path d="M 102.7345962524414 35.76699447631836 C 100.57109832763672 83.6856918334961 87.13372802734375 0.42314228415489197 135.14694213867188 30.666242599487305" fill="none" stroke="rgb(0, 0, 0)" stroke-linecap="round" stroke-linejoin="round" stroke-opacity="1.0" stroke-width="3.0"/>
    <path d="M 137.04388427734375 41.784061431884766 C 128.38560485839844 25.036653518676758 147.30520629882812 33.34776306152344 137.5780029296875 60.50014114379883" fill="none" stroke="rgb(0, 0, 0)" stroke-linecap="round" stroke-linejoin="round" stroke-opacity="1.0" stroke-width="3.0"/>
  </g>
</svg>
