<?xml version="1.0" ?>
<svg height="224" version="1.1" width="224" xmlns="http://www.w3.org/2000/svg">
  <defs/>
  <g>
    <path d="M 79.18399810791016 109.78048706054688 C 83.14737701416016 82.14422607421875 75.77537536621094 78.74954986572266 83.53489685058594 67.94966888427734" fill="none" stroke="rgb(0, 0, 0)" stroke-linecap="round" stroke-linejoin="round" stroke-opacity="1.0" stroke-width="3.0"/>
    <path d="M 129.620849609375 121.78644561767578 C 144.4233856201172 120.0296859741211 132.4593963623047 123.28739166259766 151.86827087402344 119.12740325927734" fill="none" stroke="rgb(0, 0, 0)" stroke-linecap="round" stroke-linejoin="round" stroke-opacity="1.0" stroke-width="3.0"/>
    <path d="M 150.1908416748047 91.71891784667969 C 150.39596557617188 109.89888000488281 152.12896728515625 104.41934967041016 157.1813201904297 119.70233154296875" fill="none" stroke="rgb(0, 0, 0)" stroke-linecap="round" stroke-linejoin="round" stroke-opacity="1.0" stroke-width="3.0"/>
    <path d="M 133.70741271972656 82.59622955322266 C 126.27338409423828 106.66256713867188 114.02271270751953 87.95060729980469 121.4259262084961 100.09586334228516" fill="none" stroke="rgb(0, 0, 0)" stroke-linecap="round" stroke-linejoin="round" stroke-opacity="1.0" stroke-width="3.0"/>
    <path d="M 141.96249389648438 66.27144622802734 C 134.1550750732422 77.12311553955078 141.03053283691406 69.25066375732422 142.73011779785156 77.42935943603516" fill="none" stroke="rgb(0, 0, 0)" stroke-linecap="round" stroke-linejoin="round" stroke-opacity="1.0" stroke-width="3.0"/>
    <path d="M 172.1787567138672 116.62903594970703 C 167.26478576660156 113.80110168457031 169.95724487304688 108.31727600097656 167.5540008544922 118.38423156738281" fill="none" stroke="rgb(0, 0, 0)" stroke-linecap="round" stroke-linejoin="round" stroke-opacity="1.0" stroke-width="3.0"/>
    <path d="M 109.06478118896484 82.56260681152344 C 103.61027526855469 76.61663055419922 111.12059783935547 85.91749572753906 99.86846923828125 67.89409637451172" fill="none" stroke="rgb(0, 0, 0)" stroke-linecap="round" stroke-linejoin="round" stroke-opacity="1.0" stroke-width="3.0"/>
    <path d="M 94.77845764160156 140.59779357910156 C 88.67974090576172 130.0843963623047 97.33377838134766 150.08172607421875 92.42581939697266 155.9644317626953" fill="none" stroke="rgb(0, 0, 0)" stroke-linecap="round" stroke-linejoin="round" stroke-opacity="1.0" stroke-width="3.0"/>
    <path d="M 178.51773071289062 166.51724243164062 C 172.2972412109375 160.85890197753906 172.6328125 151.4751434326172 174.460205078125 165.02365112304688" fill="none" stroke="rgb(0, 0, 0)" stroke-linecap="round" stroke-linejoin="round" stroke-opacity="1.0" stroke-width="3.0"/>
    <path d="M 100.46290588378906 61.112186431884766 C 97.5821304321289 69.7912826538086 98.40033721923828 68.22953033447266 112.04544067382812 75.58502960205078" fill="none" stroke="rgb(0, 0, 0)" stroke-linecap="round" stroke-linejoin="round" stroke-opacity="1.0" stroke-width="3.0"/>
    <path d="M 178.4462127685547 147.62527465820312 C 180.77023315429688 134.83514404296875 185.98484802246094 134.94154357910156 174.14111328125 149.25839233398438" fill="none" stroke="rgb(0, 0, 0)" stroke-linecap="round" stroke-linejoin="round" stroke-opacity="1.0" stroke-width="3.0"/>
    <path d="M 114.12879943847656 83.30216217041016 C 117.40835571289062 79.90165710449219 126.79727172851562 79.40567016601562 128.6898956298828 72.43862915039062" fill="none" stroke="rgb(0, 0, 0)" stroke-linecap="round" stroke-linejoin="round" stroke-opacity="1.0" stroke-width="3.0"/>
    <path d="M 176.9853057861328 92.55574798583984 C 176.30157470703125 95.2242431640625 173.0942840576172 83.23194885253906 176.49659729003906 101.91846466064453" fill="none" stroke="rgb(0, 0, 0)" stroke-linecap="round" stroke-linejoin="round" stroke-opacity="1.0" stroke-width="3.0"/>
    <path d="M 143.50340270996094 156.58460998535156 C 150.61241149902344 167.9556884765625 147.2494354248047 171.69496154785156 151.4391632080078 173.25265502929688" fill="none" stroke="rgb(0, 0, 0)" stroke-linecap="round" stroke-linejoin="round" stroke-opacity="1.0" stroke-width="3.0"/>
    <path d="M 97.79451751708984 49.96097946166992 C 104.53076171875 31.450029373168945 96.7043685913086 40.76612091064453 110.46975708007812 27.493391036987305" fill="none" stroke="rgb(0, 0, 0)" stroke-linecap="round" stroke-linejoin="round" stroke-opacity="1.0" stroke-width="3.0"/>
    <path d="M 131.64537048339844 35.61347961425781 C 112.24848937988281 29.90021324157715 131.52391052246094 26.11425018310547 140.81961059570312 44.349571228027344" fill="none" stroke="rgb(0, 0, 0)" stroke-linecap="round" stroke-linejoin="round" stroke-opacity="1.0" stroke-width="3.0"/>
  </g>
</svg>
