<?xml version="1.0" ?>
<svg height="224" version="1.1" width="224" xmlns="http://www.w3.org/2000/svg">
  <defs/>
  <g>
    <path d="M 84.06776428222656 139.9436798095703 C 92.02239227294922 118.86808013916016 64.4027099609375 70.1279067993164 94.68673706054688 55.209190368652344" fill="none" stroke="rgb(0, 0, 0)" stroke-linecap="round" stroke-linejoin="round" stroke-opacity="1.0" stroke-width="3.0"/>
    <path d="M 124.4250717163086 126.35836029052734 C 151.0360870361328 124.20089721679688 153.74095153808594 119.91814422607422 171.89608764648438 95.57861328125" fill="none" stroke="rgb(0, 0, 0)" stroke-linecap="round" stroke-linejoin="round" stroke-opacity="1.0" stroke-width="3.0"/>
    <path d="M 144.35972595214844 52.8266487121582 C 186.98110961914062 78.42823028564453 167.3687744140625 82.54236602783203 180.28854370117188 115.2249526977539" fill="none" stroke="rgb(0, 0, 0)" stroke-linecap="round" stroke-linejoin="round" stroke-opacity="1.0" stroke-width="3.0"/>
    <path d="M 132.25022888183594 71.53767395019531 C 123.19779205322266 102.11537170410156 101.99235534667969 65.77519226074219 126.01669311523438 94.9384536743164" fill="none" stroke="rgb(0, 0, 0)" stroke-linecap="round" stroke-linejoin="round" stroke-opacity="1.0" stroke-width="3.0"/>
    <path d="M 137.7455291748047 46.93525695800781 C 152.47398376464844 82.16974639892578 143.63040161132812 47.06698989868164 129.44444274902344 94.61119842529297" fill="none" stroke="rgb(0, 0, 0)" stroke-linecap="round" stroke-linejoin="round" stroke-opacity="1.0" stroke-width="3.0"/>
    <path d="M 177.01126098632812 111.95902252197266 C 159.43121337890625 120.77243041992188 167.73423767089844 117.82585144042969 152.16737365722656 123.82179260253906" fill="none" stroke="rgb(0, 0, 0)" stroke-linecap="round" stroke-linejoin="round" stroke-opacity="1.0" stroke-width="3.0"/>
    <path d="M 122.6644515991211 94.5589370727539 C 90.86406707763672 49.81132125854492 109.5265121459961 88.095458984375 95.93379211425781 42.08912658691406" fill="none" stroke="rgb(0, 0, 0)" stroke-linecap="round" stroke-linejoin="round" stroke-opacity="1.0" stroke-width="3.0"/>
    <path d="M 116.72611236572266 168.51234436035156 C 92.42005157470703 169.4762725830078 95.95243835449219 165.5038299560547 103.89640808105469 168.6398468017578" fill="none" stroke="rgb(0, 0, 0)" stroke-linecap="round" stroke-linejoin="round" stroke-opacity="1.0" stroke-width="3.0"/>
    <path d="M 194.6888427734375 145.55076599121094 C 180.4859161376953 171.7029571533203 183.25408935546875 159.1346893310547 164.6217803955078 172.06430053710938" fill="none" stroke="rgb(0, 0, 0)" stroke-linecap="round" stroke-linejoin="round" stroke-opacity="1.0" stroke-width="3.0"/>
    <path d="M 101.98404693603516 32.876007080078125 C 87.87024688720703 61.081844329833984 112.9780502319336 51.645111083984375 106.40128326416016 58.977325439453125" fill="none" stroke="rgb(0, 0, 0)" stroke-linecap="round" stroke-linejoin="round" stroke-opacity="1.0" stroke-width="3.0"/>
    <path d="M 190.2969512939453 156.01390075683594 C 192.70431518554688 146.53109741210938 183.2527313232422 162.3202667236328 192.55841064453125 155.84703063964844" fill="none" stroke="rgb(0, 0, 0)" stroke-linecap="round" stroke-linejoin="round" stroke-opacity="1.0" stroke-width="3.0"/>
    <path d="M 112.51213836669922 67.35728454589844 C 120.39852905273438 73.06416320800781 117.55058288574219 64.91372680664062 123.19570922851562 67.89910888671875" fill="none" stroke="rgb(0, 0, 0)" stroke-linecap="round" stroke-linejoin="round" stroke-opacity="1.0" stroke-width="3.0"/>
    <path d="M 169.10960388183594 75.97269439697266 C 166.05577087402344 101.61604309082031 172.50030517578125 64.56111145019531 171.42831420898438 84.85456085205078" fill="none" stroke="rgb(0, 0, 0)" stroke-linecap="round" stroke-linejoin="round" stroke-opacity="1.0" stroke-width="3.0"/>
    <path d="M 120.62330627441406 164.7152862548828 C 164.43270874023438 172.91998291015625 132.40213012695312 166.3289031982422 164.44479370117188 171.58908081054688" fill="none" stroke="rgb(0, 0, 0)" stroke-linecap="round" stroke-linejoin="round" stroke-opacity="1.0" stroke-width="3.0"/>
    <path d="M 103.4447250366211 36.019073486328125 C 100.72811126708984 82.61013793945312 88.47254180908203 -1.799115777015686 133.70037841796875 30.117332458496094" fill="none" stroke="rgb(0, 0, 0)" stroke-linecap="round" stroke-linejoin="round" stroke-opacity="1.0" stroke-width="3.0"/>
    <path d="M 136.9988250732422 40.533103942871094 C 128.5924530029297 22.3824520111084 146.5772247314453 31.657712936401367 138.99600219726562 63.31852722167969" fill="none" stroke="rgb(0, 0, 0)" stroke-linecap="round" stroke-linejoin="round" stroke-opacity="1.0" stroke-width="3.0"/>
  </g>
</svg>
