<?xml version="1.0" ?>
<svg height="224" version="1.1" width="224" xmlns="http://www.w3.org/2000/svg">
  <defs/>
  <g>
    <path d="M 83.87034606933594 137.34046936035156 C 93.54620361328125 114.76001739501953 64.44227600097656 66.2794418334961 94.75947570800781 58.04826354980469" fill="none" stroke="rgb(0, 0, 0)" stroke-linecap="round" stroke-linejoin="round" stroke-opacity="1.0" stroke-width="3.0"/>
    <path d="M 125.18070983886719 120.357177734375 C 153.84898376464844 123.41255187988281 151.59498596191406 119.77271270751953 169.959716796875 91.65116119384766" fill="none" stroke="rgb(0, 0, 0)" stroke-linecap="round" stroke-linejoin="round" stroke-opacity="1.0" stroke-width="3.0"/>
    <path d="M 144.1470947265625 55.07307815551758 C 190.2852783203125 71.63516998291016 166.9441680908203 85.51670837402344 179.42115783691406 116.78479766845703" fill="none" stroke="rgb(0, 0, 0)" stroke-linecap="round" stroke-linejoin="round" stroke-opacity="1.0" stroke-width="3.0"/>
    <path d="M 132.1163787841797 72.1033935546875 C 120.66986846923828 102.00328063964844 102.2272720336914 66.04206085205078 125.57058715820312 95.4837417602539" fill="none" stroke="rgb(0, 0, 0)" stroke-linecap="round" stroke-linejoin="round" stroke-opacity="1.0" stroke-width="3.0"/>
    <path d="M 137.21221923828125 44.209781646728516 C 146.93409729003906 81.04557800292969 140.83921813964844 46.15270233154297 130.6490478515625 94.91295623779297" fill="none" stroke="rgb(0, 0, 0)" stroke-linecap="round" stroke-linejoin="round" stroke-opacity="1.0" stroke-width="3.0"/>
    <path d="M 176.37115478515625 110.35707092285156 C 158.75482177734375 121.215576171875 167.51927185058594 119.2347640991211 152.56988525390625 122.27790069580078" fill="none" stroke="rgb(0, 0, 0)" stroke-linecap="round" stroke-linejoin="round" stroke-opacity="1.0" stroke-width="3.0"/>
    <path d="M 121.03760528564453 96.05247497558594 C 92.03045654296875 48.7370491027832 107.22028350830078 90.64257049560547 96.2599105834961 43.95245361328125" fill="none" stroke="rgb(0, 0, 0)" stroke-linecap="round" stroke-linejoin="round" stroke-opacity="1.0" stroke-width="3.0"/>
    <path d="M 118.08512878417969 165.06715393066406 C 94.56769561767578 169.0789794921875 96.37319946289062 164.83709716796875 105.46064758300781 168.15196228027344" fill="none" stroke="rgb(0, 0, 0)" stroke-linecap="round" stroke-linejoin="round" stroke-opacity="1.0" stroke-width="3.0"/>
    <path d="M 197.7360076904297 141.5811004638672 C 190.66983032226562 176.20550537109375 184.75216674804688 163.06536865234375 166.86624145507812 169.8329620361328" fill="none" stroke="rgb(0, 0, 0)" stroke-linecap="round" stroke-linejoin="round" stroke-opacity="1.0" stroke-width="3.0"/>
    <path d="M 100.43195343017578 32.95954132080078 C 87.49150085449219 60.831878662109375 122.40930938720703 50.29043197631836 106.38543701171875 56.36266326904297" fill="none" stroke="rgb(0, 0, 0)" stroke-linecap="round" stroke-linejoin="round" stroke-opacity="1.0" stroke-width="3.0"/>
    <path d="M 192.79269409179688 157.60768127441406 C 199.18807983398438 151.2403564453125 185.66358947753906 162.0062255859375 195.66973876953125 155.59402465820312" fill="none" stroke="rgb(0, 0, 0)" stroke-linecap="round" stroke-linejoin="round" stroke-opacity="1.0" stroke-width="3.0"/>
    <path d="M 113.57502746582031 67.97244262695312 C 120.10275268554688 71.45852661132812 120.58194732666016 68.01008605957031 122.94869995117188 67.81665802001953" fill="none" stroke="rgb(0, 0, 0)" stroke-linecap="round" stroke-linejoin="round" stroke-opacity="1.0" stroke-width="3.0"/>
    <path d="M 170.0803985595703 75.90850067138672 C 168.00596618652344 102.46896362304688 172.27442932128906 64.8949203491211 172.35931396484375 85.77320861816406" fill="none" stroke="rgb(0, 0, 0)" stroke-linecap="round" stroke-linejoin="round" stroke-opacity="1.0" stroke-width="3.0"/>
    <path d="M 120.117919921875 162.96209716796875 C 166.3904571533203 168.90200805664062 134.5659637451172 164.44332885742188 165.2674102783203 169.61155700683594" fill="none" stroke="rgb(0, 0, 0)" stroke-linecap="round" stroke-linejoin="round" stroke-opacity="1.0" stroke-width="3.0"/>
    <path d="M 103.3243408203125 36.4262809753418 C 101.29138946533203 80.95768737792969 86.67552947998047 -0.6241349577903748 135.46214294433594 30.350069046020508" fill="none" stroke="rgb(0, 0, 0)" stroke-linecap="round" stroke-linejoin="round" stroke-opacity="1.0" stroke-width="3.0"/>
    <path d="M 137.2628173828125 37.758338928222656 C 127.09626770019531 24.491147994995117 149.1388397216797 34.62171936035156 137.212646484375 60.14435577392578" fill="none" stroke="rgb(0, 0, 0)" stroke-linecap="round" stroke-linejoin="round" stroke-opacity="1.0" stroke-width="3.0"/>
  </g>
</svg>
