<?xml version="1.0" ?>
<svg height="224" version="1.1" width="224" xmlns="http://www.w3.org/2000/svg">
  <defs/>
  <g>
    <path d="M 84.39411163330078 140.49378967285156 C 90.44569396972656 104.92997741699219 66.36802673339844 71.25404357910156 93.62825775146484 57.33118438720703" fill="none" stroke="rgb(0, 0, 0)" stroke-linecap="round" stroke-linejoin="round" stroke-opacity="1.0" stroke-width="3.0"/>
    <path d="M 127.9636459350586 122.72088623046875 C 149.45452880859375 125.35609436035156 153.64907836914062 118.93173217773438 167.20033264160156 106.13677978515625" fill="none" stroke="rgb(0, 0, 0)" stroke-linecap="round" stroke-linejoin="round" stroke-opacity="1.0" stroke-width="3.0"/>
    <path d="M 166.89161682128906 69.40811920166016 C 179.15940856933594 118.37151336669922 165.63302612304688 77.62582397460938 173.925048828125 116.6700439453125" fill="none" stroke="rgb(0, 0, 0)" stroke-linecap="round" stroke-linejoin="round" stroke-opacity="1.0" stroke-width="3.0"/>
    <path d="M 133.1704864501953 74.39521026611328 C 117.58900451660156 95.18963623046875 103.61708068847656 72.17422485351562 128.27029418945312 94.71839141845703" fill="none" stroke="rgb(0, 0, 0)" stroke-linecap="round" stroke-linejoin="round" stroke-opacity="1.0" stroke-width="3.0"/>
    <path d="M 143.73924255371094 53.333534240722656 C 153.63861083984375 69.3432846069336 144.70687866210938 44.06427764892578 132.43472290039062 92.90015411376953" fill="none" stroke="rgb(0, 0, 0)" stroke-linecap="round" stroke-linejoin="round" stroke-opacity="1.0" stroke-width="3.0"/>
    <path d="M 172.0980682373047 121.06085205078125 C 163.7637176513672 123.68724060058594 179.7098388671875 117.04084014892578 153.89227294921875 125.7064437866211" fill="none" stroke="rgb(0, 0, 0)" stroke-linecap="round" stroke-linejoin="round" stroke-opacity="1.0" stroke-width="3.0"/>
    <path d="M 123.23328399658203 95.21210479736328 C 105.32259368896484 63.88035202026367 108.04940795898438 92.89984130859375 97.67061614990234 43.05558395385742" fill="none" stroke="rgb(0, 0, 0)" stroke-linecap="round" stroke-linejoin="round" stroke-opacity="1.0" stroke-width="3.0"/>
    <path d="M 106.24092864990234 161.4225311279297 C 88.80158996582031 157.2910919189453 101.6891860961914 162.1616668701172 104.74020385742188 164.23289489746094" fill="none" stroke="rgb(0, 0, 0)" stroke-linecap="round" stroke-linejoin="round" stroke-opacity="1.0" stroke-width="3.0"/>
    <path d="M 174.45465087890625 168.0592041015625 C 157.22706604003906 173.2871856689453 173.72607421875 162.97384643554688 162.28550720214844 173.58026123046875" fill="none" stroke="rgb(0, 0, 0)" stroke-linecap="round" stroke-linejoin="round" stroke-opacity="1.0" stroke-width="3.0"/>
    <path d="M 98.84374237060547 33.57096862792969 C 94.99678039550781 57.3750114440918 98.81708526611328 47.631195068359375 110.1093521118164 57.545413970947266" fill="none" stroke="rgb(0, 0, 0)" stroke-linecap="round" stroke-linejoin="round" stroke-opacity="1.0" stroke-width="3.0"/>
    <path d="M 186.59490966796875 135.94564819335938 C 183.0181121826172 140.20257568359375 189.17498779296875 133.90936279296875 180.83055114746094 140.70083618164062" fill="none" stroke="rgb(0, 0, 0)" stroke-linecap="round" stroke-linejoin="round" stroke-opacity="1.0" stroke-width="3.0"/>
    <path d="M 115.38836669921875 72.5207748413086 C 130.05032348632812 76.28418731689453 120.9586181640625 68.03458404541016 128.28433227539062 70.01277160644531" fill="none" stroke="rgb(0, 0, 0)" stroke-linecap="round" stroke-linejoin="round" stroke-opacity="1.0" stroke-width="3.0"/>
    <path d="M 170.2496795654297 73.78963470458984 C 175.34762573242188 101.01850891113281 175.8250732421875 75.37171173095703 172.7258758544922 82.52462768554688" fill="none" stroke="rgb(0, 0, 0)" stroke-linecap="round" stroke-linejoin="round" stroke-opacity="1.0" stroke-width="3.0"/>
    <path d="M 131.95628356933594 161.40951538085938 C 157.45431518554688 165.33270263671875 132.05111694335938 162.2380828857422 158.46173095703125 167.8721466064453" fill="none" stroke="rgb(0, 0, 0)" stroke-linecap="round" stroke-linejoin="round" stroke-opacity="1.0" stroke-width="3.0"/>
    <path d="M 101.45101928710938 28.879308700561523 C 110.3499755859375 40.210506439208984 87.52501678466797 15.253891944885254 129.4423065185547 25.61500358581543" fill="none" stroke="rgb(0, 0, 0)" stroke-linecap="round" stroke-linejoin="round" stroke-opacity="1.0" stroke-width="3.0"/>
    <path d="M 140.16397094726562 46.14762878417969 C 135.36891174316406 31.731163024902344 145.18276977539062 40.85890197753906 140.88656616210938 58.44749069213867" fill="none" stroke="rgb(0, 0, 0)" stroke-linecap="round" stroke-linejoin="round" stroke-opacity="1.0" stroke-width="3.0"/>
  </g>
</svg>
