<?xml version="1.0" ?>
<svg height="224" version="1.1" width="224" xmlns="http://www.w3.org/2000/svg">
  <defs/>
  <g>
    <path d="M 87.73593139648438 148.92971801757812 C 94.76671600341797 131.07789611816406 61.08098220825195 61.68119430541992 96.22075653076172 56.049781799316406" fill="none" stroke="rgb(0, 0, 0)" stroke-linecap="round" stroke-linejoin="round" stroke-opacity="1.0" stroke-width="3.0"/>
    <path d="M 123.95816040039062 144.05235290527344 C 193.69351196289062 131.6454315185547 135.1142578125 122.84149932861328 147.0761260986328 62.62369918823242" fill="none" stroke="rgb(0, 0, 0)" stroke-linecap="round" stroke-linejoin="round" stroke-opacity="1.0" stroke-width="3.0"/>
    <path d="M 136.64842224121094 50.902774810791016 C 182.31039428710938 67.98875427246094 170.6287078857422 88.39655303955078 179.61785888671875 101.3587875366211" fill="none" stroke="rgb(0, 0, 0)" stroke-linecap="round" stroke-linejoin="round" stroke-opacity="1.0" stroke-width="3.0"/>
    <path d="M 140.4592742919922 58.92086410522461 C 116.62474822998047 103.20834350585938 110.64132690429688 55.70769500732422 126.03321838378906 95.63011169433594" fill="none" stroke="rgb(0, 0, 0)" stroke-linecap="round" stroke-linejoin="round" stroke-opacity="1.0" stroke-width="3.0"/>
    <path d="M 137.11282348632812 41.78532791137695 C 136.07394409179688 74.4827880859375 147.9596710205078 77.41698455810547 126.36514282226562 94.31379699707031" fill="none" stroke="rgb(0, 0, 0)" stroke-linecap="round" stroke-linejoin="round" stroke-opacity="1.0" stroke-width="3.0"/>
    <path d="M 178.21739196777344 97.4207992553711 C 179.82760620117188 100.44959259033203 176.33810424804688 93.27823638916016 188.3275909423828 128.56143188476562" fill="none" stroke="rgb(0, 0, 0)" stroke-linecap="round" stroke-linejoin="round" stroke-opacity="1.0" stroke-width="3.0"/>
    <path d="M 126.98089599609375 93.6539535522461 C 99.83612823486328 67.98200225830078 87.1990966796875 72.68083953857422 111.20631408691406 30.272165298461914" fill="none" stroke="rgb(0, 0, 0)" stroke-linecap="round" stroke-linejoin="round" stroke-opacity="1.0" stroke-width="3.0"/>
    <path d="M 100.8110580444336 146.00155639648438 C 149.97312927246094 143.04502868652344 108.07725524902344 167.68341064453125 100.2322769165039 158.13735961914062" fill="none" stroke="rgb(0, 0, 0)" stroke-linecap="round" stroke-linejoin="round" stroke-opacity="1.0" stroke-width="3.0"/>
    <path d="M 196.24435424804688 119.8183822631836 C 183.67681884765625 153.6967010498047 213.9291534423828 151.00946044921875 172.2526397705078 164.36476135253906" fill="none" stroke="rgb(0, 0, 0)" stroke-linecap="round" stroke-linejoin="round" stroke-opacity="1.0" stroke-width="3.0"/>
    <path d="M 127.76643371582031 35.708194732666016 C 56.40255355834961 44.93296813964844 148.42337036132812 58.22364044189453 106.82878875732422 55.50263214111328" fill="none" stroke="rgb(0, 0, 0)" stroke-linecap="round" stroke-linejoin="round" stroke-opacity="1.0" stroke-width="3.0"/>
    <path d="M 175.88265991210938 157.16668701171875 C 191.1616668701172 132.0850067138672 169.89224243164062 157.0758514404297 194.87310791015625 118.97928619384766" fill="none" stroke="rgb(0, 0, 0)" stroke-linecap="round" stroke-linejoin="round" stroke-opacity="1.0" stroke-width="3.0"/>
    <path d="M 112.42369842529297 64.10906982421875 C 94.43180847167969 68.5561752319336 125.73995208740234 75.17476654052734 118.61370849609375 73.31970977783203" fill="none" stroke="rgb(0, 0, 0)" stroke-linecap="round" stroke-linejoin="round" stroke-opacity="1.0" stroke-width="3.0"/>
    <path d="M 152.46011352539062 62.24998474121094 C 158.80337524414062 84.88896179199219 164.1619415283203 73.34510040283203 171.7174530029297 88.28490447998047" fill="none" stroke="rgb(0, 0, 0)" stroke-linecap="round" stroke-linejoin="round" stroke-opacity="1.0" stroke-width="3.0"/>
    <path d="M 98.25460815429688 152.69505310058594 C 179.2998504638672 168.93820190429688 160.86367797851562 163.1084747314453 174.0318145751953 157.81112670898438" fill="none" stroke="rgb(0, 0, 0)" stroke-linecap="round" stroke-linejoin="round" stroke-opacity="1.0" stroke-width="3.0"/>
    <path d="M 121.29793548583984 29.02822494506836 C 72.48847961425781 70.50045776367188 124.21770477294922 -17.034881591796875 142.42494201660156 47.65607833862305" fill="none" stroke="rgb(0, 0, 0)" stroke-linecap="round" stroke-linejoin="round" stroke-opacity="1.0" stroke-width="3.0"/>
    <path d="M 138.31959533691406 50.348228454589844 C 119.1758041381836 21.168760299682617 162.92294311523438 61.952613830566406 125.46733856201172 58.25366973876953" fill="none" stroke="rgb(0, 0, 0)" stroke-linecap="round" stroke-linejoin="round" stroke-opacity="1.0" stroke-width="3.0"/>
  </g>
</svg>
