<?xml version="1.0" ?>
<svg height="224" version="1.1" width="224" xmlns="http://www.w3.org/2000/svg">
  <defs/>
  <g>
    <path d="M 82.98764038085938 137.89910888671875 C 93.82453155517578 114.74200439453125 68.71290588378906 65.32079315185547 95.4151611328125 57.24353790283203" fill="none" stroke="rgb(0, 0, 0)" stroke-linecap="round" stroke-linejoin="round" stroke-opacity="1.0" stroke-width="3.0"/>
    <path d="M 122.71700286865234 130.06307983398438 C 149.34132385253906 127.88533782958984 165.4052734375 123.86611938476562 171.85540771484375 110.5712661743164" fill="none" stroke="rgb(0, 0, 0)" stroke-linecap="round" stroke-linejoin="round" stroke-opacity="1.0" stroke-width="3.0"/>
    <path d="M 169.91384887695312 68.5389633178711 C 182.24551391601562 101.89208984375 170.2965087890625 75.63140869140625 180.53121948242188 115.20883178710938" fill="none" stroke="rgb(0, 0, 0)" stroke-linecap="round" stroke-linejoin="round" stroke-opacity="1.0" stroke-width="3.0"/>
    <path d="M 130.58258056640625 67.46941375732422 C 118.22503662109375 95.52495574951172 101.30970764160156 64.48540496826172 127.86617279052734 92.70153045654297" fill="none" stroke="rgb(0, 0, 0)" stroke-linecap="round" stroke-linejoin="round" stroke-opacity="1.0" stroke-width="3.0"/>
    <path d="M 142.52041625976562 46.32103729248047 C 152.65850830078125 67.91215515136719 143.83006286621094 39.03993225097656 126.97761535644531 95.44013214111328" fill="none" stroke="rgb(0, 0, 0)" stroke-linecap="round" stroke-linejoin="round" stroke-opacity="1.0" stroke-width="3.0"/>
    <path d="M 178.97911071777344 121.0309066772461 C 162.1251983642578 125.2762451171875 179.05189514160156 120.81254577636719 159.3296356201172 126.95149230957031" fill="none" stroke="rgb(0, 0, 0)" stroke-linecap="round" stroke-linejoin="round" stroke-opacity="1.0" stroke-width="3.0"/>
    <path d="M 121.23670959472656 96.42585754394531 C 93.97510528564453 53.63193893432617 108.82638549804688 91.41020202636719 96.4998550415039 45.230926513671875" fill="none" stroke="rgb(0, 0, 0)" stroke-linecap="round" stroke-linejoin="round" stroke-opacity="1.0" stroke-width="3.0"/>
    <path d="M 111.31334686279297 166.8347930908203 C 100.23497009277344 166.7003936767578 92.55691528320312 161.66786193847656 101.77131652832031 166.8983917236328" fill="none" stroke="rgb(0, 0, 0)" stroke-linecap="round" stroke-linejoin="round" stroke-opacity="1.0" stroke-width="3.0"/>
    <path d="M 187.62908935546875 158.93386840820312 C 163.38612365722656 170.6490936279297 180.10096740722656 158.60897827148438 164.72776794433594 169.24488830566406" fill="none" stroke="rgb(0, 0, 0)" stroke-linecap="round" stroke-linejoin="round" stroke-opacity="1.0" stroke-width="3.0"/>
    <path d="M 102.66078186035156 32.38740158081055 C 89.1069107055664 56.133575439453125 102.77996826171875 48.9109001159668 109.81251525878906 55.99614715576172" fill="none" stroke="rgb(0, 0, 0)" stroke-linecap="round" stroke-linejoin="round" stroke-opacity="1.0" stroke-width="3.0"/>
    <path d="M 188.3927764892578 156.0364990234375 C 183.06777954101562 152.9838104248047 195.31504821777344 151.05763244628906 184.9129180908203 154.75067138671875" fill="none" stroke="rgb(0, 0, 0)" stroke-linecap="round" stroke-linejoin="round" stroke-opacity="1.0" stroke-width="3.0"/>
    <path d="M 113.9755630493164 64.56256103515625 C 119.72911071777344 68.88284301757812 115.75335693359375 64.50788116455078 122.96936798095703 64.1432876586914" fill="none" stroke="rgb(0, 0, 0)" stroke-linecap="round" stroke-linejoin="round" stroke-opacity="1.0" stroke-width="3.0"/>
    <path d="M 171.89048767089844 78.67073059082031 C 174.60325622558594 98.96589660644531 165.97996520996094 71.5907974243164 174.1582489013672 92.5365219116211" fill="none" stroke="rgb(0, 0, 0)" stroke-linecap="round" stroke-linejoin="round" stroke-opacity="1.0" stroke-width="3.0"/>
    <path d="M 123.61885833740234 165.98825073242188 C 158.19044494628906 170.191650390625 132.07568359375 170.88470458984375 167.02862548828125 168.04444885253906" fill="none" stroke="rgb(0, 0, 0)" stroke-linecap="round" stroke-linejoin="round" stroke-opacity="1.0" stroke-width="3.0"/>
    <path d="M 103.72222900390625 35.066551208496094 C 97.62478637695312 65.36531829833984 95.97742462158203 -0.8636550903320312 137.98497009277344 33.13207244873047" fill="none" stroke="rgb(0, 0, 0)" stroke-linecap="round" stroke-linejoin="round" stroke-opacity="1.0" stroke-width="3.0"/>
    <path d="M 139.82415771484375 42.36891555786133 C 135.97642517089844 20.990081787109375 145.80862426757812 44.145606994628906 140.4661407470703 56.06536865234375" fill="none" stroke="rgb(0, 0, 0)" stroke-linecap="round" stroke-linejoin="round" stroke-opacity="1.0" stroke-width="3.0"/>
  </g>
</svg>
