<?xml version="1.0" ?>
<svg height="224" version="1.1" width="224" xmlns="http://www.w3.org/2000/svg">
  <defs/>
  <g>
    <path d="M 92.01846313476562 153.8016815185547 C 104.80928039550781 144.82333374023438 51.12311553955078 81.7011947631836 96.06442260742188 58.140846252441406" fill="none" stroke="rgb(0, 0, 0)" stroke-linecap="round" stroke-linejoin="round" stroke-opacity="1.0" stroke-width="3.0"/>
    <path d="M 115.58495330810547 135.18545532226562 C 190.91680908203125 116.73429870605469 137.97488403320312 123.95927429199219 152.50601196289062 65.5396499633789" fill="none" stroke="rgb(0, 0, 0)" stroke-linecap="round" stroke-linejoin="round" stroke-opacity="1.0" stroke-width="3.0"/>
    <path d="M 137.67445373535156 47.696014404296875 C 188.4157257080078 71.1167984008789 171.03700256347656 97.04950714111328 173.786865234375 96.82565307617188" fill="none" stroke="rgb(0, 0, 0)" stroke-linecap="round" stroke-linejoin="round" stroke-opacity="1.0" stroke-width="3.0"/>
    <path d="M 141.76361083984375 51.746219635009766 C 116.58218383789062 109.76937866210938 113.39054870605469 54.0684700012207 123.04187774658203 102.78611755371094" fill="none" stroke="rgb(0, 0, 0)" stroke-linecap="round" stroke-linejoin="round" stroke-opacity="1.0" stroke-width="3.0"/>
    <path d="M 131.7189483642578 31.673368453979492 C 140.1588134765625 57.55024337768555 139.0838165283203 97.27811431884766 123.00048065185547 102.2530517578125" fill="none" stroke="rgb(0, 0, 0)" stroke-linecap="round" stroke-linejoin="round" stroke-opacity="1.0" stroke-width="3.0"/>
    <path d="M 172.47267150878906 95.9094009399414 C 177.90005493164062 108.01817321777344 172.12677001953125 99.86041259765625 183.26861572265625 128.9535369873047" fill="none" stroke="rgb(0, 0, 0)" stroke-linecap="round" stroke-linejoin="round" stroke-opacity="1.0" stroke-width="3.0"/>
    <path d="M 129.14625549316406 99.0107192993164 C 100.9875717163086 71.09306335449219 90.07861328125 51.86408233642578 112.42108917236328 31.35939598083496" fill="none" stroke="rgb(0, 0, 0)" stroke-linecap="round" stroke-linejoin="round" stroke-opacity="1.0" stroke-width="3.0"/>
    <path d="M 95.658203125 137.78688049316406 C 148.28030395507812 128.32249450683594 111.39181518554688 172.4276123046875 93.7606430053711 160.19015502929688" fill="none" stroke="rgb(0, 0, 0)" stroke-linecap="round" stroke-linejoin="round" stroke-opacity="1.0" stroke-width="3.0"/>
    <path d="M 196.60821533203125 121.70841217041016 C 187.57164001464844 150.2021484375 204.8614959716797 152.60247802734375 172.89892578125 170.4065704345703" fill="none" stroke="rgb(0, 0, 0)" stroke-linecap="round" stroke-linejoin="round" stroke-opacity="1.0" stroke-width="3.0"/>
    <path d="M 126.3758316040039 32.38786315917969 C 51.170982360839844 46.251258850097656 151.8623809814453 56.99003219604492 107.78398895263672 54.92885971069336" fill="none" stroke="rgb(0, 0, 0)" stroke-linecap="round" stroke-linejoin="round" stroke-opacity="1.0" stroke-width="3.0"/>
    <path d="M 168.30039978027344 155.40452575683594 C 184.45558166503906 131.93858337402344 173.44473266601562 155.93283081054688 193.5847625732422 118.70166015625" fill="none" stroke="rgb(0, 0, 0)" stroke-linecap="round" stroke-linejoin="round" stroke-opacity="1.0" stroke-width="3.0"/>
    <path d="M 109.52552032470703 62.19489288330078 C 94.68549346923828 70.08041381835938 127.3305435180664 79.41403198242188 120.17953491210938 70.00804138183594" fill="none" stroke="rgb(0, 0, 0)" stroke-linecap="round" stroke-linejoin="round" stroke-opacity="1.0" stroke-width="3.0"/>
    <path d="M 160.82806396484375 62.979278564453125 C 168.4567108154297 82.67607116699219 165.53573608398438 62.68446350097656 171.49075317382812 88.3475570678711" fill="none" stroke="rgb(0, 0, 0)" stroke-linecap="round" stroke-linejoin="round" stroke-opacity="1.0" stroke-width="3.0"/>
    <path d="M 106.47028350830078 153.91908264160156 C 178.52117919921875 164.10769653320312 155.98452758789062 157.29339599609375 170.14926147460938 154.7615509033203" fill="none" stroke="rgb(0, 0, 0)" stroke-linecap="round" stroke-linejoin="round" stroke-opacity="1.0" stroke-width="3.0"/>
    <path d="M 120.93633270263672 29.064680099487305 C 72.69112396240234 62.75072479248047 131.86737060546875 -18.68895149230957 142.79327392578125 50.89505386352539" fill="none" stroke="rgb(0, 0, 0)" stroke-linecap="round" stroke-linejoin="round" stroke-opacity="1.0" stroke-width="3.0"/>
    <path d="M 136.88478088378906 50.050228118896484 C 114.14534759521484 15.7579984664917 162.7584228515625 59.562286376953125 124.88846588134766 53.24107360839844" fill="none" stroke="rgb(0, 0, 0)" stroke-linecap="round" stroke-linejoin="round" stroke-opacity="1.0" stroke-width="3.0"/>
  </g>
</svg>
