<?xml version="1.0" ?>
<svg height="224" version="1.1" width="224" xmlns="http://www.w3.org/2000/svg">
  <defs/>
  <g>
    <path d="M 97.7337417602539 155.8758087158203 C 124.82994842529297 166.5758514404297 33.699520111083984 82.57009887695312 97.50859832763672 54.537601470947266" fill="none" stroke="rgb(0, 0, 0)" stroke-linecap="round" stroke-linejoin="round" stroke-opacity="1.0" stroke-width="3.0"/>
    <path d="M 117.69224548339844 142.52662658691406 C 189.75701904296875 114.75053405761719 147.98509216308594 136.73912048339844 154.28248596191406 61.66633605957031" fill="none" stroke="rgb(0, 0, 0)" stroke-linecap="round" stroke-linejoin="round" stroke-opacity="1.0" stroke-width="3.0"/>
    <path d="M 139.80101013183594 49.06433868408203 C 181.0588836669922 60.687129974365234 171.24667358398438 108.2225341796875 170.65402221679688 93.20057678222656" fill="none" stroke="rgb(0, 0, 0)" stroke-linecap="round" stroke-linejoin="round" stroke-opacity="1.0" stroke-width="3.0"/>
    <path d="M 134.4215850830078 58.728179931640625 C 122.42697143554688 113.87337493896484 102.20514678955078 55.629981994628906 119.50479888916016 99.57540893554688" fill="none" stroke="rgb(0, 0, 0)" stroke-linecap="round" stroke-linejoin="round" stroke-opacity="1.0" stroke-width="3.0"/>
    <path d="M 126.9117202758789 30.205190658569336 C 151.6727752685547 37.18511962890625 145.81500244140625 115.46796417236328 117.20238494873047 91.49019622802734" fill="none" stroke="rgb(0, 0, 0)" stroke-linecap="round" stroke-linejoin="round" stroke-opacity="1.0" stroke-width="3.0"/>
    <path d="M 169.6306915283203 95.58514404296875 C 176.46719360351562 114.21436309814453 171.6956787109375 99.88690948486328 183.7344207763672 132.76565551757812" fill="none" stroke="rgb(0, 0, 0)" stroke-linecap="round" stroke-linejoin="round" stroke-opacity="1.0" stroke-width="3.0"/>
    <path d="M 121.73199462890625 96.52159881591797 C 100.80998229980469 67.31330108642578 80.94132995605469 44.56681442260742 113.53312683105469 29.130582809448242" fill="none" stroke="rgb(0, 0, 0)" stroke-linecap="round" stroke-linejoin="round" stroke-opacity="1.0" stroke-width="3.0"/>
    <path d="M 101.24871826171875 142.9259490966797 C 160.44342041015625 123.63699340820312 111.62857818603516 181.13059997558594 98.45050048828125 161.75375366210938" fill="none" stroke="rgb(0, 0, 0)" stroke-linecap="round" stroke-linejoin="round" stroke-opacity="1.0" stroke-width="3.0"/>
    <path d="M 192.91757202148438 119.6439208984375 C 184.35206604003906 150.18807983398438 207.88853454589844 141.6326446533203 173.4052734375 173.5211944580078" fill="none" stroke="rgb(0, 0, 0)" stroke-linecap="round" stroke-linejoin="round" stroke-opacity="1.0" stroke-width="3.0"/>
    <path d="M 126.015380859375 34.56659698486328 C 35.857608795166016 37.997737884521484 155.17311096191406 63.624168395996094 119.40540313720703 62.59368133544922" fill="none" stroke="rgb(0, 0, 0)" stroke-linecap="round" stroke-linejoin="round" stroke-opacity="1.0" stroke-width="3.0"/>
    <path d="M 166.75759887695312 147.56777954101562 C 192.0634765625 133.29771423339844 171.07220458984375 139.97451782226562 192.81753540039062 122.39120483398438" fill="none" stroke="rgb(0, 0, 0)" stroke-linecap="round" stroke-linejoin="round" stroke-opacity="1.0" stroke-width="3.0"/>
    <path d="M 109.01586151123047 65.2243881225586 C 90.52901458740234 85.0745849609375 150.8711395263672 76.86185455322266 121.15567016601562 73.27112579345703" fill="none" stroke="rgb(0, 0, 0)" stroke-linecap="round" stroke-linejoin="round" stroke-opacity="1.0" stroke-width="3.0"/>
    <path d="M 165.98846435546875 69.36906433105469 C 165.85299682617188 75.76555633544922 178.48529052734375 76.40864562988281 171.8988037109375 86.220947265625" fill="none" stroke="rgb(0, 0, 0)" stroke-linecap="round" stroke-linejoin="round" stroke-opacity="1.0" stroke-width="3.0"/>
    <path d="M 103.10062408447266 160.5709686279297 C 145.61965942382812 167.43406677246094 94.83264923095703 162.4270477294922 172.80255126953125 147.30233764648438" fill="none" stroke="rgb(0, 0, 0)" stroke-linecap="round" stroke-linejoin="round" stroke-opacity="1.0" stroke-width="3.0"/>
    <path d="M 121.13770294189453 27.630714416503906 C 59.176483154296875 69.04779815673828 134.68386840820312 -27.425207138061523 141.5144805908203 54.69863510131836" fill="none" stroke="rgb(0, 0, 0)" stroke-linecap="round" stroke-linejoin="round" stroke-opacity="1.0" stroke-width="3.0"/>
    <path d="M 138.35003662109375 54.81953430175781 C 102.84913635253906 1.269117832183838 158.308349609375 61.74637222290039 132.7279052734375 62.10365295410156" fill="none" stroke="rgb(0, 0, 0)" stroke-linecap="round" stroke-linejoin="round" stroke-opacity="1.0" stroke-width="3.0"/>
  </g>
</svg>
