<?xml version="1.0" ?>
<svg height="224" version="1.1" width="224" xmlns="http://www.w3.org/2000/svg">
  <defs/>
  <g>
    <path d="M 82.07919311523438 139.438232421875 C 91.58099365234375 115.76616668701172 63.88949203491211 65.28579711914062 94.16151428222656 57.336143493652344" fill="none" stroke="rgb(0, 0, 0)" stroke-linecap="round" stroke-linejoin="round" stroke-opacity="1.0" stroke-width="3.0"/>
    <path d="M 126.9539794921875 129.03273010253906 C 151.19091796875 130.70387268066406 167.21360778808594 126.70279693603516 173.3069305419922 111.72964477539062" fill="none" stroke="rgb(0, 0, 0)" stroke-linecap="round" stroke-linejoin="round" stroke-opacity="1.0" stroke-width="3.0"/>
    <path d="M 167.05081176757812 67.37576293945312 C 178.33985900878906 111.70724487304688 166.720458984375 85.7027359008789 175.710693359375 117.30486297607422" fill="none" stroke="rgb(0, 0, 0)" stroke-linecap="round" stroke-linejoin="round" stroke-opacity="1.0" stroke-width="3.0"/>
    <path d="M 131.9510955810547 66.95549774169922 C 115.11529541015625 96.62059783935547 106.19023895263672 58.33449935913086 125.80415344238281 94.19012451171875" fill="none" stroke="rgb(0, 0, 0)" stroke-linecap="round" stroke-linejoin="round" stroke-opacity="1.0" stroke-width="3.0"/>
    <path d="M 140.4115753173828 45.90607833862305 C 151.2032012939453 63.404048919677734 144.89085388183594 36.039974212646484 128.84518432617188 93.92727661132812" fill="none" stroke="rgb(0, 0, 0)" stroke-linecap="round" stroke-linejoin="round" stroke-opacity="1.0" stroke-width="3.0"/>
    <path d="M 177.3681182861328 122.68822479248047 C 161.951171875 126.24341583251953 178.96530151367188 121.70529174804688 159.84254455566406 130.3889923095703" fill="none" stroke="rgb(0, 0, 0)" stroke-linecap="round" stroke-linejoin="round" stroke-opacity="1.0" stroke-width="3.0"/>
    <path d="M 119.23880004882812 93.94898986816406 C 95.44768524169922 49.45731735229492 102.8956298828125 85.69573974609375 98.27274322509766 44.983524322509766" fill="none" stroke="rgb(0, 0, 0)" stroke-linecap="round" stroke-linejoin="round" stroke-opacity="1.0" stroke-width="3.0"/>
    <path d="M 111.68150329589844 164.0064239501953 C 94.86642456054688 165.9520263671875 95.10408782958984 161.35903930664062 106.2426986694336 166.87815856933594" fill="none" stroke="rgb(0, 0, 0)" stroke-linecap="round" stroke-linejoin="round" stroke-opacity="1.0" stroke-width="3.0"/>
    <path d="M 188.82223510742188 157.09255981445312 C 163.5941162109375 170.6675567626953 177.12039184570312 154.83993530273438 168.0865478515625 170.45953369140625" fill="none" stroke="rgb(0, 0, 0)" stroke-linecap="round" stroke-linejoin="round" stroke-opacity="1.0" stroke-width="3.0"/>
    <path d="M 101.35138702392578 32.29429626464844 C 90.67324829101562 59.21281814575195 102.157470703125 49.453758239746094 110.43315887451172 57.94183349609375" fill="none" stroke="rgb(0, 0, 0)" stroke-linecap="round" stroke-linejoin="round" stroke-opacity="1.0" stroke-width="3.0"/>
    <path d="M 185.10845947265625 148.33311462402344 C 182.3109893798828 149.92721557617188 191.9119873046875 140.68502807617188 184.05043029785156 149.0064239501953" fill="none" stroke="rgb(0, 0, 0)" stroke-linecap="round" stroke-linejoin="round" stroke-opacity="1.0" stroke-width="3.0"/>
    <path d="M 115.25981140136719 67.19451141357422 C 124.0679931640625 70.0491714477539 116.59517669677734 66.07486724853516 124.78439331054688 64.9006576538086" fill="none" stroke="rgb(0, 0, 0)" stroke-linecap="round" stroke-linejoin="round" stroke-opacity="1.0" stroke-width="3.0"/>
    <path d="M 173.20602416992188 85.66866302490234 C 181.26576232910156 89.46580505371094 166.20907592773438 71.83274841308594 175.3824920654297 83.54071807861328" fill="none" stroke="rgb(0, 0, 0)" stroke-linecap="round" stroke-linejoin="round" stroke-opacity="1.0" stroke-width="3.0"/>
    <path d="M 119.89647674560547 161.0434112548828 C 154.9986114501953 165.23550415039062 130.30819702148438 167.96820068359375 165.97996520996094 167.62908935546875" fill="none" stroke="rgb(0, 0, 0)" stroke-linecap="round" stroke-linejoin="round" stroke-opacity="1.0" stroke-width="3.0"/>
    <path d="M 105.26956176757812 34.5953254699707 C 97.72686767578125 63.300193786621094 97.2657470703125 0.7856066823005676 137.02891540527344 33.88850402832031" fill="none" stroke="rgb(0, 0, 0)" stroke-linecap="round" stroke-linejoin="round" stroke-opacity="1.0" stroke-width="3.0"/>
    <path d="M 136.6219482421875 43.436187744140625 C 131.56680297851562 20.3979549407959 143.89837646484375 41.8564567565918 138.70950317382812 55.663902282714844" fill="none" stroke="rgb(0, 0, 0)" stroke-linecap="round" stroke-linejoin="round" stroke-opacity="1.0" stroke-width="3.0"/>
  </g>
</svg>
