<?xml version="1.0" ?>
<svg height="224" version="1.1" width="224" xmlns="http://www.w3.org/2000/svg">
  <defs/>
  <g>
    <path d="M 98.07273864746094 154.6287841796875 C 111.87261962890625 161.1410369873047 42.85513687133789 86.61631774902344 99.3228759765625 52.28849792480469" fill="none" stroke="rgb(0, 0, 0)" stroke-linecap="round" stroke-linejoin="round" stroke-opacity="1.0" stroke-width="3.0"/>
    <path d="M 111.05891418457031 140.66213989257812 C 193.28627014160156 114.89010620117188 140.3300323486328 137.43252563476562 151.62936401367188 61.74126052856445" fill="none" stroke="rgb(0, 0, 0)" stroke-linecap="round" stroke-linejoin="round" stroke-opacity="1.0" stroke-width="3.0"/>
    <path d="M 133.6502227783203 48.32730484008789 C 186.48532104492188 63.77998352050781 170.87078857421875 99.11812591552734 170.13168334960938 97.43818664550781" fill="none" stroke="rgb(0, 0, 0)" stroke-linecap="round" stroke-linejoin="round" stroke-opacity="1.0" stroke-width="3.0"/>
    <path d="M 141.5775146484375 52.64348220825195 C 112.96202087402344 112.01173400878906 108.97511291503906 56.359779357910156 122.15298461914062 98.89009094238281" fill="none" stroke="rgb(0, 0, 0)" stroke-linecap="round" stroke-linejoin="round" stroke-opacity="1.0" stroke-width="3.0"/>
    <path d="M 127.84060668945312 32.06083297729492 C 148.85423278808594 45.91872787475586 134.69781494140625 109.04999542236328 121.95097351074219 98.12635040283203" fill="none" stroke="rgb(0, 0, 0)" stroke-linecap="round" stroke-linejoin="round" stroke-opacity="1.0" stroke-width="3.0"/>
    <path d="M 169.22071838378906 95.00438690185547 C 177.78173828125 112.04792022705078 172.71218872070312 101.83365631103516 185.04151916503906 133.91664123535156" fill="none" stroke="rgb(0, 0, 0)" stroke-linecap="round" stroke-linejoin="round" stroke-opacity="1.0" stroke-width="3.0"/>
    <path d="M 128.26885986328125 94.79351806640625 C 95.12442779541016 73.60808563232422 81.36675262451172 47.03752136230469 115.2699966430664 29.291059494018555" fill="none" stroke="rgb(0, 0, 0)" stroke-linecap="round" stroke-linejoin="round" stroke-opacity="1.0" stroke-width="3.0"/>
    <path d="M 97.805419921875 140.32640075683594 C 157.43771362304688 122.53137969970703 111.52108764648438 177.765380859375 95.5587158203125 158.69708251953125" fill="none" stroke="rgb(0, 0, 0)" stroke-linecap="round" stroke-linejoin="round" stroke-opacity="1.0" stroke-width="3.0"/>
    <path d="M 196.27291870117188 123.53919219970703 C 189.48683166503906 152.68157958984375 212.30670166015625 147.81629943847656 172.3377227783203 169.24456787109375" fill="none" stroke="rgb(0, 0, 0)" stroke-linecap="round" stroke-linejoin="round" stroke-opacity="1.0" stroke-width="3.0"/>
    <path d="M 129.65982055664062 37.402870178222656 C 50.49466323852539 35.212745666503906 149.12142944335938 59.83180236816406 109.13885498046875 54.948978424072266" fill="none" stroke="rgb(0, 0, 0)" stroke-linecap="round" stroke-linejoin="round" stroke-opacity="1.0" stroke-width="3.0"/>
    <path d="M 167.42227172851562 148.3530731201172 C 184.90945434570312 133.65158081054688 172.84249877929688 149.99911499023438 194.37879943847656 120.00234985351562" fill="none" stroke="rgb(0, 0, 0)" stroke-linecap="round" stroke-linejoin="round" stroke-opacity="1.0" stroke-width="3.0"/>
    <path d="M 106.91404724121094 64.27581787109375 C 97.59392547607422 80.3044662475586 138.9335479736328 69.8680419921875 117.68859100341797 67.37760162353516" fill="none" stroke="rgb(0, 0, 0)" stroke-linecap="round" stroke-linejoin="round" stroke-opacity="1.0" stroke-width="3.0"/>
    <path d="M 164.27169799804688 67.18180084228516 C 163.8987579345703 82.9180679321289 167.69496154785156 68.6526870727539 170.17819213867188 88.66661834716797" fill="none" stroke="rgb(0, 0, 0)" stroke-linecap="round" stroke-linejoin="round" stroke-opacity="1.0" stroke-width="3.0"/>
    <path d="M 109.18675994873047 157.31434631347656 C 156.49110412597656 163.44932556152344 124.17097473144531 162.7799530029297 169.46414184570312 147.65382385253906" fill="none" stroke="rgb(0, 0, 0)" stroke-linecap="round" stroke-linejoin="round" stroke-opacity="1.0" stroke-width="3.0"/>
    <path d="M 121.51203155517578 29.551660537719727 C 66.36035919189453 67.0854263305664 128.92774963378906 -16.681737899780273 141.12388610839844 53.16056823730469" fill="none" stroke="rgb(0, 0, 0)" stroke-linecap="round" stroke-linejoin="round" stroke-opacity="1.0" stroke-width="3.0"/>
    <path d="M 134.88858032226562 52.69520568847656 C 110.20598602294922 14.088132858276367 159.29725646972656 72.29436492919922 130.14329528808594 57.886375427246094" fill="none" stroke="rgb(0, 0, 0)" stroke-linecap="round" stroke-linejoin="round" stroke-opacity="1.0" stroke-width="3.0"/>
  </g>
</svg>
