<?xml version="1.0" ?>
<svg height="224" version="1.1" width="224" xmlns="http://www.w3.org/2000/svg">
  <defs/>
  <g>
    <path d="M 37.101287841796875 48.01460647583008 C 82.72831726074219 69.93101501464844 36.85989761352539 47.19862747192383 96.63831329345703 101.18486022949219" fill="none" stroke="rgb(0, 0, 0)" stroke-linecap="round" stroke-linejoin="round" stroke-opacity="1.0" stroke-width="3.0"/>
    <path d="M 28.249526977539062 113.6540298461914 C 66.58552551269531 190.2188262939453 50.96476364135742 134.79969787597656 66.54061889648438 185.54183959960938" fill="none" stroke="rgb(0, 0, 0)" stroke-linecap="round" stroke-linejoin="round" stroke-opacity="1.0" stroke-width="3.0"/>
    <path d="M 93.02940368652344 110.55538940429688 C 62.147552490234375 58.17390060424805 87.0572509765625 109.84159088134766 113.76958465576172 72.50769805908203" fill="none" stroke="rgb(0, 0, 0)" stroke-linecap="round" stroke-linejoin="round" stroke-opacity="1.0" stroke-width="3.0"/>
    <path d="M 106.53215789794922 34.393638610839844 C 127.20930480957031 98.62208557128906 107.2158432006836 83.84880828857422 97.04700469970703 111.12617492675781" fill="none" stroke="rgb(0, 0, 0)" stroke-linecap="round" stroke-linejoin="round" stroke-opacity="1.0" stroke-width="3.0"/>
    <path d="M 65.31890869140625 40.90432357788086 C 70.3134765625 35.4447021484375 158.89031982421875 58.658138275146484 85.1239013671875 61.14022445678711" fill="none" stroke="rgb(0, 0, 0)" stroke-linecap="round" stroke-linejoin="round" stroke-opacity="1.0" stroke-width="3.0"/>
    <path d="M 155.69427490234375 99.93571472167969 C 145.35806274414062 104.15665435791016 135.9007110595703 129.36024475097656 128.25726318359375 160.2515869140625" fill="none" stroke="rgb(0, 0, 0)" stroke-linecap="round" stroke-linejoin="round" stroke-opacity="1.0" stroke-width="3.0"/>
    <path d="M 74.18124389648438 44.94673156738281 C 102.06455993652344 21.033613204956055 79.61387634277344 64.00682067871094 103.945068359375 42.3271369934082" fill="none" stroke="rgb(0, 0, 0)" stroke-linecap="round" stroke-linejoin="round" stroke-opacity="1.0" stroke-width="3.0"/>
    <path d="M 50.99102020263672 211.38763427734375 C 25.532276153564453 222.48143005371094 23.27113914489746 219.74673461914062 15.392695426940918 172.74166870117188" fill="none" stroke="rgb(0, 0, 0)" stroke-linecap="round" stroke-linejoin="round" stroke-opacity="1.0" stroke-width="3.0"/>
    <path d="M 103.85833740234375 195.8046875 C 91.08775329589844 218.22122192382812 111.30419158935547 200.28878784179688 76.67962646484375 232.0345916748047" fill="none" stroke="rgb(0, 0, 0)" stroke-linecap="round" stroke-linejoin="round" stroke-opacity="1.0" stroke-width="3.0"/>
    <path d="M 42.3471565246582 41.35987091064453 C 70.40876007080078 9.831391334533691 50.32844161987305 43.58546447753906 78.01576232910156 12.449990272521973" fill="none" stroke="rgb(0, 0, 0)" stroke-linecap="round" stroke-linejoin="round" stroke-opacity="1.0" stroke-width="3.0"/>
    <path d="M 171.16928100585938 157.57879638671875 C 165.39959716796875 111.2999267578125 186.85635375976562 133.77407836914062 159.72113037109375 93.68120574951172" fill="none" stroke="rgb(0, 0, 0)" stroke-linecap="round" stroke-linejoin="round" stroke-opacity="1.0" stroke-width="3.0"/>
    <path d="M 119.05404663085938 67.20040130615234 C 96.2732925415039 81.89682006835938 178.82640075683594 99.2508773803711 142.7708740234375 71.78022003173828" fill="none" stroke="rgb(0, 0, 0)" stroke-linecap="round" stroke-linejoin="round" stroke-opacity="1.0" stroke-width="3.0"/>
    <path d="M 136.12228393554688 46.08915328979492 C 156.50498962402344 89.73060607910156 140.0355224609375 82.14280700683594 158.4771270751953 92.55461883544922" fill="none" stroke="rgb(0, 0, 0)" stroke-linecap="round" stroke-linejoin="round" stroke-opacity="1.0" stroke-width="3.0"/>
    <path d="M 171.727294921875 159.14859008789062 C 149.42649841308594 231.52947998046875 153.69290161132812 168.93087768554688 156.36341857910156 226.2775115966797" fill="none" stroke="rgb(0, 0, 0)" stroke-linecap="round" stroke-linejoin="round" stroke-opacity="1.0" stroke-width="3.0"/>
    <path d="M 109.41876983642578 3.1306827068328857 C 167.1524200439453 35.42638397216797 139.7802734375 25.546226501464844 164.2429962158203 35.70686721801758" fill="none" stroke="rgb(0, 0, 0)" stroke-linecap="round" stroke-linejoin="round" stroke-opacity="1.0" stroke-width="3.0"/>
    <path d="M 116.58727264404297 19.170413970947266 C 138.63169860839844 38.092105865478516 110.43199157714844 22.808164596557617 148.718505859375 61.4801139831543" fill="none" stroke="rgb(0, 0, 0)" stroke-linecap="round" stroke-linejoin="round" stroke-opacity="1.0" stroke-width="3.0"/>
  </g>
</svg>
