<?xml version="1.0" ?>
<svg height="224" version="1.1" width="224" xmlns="http://www.w3.org/2000/svg">
  <defs/>
  <g>
    <path d="M 33.868980407714844 50.732906341552734 C 82.40676879882812 90.3923110961914 40.303226470947266 69.63294219970703 86.66264343261719 98.54132843017578" fill="none" stroke="rgb(0, 0, 0)" stroke-linecap="round" stroke-linejoin="round" stroke-opacity="1.0" stroke-width="3.0"/>
    <path d="M 28.6754150390625 118.15541076660156 C 66.26496887207031 177.31802368164062 66.32488250732422 147.56228637695312 70.0384521484375 172.5994415283203" fill="none" stroke="rgb(0, 0, 0)" stroke-linecap="round" stroke-linejoin="round" stroke-opacity="1.0" stroke-width="3.0"/>
    <path d="M 93.07394409179688 111.28884887695312 C 75.50048065185547 81.96842193603516 83.141357421875 108.55721282958984 114.78778076171875 90.90548706054688" fill="none" stroke="rgb(0, 0, 0)" stroke-linecap="round" stroke-linejoin="round" stroke-opacity="1.0" stroke-width="3.0"/>
    <path d="M 130.7045135498047 47.10685348510742 C 138.75038146972656 99.58590698242188 122.0824966430664 72.5306625366211 95.97915649414062 113.6728744506836" fill="none" stroke="rgb(0, 0, 0)" stroke-linecap="round" stroke-linejoin="round" stroke-opacity="1.0" stroke-width="3.0"/>
    <path d="M 53.3575553894043 41.721717834472656 C 80.32135009765625 47.53438949584961 97.25566864013672 36.32483673095703 68.99562072753906 46.877628326416016" fill="none" stroke="rgb(0, 0, 0)" stroke-linecap="round" stroke-linejoin="round" stroke-opacity="1.0" stroke-width="3.0"/>
    <path d="M 153.3400115966797 99.35242462158203 C 146.037841796875 106.67364501953125 141.298095703125 114.65757751464844 130.5295867919922 154.90695190429688" fill="none" stroke="rgb(0, 0, 0)" stroke-linecap="round" stroke-linejoin="round" stroke-opacity="1.0" stroke-width="3.0"/>
    <path d="M 83.1833267211914 42.482879638671875 C 83.94554138183594 32.75714874267578 108.20966339111328 36.339759826660156 100.34719848632812 35.58985137939453" fill="none" stroke="rgb(0, 0, 0)" stroke-linecap="round" stroke-linejoin="round" stroke-opacity="1.0" stroke-width="3.0"/>
    <path d="M 55.66649627685547 205.5278778076172 C 23.49913787841797 196.27085876464844 35.503910064697266 198.18667602539062 15.472519874572754 184.03961181640625" fill="none" stroke="rgb(0, 0, 0)" stroke-linecap="round" stroke-linejoin="round" stroke-opacity="1.0" stroke-width="3.0"/>
    <path d="M 117.38438415527344 195.4514617919922 C 104.41522216796875 212.95260620117188 116.47069549560547 192.52114868164062 82.37876892089844 223.1533203125" fill="none" stroke="rgb(0, 0, 0)" stroke-linecap="round" stroke-linejoin="round" stroke-opacity="1.0" stroke-width="3.0"/>
    <path d="M 40.76197052001953 35.046363830566406 C 61.627685546875 46.12754440307617 58.91468048095703 40.33833312988281 66.62236785888672 21.188312530517578" fill="none" stroke="rgb(0, 0, 0)" stroke-linecap="round" stroke-linejoin="round" stroke-opacity="1.0" stroke-width="3.0"/>
    <path d="M 163.56967163085938 189.0204620361328 C 176.67601013183594 142.6953887939453 182.9124298095703 164.16519165039062 169.49603271484375 107.21170806884766" fill="none" stroke="rgb(0, 0, 0)" stroke-linecap="round" stroke-linejoin="round" stroke-opacity="1.0" stroke-width="3.0"/>
    <path d="M 132.8529510498047 61.273189544677734 C 124.73831176757812 69.98393249511719 162.22036743164062 91.43852233886719 138.3082733154297 62.58641815185547" fill="none" stroke="rgb(0, 0, 0)" stroke-linecap="round" stroke-linejoin="round" stroke-opacity="1.0" stroke-width="3.0"/>
    <path d="M 138.94688415527344 45.26886749267578 C 148.77183532714844 99.86902618408203 131.66505432128906 75.29924011230469 150.21713256835938 88.89640808105469" fill="none" stroke="rgb(0, 0, 0)" stroke-linecap="round" stroke-linejoin="round" stroke-opacity="1.0" stroke-width="3.0"/>
    <path d="M 163.01832580566406 191.71360778808594 C 147.69790649414062 210.81410217285156 153.39349365234375 182.9989776611328 158.01458740234375 222.7081298828125" fill="none" stroke="rgb(0, 0, 0)" stroke-linecap="round" stroke-linejoin="round" stroke-opacity="1.0" stroke-width="3.0"/>
    <path d="M 139.92323303222656 19.99360466003418 C 157.92971801757812 30.970380783081055 143.4466094970703 29.01150131225586 164.26280212402344 35.34383010864258" fill="none" stroke="rgb(0, 0, 0)" stroke-linecap="round" stroke-linejoin="round" stroke-opacity="1.0" stroke-width="3.0"/>
    <path d="M 129.590087890625 19.261829376220703 C 148.62518310546875 44.1539421081543 126.51774597167969 31.358659744262695 143.46542358398438 53.947818756103516" fill="none" stroke="rgb(0, 0, 0)" stroke-linecap="round" stroke-linejoin="round" stroke-opacity="1.0" stroke-width="3.0"/>
  </g>
</svg>
