<?xml version="1.0" ?>
<svg height="224" version="1.1" width="224" xmlns="http://www.w3.org/2000/svg">
  <defs/>
  <g>
    <path d="M 36.55571365356445 48.85066223144531 C 77.3405532836914 74.48517608642578 37.976314544677734 51.2929573059082 95.94562530517578 99.9308090209961" fill="none" stroke="rgb(0, 0, 0)" stroke-linecap="round" stroke-linejoin="round" stroke-opacity="1.0" stroke-width="3.0"/>
    <path d="M 28.450376510620117 114.1851577758789 C 71.76738739013672 189.10353088378906 54.17092514038086 131.3417205810547 74.44589233398438 188.07632446289062" fill="none" stroke="rgb(0, 0, 0)" stroke-linecap="round" stroke-linejoin="round" stroke-opacity="1.0" stroke-width="3.0"/>
    <path d="M 94.30989837646484 110.28939056396484 C 62.66841125488281 56.91120147705078 88.01534271240234 107.8963623046875 115.2536849975586 72.88318634033203" fill="none" stroke="rgb(0, 0, 0)" stroke-linecap="round" stroke-linejoin="round" stroke-opacity="1.0" stroke-width="3.0"/>
    <path d="M 105.26083374023438 35.61954116821289 C 132.3076171875 95.71703338623047 106.50829315185547 84.19258880615234 98.35310363769531 109.36050415039062" fill="none" stroke="rgb(0, 0, 0)" stroke-linecap="round" stroke-linejoin="round" stroke-opacity="1.0" stroke-width="3.0"/>
    <path d="M 66.72944641113281 42.39122009277344 C 71.46244812011719 33.755130767822266 158.5137481689453 61.08066940307617 84.68717956542969 63.57379150390625" fill="none" stroke="rgb(0, 0, 0)" stroke-linecap="round" stroke-linejoin="round" stroke-opacity="1.0" stroke-width="3.0"/>
    <path d="M 153.8912353515625 98.02275085449219 C 144.54981994628906 105.60675811767578 135.77293395996094 128.71456909179688 129.1273651123047 158.60035705566406" fill="none" stroke="rgb(0, 0, 0)" stroke-linecap="round" stroke-linejoin="round" stroke-opacity="1.0" stroke-width="3.0"/>
    <path d="M 73.41646575927734 48.78801727294922 C 97.77574920654297 25.0989990234375 79.61819458007812 64.52764892578125 103.90660858154297 44.350887298583984" fill="none" stroke="rgb(0, 0, 0)" stroke-linecap="round" stroke-linejoin="round" stroke-opacity="1.0" stroke-width="3.0"/>
    <path d="M 52.10036087036133 212.30038452148438 C 26.614126205444336 219.4271697998047 25.861650466918945 216.4742431640625 15.476497650146484 169.75299072265625" fill="none" stroke="rgb(0, 0, 0)" stroke-linecap="round" stroke-linejoin="round" stroke-opacity="1.0" stroke-width="3.0"/>
    <path d="M 103.50284576416016 194.81610107421875 C 88.32786560058594 218.57806396484375 112.77418518066406 199.1313934326172 75.5080795288086 230.189453125" fill="none" stroke="rgb(0, 0, 0)" stroke-linecap="round" stroke-linejoin="round" stroke-opacity="1.0" stroke-width="3.0"/>
    <path d="M 43.834991455078125 44.00004196166992 C 70.17935943603516 10.73743724822998 48.385738372802734 40.69234848022461 80.9615249633789 9.7759428024292" fill="none" stroke="rgb(0, 0, 0)" stroke-linecap="round" stroke-linejoin="round" stroke-opacity="1.0" stroke-width="3.0"/>
    <path d="M 172.3295135498047 157.7335662841797 C 165.70411682128906 109.62784576416016 188.33966064453125 132.0613555908203 159.87391662597656 93.38957977294922" fill="none" stroke="rgb(0, 0, 0)" stroke-linecap="round" stroke-linejoin="round" stroke-opacity="1.0" stroke-width="3.0"/>
    <path d="M 115.0867691040039 62.63496017456055 C 96.3578109741211 76.2077865600586 180.5371551513672 99.22779846191406 142.9646759033203 69.93604278564453" fill="none" stroke="rgb(0, 0, 0)" stroke-linecap="round" stroke-linejoin="round" stroke-opacity="1.0" stroke-width="3.0"/>
    <path d="M 136.2506866455078 47.14900588989258 C 157.0187225341797 87.5221176147461 141.70986938476562 83.41815948486328 158.8540802001953 92.57658386230469" fill="none" stroke="rgb(0, 0, 0)" stroke-linecap="round" stroke-linejoin="round" stroke-opacity="1.0" stroke-width="3.0"/>
    <path d="M 172.39968872070312 159.62225341796875 C 151.41542053222656 230.2080535888672 156.44859313964844 167.6555633544922 157.5044708251953 226.09249877929688" fill="none" stroke="rgb(0, 0, 0)" stroke-linecap="round" stroke-linejoin="round" stroke-opacity="1.0" stroke-width="3.0"/>
    <path d="M 109.2906265258789 3.614414930343628 C 164.92388916015625 35.75592041015625 135.18077087402344 28.78691864013672 164.0971221923828 37.95009231567383" fill="none" stroke="rgb(0, 0, 0)" stroke-linecap="round" stroke-linejoin="round" stroke-opacity="1.0" stroke-width="3.0"/>
    <path d="M 116.61186218261719 18.13437271118164 C 137.6761932373047 42.12639617919922 110.16637420654297 27.891616821289062 145.65640258789062 60.41958236694336" fill="none" stroke="rgb(0, 0, 0)" stroke-linecap="round" stroke-linejoin="round" stroke-opacity="1.0" stroke-width="3.0"/>
  </g>
</svg>
