<?xml version="1.0" ?>
<svg height="224" version="1.1" width="224" xmlns="http://www.w3.org/2000/svg">
  <defs/>
  <g>
    <path d="M 35.481666564941406 52.26010513305664 C 80.80288696289062 91.3848876953125 40.58563995361328 69.39161682128906 86.2392578125 98.87755584716797" fill="none" stroke="rgb(0, 0, 0)" stroke-linecap="round" stroke-linejoin="round" stroke-opacity="1.0" stroke-width="3.0"/>
    <path d="M 28.786123275756836 117.47954559326172 C 66.49708557128906 175.5296173095703 73.148193359375 144.27371215820312 75.50580596923828 173.9251251220703" fill="none" stroke="rgb(0, 0, 0)" stroke-linecap="round" stroke-linejoin="round" stroke-opacity="1.0" stroke-width="3.0"/>
    <path d="M 94.09467315673828 114.68041229248047 C 76.5519027709961 83.824951171875 81.62416076660156 109.96485137939453 115.69742584228516 93.43152618408203" fill="none" stroke="rgb(0, 0, 0)" stroke-linecap="round" stroke-linejoin="round" stroke-opacity="1.0" stroke-width="3.0"/>
    <path d="M 133.83848571777344 59.179481506347656 C 141.93353271484375 102.28343200683594 122.71646881103516 73.01966857910156 98.35934448242188 112.49659729003906" fill="none" stroke="rgb(0, 0, 0)" stroke-linecap="round" stroke-linejoin="round" stroke-opacity="1.0" stroke-width="3.0"/>
    <path d="M 54.341766357421875 39.90738296508789 C 80.49240112304688 48.87937545776367 95.60357666015625 41.85053253173828 67.63086700439453 44.5028076171875" fill="none" stroke="rgb(0, 0, 0)" stroke-linecap="round" stroke-linejoin="round" stroke-opacity="1.0" stroke-width="3.0"/>
    <path d="M 150.84217834472656 99.65918731689453 C 144.33766174316406 105.38582611083984 138.6512451171875 111.81208038330078 129.66452026367188 150.76535034179688" fill="none" stroke="rgb(0, 0, 0)" stroke-linecap="round" stroke-linejoin="round" stroke-opacity="1.0" stroke-width="3.0"/>
    <path d="M 83.24322509765625 46.2611083984375 C 79.88359069824219 33.47187042236328 108.85872650146484 35.34373092651367 97.98854064941406 38.14920425415039" fill="none" stroke="rgb(0, 0, 0)" stroke-linecap="round" stroke-linejoin="round" stroke-opacity="1.0" stroke-width="3.0"/>
    <path d="M 63.76074981689453 204.41299438476562 C 26.09358787536621 194.82164001464844 39.822227478027344 194.45199584960938 17.317298889160156 181.25140380859375" fill="none" stroke="rgb(0, 0, 0)" stroke-linecap="round" stroke-linejoin="round" stroke-opacity="1.0" stroke-width="3.0"/>
    <path d="M 118.11212921142578 193.271728515625 C 106.5020751953125 208.84967041015625 119.99187469482422 195.89593505859375 81.78060913085938 217.07611083984375" fill="none" stroke="rgb(0, 0, 0)" stroke-linecap="round" stroke-linejoin="round" stroke-opacity="1.0" stroke-width="3.0"/>
    <path d="M 42.42527389526367 31.7340145111084 C 59.242149353027344 47.6389045715332 58.949405670166016 39.63869857788086 63.68274688720703 24.52716827392578" fill="none" stroke="rgb(0, 0, 0)" stroke-linecap="round" stroke-linejoin="round" stroke-opacity="1.0" stroke-width="3.0"/>
    <path d="M 161.48631286621094 187.90005493164062 C 175.95596313476562 143.50953674316406 180.48873901367188 162.87551879882812 168.57662963867188 108.87521362304688" fill="none" stroke="rgb(0, 0, 0)" stroke-linecap="round" stroke-linejoin="round" stroke-opacity="1.0" stroke-width="3.0"/>
    <path d="M 135.5458526611328 60.75566864013672 C 129.8986358642578 72.1089096069336 163.6136474609375 90.98836517333984 140.84654235839844 68.33111572265625" fill="none" stroke="rgb(0, 0, 0)" stroke-linecap="round" stroke-linejoin="round" stroke-opacity="1.0" stroke-width="3.0"/>
    <path d="M 138.73727416992188 44.58891677856445 C 149.04624938964844 99.39399719238281 133.00692749023438 73.26615905761719 147.52273559570312 88.51139831542969" fill="none" stroke="rgb(0, 0, 0)" stroke-linecap="round" stroke-linejoin="round" stroke-opacity="1.0" stroke-width="3.0"/>
    <path d="M 162.10855102539062 188.86526489257812 C 149.3293914794922 207.2094268798828 155.42835998535156 181.8028106689453 157.07196044921875 221.93788146972656" fill="none" stroke="rgb(0, 0, 0)" stroke-linecap="round" stroke-linejoin="round" stroke-opacity="1.0" stroke-width="3.0"/>
    <path d="M 141.03501892089844 23.363962173461914 C 159.7428436279297 31.333736419677734 143.37881469726562 28.233070373535156 164.3524932861328 35.885860443115234" fill="none" stroke="rgb(0, 0, 0)" stroke-linecap="round" stroke-linejoin="round" stroke-opacity="1.0" stroke-width="3.0"/>
    <path d="M 133.76524353027344 16.546188354492188 C 145.52891540527344 45.297828674316406 127.70713806152344 29.353832244873047 143.22537231445312 51.67977523803711" fill="none" stroke="rgb(0, 0, 0)" stroke-linecap="round" stroke-linejoin="round" stroke-opacity="1.0" stroke-width="3.0"/>
  </g>
</svg>
