<?xml version="1.0" ?>
<svg height="224" version="1.1" width="224" xmlns="http://www.w3.org/2000/svg">
  <defs/>
  <g>
    <path d="M 37.00609588623047 50.97462463378906 C 76.4593734741211 74.61112976074219 41.90959930419922 55.49067306518555 92.92447662353516 102.0609359741211" fill="none" stroke="rgb(0, 0, 0)" stroke-linecap="round" stroke-linejoin="round" stroke-opacity="1.0" stroke-width="3.0"/>
    <path d="M 26.645503997802734 114.87908172607422 C 75.01632690429688 190.04556274414062 55.66938018798828 126.80806732177734 80.9186782836914 187.50083923339844" fill="none" stroke="rgb(0, 0, 0)" stroke-linecap="round" stroke-linejoin="round" stroke-opacity="1.0" stroke-width="3.0"/>
    <path d="M 91.91255950927734 111.60847473144531 C 60.998783111572266 58.985843658447266 83.39048767089844 105.8929443359375 114.00469970703125 70.8262710571289" fill="none" stroke="rgb(0, 0, 0)" stroke-linecap="round" stroke-linejoin="round" stroke-opacity="1.0" stroke-width="3.0"/>
    <path d="M 103.598876953125 38.857295989990234 C 128.5386199951172 98.81832122802734 106.73316955566406 86.40123748779297 94.96086120605469 111.05866241455078" fill="none" stroke="rgb(0, 0, 0)" stroke-linecap="round" stroke-linejoin="round" stroke-opacity="1.0" stroke-width="3.0"/>
    <path d="M 72.02046966552734 46.27580261230469 C 67.05635070800781 41.336456298828125 159.02076721191406 55.366607666015625 83.9254150390625 63.82639694213867" fill="none" stroke="rgb(0, 0, 0)" stroke-linecap="round" stroke-linejoin="round" stroke-opacity="1.0" stroke-width="3.0"/>
    <path d="M 151.50682067871094 96.76478576660156 C 143.2185821533203 104.98725891113281 136.27281188964844 128.46926879882812 130.76622009277344 159.9153594970703" fill="none" stroke="rgb(0, 0, 0)" stroke-linecap="round" stroke-linejoin="round" stroke-opacity="1.0" stroke-width="3.0"/>
    <path d="M 75.02825927734375 49.098209381103516 C 97.95084381103516 29.141124725341797 78.88215637207031 65.37936401367188 105.25891876220703 42.716609954833984" fill="none" stroke="rgb(0, 0, 0)" stroke-linecap="round" stroke-linejoin="round" stroke-opacity="1.0" stroke-width="3.0"/>
    <path d="M 49.64714431762695 211.28050231933594 C 24.999042510986328 220.0338897705078 24.643421173095703 214.4315185546875 16.44436264038086 169.8825225830078" fill="none" stroke="rgb(0, 0, 0)" stroke-linecap="round" stroke-linejoin="round" stroke-opacity="1.0" stroke-width="3.0"/>
    <path d="M 103.08946228027344 196.7401885986328 C 89.91669464111328 217.9862823486328 109.61793518066406 199.98045349121094 76.48461151123047 231.6081085205078" fill="none" stroke="rgb(0, 0, 0)" stroke-linecap="round" stroke-linejoin="round" stroke-opacity="1.0" stroke-width="3.0"/>
    <path d="M 43.18679428100586 43.51659393310547 C 67.32794952392578 9.201020240783691 48.32816696166992 39.72893524169922 78.95481872558594 8.165942192077637" fill="none" stroke="rgb(0, 0, 0)" stroke-linecap="round" stroke-linejoin="round" stroke-opacity="1.0" stroke-width="3.0"/>
    <path d="M 172.05892944335938 159.29913330078125 C 167.73439025878906 109.25242614746094 188.72450256347656 133.1754913330078 161.00897216796875 92.10679626464844" fill="none" stroke="rgb(0, 0, 0)" stroke-linecap="round" stroke-linejoin="round" stroke-opacity="1.0" stroke-width="3.0"/>
    <path d="M 112.03341674804688 61.171043395996094 C 99.98846435546875 73.34333038330078 183.890869140625 99.66402435302734 144.80332946777344 71.73992919921875" fill="none" stroke="rgb(0, 0, 0)" stroke-linecap="round" stroke-linejoin="round" stroke-opacity="1.0" stroke-width="3.0"/>
    <path d="M 135.2841033935547 46.03720474243164 C 159.19403076171875 83.76594543457031 144.62086486816406 82.07778930664062 160.2845916748047 92.93017578125" fill="none" stroke="rgb(0, 0, 0)" stroke-linecap="round" stroke-linejoin="round" stroke-opacity="1.0" stroke-width="3.0"/>
    <path d="M 172.2061309814453 159.75808715820312 C 152.2984619140625 233.67849731445312 154.6947479248047 176.2851104736328 157.05213928222656 227.08815002441406" fill="none" stroke="rgb(0, 0, 0)" stroke-linecap="round" stroke-linejoin="round" stroke-opacity="1.0" stroke-width="3.0"/>
    <path d="M 107.68480682373047 6.9413838386535645 C 166.09141540527344 32.994380950927734 134.87124633789062 26.449621200561523 164.8794708251953 37.09972381591797" fill="none" stroke="rgb(0, 0, 0)" stroke-linecap="round" stroke-linejoin="round" stroke-opacity="1.0" stroke-width="3.0"/>
    <path d="M 112.00106811523438 15.157308578491211 C 135.6612091064453 38.550567626953125 108.41596221923828 26.92031478881836 144.7320098876953 57.18534851074219" fill="none" stroke="rgb(0, 0, 0)" stroke-linecap="round" stroke-linejoin="round" stroke-opacity="1.0" stroke-width="3.0"/>
  </g>
</svg>
