<?xml version="1.0" ?>
<svg height="224" version="1.1" width="224" xmlns="http://www.w3.org/2000/svg">
  <defs/>
  <g>
    <path d="M 34.63053894042969 50.91047668457031 C 63.717979431152344 76.54788208007812 19.490943908691406 34.62175750732422 89.13296508789062 87.458251953125" fill="none" stroke="rgb(0, 0, 0)" stroke-linecap="round" stroke-linejoin="round" stroke-opacity="1.0" stroke-width="3.0"/>
    <path d="M 27.20408821105957 113.08831024169922 C 69.48883056640625 186.3957061767578 50.6126594543457 127.82891082763672 79.47844696044922 184.1567840576172" fill="none" stroke="rgb(0, 0, 0)" stroke-linecap="round" stroke-linejoin="round" stroke-opacity="1.0" stroke-width="3.0"/>
    <path d="M 95.7577133178711 111.77731323242188 C 39.08700180053711 38.40873336791992 114.43949127197266 120.9947738647461 114.93728637695312 50.763885498046875" fill="none" stroke="rgb(0, 0, 0)" stroke-linecap="round" stroke-linejoin="round" stroke-opacity="1.0" stroke-width="3.0"/>
    <path d="M 105.68931579589844 21.697223663330078 C 131.3627166748047 112.98155975341797 105.4588394165039 87.16156768798828 94.65327453613281 116.9095687866211" fill="none" stroke="rgb(0, 0, 0)" stroke-linecap="round" stroke-linejoin="round" stroke-opacity="1.0" stroke-width="3.0"/>
    <path d="M 79.13304138183594 63.77136993408203 C 68.33201599121094 40.840030670166016 132.61825561523438 62.20297622680664 88.9160385131836 60.70664596557617" fill="none" stroke="rgb(0, 0, 0)" stroke-linecap="round" stroke-linejoin="round" stroke-opacity="1.0" stroke-width="3.0"/>
    <path d="M 151.27593994140625 99.23516845703125 C 142.16314697265625 103.33047485351562 134.9864044189453 128.8843536376953 130.2157745361328 153.4587860107422" fill="none" stroke="rgb(0, 0, 0)" stroke-linecap="round" stroke-linejoin="round" stroke-opacity="1.0" stroke-width="3.0"/>
    <path d="M 77.42929077148438 40.09396743774414 C 126.14864349365234 30.172868728637695 42.594356536865234 78.54084777832031 104.56627655029297 31.0260066986084" fill="none" stroke="rgb(0, 0, 0)" stroke-linecap="round" stroke-linejoin="round" stroke-opacity="1.0" stroke-width="3.0"/>
    <path d="M 62.827449798583984 225.40524291992188 C 7.345873832702637 208.94944763183594 30.17127227783203 206.9339141845703 17.939882278442383 174.1784210205078" fill="none" stroke="rgb(0, 0, 0)" stroke-linecap="round" stroke-linejoin="round" stroke-opacity="1.0" stroke-width="3.0"/>
    <path d="M 104.51714324951172 195.0533905029297 C 91.50917053222656 215.1439971923828 106.43486022949219 187.6626434326172 69.43183898925781 230.63185119628906" fill="none" stroke="rgb(0, 0, 0)" stroke-linecap="round" stroke-linejoin="round" stroke-opacity="1.0" stroke-width="3.0"/>
    <path d="M 37.12253952026367 45.57154083251953 C 72.13841247558594 18.77836799621582 31.907840728759766 31.562828063964844 92.48320770263672 5.079364776611328" fill="none" stroke="rgb(0, 0, 0)" stroke-linecap="round" stroke-linejoin="round" stroke-opacity="1.0" stroke-width="3.0"/>
    <path d="M 173.43081665039062 150.73672485351562 C 167.1343231201172 112.39602661132812 184.24676513671875 131.25088500976562 162.9290771484375 99.00440979003906" fill="none" stroke="rgb(0, 0, 0)" stroke-linecap="round" stroke-linejoin="round" stroke-opacity="1.0" stroke-width="3.0"/>
    <path d="M 112.57931518554688 70.22562408447266 C 108.4654541015625 74.24968719482422 175.13021850585938 108.12625122070312 146.44435119628906 67.50052642822266" fill="none" stroke="rgb(0, 0, 0)" stroke-linecap="round" stroke-linejoin="round" stroke-opacity="1.0" stroke-width="3.0"/>
    <path d="M 144.39248657226562 45.97795104980469 C 157.80873107910156 99.01605987548828 140.16769409179688 81.3038330078125 163.09164428710938 97.94756317138672" fill="none" stroke="rgb(0, 0, 0)" stroke-linecap="round" stroke-linejoin="round" stroke-opacity="1.0" stroke-width="3.0"/>
    <path d="M 173.81515502929688 152.3323974609375 C 152.37258911132812 233.2978515625 149.5972900390625 168.6017303466797 156.7693634033203 232.0665740966797" fill="none" stroke="rgb(0, 0, 0)" stroke-linecap="round" stroke-linejoin="round" stroke-opacity="1.0" stroke-width="3.0"/>
    <path d="M 94.27207946777344 6.402705192565918 C 164.4237823486328 27.306976318359375 133.4396514892578 31.186824798583984 164.49618530273438 37.167327880859375" fill="none" stroke="rgb(0, 0, 0)" stroke-linecap="round" stroke-linejoin="round" stroke-opacity="1.0" stroke-width="3.0"/>
    <path d="M 104.26266479492188 4.788661956787109 C 154.8771209716797 46.220706939697266 111.67430877685547 8.53967571258545 150.13986206054688 56.259483337402344" fill="none" stroke="rgb(0, 0, 0)" stroke-linecap="round" stroke-linejoin="round" stroke-opacity="1.0" stroke-width="3.0"/>
  </g>
</svg>
