<?xml version="1.0" ?>
<svg height="224" version="1.1" width="224" xmlns="http://www.w3.org/2000/svg">
  <defs/>
  <g>
    <path d="M 36.39922332763672 52.95051574707031 C 63.66697311401367 76.05450439453125 17.406047821044922 34.429100036621094 89.43572235107422 86.62255096435547" fill="none" stroke="rgb(0, 0, 0)" stroke-linecap="round" stroke-linejoin="round" stroke-opacity="1.0" stroke-width="3.0"/>
    <path d="M 30.134138107299805 109.16688537597656 C 71.36678314208984 186.2516326904297 48.863319396972656 132.4602508544922 78.0768814086914 184.04161071777344" fill="none" stroke="rgb(0, 0, 0)" stroke-linecap="round" stroke-linejoin="round" stroke-opacity="1.0" stroke-width="3.0"/>
    <path d="M 95.51272583007812 114.3424072265625 C 35.39028549194336 38.68891906738281 115.45126342773438 125.6968994140625 113.27432250976562 50.76591110229492" fill="none" stroke="rgb(0, 0, 0)" stroke-linecap="round" stroke-linejoin="round" stroke-opacity="1.0" stroke-width="3.0"/>
    <path d="M 103.19194793701172 20.45979881286621 C 129.7655792236328 115.6495132446289 107.12724304199219 90.06922149658203 94.45780181884766 117.98870086669922" fill="none" stroke="rgb(0, 0, 0)" stroke-linecap="round" stroke-linejoin="round" stroke-opacity="1.0" stroke-width="3.0"/>
    <path d="M 80.1298599243164 63.918338775634766 C 65.92250061035156 40.899070739746094 134.61343383789062 61.138275146484375 88.0887222290039 59.956207275390625" fill="none" stroke="rgb(0, 0, 0)" stroke-linecap="round" stroke-linejoin="round" stroke-opacity="1.0" stroke-width="3.0"/>
    <path d="M 150.6876983642578 99.17169952392578 C 143.47354125976562 104.02007293701172 135.89907836914062 130.3223114013672 129.6182861328125 158.716064453125" fill="none" stroke="rgb(0, 0, 0)" stroke-linecap="round" stroke-linejoin="round" stroke-opacity="1.0" stroke-width="3.0"/>
    <path d="M 81.80711364746094 41.53705596923828 C 129.1288604736328 29.75791358947754 44.81965255737305 77.4749984741211 104.4454116821289 32.65678405761719" fill="none" stroke="rgb(0, 0, 0)" stroke-linecap="round" stroke-linejoin="round" stroke-opacity="1.0" stroke-width="3.0"/>
    <path d="M 63.02643585205078 224.71131896972656 C 5.968493461608887 208.0849151611328 24.59876823425293 207.37425231933594 19.529651641845703 169.27146911621094" fill="none" stroke="rgb(0, 0, 0)" stroke-linecap="round" stroke-linejoin="round" stroke-opacity="1.0" stroke-width="3.0"/>
    <path d="M 107.35186004638672 192.971923828125 C 92.21067810058594 213.75428771972656 108.2767562866211 185.28970336914062 66.63550567626953 228.08021545410156" fill="none" stroke="rgb(0, 0, 0)" stroke-linecap="round" stroke-linejoin="round" stroke-opacity="1.0" stroke-width="3.0"/>
    <path d="M 35.915470123291016 41.6899528503418 C 66.83934783935547 18.661502838134766 28.54825782775879 29.912281036376953 93.19864654541016 7.8145904541015625" fill="none" stroke="rgb(0, 0, 0)" stroke-linecap="round" stroke-linejoin="round" stroke-opacity="1.0" stroke-width="3.0"/>
    <path d="M 173.19578552246094 152.07310485839844 C 167.0067138671875 113.98710632324219 185.52528381347656 132.42584228515625 161.4558868408203 98.87303161621094" fill="none" stroke="rgb(0, 0, 0)" stroke-linecap="round" stroke-linejoin="round" stroke-opacity="1.0" stroke-width="3.0"/>
    <path d="M 113.04470825195312 66.50260162353516 C 109.04530334472656 76.7376937866211 177.44850158691406 110.4312515258789 145.47251892089844 69.21821594238281" fill="none" stroke="rgb(0, 0, 0)" stroke-linecap="round" stroke-linejoin="round" stroke-opacity="1.0" stroke-width="3.0"/>
    <path d="M 144.9828643798828 44.18064498901367 C 159.09405517578125 101.24678039550781 139.5374755859375 83.78133392333984 161.1122283935547 97.14183044433594" fill="none" stroke="rgb(0, 0, 0)" stroke-linecap="round" stroke-linejoin="round" stroke-opacity="1.0" stroke-width="3.0"/>
    <path d="M 172.76736450195312 152.13514709472656 C 153.53807067871094 236.0452880859375 156.37484741210938 167.37005615234375 160.74209594726562 230.2783660888672" fill="none" stroke="rgb(0, 0, 0)" stroke-linecap="round" stroke-linejoin="round" stroke-opacity="1.0" stroke-width="3.0"/>
    <path d="M 91.80242919921875 6.574466228485107 C 167.26126098632812 23.736082077026367 130.97056579589844 30.13977813720703 164.81373596191406 34.733177185058594" fill="none" stroke="rgb(0, 0, 0)" stroke-linecap="round" stroke-linejoin="round" stroke-opacity="1.0" stroke-width="3.0"/>
    <path d="M 106.53386688232422 8.417577743530273 C 157.8083953857422 50.51997375488281 113.71234130859375 10.95346736907959 150.69329833984375 56.236122131347656" fill="none" stroke="rgb(0, 0, 0)" stroke-linecap="round" stroke-linejoin="round" stroke-opacity="1.0" stroke-width="3.0"/>
  </g>
</svg>
