<?xml version="1.0" ?>
<svg height="224" version="1.1" width="224" xmlns="http://www.w3.org/2000/svg">
  <defs/>
  <g>
    <path d="M 38.01824188232422 45.008846282958984 C 52.399253845214844 62.8780517578125 5.961878299713135 41.86455154418945 80.0795669555664 85.74321746826172" fill="none" stroke="rgb(0, 0, 0)" stroke-linecap="round" stroke-linejoin="round" stroke-opacity="1.0" stroke-width="3.0"/>
    <path d="M 31.366018295288086 114.46770477294922 C 61.3463134765625 175.6904754638672 46.931339263916016 137.48574829101562 83.379638671875 167.74342346191406" fill="none" stroke="rgb(0, 0, 0)" stroke-linecap="round" stroke-linejoin="round" stroke-opacity="1.0" stroke-width="3.0"/>
    <path d="M 94.8931655883789 110.92882537841797 C 31.79685401916504 42.04640579223633 112.23917388916016 132.93934631347656 119.24242401123047 45.815948486328125" fill="none" stroke="rgb(0, 0, 0)" stroke-linecap="round" stroke-linejoin="round" stroke-opacity="1.0" stroke-width="3.0"/>
    <path d="M 113.31499481201172 16.027158737182617 C 130.643310546875 122.66441345214844 95.6172103881836 96.978271484375 92.65753936767578 118.23169708251953" fill="none" stroke="rgb(0, 0, 0)" stroke-linecap="round" stroke-linejoin="round" stroke-opacity="1.0" stroke-width="3.0"/>
    <path d="M 92.64912414550781 72.21424102783203 C 62.34873580932617 68.40657043457031 116.8477554321289 72.07743072509766 94.51240539550781 70.4281005859375" fill="none" stroke="rgb(0, 0, 0)" stroke-linecap="round" stroke-linejoin="round" stroke-opacity="1.0" stroke-width="3.0"/>
    <path d="M 149.8594512939453 99.54259490966797 C 139.49014282226562 106.77645111083984 131.8667755126953 133.50328063964844 126.31343841552734 156.79360961914062" fill="none" stroke="rgb(0, 0, 0)" stroke-linecap="round" stroke-linejoin="round" stroke-opacity="1.0" stroke-width="3.0"/>
    <path d="M 86.67154693603516 42.200992584228516 C 146.24456787109375 60.34385681152344 24.00726890563965 56.39897918701172 105.13383483886719 44.16455841064453" fill="none" stroke="rgb(0, 0, 0)" stroke-linecap="round" stroke-linejoin="round" stroke-opacity="1.0" stroke-width="3.0"/>
    <path d="M 64.14378356933594 225.0677947998047 C 2.1529903411865234 212.62484741210938 28.49139404296875 201.53036499023438 19.060802459716797 166.57147216796875" fill="none" stroke="rgb(0, 0, 0)" stroke-linecap="round" stroke-linejoin="round" stroke-opacity="1.0" stroke-width="3.0"/>
    <path d="M 103.65070343017578 194.34002685546875 C 89.29225158691406 215.43145751953125 107.4151840209961 190.6178436279297 65.64342498779297 231.78704833984375" fill="none" stroke="rgb(0, 0, 0)" stroke-linecap="round" stroke-linejoin="round" stroke-opacity="1.0" stroke-width="3.0"/>
    <path d="M 40.72978591918945 39.79533004760742 C 65.20771026611328 23.186931610107422 31.474451065063477 31.34961700439453 84.08670806884766 9.690046310424805" fill="none" stroke="rgb(0, 0, 0)" stroke-linecap="round" stroke-linejoin="round" stroke-opacity="1.0" stroke-width="3.0"/>
    <path d="M 172.24801635742188 155.53176879882812 C 167.33676147460938 111.33650207519531 186.4537811279297 134.5846710205078 163.75729370117188 99.78958892822266" fill="none" stroke="rgb(0, 0, 0)" stroke-linecap="round" stroke-linejoin="round" stroke-opacity="1.0" stroke-width="3.0"/>
    <path d="M 118.20972442626953 75.51994323730469 C 112.89671325683594 77.77848052978516 175.74298095703125 107.05061340332031 145.4662628173828 70.27432250976562" fill="none" stroke="rgb(0, 0, 0)" stroke-linecap="round" stroke-linejoin="round" stroke-opacity="1.0" stroke-width="3.0"/>
    <path d="M 141.92337036132812 43.370853424072266 C 157.78623962402344 100.73861694335938 137.9700927734375 83.03427124023438 162.78562927246094 99.10393524169922" fill="none" stroke="rgb(0, 0, 0)" stroke-linecap="round" stroke-linejoin="round" stroke-opacity="1.0" stroke-width="3.0"/>
    <path d="M 171.73629760742188 152.73526000976562 C 165.48463439941406 202.8903350830078 168.92471313476562 159.1436309814453 150.98341369628906 231.9310302734375" fill="none" stroke="rgb(0, 0, 0)" stroke-linecap="round" stroke-linejoin="round" stroke-opacity="1.0" stroke-width="3.0"/>
    <path d="M 79.63692474365234 11.828039169311523 C 138.0577850341797 2.1396470069885254 139.34877014160156 33.68026351928711 162.49203491210938 37.742042541503906" fill="none" stroke="rgb(0, 0, 0)" stroke-linecap="round" stroke-linejoin="round" stroke-opacity="1.0" stroke-width="3.0"/>
    <path d="M 98.33857727050781 8.167359352111816 C 151.62522888183594 30.575883865356445 117.5048599243164 20.943971633911133 151.0198211669922 56.33644104003906" fill="none" stroke="rgb(0, 0, 0)" stroke-linecap="round" stroke-linejoin="round" stroke-opacity="1.0" stroke-width="3.0"/>
  </g>
</svg>
