<?xml version="1.0" ?>
<svg height="224" version="1.1" width="224" xmlns="http://www.w3.org/2000/svg">
  <defs/>
  <g>
    <path d="M 37.25312423706055 53.09006881713867 C 80.45657348632812 84.41500091552734 34.68232345581055 70.54122161865234 74.36886596679688 92.23603820800781" fill="none" stroke="rgb(0, 0, 0)" stroke-linecap="round" stroke-linejoin="round" stroke-opacity="1.0" stroke-width="3.0"/>
    <path d="M 30.028812408447266 127.52953338623047 C 71.12066650390625 166.54574584960938 71.66495513916016 147.258056640625 74.36663818359375 166.35362243652344" fill="none" stroke="rgb(0, 0, 0)" stroke-linecap="round" stroke-linejoin="round" stroke-opacity="1.0" stroke-width="3.0"/>
    <path d="M 96.60877227783203 109.61643981933594 C 79.97227478027344 104.52186584472656 96.7686538696289 109.32398986816406 107.76571655273438 102.14095306396484" fill="none" stroke="rgb(0, 0, 0)" stroke-linecap="round" stroke-linejoin="round" stroke-opacity="1.0" stroke-width="3.0"/>
    <path d="M 132.44583129882812 61.838714599609375 C 133.63333129882812 81.70650482177734 117.45533752441406 85.63052368164062 102.39387512207031 109.3416976928711" fill="none" stroke="rgb(0, 0, 0)" stroke-linecap="round" stroke-linejoin="round" stroke-opacity="1.0" stroke-width="3.0"/>
    <path d="M 52.904518127441406 34.697391510009766 C 76.70819091796875 47.013126373291016 86.33658599853516 39.37382125854492 70.11295318603516 41.10078430175781" fill="none" stroke="rgb(0, 0, 0)" stroke-linecap="round" stroke-linejoin="round" stroke-opacity="1.0" stroke-width="3.0"/>
    <path d="M 156.6605682373047 100.80325317382812 C 148.9906005859375 106.07594299316406 143.2553253173828 107.41307067871094 126.81978607177734 154.2404327392578" fill="none" stroke="rgb(0, 0, 0)" stroke-linecap="round" stroke-linejoin="round" stroke-opacity="1.0" stroke-width="3.0"/>
    <path d="M 72.1606674194336 45.85220718383789 C 76.19490814208984 38.24068832397461 108.7640380859375 34.566184997558594 91.08336639404297 48.37284469604492" fill="none" stroke="rgb(0, 0, 0)" stroke-linecap="round" stroke-linejoin="round" stroke-opacity="1.0" stroke-width="3.0"/>
    <path d="M 66.13549041748047 184.49378967285156 C 41.09183120727539 189.1527099609375 65.3034896850586 190.01687622070312 11.842312812805176 198.74928283691406" fill="none" stroke="rgb(0, 0, 0)" stroke-linecap="round" stroke-linejoin="round" stroke-opacity="1.0" stroke-width="3.0"/>
    <path d="M 118.32413482666016 192.0875701904297 C 106.51541137695312 211.77210998535156 122.90845489501953 197.78958129882812 106.21790313720703 221.88865661621094" fill="none" stroke="rgb(0, 0, 0)" stroke-linecap="round" stroke-linejoin="round" stroke-opacity="1.0" stroke-width="3.0"/>
    <path d="M 45.73521041870117 30.549612045288086 C 53.390254974365234 42.00025939941406 68.17550659179688 37.60999298095703 54.98094177246094 32.89459991455078" fill="none" stroke="rgb(0, 0, 0)" stroke-linecap="round" stroke-linejoin="round" stroke-opacity="1.0" stroke-width="3.0"/>
    <path d="M 164.88052368164062 189.35865783691406 C 179.5609893798828 146.1283721923828 175.71725463867188 166.0520782470703 175.9699249267578 120.19171142578125" fill="none" stroke="rgb(0, 0, 0)" stroke-linecap="round" stroke-linejoin="round" stroke-opacity="1.0" stroke-width="3.0"/>
    <path d="M 154.19183349609375 74.12454223632812 C 154.02110290527344 69.85858917236328 160.63050842285156 76.51762390136719 148.9779510498047 64.62751007080078" fill="none" stroke="rgb(0, 0, 0)" stroke-linecap="round" stroke-linejoin="round" stroke-opacity="1.0" stroke-width="3.0"/>
    <path d="M 144.25611877441406 56.042945861816406 C 152.33599853515625 84.41674041748047 134.49508666992188 74.0526351928711 154.47503662109375 89.93965911865234" fill="none" stroke="rgb(0, 0, 0)" stroke-linecap="round" stroke-linejoin="round" stroke-opacity="1.0" stroke-width="3.0"/>
    <path d="M 163.857177734375 190.9991912841797 C 155.891845703125 209.9084014892578 157.3164825439453 189.91995239257812 162.7683868408203 221.6184844970703" fill="none" stroke="rgb(0, 0, 0)" stroke-linecap="round" stroke-linejoin="round" stroke-opacity="1.0" stroke-width="3.0"/>
    <path d="M 158.5480499267578 34.86400604248047 C 158.40646362304688 32.24608612060547 154.36962890625 28.94733428955078 162.4872589111328 36.86774444580078" fill="none" stroke="rgb(0, 0, 0)" stroke-linecap="round" stroke-linejoin="round" stroke-opacity="1.0" stroke-width="3.0"/>
    <path d="M 124.03486633300781 11.953741073608398 C 149.4730987548828 40.06120300292969 133.68528747558594 34.14432144165039 145.0086212158203 48.409446716308594" fill="none" stroke="rgb(0, 0, 0)" stroke-linecap="round" stroke-linejoin="round" stroke-opacity="1.0" stroke-width="3.0"/>
  </g>
</svg>
