<?xml version="1.0" ?>
<svg height="224" version="1.1" width="224" xmlns="http://www.w3.org/2000/svg">
  <defs/>
  <g>
    <path d="M 38.040863037109375 43.59041213989258 C 78.41725158691406 94.76428985595703 46.606204986572266 74.1620101928711 78.1671371459961 106.36277770996094" fill="none" stroke="rgb(0, 0, 0)" stroke-linecap="round" stroke-linejoin="round" stroke-opacity="1.0" stroke-width="3.0"/>
    <path d="M 27.78343391418457 119.84638977050781 C 73.48046875 186.0196990966797 52.585750579833984 131.0063934326172 78.41773223876953 188.16744995117188" fill="none" stroke="rgb(0, 0, 0)" stroke-linecap="round" stroke-linejoin="round" stroke-opacity="1.0" stroke-width="3.0"/>
    <path d="M 95.03205871582031 111.50869750976562 C 51.76028060913086 74.94304656982422 83.98292541503906 116.57352447509766 118.59916687011719 91.94585418701172" fill="none" stroke="rgb(0, 0, 0)" stroke-linecap="round" stroke-linejoin="round" stroke-opacity="1.0" stroke-width="3.0"/>
    <path d="M 119.46499633789062 28.013517379760742 C 133.1132354736328 100.41675567626953 130.55223083496094 81.2999496459961 97.11019897460938 116.00879669189453" fill="none" stroke="rgb(0, 0, 0)" stroke-linecap="round" stroke-linejoin="round" stroke-opacity="1.0" stroke-width="3.0"/>
    <path d="M 71.60824584960938 38.37453079223633 C 86.45431518554688 47.53330993652344 116.69783020019531 24.86469078063965 84.97430419921875 56.05815887451172" fill="none" stroke="rgb(0, 0, 0)" stroke-linecap="round" stroke-linejoin="round" stroke-opacity="1.0" stroke-width="3.0"/>
    <path d="M 149.9089813232422 99.49185180664062 C 139.12872314453125 107.21827697753906 136.9615936279297 118.98014831542969 126.38616943359375 156.1287841796875" fill="none" stroke="rgb(0, 0, 0)" stroke-linecap="round" stroke-linejoin="round" stroke-opacity="1.0" stroke-width="3.0"/>
    <path d="M 85.67328643798828 42.937679290771484 C 95.04039001464844 27.540313720703125 103.91185760498047 43.005882263183594 110.28267669677734 30.473957061767578" fill="none" stroke="rgb(0, 0, 0)" stroke-linecap="round" stroke-linejoin="round" stroke-opacity="1.0" stroke-width="3.0"/>
    <path d="M 61.10400390625 199.68992614746094 C 30.507339477539062 197.59446716308594 33.83708190917969 198.62777709960938 14.097579002380371 177.8896942138672" fill="none" stroke="rgb(0, 0, 0)" stroke-linecap="round" stroke-linejoin="round" stroke-opacity="1.0" stroke-width="3.0"/>
    <path d="M 109.68067169189453 198.30935668945312 C 97.86070251464844 215.9210662841797 120.17123413085938 199.10995483398438 80.66864776611328 230.84417724609375" fill="none" stroke="rgb(0, 0, 0)" stroke-linecap="round" stroke-linejoin="round" stroke-opacity="1.0" stroke-width="3.0"/>
    <path d="M 55.16693115234375 31.81954002380371 C 78.83626556396484 24.422069549560547 61.49188995361328 40.55678176879883 81.7183837890625 20.471147537231445" fill="none" stroke="rgb(0, 0, 0)" stroke-linecap="round" stroke-linejoin="round" stroke-opacity="1.0" stroke-width="3.0"/>
    <path d="M 165.71304321289062 186.8160400390625 C 173.84046936035156 133.95486450195312 182.2305145263672 153.60826110839844 166.23802185058594 105.96871185302734" fill="none" stroke="rgb(0, 0, 0)" stroke-linecap="round" stroke-linejoin="round" stroke-opacity="1.0" stroke-width="3.0"/>
    <path d="M 128.4868927001953 56.308265686035156 C 109.1053237915039 81.90330505371094 175.90255737304688 97.98247528076172 140.921630859375 70.13197326660156" fill="none" stroke="rgb(0, 0, 0)" stroke-linecap="round" stroke-linejoin="round" stroke-opacity="1.0" stroke-width="3.0"/>
    <path d="M 140.96096801757812 47.679969787597656 C 143.9130401611328 94.50384521484375 142.52601623535156 79.8048095703125 148.4880828857422 89.25672149658203" fill="none" stroke="rgb(0, 0, 0)" stroke-linecap="round" stroke-linejoin="round" stroke-opacity="1.0" stroke-width="3.0"/>
    <path d="M 164.39663696289062 186.1809844970703 C 153.97840881347656 214.16038513183594 157.41432189941406 179.53518676757812 159.72607421875 226.66961669921875" fill="none" stroke="rgb(0, 0, 0)" stroke-linecap="round" stroke-linejoin="round" stroke-opacity="1.0" stroke-width="3.0"/>
    <path d="M 134.12127685546875 14.465119361877441 C 160.23341369628906 38.015113830566406 138.08828735351562 27.494186401367188 161.29776000976562 37.22074508666992" fill="none" stroke="rgb(0, 0, 0)" stroke-linecap="round" stroke-linejoin="round" stroke-opacity="1.0" stroke-width="3.0"/>
    <path d="M 124.00260925292969 15.43088150024414 C 144.0221710205078 45.123775482177734 117.04914855957031 18.41646385192871 145.56382751464844 62.11737060546875" fill="none" stroke="rgb(0, 0, 0)" stroke-linecap="round" stroke-linejoin="round" stroke-opacity="1.0" stroke-width="3.0"/>
  </g>
</svg>
