<?xml version="1.0" ?>
<svg height="224" version="1.1" width="224" xmlns="http://www.w3.org/2000/svg">
  <defs/>
  <g>
    <path d="M 32.64487838745117 50.1522331237793 C 73.23417663574219 91.7634048461914 42.648624420166016 72.39857482910156 81.98766326904297 102.65364837646484" fill="none" stroke="rgb(0, 0, 0)" stroke-linecap="round" stroke-linejoin="round" stroke-opacity="1.0" stroke-width="3.0"/>
    <path d="M 22.939525604248047 122.71762084960938 C 74.16317749023438 167.1504364013672 79.26335144042969 143.56442260742188 80.35700225830078 162.4895782470703" fill="none" stroke="rgb(0, 0, 0)" stroke-linecap="round" stroke-linejoin="round" stroke-opacity="1.0" stroke-width="3.0"/>
    <path d="M 93.98466491699219 109.78516387939453 C 84.68864440917969 103.93201446533203 96.57241821289062 112.91622161865234 110.02227783203125 99.72335815429688" fill="none" stroke="rgb(0, 0, 0)" stroke-linecap="round" stroke-linejoin="round" stroke-opacity="1.0" stroke-width="3.0"/>
    <path d="M 136.1084442138672 59.13802719116211 C 134.1234893798828 86.6026840209961 120.35616302490234 88.34521484375 106.17822265625 111.21036529541016" fill="none" stroke="rgb(0, 0, 0)" stroke-linecap="round" stroke-linejoin="round" stroke-opacity="1.0" stroke-width="3.0"/>
    <path d="M 54.41032028198242 38.64179611206055 C 78.64334106445312 45.10478591918945 92.91691589355469 40.004486083984375 77.04428100585938 44.1126708984375" fill="none" stroke="rgb(0, 0, 0)" stroke-linecap="round" stroke-linejoin="round" stroke-opacity="1.0" stroke-width="3.0"/>
    <path d="M 153.72279357910156 97.73383331298828 C 147.31346130371094 102.450927734375 141.10140991210938 109.082763671875 128.47714233398438 156.4952850341797" fill="none" stroke="rgb(0, 0, 0)" stroke-linecap="round" stroke-linejoin="round" stroke-opacity="1.0" stroke-width="3.0"/>
    <path d="M 76.44302368164062 44.634159088134766 C 84.30116271972656 41.80466842651367 132.90147399902344 30.824199676513672 104.55191802978516 43.892452239990234" fill="none" stroke="rgb(0, 0, 0)" stroke-linecap="round" stroke-linejoin="round" stroke-opacity="1.0" stroke-width="3.0"/>
    <path d="M 64.83869934082031 183.46168518066406 C 41.2924919128418 183.5016632080078 60.436424255371094 183.0361785888672 19.304561614990234 192.8643798828125" fill="none" stroke="rgb(0, 0, 0)" stroke-linecap="round" stroke-linejoin="round" stroke-opacity="1.0" stroke-width="3.0"/>
    <path d="M 117.72791290283203 196.8129119873047 C 109.53333282470703 215.54962158203125 119.43988037109375 205.2714080810547 104.23442077636719 221.4145965576172" fill="none" stroke="rgb(0, 0, 0)" stroke-linecap="round" stroke-linejoin="round" stroke-opacity="1.0" stroke-width="3.0"/>
    <path d="M 44.882198333740234 30.47805404663086 C 60.05067443847656 43.57047653198242 75.39265441894531 42.61200714111328 78.26350402832031 21.962488174438477" fill="none" stroke="rgb(0, 0, 0)" stroke-linecap="round" stroke-linejoin="round" stroke-opacity="1.0" stroke-width="3.0"/>
    <path d="M 161.32171630859375 189.0799102783203 C 175.8067169189453 145.04391479492188 170.1020965576172 166.99842834472656 175.5727996826172 114.9598388671875" fill="none" stroke="rgb(0, 0, 0)" stroke-linecap="round" stroke-linejoin="round" stroke-opacity="1.0" stroke-width="3.0"/>
    <path d="M 143.53456115722656 69.87863159179688 C 139.14071655273438 67.96226501464844 156.91954040527344 81.8207015991211 142.20806884765625 68.14196014404297" fill="none" stroke="rgb(0, 0, 0)" stroke-linecap="round" stroke-linejoin="round" stroke-opacity="1.0" stroke-width="3.0"/>
    <path d="M 139.78684997558594 48.8632698059082 C 157.6505889892578 89.5036392211914 135.30474853515625 73.4420166015625 154.0586395263672 84.24083709716797" fill="none" stroke="rgb(0, 0, 0)" stroke-linecap="round" stroke-linejoin="round" stroke-opacity="1.0" stroke-width="3.0"/>
    <path d="M 161.49636840820312 188.9694061279297 C 152.1474609375 207.89129638671875 157.09532165527344 189.3756866455078 158.88351440429688 223.0086212158203" fill="none" stroke="rgb(0, 0, 0)" stroke-linecap="round" stroke-linejoin="round" stroke-opacity="1.0" stroke-width="3.0"/>
    <path d="M 156.8173828125 33.41697692871094 C 152.95616149902344 30.17747688293457 146.67933654785156 29.944902420043945 157.6809844970703 37.409000396728516" fill="none" stroke="rgb(0, 0, 0)" stroke-linecap="round" stroke-linejoin="round" stroke-opacity="1.0" stroke-width="3.0"/>
    <path d="M 122.71312713623047 15.551726341247559 C 144.60398864746094 47.03055953979492 120.99857330322266 41.112125396728516 144.22640991210938 50.828189849853516" fill="none" stroke="rgb(0, 0, 0)" stroke-linecap="round" stroke-linejoin="round" stroke-opacity="1.0" stroke-width="3.0"/>
  </g>
</svg>
