<?xml version="1.0" ?>
<svg height="224" version="1.1" width="224" xmlns="http://www.w3.org/2000/svg">
  <defs/>
  <g>
    <path d="M 38.579437255859375 46.411495208740234 C 71.48194122314453 70.17994689941406 14.42778205871582 38.43583679199219 86.3875732421875 90.32850646972656" fill="none" stroke="rgb(0, 0, 0)" stroke-linecap="round" stroke-linejoin="round" stroke-opacity="1.0" stroke-width="3.0"/>
    <path d="M 38.574920654296875 111.81790924072266 C 70.61524963378906 179.53622436523438 56.882633209228516 132.935546875 77.56485748291016 184.5008544921875" fill="none" stroke="rgb(0, 0, 0)" stroke-linecap="round" stroke-linejoin="round" stroke-opacity="1.0" stroke-width="3.0"/>
    <path d="M 93.40946960449219 111.0164566040039 C 37.459144592285156 41.51092529296875 107.96543884277344 133.2726593017578 116.85834503173828 46.136329650878906" fill="none" stroke="rgb(0, 0, 0)" stroke-linecap="round" stroke-linejoin="round" stroke-opacity="1.0" stroke-width="3.0"/>
    <path d="M 108.11106872558594 12.532292366027832 C 128.5845947265625 115.5195541381836 100.99549102783203 89.65104675292969 93.75194549560547 115.07855224609375" fill="none" stroke="rgb(0, 0, 0)" stroke-linecap="round" stroke-linejoin="round" stroke-opacity="1.0" stroke-width="3.0"/>
    <path d="M 76.22108459472656 67.47051239013672 C 47.7246208190918 57.22227478027344 134.92181396484375 65.80534362792969 89.35779571533203 68.548828125" fill="none" stroke="rgb(0, 0, 0)" stroke-linecap="round" stroke-linejoin="round" stroke-opacity="1.0" stroke-width="3.0"/>
    <path d="M 151.29910278320312 97.33372497558594 C 140.9945068359375 98.70462799072266 130.9259033203125 127.59272766113281 125.61678314208984 152.91204833984375" fill="none" stroke="rgb(0, 0, 0)" stroke-linecap="round" stroke-linejoin="round" stroke-opacity="1.0" stroke-width="3.0"/>
    <path d="M 81.66881561279297 36.083805084228516 C 122.93933868408203 34.30699920654297 41.48450469970703 57.06963348388672 106.3740005493164 31.75042724609375" fill="none" stroke="rgb(0, 0, 0)" stroke-linecap="round" stroke-linejoin="round" stroke-opacity="1.0" stroke-width="3.0"/>
    <path d="M 63.03321075439453 225.42440795898438 C 2.8351926803588867 209.9571990966797 28.55966567993164 207.74147033691406 19.02011489868164 165.67147827148438" fill="none" stroke="rgb(0, 0, 0)" stroke-linecap="round" stroke-linejoin="round" stroke-opacity="1.0" stroke-width="3.0"/>
    <path d="M 106.00613403320312 198.8049774169922 C 89.17965698242188 219.6167449951172 109.25973510742188 194.48086547851562 65.14401245117188 231.2021026611328" fill="none" stroke="rgb(0, 0, 0)" stroke-linecap="round" stroke-linejoin="round" stroke-opacity="1.0" stroke-width="3.0"/>
    <path d="M 39.50746536254883 39.373779296875 C 61.97141647338867 21.986177444458008 29.29045867919922 33.37836837768555 91.22256469726562 6.580499649047852" fill="none" stroke="rgb(0, 0, 0)" stroke-linecap="round" stroke-linejoin="round" stroke-opacity="1.0" stroke-width="3.0"/>
    <path d="M 170.60330200195312 157.0653533935547 C 166.1890869140625 110.73053741455078 184.23623657226562 131.360107421875 163.7052459716797 99.81724548339844" fill="none" stroke="rgb(0, 0, 0)" stroke-linecap="round" stroke-linejoin="round" stroke-opacity="1.0" stroke-width="3.0"/>
    <path d="M 116.40253448486328 69.47052764892578 C 104.53652954101562 83.41459655761719 178.59054565429688 105.9607162475586 143.15878295898438 68.66400146484375" fill="none" stroke="rgb(0, 0, 0)" stroke-linecap="round" stroke-linejoin="round" stroke-opacity="1.0" stroke-width="3.0"/>
    <path d="M 141.8855438232422 44.68773651123047 C 154.62930297851562 100.81311798095703 140.25991821289062 80.88265991210938 162.66653442382812 98.9369888305664" fill="none" stroke="rgb(0, 0, 0)" stroke-linecap="round" stroke-linejoin="round" stroke-opacity="1.0" stroke-width="3.0"/>
    <path d="M 170.90802001953125 158.5975799560547 C 149.68374633789062 232.151611328125 152.10427856445312 159.23373413085938 156.19287109375 230.11093139648438" fill="none" stroke="rgb(0, 0, 0)" stroke-linecap="round" stroke-linejoin="round" stroke-opacity="1.0" stroke-width="3.0"/>
    <path d="M 81.42341613769531 7.762234210968018 C 153.81472778320312 10.397916793823242 131.2342987060547 32.84211349487305 162.62918090820312 39.624881744384766" fill="none" stroke="rgb(0, 0, 0)" stroke-linecap="round" stroke-linejoin="round" stroke-opacity="1.0" stroke-width="3.0"/>
    <path d="M 103.88455963134766 1.6972101926803589 C 155.47738647460938 38.264076232910156 114.03565979003906 17.497772216796875 148.4055633544922 57.27030944824219" fill="none" stroke="rgb(0, 0, 0)" stroke-linecap="round" stroke-linejoin="round" stroke-opacity="1.0" stroke-width="3.0"/>
  </g>
</svg>
