<?xml version="1.0" ?>
<svg height="224" version="1.1" width="224" xmlns="http://www.w3.org/2000/svg">
  <defs/>
  <g>
    <path d="M 35.00529861450195 57.783573150634766 C 84.3897933959961 87.75389862060547 43.34302520751953 69.03668975830078 87.33661651611328 100.45927429199219" fill="none" stroke="rgb(0, 0, 0)" stroke-linecap="round" stroke-linejoin="round" stroke-opacity="1.0" stroke-width="3.0"/>
    <path d="M 25.86329460144043 122.12801361083984 C 65.08724975585938 176.24607849121094 73.07926940917969 145.63575744628906 78.4883804321289 171.84024047851562" fill="none" stroke="rgb(0, 0, 0)" stroke-linecap="round" stroke-linejoin="round" stroke-opacity="1.0" stroke-width="3.0"/>
    <path d="M 94.10430908203125 116.46134948730469 C 77.86656951904297 84.17744445800781 82.16516876220703 108.63384246826172 112.89422607421875 93.47979736328125" fill="none" stroke="rgb(0, 0, 0)" stroke-linecap="round" stroke-linejoin="round" stroke-opacity="1.0" stroke-width="3.0"/>
    <path d="M 138.42782592773438 56.71419143676758 C 142.58975219726562 96.80450439453125 121.44574737548828 72.67117309570312 96.25788879394531 113.31586456298828" fill="none" stroke="rgb(0, 0, 0)" stroke-linecap="round" stroke-linejoin="round" stroke-opacity="1.0" stroke-width="3.0"/>
    <path d="M 51.3968391418457 40.90056228637695 C 81.58206176757812 50.112056732177734 91.6164321899414 47.201637268066406 69.692138671875 39.64030075073242" fill="none" stroke="rgb(0, 0, 0)" stroke-linecap="round" stroke-linejoin="round" stroke-opacity="1.0" stroke-width="3.0"/>
    <path d="M 152.87384033203125 96.35662078857422 C 144.46339416503906 103.75240325927734 138.15870666503906 111.29285430908203 129.538818359375 153.49685668945312" fill="none" stroke="rgb(0, 0, 0)" stroke-linecap="round" stroke-linejoin="round" stroke-opacity="1.0" stroke-width="3.0"/>
    <path d="M 81.16324615478516 42.665283203125 C 77.05113983154297 36.672611236572266 110.69172668457031 35.48411178588867 97.32621765136719 39.15254592895508" fill="none" stroke="rgb(0, 0, 0)" stroke-linecap="round" stroke-linejoin="round" stroke-opacity="1.0" stroke-width="3.0"/>
    <path d="M 67.0218734741211 207.21873474121094 C 27.797670364379883 193.3536834716797 39.03202819824219 193.9890899658203 15.056930541992188 180.42330932617188" fill="none" stroke="rgb(0, 0, 0)" stroke-linecap="round" stroke-linejoin="round" stroke-opacity="1.0" stroke-width="3.0"/>
    <path d="M 121.27971649169922 195.68629455566406 C 111.90323638916016 210.01388549804688 124.37889862060547 198.29800415039062 87.08873748779297 221.8249969482422" fill="none" stroke="rgb(0, 0, 0)" stroke-linecap="round" stroke-linejoin="round" stroke-opacity="1.0" stroke-width="3.0"/>
    <path d="M 41.17563247680664 31.73884391784668 C 61.12370681762695 48.93142318725586 56.98445510864258 43.456729888916016 64.75039672851562 26.495704650878906" fill="none" stroke="rgb(0, 0, 0)" stroke-linecap="round" stroke-linejoin="round" stroke-opacity="1.0" stroke-width="3.0"/>
    <path d="M 161.77928161621094 190.0643310546875 C 172.02749633789062 140.87506103515625 184.89605712890625 162.27548217773438 168.19644165039062 103.43995666503906" fill="none" stroke="rgb(0, 0, 0)" stroke-linecap="round" stroke-linejoin="round" stroke-opacity="1.0" stroke-width="3.0"/>
    <path d="M 138.3129425048828 63.8159065246582 C 128.41099548339844 80.03231048583984 162.78286743164062 89.70183563232422 140.0635528564453 70.3198013305664" fill="none" stroke="rgb(0, 0, 0)" stroke-linecap="round" stroke-linejoin="round" stroke-opacity="1.0" stroke-width="3.0"/>
    <path d="M 134.90550231933594 45.66505813598633 C 149.9816436767578 100.4617691040039 130.37631225585938 78.54862976074219 148.12234497070312 89.0302505493164" fill="none" stroke="rgb(0, 0, 0)" stroke-linecap="round" stroke-linejoin="round" stroke-opacity="1.0" stroke-width="3.0"/>
    <path d="M 162.35057067871094 187.8653564453125 C 150.71810913085938 199.34747314453125 156.369873046875 180.38502502441406 158.60987854003906 221.99325561523438" fill="none" stroke="rgb(0, 0, 0)" stroke-linecap="round" stroke-linejoin="round" stroke-opacity="1.0" stroke-width="3.0"/>
    <path d="M 139.6373291015625 21.92577362060547 C 157.8037567138672 33.37618637084961 146.24510192871094 29.180601119995117 160.0374298095703 39.51245880126953" fill="none" stroke="rgb(0, 0, 0)" stroke-linecap="round" stroke-linejoin="round" stroke-opacity="1.0" stroke-width="3.0"/>
    <path d="M 131.89552307128906 15.505380630493164 C 144.6548614501953 43.05785369873047 122.78584289550781 27.465696334838867 141.19720458984375 51.49095153808594" fill="none" stroke="rgb(0, 0, 0)" stroke-linecap="round" stroke-linejoin="round" stroke-opacity="1.0" stroke-width="3.0"/>
  </g>
</svg>
