<?xml version="1.0" ?>
<svg height="224" version="1.1" width="224" xmlns="http://www.w3.org/2000/svg">
  <defs/>
  <g>
    <path d="M 34.53934860229492 53.162593841552734 C 63.036190032958984 77.05423736572266 16.185068130493164 35.59810256958008 89.37815856933594 87.71117401123047" fill="none" stroke="rgb(0, 0, 0)" stroke-linecap="round" stroke-linejoin="round" stroke-opacity="1.0" stroke-width="3.0"/>
    <path d="M 30.691272735595703 106.88784790039062 C 68.96450805664062 188.71533203125 50.58000183105469 130.49485778808594 76.7776107788086 182.29176330566406" fill="none" stroke="rgb(0, 0, 0)" stroke-linecap="round" stroke-linejoin="round" stroke-opacity="1.0" stroke-width="3.0"/>
    <path d="M 95.87303924560547 114.90921020507812 C 39.28723907470703 39.053897857666016 118.31779479980469 126.9259033203125 113.51888275146484 50.102752685546875" fill="none" stroke="rgb(0, 0, 0)" stroke-linecap="round" stroke-linejoin="round" stroke-opacity="1.0" stroke-width="3.0"/>
    <path d="M 104.40182495117188 17.766557693481445 C 130.0154571533203 114.3247299194336 106.28219604492188 89.21013641357422 95.40587615966797 116.56108093261719" fill="none" stroke="rgb(0, 0, 0)" stroke-linecap="round" stroke-linejoin="round" stroke-opacity="1.0" stroke-width="3.0"/>
    <path d="M 80.79472351074219 66.95771789550781 C 67.6039810180664 44.029945373535156 133.52586364746094 62.98899459838867 85.66739654541016 58.669090270996094" fill="none" stroke="rgb(0, 0, 0)" stroke-linecap="round" stroke-linejoin="round" stroke-opacity="1.0" stroke-width="3.0"/>
    <path d="M 151.9706268310547 99.34334564208984 C 144.4822540283203 104.99784088134766 134.49681091308594 129.75962829589844 129.93820190429688 157.86392211914062" fill="none" stroke="rgb(0, 0, 0)" stroke-linecap="round" stroke-linejoin="round" stroke-opacity="1.0" stroke-width="3.0"/>
    <path d="M 81.39274597167969 42.43580627441406 C 128.06277465820312 28.83551597595215 43.01975631713867 74.01770782470703 102.87090301513672 30.771167755126953" fill="none" stroke="rgb(0, 0, 0)" stroke-linecap="round" stroke-linejoin="round" stroke-opacity="1.0" stroke-width="3.0"/>
    <path d="M 62.98655319213867 225.40989685058594 C 8.153263092041016 210.1587371826172 26.671058654785156 207.74716186523438 19.231698989868164 167.3194580078125" fill="none" stroke="rgb(0, 0, 0)" stroke-linecap="round" stroke-linejoin="round" stroke-opacity="1.0" stroke-width="3.0"/>
    <path d="M 106.76362609863281 192.97447204589844 C 92.77473449707031 214.2850799560547 107.91310119628906 182.67881774902344 67.26839447021484 228.0645294189453" fill="none" stroke="rgb(0, 0, 0)" stroke-linecap="round" stroke-linejoin="round" stroke-opacity="1.0" stroke-width="3.0"/>
    <path d="M 38.669189453125 41.91826629638672 C 66.26788330078125 21.053695678710938 28.827716827392578 30.617168426513672 92.7425308227539 6.3179168701171875" fill="none" stroke="rgb(0, 0, 0)" stroke-linecap="round" stroke-linejoin="round" stroke-opacity="1.0" stroke-width="3.0"/>
    <path d="M 172.41629028320312 152.40028381347656 C 166.90354919433594 113.35974884033203 186.97689819335938 131.41824340820312 162.8090057373047 97.4372787475586" fill="none" stroke="rgb(0, 0, 0)" stroke-linecap="round" stroke-linejoin="round" stroke-opacity="1.0" stroke-width="3.0"/>
    <path d="M 112.33296966552734 68.51630401611328 C 106.51652526855469 77.32150268554688 176.0523223876953 109.03907775878906 146.49258422851562 68.94563293457031" fill="none" stroke="rgb(0, 0, 0)" stroke-linecap="round" stroke-linejoin="round" stroke-opacity="1.0" stroke-width="3.0"/>
    <path d="M 144.4064178466797 45.60491180419922 C 158.8933868408203 100.65369415283203 140.45175170898438 82.07154846191406 161.3538055419922 96.22797393798828" fill="none" stroke="rgb(0, 0, 0)" stroke-linecap="round" stroke-linejoin="round" stroke-opacity="1.0" stroke-width="3.0"/>
    <path d="M 171.91207885742188 152.4617156982422 C 154.5564727783203 235.8003692626953 156.32199096679688 165.4302215576172 160.61705017089844 229.96641540527344" fill="none" stroke="rgb(0, 0, 0)" stroke-linecap="round" stroke-linejoin="round" stroke-opacity="1.0" stroke-width="3.0"/>
    <path d="M 90.07096862792969 6.454571723937988 C 166.5809783935547 24.694929122924805 131.35606384277344 30.558353424072266 164.5504608154297 37.14539337158203" fill="none" stroke="rgb(0, 0, 0)" stroke-linecap="round" stroke-linejoin="round" stroke-opacity="1.0" stroke-width="3.0"/>
    <path d="M 109.81739044189453 4.661576271057129 C 159.03330993652344 50.32291793823242 113.88408660888672 12.793194770812988 151.2288360595703 57.00679397583008" fill="none" stroke="rgb(0, 0, 0)" stroke-linecap="round" stroke-linejoin="round" stroke-opacity="1.0" stroke-width="3.0"/>
  </g>
</svg>
