<?xml version="1.0" ?>
<svg height="224" version="1.1" width="224" xmlns="http://www.w3.org/2000/svg">
  <defs/>
  <g>
    <path d="M 35.12330627441406 50.95085525512695 C 63.704017639160156 75.96827697753906 21.639375686645508 31.7969913482666 94.17935180664062 92.8556137084961" fill="none" stroke="rgb(0, 0, 0)" stroke-linecap="round" stroke-linejoin="round" stroke-opacity="1.0" stroke-width="3.0"/>
    <path d="M 30.683780670166016 117.94239807128906 C 71.8525390625 180.06875610351562 54.09103012084961 134.57379150390625 72.03751373291016 180.80235290527344" fill="none" stroke="rgb(0, 0, 0)" stroke-linecap="round" stroke-linejoin="round" stroke-opacity="1.0" stroke-width="3.0"/>
    <path d="M 94.65131378173828 112.88546752929688 C 44.782997131347656 43.672828674316406 108.58110809326172 113.83428192138672 115.8897476196289 57.61080551147461" fill="none" stroke="rgb(0, 0, 0)" stroke-linecap="round" stroke-linejoin="round" stroke-opacity="1.0" stroke-width="3.0"/>
    <path d="M 107.97875213623047 23.133377075195312 C 129.99488830566406 119.25743103027344 105.79021453857422 90.67455291748047 95.0084228515625 119.55171966552734" fill="none" stroke="rgb(0, 0, 0)" stroke-linecap="round" stroke-linejoin="round" stroke-opacity="1.0" stroke-width="3.0"/>
    <path d="M 73.69168853759766 55.474021911621094 C 72.40390014648438 40.71200180053711 142.8361358642578 63.725738525390625 87.35844421386719 63.10710906982422" fill="none" stroke="rgb(0, 0, 0)" stroke-linecap="round" stroke-linejoin="round" stroke-opacity="1.0" stroke-width="3.0"/>
    <path d="M 148.14739990234375 100.06904602050781 C 143.33921813964844 102.8484115600586 132.46412658691406 128.22848510742188 126.12567138671875 157.87466430664062" fill="none" stroke="rgb(0, 0, 0)" stroke-linecap="round" stroke-linejoin="round" stroke-opacity="1.0" stroke-width="3.0"/>
    <path d="M 73.51712799072266 41.93204116821289 C 130.66635131835938 33.8563117980957 51.002620697021484 78.93373107910156 106.35907745361328 35.50806427001953" fill="none" stroke="rgb(0, 0, 0)" stroke-linecap="round" stroke-linejoin="round" stroke-opacity="1.0" stroke-width="3.0"/>
    <path d="M 62.02651596069336 226.19142150878906 C 9.977506637573242 217.01107788085938 27.878969192504883 212.14901733398438 17.489166259765625 169.08236694335938" fill="none" stroke="rgb(0, 0, 0)" stroke-linecap="round" stroke-linejoin="round" stroke-opacity="1.0" stroke-width="3.0"/>
    <path d="M 119.2225112915039 204.95042419433594 C 100.30996704101562 223.26695251464844 121.39906311035156 195.97683715820312 78.06723022460938 234.8483428955078" fill="none" stroke="rgb(0, 0, 0)" stroke-linecap="round" stroke-linejoin="round" stroke-opacity="1.0" stroke-width="3.0"/>
    <path d="M 35.69236755371094 40.54594039916992 C 71.02175903320312 16.55221939086914 36.28665542602539 31.81186294555664 87.5020751953125 3.5176210403442383" fill="none" stroke="rgb(0, 0, 0)" stroke-linecap="round" stroke-linejoin="round" stroke-opacity="1.0" stroke-width="3.0"/>
    <path d="M 172.39056396484375 155.9639892578125 C 168.90443420410156 116.79509735107422 185.3376922607422 135.82098388671875 163.80372619628906 100.97425079345703" fill="none" stroke="rgb(0, 0, 0)" stroke-linecap="round" stroke-linejoin="round" stroke-opacity="1.0" stroke-width="3.0"/>
    <path d="M 116.39490509033203 69.50904846191406 C 105.25956726074219 81.7060317993164 172.23431396484375 106.16307067871094 143.5579071044922 69.83082580566406" fill="none" stroke="rgb(0, 0, 0)" stroke-linecap="round" stroke-linejoin="round" stroke-opacity="1.0" stroke-width="3.0"/>
    <path d="M 141.01268005371094 44.28572082519531 C 154.9838409423828 103.30728912353516 134.9855499267578 81.65444946289062 163.71328735351562 100.3344497680664" fill="none" stroke="rgb(0, 0, 0)" stroke-linecap="round" stroke-linejoin="round" stroke-opacity="1.0" stroke-width="3.0"/>
    <path d="M 171.8214874267578 156.7906036376953 C 149.72962951660156 232.59934997558594 155.7322235107422 165.9026641845703 160.3306427001953 229.55584716796875" fill="none" stroke="rgb(0, 0, 0)" stroke-linecap="round" stroke-linejoin="round" stroke-opacity="1.0" stroke-width="3.0"/>
    <path d="M 98.72771453857422 3.309081792831421 C 167.87416076660156 29.181062698364258 136.47695922851562 30.470958709716797 163.73133850097656 36.129337310791016" fill="none" stroke="rgb(0, 0, 0)" stroke-linecap="round" stroke-linejoin="round" stroke-opacity="1.0" stroke-width="3.0"/>
    <path d="M 114.99153137207031 12.175822257995605 C 144.32391357421875 47.168643951416016 110.7836685180664 15.060041427612305 148.4605255126953 55.98072814941406" fill="none" stroke="rgb(0, 0, 0)" stroke-linecap="round" stroke-linejoin="round" stroke-opacity="1.0" stroke-width="3.0"/>
  </g>
</svg>
