<?xml version="1.0" ?>
<svg height="224" version="1.1" width="224" xmlns="http://www.w3.org/2000/svg">
  <defs/>
  <g>
    <path d="M 32.93586349487305 55.58015060424805 C 83.97850799560547 88.0389633178711 43.574642181396484 70.23186492919922 88.25873565673828 101.21332550048828" fill="none" stroke="rgb(0, 0, 0)" stroke-linecap="round" stroke-linejoin="round" stroke-opacity="1.0" stroke-width="3.0"/>
    <path d="M 27.48579978942871 120.54231262207031 C 70.24346923828125 172.96177673339844 72.744140625 146.43228149414062 75.9421615600586 172.46632385253906" fill="none" stroke="rgb(0, 0, 0)" stroke-linecap="round" stroke-linejoin="round" stroke-opacity="1.0" stroke-width="3.0"/>
    <path d="M 93.579833984375 116.70514678955078 C 77.29608154296875 84.57901763916016 82.56673431396484 107.24287414550781 114.25951385498047 94.25990295410156" fill="none" stroke="rgb(0, 0, 0)" stroke-linecap="round" stroke-linejoin="round" stroke-opacity="1.0" stroke-width="3.0"/>
    <path d="M 139.87998962402344 56.29766082763672 C 143.20962524414062 95.36260223388672 120.69464874267578 72.51544189453125 97.13497924804688 114.62505340576172" fill="none" stroke="rgb(0, 0, 0)" stroke-linecap="round" stroke-linejoin="round" stroke-opacity="1.0" stroke-width="3.0"/>
    <path d="M 51.523868560791016 40.36573028564453 C 82.5062026977539 49.962303161621094 93.29354095458984 46.33625030517578 68.97985076904297 42.09341049194336" fill="none" stroke="rgb(0, 0, 0)" stroke-linecap="round" stroke-linejoin="round" stroke-opacity="1.0" stroke-width="3.0"/>
    <path d="M 152.9502410888672 96.3671875 C 144.3852996826172 102.24405670166016 137.29769897460938 110.87948608398438 127.05915069580078 152.77578735351562" fill="none" stroke="rgb(0, 0, 0)" stroke-linecap="round" stroke-linejoin="round" stroke-opacity="1.0" stroke-width="3.0"/>
    <path d="M 80.01174926757812 41.32937240600586 C 79.62066650390625 38.74757766723633 111.86395263671875 34.58601760864258 95.40166473388672 39.384437561035156" fill="none" stroke="rgb(0, 0, 0)" stroke-linecap="round" stroke-linejoin="round" stroke-opacity="1.0" stroke-width="3.0"/>
    <path d="M 66.08323669433594 208.6765594482422 C 25.96348762512207 193.76364135742188 39.644474029541016 192.48159790039062 17.191232681274414 179.0706329345703" fill="none" stroke="rgb(0, 0, 0)" stroke-linecap="round" stroke-linejoin="round" stroke-opacity="1.0" stroke-width="3.0"/>
    <path d="M 121.20681762695312 194.29293823242188 C 112.45579528808594 211.63897705078125 125.0430679321289 200.52081298828125 88.1274185180664 220.94369506835938" fill="none" stroke="rgb(0, 0, 0)" stroke-linecap="round" stroke-linejoin="round" stroke-opacity="1.0" stroke-width="3.0"/>
    <path d="M 39.98881912231445 31.957231521606445 C 60.89494323730469 48.35513687133789 58.99629592895508 43.42060089111328 67.94194030761719 27.62790870666504" fill="none" stroke="rgb(0, 0, 0)" stroke-linecap="round" stroke-linejoin="round" stroke-opacity="1.0" stroke-width="3.0"/>
    <path d="M 164.7341766357422 191.13783264160156 C 174.52847290039062 142.3415985107422 184.77862548828125 163.7449951171875 165.34329223632812 104.10501098632812" fill="none" stroke="rgb(0, 0, 0)" stroke-linecap="round" stroke-linejoin="round" stroke-opacity="1.0" stroke-width="3.0"/>
    <path d="M 138.89540100097656 62.86760711669922 C 129.81594848632812 79.46675109863281 162.33926391601562 86.9853744506836 140.76939392089844 69.01190185546875" fill="none" stroke="rgb(0, 0, 0)" stroke-linecap="round" stroke-linejoin="round" stroke-opacity="1.0" stroke-width="3.0"/>
    <path d="M 135.2167205810547 46.02158737182617 C 151.8518524169922 99.86700439453125 131.04441833496094 79.18014526367188 148.61343383789062 85.86460876464844" fill="none" stroke="rgb(0, 0, 0)" stroke-linecap="round" stroke-linejoin="round" stroke-opacity="1.0" stroke-width="3.0"/>
    <path d="M 162.83529663085938 190.2327423095703 C 152.74082946777344 201.6204071044922 158.18783569335938 179.4456329345703 162.1678466796875 221.98306274414062" fill="none" stroke="rgb(0, 0, 0)" stroke-linecap="round" stroke-linejoin="round" stroke-opacity="1.0" stroke-width="3.0"/>
    <path d="M 141.92105102539062 23.161989212036133 C 157.11819458007812 33.81926345825195 145.91111755371094 30.53679847717285 160.86163330078125 41.02665710449219" fill="none" stroke="rgb(0, 0, 0)" stroke-linecap="round" stroke-linejoin="round" stroke-opacity="1.0" stroke-width="3.0"/>
    <path d="M 127.8516845703125 15.791386604309082 C 142.88600158691406 41.186588287353516 120.95879364013672 27.91313934326172 142.8260040283203 52.51704788208008" fill="none" stroke="rgb(0, 0, 0)" stroke-linecap="round" stroke-linejoin="round" stroke-opacity="1.0" stroke-width="3.0"/>
  </g>
</svg>
