<?xml version="1.0" ?>
<svg height="224" version="1.1" width="224" xmlns="http://www.w3.org/2000/svg">
  <defs/>
  <g>
    <path d="M 36.76498031616211 50.87580871582031 C 77.8926773071289 73.218505859375 41.217987060546875 50.51960754394531 94.86441802978516 101.31158447265625" fill="none" stroke="rgb(0, 0, 0)" stroke-linecap="round" stroke-linejoin="round" stroke-opacity="1.0" stroke-width="3.0"/>
    <path d="M 29.430835723876953 113.78108978271484 C 74.90965270996094 187.3519287109375 54.41436004638672 129.01585388183594 78.96878814697266 187.7530517578125" fill="none" stroke="rgb(0, 0, 0)" stroke-linecap="round" stroke-linejoin="round" stroke-opacity="1.0" stroke-width="3.0"/>
    <path d="M 92.27375793457031 109.76085662841797 C 64.79216766357422 55.87226867675781 89.87324523925781 106.87174224853516 115.27278900146484 72.56515502929688" fill="none" stroke="rgb(0, 0, 0)" stroke-linecap="round" stroke-linejoin="round" stroke-opacity="1.0" stroke-width="3.0"/>
    <path d="M 102.9678955078125 39.370445251464844 C 130.10903930664062 98.13833618164062 103.55225372314453 83.79998779296875 96.70105743408203 109.12973022460938" fill="none" stroke="rgb(0, 0, 0)" stroke-linecap="round" stroke-linejoin="round" stroke-opacity="1.0" stroke-width="3.0"/>
    <path d="M 71.21485137939453 42.70701217651367 C 67.57875061035156 38.48100280761719 159.28211975097656 62.59442138671875 83.92811584472656 61.8348503112793" fill="none" stroke="rgb(0, 0, 0)" stroke-linecap="round" stroke-linejoin="round" stroke-opacity="1.0" stroke-width="3.0"/>
    <path d="M 152.19508361816406 97.80305480957031 C 143.99559020996094 105.15326690673828 136.0684356689453 128.7025909423828 129.59593200683594 159.97537231445312" fill="none" stroke="rgb(0, 0, 0)" stroke-linecap="round" stroke-linejoin="round" stroke-opacity="1.0" stroke-width="3.0"/>
    <path d="M 74.5130615234375 49.3328971862793 C 99.95991516113281 26.193092346191406 83.80575561523438 67.48362731933594 102.88090515136719 44.46926498413086" fill="none" stroke="rgb(0, 0, 0)" stroke-linecap="round" stroke-linejoin="round" stroke-opacity="1.0" stroke-width="3.0"/>
    <path d="M 49.69892883300781 212.76673889160156 C 25.17282485961914 220.9163360595703 22.681821823120117 216.60821533203125 16.119842529296875 167.7821807861328" fill="none" stroke="rgb(0, 0, 0)" stroke-linecap="round" stroke-linejoin="round" stroke-opacity="1.0" stroke-width="3.0"/>
    <path d="M 104.1754379272461 196.59632873535156 C 88.10726165771484 218.61483764648438 112.8356704711914 200.16783142089844 76.16725158691406 230.85670471191406" fill="none" stroke="rgb(0, 0, 0)" stroke-linecap="round" stroke-linejoin="round" stroke-opacity="1.0" stroke-width="3.0"/>
    <path d="M 43.106040954589844 44.99064636230469 C 68.56414794921875 8.583991050720215 46.98714828491211 38.20602035522461 80.57916259765625 9.242870330810547" fill="none" stroke="rgb(0, 0, 0)" stroke-linecap="round" stroke-linejoin="round" stroke-opacity="1.0" stroke-width="3.0"/>
    <path d="M 171.7889862060547 157.5009765625 C 165.84812927246094 109.71400451660156 187.89222717285156 132.35885620117188 160.47946166992188 93.34434509277344" fill="none" stroke="rgb(0, 0, 0)" stroke-linecap="round" stroke-linejoin="round" stroke-opacity="1.0" stroke-width="3.0"/>
    <path d="M 113.04263305664062 62.65988540649414 C 98.35356140136719 75.07311248779297 182.27313232421875 100.45128631591797 145.10638427734375 71.5964584350586" fill="none" stroke="rgb(0, 0, 0)" stroke-linecap="round" stroke-linejoin="round" stroke-opacity="1.0" stroke-width="3.0"/>
    <path d="M 135.4861602783203 45.801239013671875 C 157.6403045654297 86.48806762695312 142.65753173828125 82.46697235107422 159.38388061523438 91.70492553710938" fill="none" stroke="rgb(0, 0, 0)" stroke-linecap="round" stroke-linejoin="round" stroke-opacity="1.0" stroke-width="3.0"/>
    <path d="M 172.03640747070312 159.2774200439453 C 149.90887451171875 230.965087890625 155.40420532226562 171.051025390625 157.4519500732422 226.46188354492188" fill="none" stroke="rgb(0, 0, 0)" stroke-linecap="round" stroke-linejoin="round" stroke-opacity="1.0" stroke-width="3.0"/>
    <path d="M 109.90898895263672 2.2218096256256104 C 164.9550018310547 34.61813735961914 133.66429138183594 28.576814651489258 164.54408264160156 36.53901290893555" fill="none" stroke="rgb(0, 0, 0)" stroke-linecap="round" stroke-linejoin="round" stroke-opacity="1.0" stroke-width="3.0"/>
    <path d="M 114.5626220703125 19.205101013183594 C 139.56370544433594 40.32162094116211 110.93821716308594 28.9823055267334 146.78993225097656 59.89249801635742" fill="none" stroke="rgb(0, 0, 0)" stroke-linecap="round" stroke-linejoin="round" stroke-opacity="1.0" stroke-width="3.0"/>
  </g>
</svg>
