<?xml version="1.0" ?>
<svg height="224" version="1.1" width="224" xmlns="http://www.w3.org/2000/svg">
  <defs/>
  <g>
    <path d="M 35.299560546875 53.93359375 C 68.84029388427734 83.74861145019531 21.96185874938965 40.024559020996094 93.70076751708984 91.89379119873047" fill="none" stroke="rgb(0, 0, 0)" stroke-linecap="round" stroke-linejoin="round" stroke-opacity="1.0" stroke-width="3.0"/>
    <path d="M 32.842952728271484 113.03671264648438 C 76.34907531738281 183.70684814453125 52.91305923461914 133.25868225097656 71.76660919189453 188.18124389648438" fill="none" stroke="rgb(0, 0, 0)" stroke-linecap="round" stroke-linejoin="round" stroke-opacity="1.0" stroke-width="3.0"/>
    <path d="M 94.95337677001953 114.59630584716797 C 49.33613967895508 44.831642150878906 101.11400604248047 116.54777526855469 114.15995788574219 61.408512115478516" fill="none" stroke="rgb(0, 0, 0)" stroke-linecap="round" stroke-linejoin="round" stroke-opacity="1.0" stroke-width="3.0"/>
    <path d="M 108.4170913696289 19.287321090698242 C 127.84845733642578 111.3398208618164 102.2844009399414 88.01480102539062 95.46347045898438 117.52979278564453" fill="none" stroke="rgb(0, 0, 0)" stroke-linecap="round" stroke-linejoin="round" stroke-opacity="1.0" stroke-width="3.0"/>
    <path d="M 74.092529296875 50.68218231201172 C 76.42071533203125 29.002029418945312 143.21389770507812 67.20738983154297 81.38689422607422 58.235557556152344" fill="none" stroke="rgb(0, 0, 0)" stroke-linecap="round" stroke-linejoin="round" stroke-opacity="1.0" stroke-width="3.0"/>
    <path d="M 151.93507385253906 102.29463958740234 C 145.2662353515625 103.90143585205078 135.3105010986328 130.241943359375 130.6212615966797 156.54676818847656" fill="none" stroke="rgb(0, 0, 0)" stroke-linecap="round" stroke-linejoin="round" stroke-opacity="1.0" stroke-width="3.0"/>
    <path d="M 74.11323547363281 40.37590789794922 C 129.52975463867188 34.882301330566406 53.730003356933594 64.28501892089844 107.85516357421875 34.32049560546875" fill="none" stroke="rgb(0, 0, 0)" stroke-linecap="round" stroke-linejoin="round" stroke-opacity="1.0" stroke-width="3.0"/>
    <path d="M 59.014652252197266 229.346435546875 C 18.94533920288086 209.11526489257812 23.08551597595215 217.4311981201172 18.33416748046875 167.88804626464844" fill="none" stroke="rgb(0, 0, 0)" stroke-linecap="round" stroke-linejoin="round" stroke-opacity="1.0" stroke-width="3.0"/>
    <path d="M 112.03178405761719 198.34439086914062 C 99.3305892944336 219.05836486816406 119.53819274902344 194.11317443847656 75.23682403564453 232.01287841796875" fill="none" stroke="rgb(0, 0, 0)" stroke-linecap="round" stroke-linejoin="round" stroke-opacity="1.0" stroke-width="3.0"/>
    <path d="M 39.15048599243164 47.025978088378906 C 61.70527648925781 14.83076286315918 42.39377975463867 32.67149353027344 89.8943862915039 5.11267614364624" fill="none" stroke="rgb(0, 0, 0)" stroke-linecap="round" stroke-linejoin="round" stroke-opacity="1.0" stroke-width="3.0"/>
    <path d="M 170.8485565185547 159.19297790527344 C 168.49111938476562 112.5702896118164 184.84117126464844 134.44009399414062 166.04844665527344 102.00735473632812" fill="none" stroke="rgb(0, 0, 0)" stroke-linecap="round" stroke-linejoin="round" stroke-opacity="1.0" stroke-width="3.0"/>
    <path d="M 116.28435516357422 69.52608489990234 C 104.80741882324219 84.6321029663086 170.17153930664062 110.77590942382812 142.72894287109375 70.09468841552734" fill="none" stroke="rgb(0, 0, 0)" stroke-linecap="round" stroke-linejoin="round" stroke-opacity="1.0" stroke-width="3.0"/>
    <path d="M 142.5489044189453 45.85432815551758 C 151.97427368164062 107.51791381835938 132.7787322998047 77.72306823730469 164.34556579589844 101.29656219482422" fill="none" stroke="rgb(0, 0, 0)" stroke-linecap="round" stroke-linejoin="round" stroke-opacity="1.0" stroke-width="3.0"/>
    <path d="M 170.28326416015625 156.11038208007812 C 151.70712280273438 231.005615234375 154.39364624023438 167.7401123046875 160.42494201660156 228.83653259277344" fill="none" stroke="rgb(0, 0, 0)" stroke-linecap="round" stroke-linejoin="round" stroke-opacity="1.0" stroke-width="3.0"/>
    <path d="M 101.24302673339844 3.523493528366089 C 166.96043395996094 27.768314361572266 132.44090270996094 32.160064697265625 162.9763946533203 38.29593276977539" fill="none" stroke="rgb(0, 0, 0)" stroke-linecap="round" stroke-linejoin="round" stroke-opacity="1.0" stroke-width="3.0"/>
    <path d="M 121.91959381103516 12.214801788330078 C 144.7142791748047 40.727474212646484 116.35926818847656 15.414641380310059 147.69447326660156 56.3419075012207" fill="none" stroke="rgb(0, 0, 0)" stroke-linecap="round" stroke-linejoin="round" stroke-opacity="1.0" stroke-width="3.0"/>
  </g>
</svg>
