<?xml version="1.0" ?>
<svg height="224" version="1.1" width="224" xmlns="http://www.w3.org/2000/svg">
  <defs/>
  <g>
    <path d="M 33.39130401611328 49.833866119384766 C 73.7353515625 91.1497802734375 41.20553970336914 71.83245086669922 79.6708984375 99.13225555419922" fill="none" stroke="rgb(0, 0, 0)" stroke-linecap="round" stroke-linejoin="round" stroke-opacity="1.0" stroke-width="3.0"/>
    <path d="M 25.00187110900879 123.5283203125 C 70.6352310180664 169.86575317382812 75.7178726196289 144.43397521972656 80.91532135009766 163.69993591308594" fill="none" stroke="rgb(0, 0, 0)" stroke-linecap="round" stroke-linejoin="round" stroke-opacity="1.0" stroke-width="3.0"/>
    <path d="M 95.424560546875 107.96121978759766 C 82.71268463134766 105.92494201660156 93.8144760131836 112.4421615600586 107.43246459960938 98.93318176269531" fill="none" stroke="rgb(0, 0, 0)" stroke-linecap="round" stroke-linejoin="round" stroke-opacity="1.0" stroke-width="3.0"/>
    <path d="M 136.61749267578125 59.09959411621094 C 130.0413055419922 80.83950805664062 117.37535858154297 85.67708587646484 105.15347290039062 106.7107162475586" fill="none" stroke="rgb(0, 0, 0)" stroke-linecap="round" stroke-linejoin="round" stroke-opacity="1.0" stroke-width="3.0"/>
    <path d="M 53.59757995605469 36.64159393310547 C 78.81975555419922 45.121925354003906 92.92843627929688 39.29478073120117 76.56056213378906 44.883182525634766" fill="none" stroke="rgb(0, 0, 0)" stroke-linecap="round" stroke-linejoin="round" stroke-opacity="1.0" stroke-width="3.0"/>
    <path d="M 153.83892822265625 98.11021423339844 C 147.97523498535156 102.09915161132812 140.4044647216797 109.20020294189453 129.69268798828125 157.15660095214844" fill="none" stroke="rgb(0, 0, 0)" stroke-linecap="round" stroke-linejoin="round" stroke-opacity="1.0" stroke-width="3.0"/>
    <path d="M 75.86858367919922 42.173095703125 C 82.93559265136719 40.267269134521484 132.34974670410156 31.720829010009766 104.07569885253906 43.93567657470703" fill="none" stroke="rgb(0, 0, 0)" stroke-linecap="round" stroke-linejoin="round" stroke-opacity="1.0" stroke-width="3.0"/>
    <path d="M 66.62377166748047 184.1829071044922 C 40.4021110534668 181.6722869873047 61.39897918701172 182.2387237548828 17.282522201538086 193.0532989501953" fill="none" stroke="rgb(0, 0, 0)" stroke-linecap="round" stroke-linejoin="round" stroke-opacity="1.0" stroke-width="3.0"/>
    <path d="M 113.10928344726562 194.83590698242188 C 106.23722839355469 214.39389038085938 115.43365478515625 200.8505401611328 104.11346435546875 220.3037567138672" fill="none" stroke="rgb(0, 0, 0)" stroke-linecap="round" stroke-linejoin="round" stroke-opacity="1.0" stroke-width="3.0"/>
    <path d="M 43.92439651489258 33.90341567993164 C 60.423828125 43.211669921875 80.12197875976562 43.25953674316406 77.87295532226562 21.450170516967773" fill="none" stroke="rgb(0, 0, 0)" stroke-linecap="round" stroke-linejoin="round" stroke-opacity="1.0" stroke-width="3.0"/>
    <path d="M 160.86383056640625 189.19354248046875 C 175.94105529785156 145.31390380859375 170.62962341308594 166.34291076660156 175.49172973632812 114.72696685791016" fill="none" stroke="rgb(0, 0, 0)" stroke-linecap="round" stroke-linejoin="round" stroke-opacity="1.0" stroke-width="3.0"/>
    <path d="M 143.7171173095703 69.61126708984375 C 138.81248474121094 68.35797882080078 156.3893585205078 82.08885192871094 142.2019805908203 68.51626586914062" fill="none" stroke="rgb(0, 0, 0)" stroke-linecap="round" stroke-linejoin="round" stroke-opacity="1.0" stroke-width="3.0"/>
    <path d="M 138.3419647216797 50.15665054321289 C 157.32498168945312 91.39588165283203 137.58462524414062 74.2913589477539 154.01406860351562 85.79368591308594" fill="none" stroke="rgb(0, 0, 0)" stroke-linecap="round" stroke-linejoin="round" stroke-opacity="1.0" stroke-width="3.0"/>
    <path d="M 161.7354278564453 188.82192993164062 C 151.4579620361328 208.21343994140625 156.3162841796875 190.3270263671875 159.41860961914062 221.32774353027344" fill="none" stroke="rgb(0, 0, 0)" stroke-linecap="round" stroke-linejoin="round" stroke-opacity="1.0" stroke-width="3.0"/>
    <path d="M 155.58535766601562 33.74951934814453 C 150.04881286621094 33.88291931152344 147.98370361328125 28.29558753967285 159.6050262451172 36.524864196777344" fill="none" stroke="rgb(0, 0, 0)" stroke-linecap="round" stroke-linejoin="round" stroke-opacity="1.0" stroke-width="3.0"/>
    <path d="M 122.61820220947266 16.213693618774414 C 145.3280029296875 47.1067008972168 122.78133392333984 40.56303405761719 145.439697265625 52.90643310546875" fill="none" stroke="rgb(0, 0, 0)" stroke-linecap="round" stroke-linejoin="round" stroke-opacity="1.0" stroke-width="3.0"/>
  </g>
</svg>
