<?xml version="1.0" ?>
<svg height="224" version="1.1" width="224" xmlns="http://www.w3.org/2000/svg">
  <defs/>
  <g>
    <path d="M 36.541221618652344 55.57379913330078 C 70.35513305664062 80.67291259765625 21.389558792114258 37.71726608276367 96.02239227294922 91.72325134277344" fill="none" stroke="rgb(0, 0, 0)" stroke-linecap="round" stroke-linejoin="round" stroke-opacity="1.0" stroke-width="3.0"/>
    <path d="M 31.581378936767578 110.8465805053711 C 71.51994323730469 191.3693389892578 50.27048110961914 131.4419403076172 77.2177505493164 187.84017944335938" fill="none" stroke="rgb(0, 0, 0)" stroke-linecap="round" stroke-linejoin="round" stroke-opacity="1.0" stroke-width="3.0"/>
    <path d="M 95.78692626953125 114.07518005371094 C 50.02101516723633 42.523468017578125 102.28892517089844 117.13309478759766 114.61940002441406 67.02747344970703" fill="none" stroke="rgb(0, 0, 0)" stroke-linecap="round" stroke-linejoin="round" stroke-opacity="1.0" stroke-width="3.0"/>
    <path d="M 107.94800567626953 22.710887908935547 C 129.9198455810547 120.1037826538086 102.09140014648438 86.3199691772461 94.44886779785156 120.78253936767578" fill="none" stroke="rgb(0, 0, 0)" stroke-linecap="round" stroke-linejoin="round" stroke-opacity="1.0" stroke-width="3.0"/>
    <path d="M 75.94373321533203 52.20139694213867 C 76.4659194946289 31.085315704345703 142.90219116210938 62.562049865722656 88.35884857177734 65.13787841796875" fill="none" stroke="rgb(0, 0, 0)" stroke-linecap="round" stroke-linejoin="round" stroke-opacity="1.0" stroke-width="3.0"/>
    <path d="M 145.92506408691406 97.53402709960938 C 139.4761505126953 101.18811798095703 132.98275756835938 126.39554595947266 129.56466674804688 152.39947509765625" fill="none" stroke="rgb(0, 0, 0)" stroke-linecap="round" stroke-linejoin="round" stroke-opacity="1.0" stroke-width="3.0"/>
    <path d="M 80.26702880859375 37.1783561706543 C 129.51548767089844 28.902118682861328 67.30674743652344 67.38114166259766 111.80889892578125 39.955387115478516" fill="none" stroke="rgb(0, 0, 0)" stroke-linecap="round" stroke-linejoin="round" stroke-opacity="1.0" stroke-width="3.0"/>
    <path d="M 60.11659622192383 225.82424926757812 C 20.105485916137695 209.2568359375 24.413166046142578 219.85260009765625 17.006336212158203 166.15573120117188" fill="none" stroke="rgb(0, 0, 0)" stroke-linecap="round" stroke-linejoin="round" stroke-opacity="1.0" stroke-width="3.0"/>
    <path d="M 115.02447509765625 197.91416931152344 C 101.45085144042969 221.610107421875 119.74482727050781 193.6349334716797 78.06489562988281 233.4961395263672" fill="none" stroke="rgb(0, 0, 0)" stroke-linecap="round" stroke-linejoin="round" stroke-opacity="1.0" stroke-width="3.0"/>
    <path d="M 40.62131118774414 49.56669235229492 C 56.723777770996094 13.881905555725098 41.15146255493164 34.15610885620117 85.79768371582031 4.392963409423828" fill="none" stroke="rgb(0, 0, 0)" stroke-linecap="round" stroke-linejoin="round" stroke-opacity="1.0" stroke-width="3.0"/>
    <path d="M 170.61061096191406 159.86631774902344 C 167.71246337890625 113.64461517333984 185.13853454589844 129.6522216796875 164.87374877929688 102.77189636230469" fill="none" stroke="rgb(0, 0, 0)" stroke-linecap="round" stroke-linejoin="round" stroke-opacity="1.0" stroke-width="3.0"/>
    <path d="M 117.23394775390625 66.50987243652344 C 103.76322174072266 86.30770111083984 171.4579315185547 108.72274017333984 141.24655151367188 67.45750427246094" fill="none" stroke="rgb(0, 0, 0)" stroke-linecap="round" stroke-linejoin="round" stroke-opacity="1.0" stroke-width="3.0"/>
    <path d="M 140.44366455078125 43.0014762878418 C 150.86351013183594 101.61293029785156 131.47425842285156 78.206787109375 163.61769104003906 100.85636138916016" fill="none" stroke="rgb(0, 0, 0)" stroke-linecap="round" stroke-linejoin="round" stroke-opacity="1.0" stroke-width="3.0"/>
    <path d="M 169.8441162109375 160.54483032226562 C 152.0221710205078 231.29150390625 153.64263916015625 169.2152557373047 160.31341552734375 228.62591552734375" fill="none" stroke="rgb(0, 0, 0)" stroke-linecap="round" stroke-linejoin="round" stroke-opacity="1.0" stroke-width="3.0"/>
    <path d="M 106.79566955566406 4.155714511871338 C 172.31686401367188 33.253902435302734 135.60012817382812 28.073143005371094 164.8571319580078 36.43489456176758" fill="none" stroke="rgb(0, 0, 0)" stroke-linecap="round" stroke-linejoin="round" stroke-opacity="1.0" stroke-width="3.0"/>
    <path d="M 123.11775970458984 14.154890060424805 C 147.9746856689453 42.62686538696289 116.91091918945312 14.268315315246582 148.16510009765625 55.299686431884766" fill="none" stroke="rgb(0, 0, 0)" stroke-linecap="round" stroke-linejoin="round" stroke-opacity="1.0" stroke-width="3.0"/>
  </g>
</svg>
