<?xml version="1.0" ?>
<svg height="224" version="1.1" width="224" xmlns="http://www.w3.org/2000/svg">
  <defs/>
  <g>
    <path d="M 34.48025131225586 55.48127746582031 C 71.02357482910156 83.38914489746094 19.57550621032715 37.91584777832031 93.60872650146484 95.82312774658203" fill="none" stroke="rgb(0, 0, 0)" stroke-linecap="round" stroke-linejoin="round" stroke-opacity="1.0" stroke-width="3.0"/>
    <path d="M 29.022321701049805 111.17938232421875 C 69.10321044921875 186.9819793701172 50.4533576965332 131.41171264648438 74.03557586669922 184.99302673339844" fill="none" stroke="rgb(0, 0, 0)" stroke-linecap="round" stroke-linejoin="round" stroke-opacity="1.0" stroke-width="3.0"/>
    <path d="M 95.4320297241211 115.10491180419922 C 43.262638092041016 43.19496154785156 100.59089660644531 116.65187072753906 117.56454467773438 65.23663330078125" fill="none" stroke="rgb(0, 0, 0)" stroke-linecap="round" stroke-linejoin="round" stroke-opacity="1.0" stroke-width="3.0"/>
    <path d="M 112.91616821289062 25.575023651123047 C 131.9108428955078 110.59852600097656 102.41185760498047 86.80491638183594 94.29923248291016 119.0087890625" fill="none" stroke="rgb(0, 0, 0)" stroke-linecap="round" stroke-linejoin="round" stroke-opacity="1.0" stroke-width="3.0"/>
    <path d="M 78.6451644897461 54.64680480957031 C 73.89944458007812 36.506534576416016 147.68466186523438 58.863075256347656 85.45208740234375 59.729209899902344" fill="none" stroke="rgb(0, 0, 0)" stroke-linecap="round" stroke-linejoin="round" stroke-opacity="1.0" stroke-width="3.0"/>
    <path d="M 146.89602661132812 99.92443084716797 C 142.94354248046875 103.0882339477539 132.28514099121094 126.16166687011719 127.92108154296875 155.46400451660156" fill="none" stroke="rgb(0, 0, 0)" stroke-linecap="round" stroke-linejoin="round" stroke-opacity="1.0" stroke-width="3.0"/>
    <path d="M 78.3717041015625 36.57521057128906 C 118.6211166381836 33.59917068481445 67.48126983642578 68.65106964111328 107.29532623291016 42.77906799316406" fill="none" stroke="rgb(0, 0, 0)" stroke-linecap="round" stroke-linejoin="round" stroke-opacity="1.0" stroke-width="3.0"/>
    <path d="M 56.614376068115234 228.25733947753906 C 19.048898696899414 209.14744567871094 24.896100997924805 220.60189819335938 18.89723777770996 166.39889526367188" fill="none" stroke="rgb(0, 0, 0)" stroke-linecap="round" stroke-linejoin="round" stroke-opacity="1.0" stroke-width="3.0"/>
    <path d="M 111.94664764404297 201.42970275878906 C 102.24039459228516 220.24757385253906 121.27816772460938 196.18157958984375 80.20156860351562 235.06077575683594" fill="none" stroke="rgb(0, 0, 0)" stroke-linecap="round" stroke-linejoin="round" stroke-opacity="1.0" stroke-width="3.0"/>
    <path d="M 35.39280700683594 48.674072265625 C 56.26847457885742 13.474000930786133 41.16211700439453 38.12337112426758 81.17406463623047 7.555388450622559" fill="none" stroke="rgb(0, 0, 0)" stroke-linecap="round" stroke-linejoin="round" stroke-opacity="1.0" stroke-width="3.0"/>
    <path d="M 170.65586853027344 161.88848876953125 C 168.32720947265625 113.4703598022461 185.1249542236328 133.12326049804688 162.49020385742188 101.16529083251953" fill="none" stroke="rgb(0, 0, 0)" stroke-linecap="round" stroke-linejoin="round" stroke-opacity="1.0" stroke-width="3.0"/>
    <path d="M 120.9814224243164 59.66838073730469 C 103.52347564697266 84.95527648925781 175.98377990722656 105.06379699707031 142.9491729736328 71.07013702392578" fill="none" stroke="rgb(0, 0, 0)" stroke-linecap="round" stroke-linejoin="round" stroke-opacity="1.0" stroke-width="3.0"/>
    <path d="M 140.7443389892578 39.648338317871094 C 154.0482635498047 97.34416961669922 134.6870880126953 79.17742919921875 162.4571533203125 100.15789794921875" fill="none" stroke="rgb(0, 0, 0)" stroke-linecap="round" stroke-linejoin="round" stroke-opacity="1.0" stroke-width="3.0"/>
    <path d="M 169.81895446777344 163.92266845703125 C 149.8158721923828 221.07139587402344 148.9464569091797 160.89671325683594 162.74781799316406 227.1036834716797" fill="none" stroke="rgb(0, 0, 0)" stroke-linecap="round" stroke-linejoin="round" stroke-opacity="1.0" stroke-width="3.0"/>
    <path d="M 113.7968978881836 2.1214890480041504 C 164.4480743408203 34.185611724853516 136.75775146484375 24.987754821777344 162.8277587890625 35.713951110839844" fill="none" stroke="rgb(0, 0, 0)" stroke-linecap="round" stroke-linejoin="round" stroke-opacity="1.0" stroke-width="3.0"/>
    <path d="M 125.81339263916016 11.827242851257324 C 151.27464294433594 35.87523651123047 121.88567352294922 20.61676788330078 150.17822265625 57.357051849365234" fill="none" stroke="rgb(0, 0, 0)" stroke-linecap="round" stroke-linejoin="round" stroke-opacity="1.0" stroke-width="3.0"/>
  </g>
</svg>
