<?xml version="1.0" ?>
<svg height="224" version="1.1" width="224" xmlns="http://www.w3.org/2000/svg">
  <defs/>
  <g>
    <path d="M 34.1093635559082 55.43611526489258 C 74.24969482421875 91.14037322998047 23.909059524536133 38.95652770996094 93.57352447509766 94.00223541259766" fill="none" stroke="rgb(0, 0, 0)" stroke-linecap="round" stroke-linejoin="round" stroke-opacity="1.0" stroke-width="3.0"/>
    <path d="M 33.68153381347656 108.03570556640625 C 68.55409240722656 191.17030334472656 52.760765075683594 131.99301147460938 75.39068603515625 182.8179931640625" fill="none" stroke="rgb(0, 0, 0)" stroke-linecap="round" stroke-linejoin="round" stroke-opacity="1.0" stroke-width="3.0"/>
    <path d="M 96.48619842529297 113.90264129638672 C 40.97492599487305 40.12498092651367 98.20169067382812 115.88163757324219 115.2261734008789 67.38532257080078" fill="none" stroke="rgb(0, 0, 0)" stroke-linecap="round" stroke-linejoin="round" stroke-opacity="1.0" stroke-width="3.0"/>
    <path d="M 115.09304809570312 24.318193435668945 C 128.26063537597656 112.5810775756836 103.83872985839844 87.95390319824219 94.08232879638672 119.68733215332031" fill="none" stroke="rgb(0, 0, 0)" stroke-linecap="round" stroke-linejoin="round" stroke-opacity="1.0" stroke-width="3.0"/>
    <path d="M 74.80926513671875 50.470157623291016 C 74.4380111694336 31.604665756225586 157.72743225097656 61.774051666259766 84.42012786865234 65.52501678466797" fill="none" stroke="rgb(0, 0, 0)" stroke-linecap="round" stroke-linejoin="round" stroke-opacity="1.0" stroke-width="3.0"/>
    <path d="M 145.07119750976562 96.95433044433594 C 142.17971801757812 101.52486419677734 131.3812713623047 124.8080062866211 128.40664672851562 155.97190856933594" fill="none" stroke="rgb(0, 0, 0)" stroke-linecap="round" stroke-linejoin="round" stroke-opacity="1.0" stroke-width="3.0"/>
    <path d="M 77.89469909667969 37.03374481201172 C 120.03350067138672 32.818912506103516 70.22804260253906 67.46652221679688 104.7460708618164 43.862064361572266" fill="none" stroke="rgb(0, 0, 0)" stroke-linecap="round" stroke-linejoin="round" stroke-opacity="1.0" stroke-width="3.0"/>
    <path d="M 54.09125518798828 229.75607299804688 C 22.19172477722168 208.78323364257812 23.2288818359375 219.61903381347656 17.690448760986328 167.27342224121094" fill="none" stroke="rgb(0, 0, 0)" stroke-linecap="round" stroke-linejoin="round" stroke-opacity="1.0" stroke-width="3.0"/>
    <path d="M 110.37635803222656 194.94837951660156 C 95.44115447998047 216.01327514648438 120.34198760986328 195.37852478027344 73.73023986816406 226.94407653808594" fill="none" stroke="rgb(0, 0, 0)" stroke-linecap="round" stroke-linejoin="round" stroke-opacity="1.0" stroke-width="3.0"/>
    <path d="M 34.60310745239258 49.352378845214844 C 58.2706413269043 12.076184272766113 39.8108024597168 41.29065704345703 75.46797180175781 8.68851089477539" fill="none" stroke="rgb(0, 0, 0)" stroke-linecap="round" stroke-linejoin="round" stroke-opacity="1.0" stroke-width="3.0"/>
    <path d="M 170.3692169189453 163.85702514648438 C 167.3684539794922 114.17082214355469 185.26992797851562 131.1919708251953 162.4183807373047 98.53115844726562" fill="none" stroke="rgb(0, 0, 0)" stroke-linecap="round" stroke-linejoin="round" stroke-opacity="1.0" stroke-width="3.0"/>
    <path d="M 117.95854949951172 60.760719299316406 C 101.50778198242188 85.89435577392578 178.07638549804688 105.1322250366211 141.8851318359375 66.29313659667969" fill="none" stroke="rgb(0, 0, 0)" stroke-linecap="round" stroke-linejoin="round" stroke-opacity="1.0" stroke-width="3.0"/>
    <path d="M 139.4357147216797 38.84922409057617 C 157.66094970703125 99.82011413574219 136.85313415527344 81.40721893310547 161.1145477294922 97.85868835449219" fill="none" stroke="rgb(0, 0, 0)" stroke-linecap="round" stroke-linejoin="round" stroke-opacity="1.0" stroke-width="3.0"/>
    <path d="M 170.23776245117188 163.19512939453125 C 149.5775146484375 217.49159240722656 149.00137329101562 153.57371520996094 159.47970581054688 227.13973999023438" fill="none" stroke="rgb(0, 0, 0)" stroke-linecap="round" stroke-linejoin="round" stroke-opacity="1.0" stroke-width="3.0"/>
    <path d="M 112.12676239013672 6.024719715118408 C 164.88490295410156 32.427127838134766 137.5069580078125 26.933034896850586 164.20306396484375 36.71953201293945" fill="none" stroke="rgb(0, 0, 0)" stroke-linecap="round" stroke-linejoin="round" stroke-opacity="1.0" stroke-width="3.0"/>
    <path d="M 121.07676696777344 13.746978759765625 C 147.93862915039062 33.07814407348633 116.44519805908203 20.171003341674805 148.37464904785156 56.856563568115234" fill="none" stroke="rgb(0, 0, 0)" stroke-linecap="round" stroke-linejoin="round" stroke-opacity="1.0" stroke-width="3.0"/>
  </g>
</svg>
