<?xml version="1.0" ?>
<svg height="224" version="1.1" width="224" xmlns="http://www.w3.org/2000/svg">
  <defs/>
  <g>
    <path d="M 32.40303421020508 50.36576843261719 C 66.05390167236328 75.39158630371094 20.354785919189453 32.97203826904297 92.81705474853516 92.55397033691406" fill="none" stroke="rgb(0, 0, 0)" stroke-linecap="round" stroke-linejoin="round" stroke-opacity="1.0" stroke-width="3.0"/>
    <path d="M 29.65930938720703 118.59996032714844 C 70.87130737304688 178.57077026367188 54.56746292114258 135.24514770507812 75.33401489257812 180.60858154296875" fill="none" stroke="rgb(0, 0, 0)" stroke-linecap="round" stroke-linejoin="round" stroke-opacity="1.0" stroke-width="3.0"/>
    <path d="M 94.29285430908203 114.24700164794922 C 42.43387985229492 43.56081771850586 107.53646087646484 114.54975128173828 116.24684143066406 57.2189826965332" fill="none" stroke="rgb(0, 0, 0)" stroke-linecap="round" stroke-linejoin="round" stroke-opacity="1.0" stroke-width="3.0"/>
    <path d="M 107.57583618164062 24.300125122070312 C 131.73544311523438 119.34446716308594 104.13278198242188 89.4894027709961 94.75800323486328 118.46062469482422" fill="none" stroke="rgb(0, 0, 0)" stroke-linecap="round" stroke-linejoin="round" stroke-opacity="1.0" stroke-width="3.0"/>
    <path d="M 73.69618225097656 57.281978607177734 C 73.05777740478516 43.26055908203125 143.95144653320312 63.907596588134766 87.30233001708984 63.26866149902344" fill="none" stroke="rgb(0, 0, 0)" stroke-linecap="round" stroke-linejoin="round" stroke-opacity="1.0" stroke-width="3.0"/>
    <path d="M 145.929443359375 99.48907470703125 C 143.2822265625 102.97280883789062 132.14501953125 128.1540069580078 128.54052734375 159.61007690429688" fill="none" stroke="rgb(0, 0, 0)" stroke-linecap="round" stroke-linejoin="round" stroke-opacity="1.0" stroke-width="3.0"/>
    <path d="M 74.77986907958984 41.568294525146484 C 130.929443359375 32.19600296020508 48.91012191772461 78.16582489013672 105.73231506347656 34.325531005859375" fill="none" stroke="rgb(0, 0, 0)" stroke-linecap="round" stroke-linejoin="round" stroke-opacity="1.0" stroke-width="3.0"/>
    <path d="M 63.30171203613281 228.67111206054688 C 12.800294876098633 214.4397735595703 28.37531089782715 209.1763153076172 15.882730484008789 170.3507843017578" fill="none" stroke="rgb(0, 0, 0)" stroke-linecap="round" stroke-linejoin="round" stroke-opacity="1.0" stroke-width="3.0"/>
    <path d="M 117.76978302001953 202.3922882080078 C 101.98836517333984 227.48971557617188 124.52897644042969 202.1096954345703 79.58673858642578 237.10142517089844" fill="none" stroke="rgb(0, 0, 0)" stroke-linecap="round" stroke-linejoin="round" stroke-opacity="1.0" stroke-width="3.0"/>
    <path d="M 38.12773895263672 40.52619552612305 C 72.7636489868164 16.89015007019043 35.10599899291992 33.45977020263672 86.90897369384766 7.415229320526123" fill="none" stroke="rgb(0, 0, 0)" stroke-linecap="round" stroke-linejoin="round" stroke-opacity="1.0" stroke-width="3.0"/>
    <path d="M 172.5833740234375 155.97067260742188 C 169.0048828125 115.45052337646484 187.3511199951172 131.6656494140625 164.87966918945312 101.1086196899414" fill="none" stroke="rgb(0, 0, 0)" stroke-linecap="round" stroke-linejoin="round" stroke-opacity="1.0" stroke-width="3.0"/>
    <path d="M 115.38233947753906 69.3786849975586 C 104.00050354003906 85.73138427734375 173.30075073242188 107.40033721923828 142.78968811035156 70.1139144897461" fill="none" stroke="rgb(0, 0, 0)" stroke-linecap="round" stroke-linejoin="round" stroke-opacity="1.0" stroke-width="3.0"/>
    <path d="M 141.01278686523438 43.92909622192383 C 156.0909881591797 103.09285736083984 135.9628143310547 81.4289321899414 163.7196044921875 99.33308410644531" fill="none" stroke="rgb(0, 0, 0)" stroke-linecap="round" stroke-linejoin="round" stroke-opacity="1.0" stroke-width="3.0"/>
    <path d="M 172.320556640625 157.00448608398438 C 150.36643981933594 233.62474060058594 155.46865844726562 165.5542755126953 160.45004272460938 229.4120330810547" fill="none" stroke="rgb(0, 0, 0)" stroke-linecap="round" stroke-linejoin="round" stroke-opacity="1.0" stroke-width="3.0"/>
    <path d="M 97.40568542480469 4.726499557495117 C 167.3634796142578 29.12274932861328 136.9552459716797 28.47417640686035 163.9265899658203 34.02726364135742" fill="none" stroke="rgb(0, 0, 0)" stroke-linecap="round" stroke-linejoin="round" stroke-opacity="1.0" stroke-width="3.0"/>
    <path d="M 115.29029846191406 10.28882122039795 C 142.4439239501953 45.332725524902344 108.07171630859375 16.913070678710938 148.97650146484375 56.17869567871094" fill="none" stroke="rgb(0, 0, 0)" stroke-linecap="round" stroke-linejoin="round" stroke-opacity="1.0" stroke-width="3.0"/>
  </g>
</svg>
