<?xml version="1.0" ?>
<svg height="224" version="1.1" width="224" xmlns="http://www.w3.org/2000/svg">
  <defs/>
  <g>
    <path d="M 37.26472091674805 48.16341018676758 C 80.20299530029297 80.45191192626953 51.157508850097656 66.57835388183594 87.39913940429688 102.09666442871094" fill="none" stroke="rgb(0, 0, 0)" stroke-linecap="round" stroke-linejoin="round" stroke-opacity="1.0" stroke-width="3.0"/>
    <path d="M 33.07007598876953 115.78543090820312 C 74.02434539794922 186.63063049316406 50.66666793823242 126.23857116699219 76.48627471923828 189.90261840820312" fill="none" stroke="rgb(0, 0, 0)" stroke-linecap="round" stroke-linejoin="round" stroke-opacity="1.0" stroke-width="3.0"/>
    <path d="M 95.8773422241211 110.56234741210938 C 65.24237060546875 65.58187866210938 81.41756439208984 112.26094818115234 118.29585266113281 83.98698425292969" fill="none" stroke="rgb(0, 0, 0)" stroke-linecap="round" stroke-linejoin="round" stroke-opacity="1.0" stroke-width="3.0"/>
    <path d="M 121.27027893066406 31.568347930908203 C 131.057373046875 98.59268188476562 118.87045288085938 79.74957275390625 94.5105209350586 111.24918365478516" fill="none" stroke="rgb(0, 0, 0)" stroke-linecap="round" stroke-linejoin="round" stroke-opacity="1.0" stroke-width="3.0"/>
    <path d="M 75.43171691894531 35.782470703125 C 83.66720581054688 58.31879806518555 145.7772674560547 42.762508392333984 86.10877227783203 68.31140899658203" fill="none" stroke="rgb(0, 0, 0)" stroke-linecap="round" stroke-linejoin="round" stroke-opacity="1.0" stroke-width="3.0"/>
    <path d="M 141.9483184814453 98.95690155029297 C 136.8076934814453 108.73457336425781 129.64418029785156 115.06881713867188 120.20321655273438 160.88438415527344" fill="none" stroke="rgb(0, 0, 0)" stroke-linecap="round" stroke-linejoin="round" stroke-opacity="1.0" stroke-width="3.0"/>
    <path d="M 80.79939270019531 50.28311538696289 C 88.90472412109375 33.792701721191406 93.06362915039062 64.1348876953125 108.30120086669922 43.00906753540039" fill="none" stroke="rgb(0, 0, 0)" stroke-linecap="round" stroke-linejoin="round" stroke-opacity="1.0" stroke-width="3.0"/>
    <path d="M 53.430606842041016 199.25643920898438 C 23.429922103881836 192.2001495361328 32.552608489990234 199.0640106201172 10.40365982055664 181.069580078125" fill="none" stroke="rgb(0, 0, 0)" stroke-linecap="round" stroke-linejoin="round" stroke-opacity="1.0" stroke-width="3.0"/>
    <path d="M 109.82088470458984 198.38108825683594 C 93.04802703857422 215.2978973388672 116.51551818847656 201.30679321289062 77.98365020751953 229.8249053955078" fill="none" stroke="rgb(0, 0, 0)" stroke-linecap="round" stroke-linejoin="round" stroke-opacity="1.0" stroke-width="3.0"/>
    <path d="M 46.349117279052734 37.35333251953125 C 77.46806335449219 11.993912696838379 64.05200958251953 33.03574752807617 80.39053344726562 12.2075834274292" fill="none" stroke="rgb(0, 0, 0)" stroke-linecap="round" stroke-linejoin="round" stroke-opacity="1.0" stroke-width="3.0"/>
    <path d="M 168.50628662109375 174.79905700683594 C 173.1377410888672 116.64151763916016 188.5957794189453 125.2447738647461 163.22938537597656 103.2033920288086" fill="none" stroke="rgb(0, 0, 0)" stroke-linecap="round" stroke-linejoin="round" stroke-opacity="1.0" stroke-width="3.0"/>
    <path d="M 126.43605041503906 58.38755416870117 C 108.18452453613281 83.71676635742188 184.4220428466797 95.78453826904297 141.3132781982422 70.49578094482422" fill="none" stroke="rgb(0, 0, 0)" stroke-linecap="round" stroke-linejoin="round" stroke-opacity="1.0" stroke-width="3.0"/>
    <path d="M 140.99400329589844 48.32447814941406 C 144.908935546875 90.42961883544922 148.37777709960938 79.5414810180664 156.6707763671875 89.8803482055664" fill="none" stroke="rgb(0, 0, 0)" stroke-linecap="round" stroke-linejoin="round" stroke-opacity="1.0" stroke-width="3.0"/>
    <path d="M 168.86093139648438 175.95521545410156 C 150.5818328857422 217.5872039794922 157.1849822998047 173.0084228515625 157.9430389404297 226.6283721923828" fill="none" stroke="rgb(0, 0, 0)" stroke-linecap="round" stroke-linejoin="round" stroke-opacity="1.0" stroke-width="3.0"/>
    <path d="M 128.0438232421875 5.976133823394775 C 164.50973510742188 36.25079345703125 143.6311798095703 27.61606788635254 163.4384765625 36.5032958984375" fill="none" stroke="rgb(0, 0, 0)" stroke-linecap="round" stroke-linejoin="round" stroke-opacity="1.0" stroke-width="3.0"/>
    <path d="M 123.92999267578125 18.67626190185547 C 137.45803833007812 40.02476501464844 116.53163146972656 25.347360610961914 145.58633422851562 60.76688003540039" fill="none" stroke="rgb(0, 0, 0)" stroke-linecap="round" stroke-linejoin="round" stroke-opacity="1.0" stroke-width="3.0"/>
  </g>
</svg>
