<?xml version="1.0" ?>
<svg height="224" version="1.1" width="224" xmlns="http://www.w3.org/2000/svg">
  <defs/>
  <g>
    <path d="M 38.88570022583008 41.68395233154297 C 77.8936767578125 88.17596435546875 51.44595718383789 67.73092651367188 85.08624267578125 102.97064971923828" fill="none" stroke="rgb(0, 0, 0)" stroke-linecap="round" stroke-linejoin="round" stroke-opacity="1.0" stroke-width="3.0"/>
    <path d="M 25.77976417541504 118.71893310546875 C 74.26234436035156 182.94065856933594 52.89686584472656 128.99111938476562 86.08259582519531 189.44647216796875" fill="none" stroke="rgb(0, 0, 0)" stroke-linecap="round" stroke-linejoin="round" stroke-opacity="1.0" stroke-width="3.0"/>
    <path d="M 96.60086822509766 112.06993865966797 C 54.22038650512695 72.1358413696289 86.66522979736328 113.66619110107422 119.79019927978516 87.84657287597656" fill="none" stroke="rgb(0, 0, 0)" stroke-linecap="round" stroke-linejoin="round" stroke-opacity="1.0" stroke-width="3.0"/>
    <path d="M 120.44866943359375 39.31667709350586 C 132.01589965820312 101.66130065917969 124.35832214355469 81.31278991699219 95.74327087402344 113.62296295166016" fill="none" stroke="rgb(0, 0, 0)" stroke-linecap="round" stroke-linejoin="round" stroke-opacity="1.0" stroke-width="3.0"/>
    <path d="M 74.13715362548828 43.097991943359375 C 87.88101959228516 55.22035598754883 138.33001708984375 31.98819351196289 78.88184356689453 59.1205940246582" fill="none" stroke="rgb(0, 0, 0)" stroke-linecap="round" stroke-linejoin="round" stroke-opacity="1.0" stroke-width="3.0"/>
    <path d="M 144.87152099609375 100.97081756591797 C 136.1514434814453 106.90666198730469 132.35716247558594 116.69215393066406 121.7161865234375 157.0158233642578" fill="none" stroke="rgb(0, 0, 0)" stroke-linecap="round" stroke-linejoin="round" stroke-opacity="1.0" stroke-width="3.0"/>
    <path d="M 87.59226989746094 49.559043884277344 C 89.36261749267578 31.08296775817871 105.28289794921875 61.99861145019531 115.58561706542969 38.68095779418945" fill="none" stroke="rgb(0, 0, 0)" stroke-linecap="round" stroke-linejoin="round" stroke-opacity="1.0" stroke-width="3.0"/>
    <path d="M 62.56776809692383 198.62156677246094 C 24.94761085510254 195.55264282226562 32.448402404785156 201.39662170410156 11.738921165466309 177.5312042236328" fill="none" stroke="rgb(0, 0, 0)" stroke-linecap="round" stroke-linejoin="round" stroke-opacity="1.0" stroke-width="3.0"/>
    <path d="M 109.08866119384766 198.19053649902344 C 93.72384643554688 215.15614318847656 116.3153076171875 201.07244873046875 79.85082244873047 231.2560272216797" fill="none" stroke="rgb(0, 0, 0)" stroke-linecap="round" stroke-linejoin="round" stroke-opacity="1.0" stroke-width="3.0"/>
    <path d="M 53.64543151855469 32.989601135253906 C 70.44071960449219 8.208169937133789 64.83518981933594 32.2690544128418 81.84660339355469 10.474291801452637" fill="none" stroke="rgb(0, 0, 0)" stroke-linecap="round" stroke-linejoin="round" stroke-opacity="1.0" stroke-width="3.0"/>
    <path d="M 165.44647216796875 180.05813598632812 C 171.16375732421875 123.29463958740234 182.69190979003906 140.4588623046875 168.53738403320312 104.688720703125" fill="none" stroke="rgb(0, 0, 0)" stroke-linecap="round" stroke-linejoin="round" stroke-opacity="1.0" stroke-width="3.0"/>
    <path d="M 128.14747619628906 55.878849029541016 C 105.9815902709961 85.91402435302734 178.5155029296875 96.37894439697266 140.36924743652344 70.76668548583984" fill="none" stroke="rgb(0, 0, 0)" stroke-linecap="round" stroke-linejoin="round" stroke-opacity="1.0" stroke-width="3.0"/>
    <path d="M 140.19833374023438 50.29722213745117 C 146.7841033935547 92.2685317993164 144.61207580566406 83.97835540771484 154.00579833984375 92.13004302978516" fill="none" stroke="rgb(0, 0, 0)" stroke-linecap="round" stroke-linejoin="round" stroke-opacity="1.0" stroke-width="3.0"/>
    <path d="M 164.71900939941406 181.92449951171875 C 151.5504913330078 214.5933074951172 155.81536865234375 178.66079711914062 160.22183227539062 226.87115478515625" fill="none" stroke="rgb(0, 0, 0)" stroke-linecap="round" stroke-linejoin="round" stroke-opacity="1.0" stroke-width="3.0"/>
    <path d="M 131.71888732910156 13.171302795410156 C 163.37249755859375 34.18506622314453 141.019287109375 28.21551513671875 164.4116668701172 36.622562408447266" fill="none" stroke="rgb(0, 0, 0)" stroke-linecap="round" stroke-linejoin="round" stroke-opacity="1.0" stroke-width="3.0"/>
    <path d="M 125.09839630126953 24.07908058166504 C 143.46676635742188 45.46963119506836 119.39672088623047 25.937397003173828 145.2566375732422 62.093849182128906" fill="none" stroke="rgb(0, 0, 0)" stroke-linecap="round" stroke-linejoin="round" stroke-opacity="1.0" stroke-width="3.0"/>
  </g>
</svg>
