<?xml version="1.0" ?>
<svg height="224" version="1.1" width="224" xmlns="http://www.w3.org/2000/svg">
  <defs/>
  <g>
    <path d="M 33.768043518066406 51.44247817993164 C 81.12580871582031 95.17009735107422 47.30911636352539 72.62528991699219 78.8292465209961 106.20234680175781" fill="none" stroke="rgb(0, 0, 0)" stroke-linecap="round" stroke-linejoin="round" stroke-opacity="1.0" stroke-width="3.0"/>
    <path d="M 27.25674057006836 118.80135345458984 C 71.67394256591797 186.31454467773438 53.67509460449219 130.33108520507812 78.7067642211914 190.710693359375" fill="none" stroke="rgb(0, 0, 0)" stroke-linecap="round" stroke-linejoin="round" stroke-opacity="1.0" stroke-width="3.0"/>
    <path d="M 93.96854400634766 112.53384399414062 C 50.385807037353516 76.38561248779297 83.08100891113281 117.88906860351562 117.22522735595703 92.74512481689453" fill="none" stroke="rgb(0, 0, 0)" stroke-linecap="round" stroke-linejoin="round" stroke-opacity="1.0" stroke-width="3.0"/>
    <path d="M 120.82852935791016 30.727521896362305 C 134.13706970214844 97.78512573242188 130.2947998046875 78.51264953613281 93.6155014038086 115.08312225341797" fill="none" stroke="rgb(0, 0, 0)" stroke-linecap="round" stroke-linejoin="round" stroke-opacity="1.0" stroke-width="3.0"/>
    <path d="M 77.16641998291016 41.10940933227539 C 79.9328842163086 46.47908020019531 115.66718292236328 25.6701717376709 89.99347686767578 61.5186767578125" fill="none" stroke="rgb(0, 0, 0)" stroke-linecap="round" stroke-linejoin="round" stroke-opacity="1.0" stroke-width="3.0"/>
    <path d="M 153.46229553222656 98.36370086669922 C 139.85397338867188 108.8636703491211 137.7292938232422 119.28872680664062 126.09283447265625 154.2173309326172" fill="none" stroke="rgb(0, 0, 0)" stroke-linecap="round" stroke-linejoin="round" stroke-opacity="1.0" stroke-width="3.0"/>
    <path d="M 87.08246612548828 41.227081298828125 C 89.30162048339844 26.0739688873291 102.56906127929688 40.889793395996094 108.31668090820312 28.3310489654541" fill="none" stroke="rgb(0, 0, 0)" stroke-linecap="round" stroke-linejoin="round" stroke-opacity="1.0" stroke-width="3.0"/>
    <path d="M 56.274662017822266 203.58773803710938 C 26.692541122436523 197.38626098632812 33.73859405517578 201.802490234375 15.104186058044434 179.24664306640625" fill="none" stroke="rgb(0, 0, 0)" stroke-linecap="round" stroke-linejoin="round" stroke-opacity="1.0" stroke-width="3.0"/>
    <path d="M 111.36473846435547 196.87289428710938 C 94.35137939453125 216.82362365722656 119.12029266357422 201.5765380859375 80.15341186523438 230.4660186767578" fill="none" stroke="rgb(0, 0, 0)" stroke-linecap="round" stroke-linejoin="round" stroke-opacity="1.0" stroke-width="3.0"/>
    <path d="M 53.06807327270508 28.515880584716797 C 73.5108413696289 28.058046340942383 62.903202056884766 41.04258728027344 82.01929473876953 20.17192268371582" fill="none" stroke="rgb(0, 0, 0)" stroke-linecap="round" stroke-linejoin="round" stroke-opacity="1.0" stroke-width="3.0"/>
    <path d="M 163.9735870361328 187.63156127929688 C 172.8957061767578 133.50729370117188 183.17201232910156 155.92388916015625 166.36524963378906 105.65316772460938" fill="none" stroke="rgb(0, 0, 0)" stroke-linecap="round" stroke-linejoin="round" stroke-opacity="1.0" stroke-width="3.0"/>
    <path d="M 128.99050903320312 58.82877731323242 C 108.72040557861328 79.12218475341797 180.3711395263672 95.08152770996094 141.6640625 70.99174499511719" fill="none" stroke="rgb(0, 0, 0)" stroke-linecap="round" stroke-linejoin="round" stroke-opacity="1.0" stroke-width="3.0"/>
    <path d="M 140.246337890625 47.42094421386719 C 144.47265625 95.01199340820312 141.1506805419922 76.0942611694336 150.51829528808594 88.2282943725586" fill="none" stroke="rgb(0, 0, 0)" stroke-linecap="round" stroke-linejoin="round" stroke-opacity="1.0" stroke-width="3.0"/>
    <path d="M 163.48780822753906 186.39291381835938 C 153.29489135742188 213.3533935546875 155.12130737304688 178.27835083007812 162.3029327392578 225.75735473632812" fill="none" stroke="rgb(0, 0, 0)" stroke-linecap="round" stroke-linejoin="round" stroke-opacity="1.0" stroke-width="3.0"/>
    <path d="M 128.9984130859375 14.530092239379883 C 162.74514770507812 36.914920806884766 135.64511108398438 28.82242202758789 162.5987548828125 37.90605163574219" fill="none" stroke="rgb(0, 0, 0)" stroke-linecap="round" stroke-linejoin="round" stroke-opacity="1.0" stroke-width="3.0"/>
    <path d="M 121.90299224853516 17.669164657592773 C 145.5626678466797 45.44898223876953 119.42536926269531 15.892423629760742 145.7178192138672 59.75946807861328" fill="none" stroke="rgb(0, 0, 0)" stroke-linecap="round" stroke-linejoin="round" stroke-opacity="1.0" stroke-width="3.0"/>
  </g>
</svg>
