<?xml version="1.0" ?>
<svg height="224" version="1.1" width="224" xmlns="http://www.w3.org/2000/svg">
  <defs/>
  <g>
    <path d="M 33.92882537841797 49.86323928833008 C 62.7115592956543 77.60320281982422 15.954797744750977 35.411109924316406 86.87506866455078 90.88894653320312" fill="none" stroke="rgb(0, 0, 0)" stroke-linecap="round" stroke-linejoin="round" stroke-opacity="1.0" stroke-width="3.0"/>
    <path d="M 34.679439544677734 106.96186065673828 C 70.8541488647461 186.2515106201172 52.973445892333984 127.79375457763672 77.80699157714844 179.35906982421875" fill="none" stroke="rgb(0, 0, 0)" stroke-linecap="round" stroke-linejoin="round" stroke-opacity="1.0" stroke-width="3.0"/>
    <path d="M 95.82382202148438 114.566162109375 C 40.51482009887695 39.76369094848633 116.0101089477539 127.09103393554688 112.72257995605469 48.13045883178711" fill="none" stroke="rgb(0, 0, 0)" stroke-linecap="round" stroke-linejoin="round" stroke-opacity="1.0" stroke-width="3.0"/>
    <path d="M 104.65868377685547 16.362634658813477 C 129.30294799804688 114.40877532958984 105.64547729492188 87.9893569946289 95.26663208007812 116.42481231689453" fill="none" stroke="rgb(0, 0, 0)" stroke-linecap="round" stroke-linejoin="round" stroke-opacity="1.0" stroke-width="3.0"/>
    <path d="M 81.52486419677734 68.26488494873047 C 66.11788177490234 45.489837646484375 132.35299682617188 62.73763656616211 82.37922668457031 60.380069732666016" fill="none" stroke="rgb(0, 0, 0)" stroke-linecap="round" stroke-linejoin="round" stroke-opacity="1.0" stroke-width="3.0"/>
    <path d="M 153.28707885742188 98.76692962646484 C 143.21885681152344 103.1615982055664 134.43260192871094 129.5429229736328 127.72742462158203 157.74508666992188" fill="none" stroke="rgb(0, 0, 0)" stroke-linecap="round" stroke-linejoin="round" stroke-opacity="1.0" stroke-width="3.0"/>
    <path d="M 77.89313507080078 38.894813537597656 C 128.7803955078125 30.940359115600586 45.908817291259766 74.7578353881836 107.22465515136719 32.286373138427734" fill="none" stroke="rgb(0, 0, 0)" stroke-linecap="round" stroke-linejoin="round" stroke-opacity="1.0" stroke-width="3.0"/>
    <path d="M 62.61391830444336 225.64451599121094 C 7.835541725158691 210.75250244140625 27.37822151184082 208.52676391601562 19.772594451904297 166.73866271972656" fill="none" stroke="rgb(0, 0, 0)" stroke-linecap="round" stroke-linejoin="round" stroke-opacity="1.0" stroke-width="3.0"/>
    <path d="M 104.78096008300781 191.53160095214844 C 91.97843933105469 209.1227264404297 109.1565933227539 181.6409454345703 70.47838592529297 230.3055877685547" fill="none" stroke="rgb(0, 0, 0)" stroke-linecap="round" stroke-linejoin="round" stroke-opacity="1.0" stroke-width="3.0"/>
    <path d="M 40.21235275268555 42.29479217529297 C 66.23116302490234 22.0975341796875 31.56712532043457 33.55369186401367 93.56446838378906 6.362039089202881" fill="none" stroke="rgb(0, 0, 0)" stroke-linecap="round" stroke-linejoin="round" stroke-opacity="1.0" stroke-width="3.0"/>
    <path d="M 171.47283935546875 152.92105102539062 C 168.73399353027344 113.51261901855469 187.86761474609375 132.5543975830078 162.67234802246094 97.12357330322266" fill="none" stroke="rgb(0, 0, 0)" stroke-linecap="round" stroke-linejoin="round" stroke-opacity="1.0" stroke-width="3.0"/>
    <path d="M 112.2171630859375 68.83927917480469 C 105.4029769897461 75.9603042602539 175.8786163330078 105.90812683105469 147.6078643798828 68.97408294677734" fill="none" stroke="rgb(0, 0, 0)" stroke-linecap="round" stroke-linejoin="round" stroke-opacity="1.0" stroke-width="3.0"/>
    <path d="M 145.6386260986328 46.32929611206055 C 159.1650848388672 100.33080291748047 140.666748046875 82.01548767089844 161.71424865722656 95.93183898925781" fill="none" stroke="rgb(0, 0, 0)" stroke-linecap="round" stroke-linejoin="round" stroke-opacity="1.0" stroke-width="3.0"/>
    <path d="M 171.8599395751953 155.00332641601562 C 156.13168334960938 235.844970703125 153.45684814453125 165.21121215820312 158.79226684570312 230.4605255126953" fill="none" stroke="rgb(0, 0, 0)" stroke-linecap="round" stroke-linejoin="round" stroke-opacity="1.0" stroke-width="3.0"/>
    <path d="M 87.0350112915039 6.588380813598633 C 166.72259521484375 24.64467430114746 130.96250915527344 31.795124053955078 162.4495849609375 37.587486267089844" fill="none" stroke="rgb(0, 0, 0)" stroke-linecap="round" stroke-linejoin="round" stroke-opacity="1.0" stroke-width="3.0"/>
    <path d="M 110.5604019165039 2.771029472351074 C 159.0703887939453 49.96322250366211 114.93930053710938 12.573332786560059 150.896728515625 55.38296127319336" fill="none" stroke="rgb(0, 0, 0)" stroke-linecap="round" stroke-linejoin="round" stroke-opacity="1.0" stroke-width="3.0"/>
  </g>
</svg>
