<?xml version="1.0" ?>
<svg height="224" version="1.1" width="224" xmlns="http://www.w3.org/2000/svg">
  <defs/>
  <g>
    <path d="M 38.100460052490234 47.16157913208008 C 63.32051467895508 66.3023681640625 15.231538772583008 41.02225875854492 81.72107696533203 82.42215728759766" fill="none" stroke="rgb(0, 0, 0)" stroke-linecap="round" stroke-linejoin="round" stroke-opacity="1.0" stroke-width="3.0"/>
    <path d="M 32.386573791503906 107.2503662109375 C 63.21671676635742 186.6919708251953 47.8378791809082 140.57960510253906 81.5826187133789 169.5645751953125" fill="none" stroke="rgb(0, 0, 0)" stroke-linecap="round" stroke-linejoin="round" stroke-opacity="1.0" stroke-width="3.0"/>
    <path d="M 95.28071594238281 111.46544647216797 C 37.1090202331543 35.6201286315918 115.33026885986328 127.79891204833984 115.51609802246094 44.15628433227539" fill="none" stroke="rgb(0, 0, 0)" stroke-linecap="round" stroke-linejoin="round" stroke-opacity="1.0" stroke-width="3.0"/>
    <path d="M 108.60138702392578 23.554487228393555 C 130.26361083984375 116.26231384277344 99.32498931884766 93.76103210449219 95.71818542480469 118.93148040771484" fill="none" stroke="rgb(0, 0, 0)" stroke-linecap="round" stroke-linejoin="round" stroke-opacity="1.0" stroke-width="3.0"/>
    <path d="M 88.1424789428711 68.70404052734375 C 59.73521041870117 60.82828903198242 114.86515808105469 58.68846130371094 87.5946273803711 63.51900863647461" fill="none" stroke="rgb(0, 0, 0)" stroke-linecap="round" stroke-linejoin="round" stroke-opacity="1.0" stroke-width="3.0"/>
    <path d="M 148.65232849121094 100.01658630371094 C 143.75152587890625 111.72101593017578 134.99197387695312 132.79368591308594 132.26373291015625 162.8834686279297" fill="none" stroke="rgb(0, 0, 0)" stroke-linecap="round" stroke-linejoin="round" stroke-opacity="1.0" stroke-width="3.0"/>
    <path d="M 82.20777130126953 31.98473358154297 C 129.9282989501953 44.628597259521484 34.26289749145508 48.44484329223633 107.63790130615234 32.779422760009766" fill="none" stroke="rgb(0, 0, 0)" stroke-linecap="round" stroke-linejoin="round" stroke-opacity="1.0" stroke-width="3.0"/>
    <path d="M 62.29435348510742 225.552490234375 C 2.7448253631591797 208.40786743164062 30.42747688293457 202.4451446533203 19.136871337890625 167.75082397460938" fill="none" stroke="rgb(0, 0, 0)" stroke-linecap="round" stroke-linejoin="round" stroke-opacity="1.0" stroke-width="3.0"/>
    <path d="M 101.47444915771484 193.23306274414062 C 91.389404296875 217.6077117919922 103.44090270996094 186.8007354736328 70.64727783203125 234.34854125976562" fill="none" stroke="rgb(0, 0, 0)" stroke-linecap="round" stroke-linejoin="round" stroke-opacity="1.0" stroke-width="3.0"/>
    <path d="M 40.22414779663086 41.05710983276367 C 65.03209686279297 15.958290100097656 29.83711814880371 31.709854125976562 85.44591522216797 8.148468971252441" fill="none" stroke="rgb(0, 0, 0)" stroke-linecap="round" stroke-linejoin="round" stroke-opacity="1.0" stroke-width="3.0"/>
    <path d="M 169.50877380371094 147.5574493408203 C 171.71453857421875 119.3733139038086 187.5210418701172 132.62054443359375 163.5819091796875 100.44635772705078" fill="none" stroke="rgb(0, 0, 0)" stroke-linecap="round" stroke-linejoin="round" stroke-opacity="1.0" stroke-width="3.0"/>
    <path d="M 118.50975799560547 77.14553833007812 C 115.31035614013672 73.99977111816406 172.96910095214844 106.28599548339844 146.1632080078125 68.52770233154297" fill="none" stroke="rgb(0, 0, 0)" stroke-linecap="round" stroke-linejoin="round" stroke-opacity="1.0" stroke-width="3.0"/>
    <path d="M 145.13967895507812 41.040340423583984 C 155.88198852539062 102.09634399414062 137.0211639404297 81.63946533203125 161.74789428710938 99.08175659179688" fill="none" stroke="rgb(0, 0, 0)" stroke-linecap="round" stroke-linejoin="round" stroke-opacity="1.0" stroke-width="3.0"/>
    <path d="M 169.7085418701172 145.7601776123047 C 151.4880828857422 197.82632446289062 173.26040649414062 139.06129455566406 151.2236785888672 226.79335021972656" fill="none" stroke="rgb(0, 0, 0)" stroke-linecap="round" stroke-linejoin="round" stroke-opacity="1.0" stroke-width="3.0"/>
    <path d="M 84.73963928222656 10.164880752563477 C 140.1663818359375 4.68968391418457 138.16357421875 28.119962692260742 162.3064727783203 36.58607864379883" fill="none" stroke="rgb(0, 0, 0)" stroke-linecap="round" stroke-linejoin="round" stroke-opacity="1.0" stroke-width="3.0"/>
    <path d="M 97.08895874023438 7.642276763916016 C 149.7250518798828 33.19947814941406 119.97386169433594 16.06928062438965 151.70420837402344 56.870357513427734" fill="none" stroke="rgb(0, 0, 0)" stroke-linecap="round" stroke-linejoin="round" stroke-opacity="1.0" stroke-width="3.0"/>
  </g>
</svg>
