<?xml version="1.0" ?>
<svg height="224" version="1.1" width="224" xmlns="http://www.w3.org/2000/svg">
  <defs/>
  <g>
    <path d="M 43.86276626586914 82.64027404785156 C 64.12841033935547 83.65423583984375 43.567176818847656 75.7076416015625 64.47982025146484 90.76075744628906" fill="none" stroke="rgb(0, 0, 0)" stroke-linecap="round" stroke-linejoin="round" stroke-opacity="1.0" stroke-width="3.0"/>
    <path d="M 47.30238723754883 132.5454559326172 C 62.39053726196289 152.39468383789062 67.08714294433594 147.56553649902344 86.20286560058594 162.61355590820312" fill="none" stroke="rgb(0, 0, 0)" stroke-linecap="round" stroke-linejoin="round" stroke-opacity="1.0" stroke-width="3.0"/>
    <path d="M 86.68913269042969 105.86978912353516 C 78.52639770507812 96.33470916748047 78.13897705078125 102.26612854003906 93.06092834472656 109.54009246826172" fill="none" stroke="rgb(0, 0, 0)" stroke-linecap="round" stroke-linejoin="round" stroke-opacity="1.0" stroke-width="3.0"/>
    <path d="M 109.39010620117188 73.47750091552734 C 98.50727844238281 98.18080139160156 90.528076171875 88.17532348632812 93.54068756103516 102.51844024658203" fill="none" stroke="rgb(0, 0, 0)" stroke-linecap="round" stroke-linejoin="round" stroke-opacity="1.0" stroke-width="3.0"/>
    <path d="M 55.90135192871094 52.291873931884766 C 78.47589874267578 50.7039680480957 90.06861877441406 49.10704803466797 72.2083969116211 51.36001968383789" fill="none" stroke="rgb(0, 0, 0)" stroke-linecap="round" stroke-linejoin="round" stroke-opacity="1.0" stroke-width="3.0"/>
    <path d="M 166.552490234375 101.02877044677734 C 157.35833740234375 113.44651794433594 161.9076385498047 123.08409881591797 159.75877380371094 116.3098373413086" fill="none" stroke="rgb(0, 0, 0)" stroke-linecap="round" stroke-linejoin="round" stroke-opacity="1.0" stroke-width="3.0"/>
    <path d="M 68.7504653930664 57.12932586669922 C 84.25611114501953 45.0501594543457 98.81204223632812 43.15031433105469 90.25489044189453 52.382808685302734" fill="none" stroke="rgb(0, 0, 0)" stroke-linecap="round" stroke-linejoin="round" stroke-opacity="1.0" stroke-width="3.0"/>
    <path d="M 61.85422134399414 191.70346069335938 C 63.88103485107422 184.9266357421875 70.92823791503906 188.5729522705078 39.958805084228516 211.09181213378906" fill="none" stroke="rgb(0, 0, 0)" stroke-linecap="round" stroke-linejoin="round" stroke-opacity="1.0" stroke-width="3.0"/>
    <path d="M 106.8585433959961 198.5451202392578 C 78.5190200805664 206.09556579589844 89.02523803710938 202.4263458251953 88.26818084716797 203.23031616210938" fill="none" stroke="rgb(0, 0, 0)" stroke-linecap="round" stroke-linejoin="round" stroke-opacity="1.0" stroke-width="3.0"/>
    <path d="M 37.515987396240234 35.301483154296875 C 42.82987976074219 50.367706298828125 60.76264953613281 47.44004440307617 53.774288177490234 51.618751525878906" fill="none" stroke="rgb(0, 0, 0)" stroke-linecap="round" stroke-linejoin="round" stroke-opacity="1.0" stroke-width="3.0"/>
    <path d="M 153.89932250976562 176.40272521972656 C 168.4090576171875 156.05499267578125 161.63572692871094 167.92893981933594 167.0525665283203 150.10153198242188" fill="none" stroke="rgb(0, 0, 0)" stroke-linecap="round" stroke-linejoin="round" stroke-opacity="1.0" stroke-width="3.0"/>
    <path d="M 152.48776245117188 70.03560638427734 C 157.443359375 73.65802001953125 156.7564697265625 73.32378387451172 147.6916961669922 67.20304107666016" fill="none" stroke="rgb(0, 0, 0)" stroke-linecap="round" stroke-linejoin="round" stroke-opacity="1.0" stroke-width="3.0"/>
    <path d="M 140.19772338867188 75.13420867919922 C 144.82666015625 87.51704406738281 145.94895935058594 80.24333953857422 142.90196228027344 81.72968292236328" fill="none" stroke="rgb(0, 0, 0)" stroke-linecap="round" stroke-linejoin="round" stroke-opacity="1.0" stroke-width="3.0"/>
    <path d="M 150.3900909423828 194.07276916503906 C 149.27145385742188 205.00271606445312 154.882080078125 203.83395385742188 157.46336364746094 221.47457885742188" fill="none" stroke="rgb(0, 0, 0)" stroke-linecap="round" stroke-linejoin="round" stroke-opacity="1.0" stroke-width="3.0"/>
    <path d="M 153.42308044433594 30.52872085571289 C 154.61502075195312 33.758453369140625 149.13690185546875 30.4687557220459 160.82485961914062 38.197696685791016" fill="none" stroke="rgb(0, 0, 0)" stroke-linecap="round" stroke-linejoin="round" stroke-opacity="1.0" stroke-width="3.0"/>
    <path d="M 123.2127685546875 11.283555030822754 C 143.65440368652344 32.231712341308594 135.86875915527344 31.149765014648438 143.08871459960938 42.7707405090332" fill="none" stroke="rgb(0, 0, 0)" stroke-linecap="round" stroke-linejoin="round" stroke-opacity="1.0" stroke-width="3.0"/>
  </g>
</svg>
