<?xml version="1.0" ?>
<svg height="224" version="1.1" width="224" xmlns="http://www.w3.org/2000/svg">
  <defs/>
  <g>
    <path d="M 39.18580627441406 49.716087341308594 C 80.23065948486328 78.8539047241211 46.514244079589844 61.192039489746094 88.36658477783203 100.50098419189453" fill="none" stroke="rgb(0, 0, 0)" stroke-linecap="round" stroke-linejoin="round" stroke-opacity="1.0" stroke-width="3.0"/>
    <path d="M 26.532447814941406 113.37574768066406 C 73.14298248291016 185.32858276367188 49.76325607299805 127.20277404785156 74.1536636352539 190.51812744140625" fill="none" stroke="rgb(0, 0, 0)" stroke-linecap="round" stroke-linejoin="round" stroke-opacity="1.0" stroke-width="3.0"/>
    <path d="M 95.6629638671875 110.37976837158203 C 63.9085807800293 66.93028259277344 79.38175201416016 110.20692443847656 118.38080596923828 77.02750396728516" fill="none" stroke="rgb(0, 0, 0)" stroke-linecap="round" stroke-linejoin="round" stroke-opacity="1.0" stroke-width="3.0"/>
    <path d="M 114.52120208740234 41.707088470458984 C 130.90194702148438 103.46125793457031 110.82211303710938 80.62873077392578 95.21880340576172 114.82447814941406" fill="none" stroke="rgb(0, 0, 0)" stroke-linecap="round" stroke-linejoin="round" stroke-opacity="1.0" stroke-width="3.0"/>
    <path d="M 76.79820251464844 50.088138580322266 C 75.37689208984375 46.54430389404297 158.72128295898438 33.06744384765625 83.60508728027344 60.75985336303711" fill="none" stroke="rgb(0, 0, 0)" stroke-linecap="round" stroke-linejoin="round" stroke-opacity="1.0" stroke-width="3.0"/>
    <path d="M 153.4551544189453 98.63721466064453 C 141.33636474609375 108.94877624511719 135.33924865722656 125.90733337402344 121.61837005615234 163.9775390625" fill="none" stroke="rgb(0, 0, 0)" stroke-linecap="round" stroke-linejoin="round" stroke-opacity="1.0" stroke-width="3.0"/>
    <path d="M 74.9921875 52.15196990966797 C 91.51170349121094 27.83314323425293 83.80791473388672 62.65607452392578 101.79867553710938 39.240867614746094" fill="none" stroke="rgb(0, 0, 0)" stroke-linecap="round" stroke-linejoin="round" stroke-opacity="1.0" stroke-width="3.0"/>
    <path d="M 56.11979675292969 201.43441772460938 C 24.850513458251953 196.99392700195312 29.1615047454834 202.6016082763672 16.69411277770996 182.0122528076172" fill="none" stroke="rgb(0, 0, 0)" stroke-linecap="round" stroke-linejoin="round" stroke-opacity="1.0" stroke-width="3.0"/>
    <path d="M 112.42961120605469 205.6260223388672 C 92.08032989501953 218.1322784423828 119.65033721923828 207.6184844970703 78.00033569335938 231.70118713378906" fill="none" stroke="rgb(0, 0, 0)" stroke-linecap="round" stroke-linejoin="round" stroke-opacity="1.0" stroke-width="3.0"/>
    <path d="M 43.85872268676758 38.01617431640625 C 68.9565200805664 5.00034761428833 51.01059341430664 37.40013122558594 79.9458236694336 7.293539524078369" fill="none" stroke="rgb(0, 0, 0)" stroke-linecap="round" stroke-linejoin="round" stroke-opacity="1.0" stroke-width="3.0"/>
    <path d="M 170.02125549316406 163.61941528320312 C 164.4978790283203 113.83187103271484 186.895263671875 129.20948791503906 161.15679931640625 94.22074890136719" fill="none" stroke="rgb(0, 0, 0)" stroke-linecap="round" stroke-linejoin="round" stroke-opacity="1.0" stroke-width="3.0"/>
    <path d="M 117.93055725097656 49.71482467651367 C 104.72805786132812 76.80555725097656 184.21664428710938 101.05413055419922 144.1094207763672 71.09500885009766" fill="none" stroke="rgb(0, 0, 0)" stroke-linecap="round" stroke-linejoin="round" stroke-opacity="1.0" stroke-width="3.0"/>
    <path d="M 135.24951171875 42.07919692993164 C 150.5282745361328 90.29008483886719 148.5401153564453 80.52410125732422 159.49246215820312 93.58279418945312" fill="none" stroke="rgb(0, 0, 0)" stroke-linecap="round" stroke-linejoin="round" stroke-opacity="1.0" stroke-width="3.0"/>
    <path d="M 169.8638153076172 164.2284698486328 C 151.63392639160156 225.91842651367188 151.5758056640625 172.5503387451172 158.17909240722656 226.4699249267578" fill="none" stroke="rgb(0, 0, 0)" stroke-linecap="round" stroke-linejoin="round" stroke-opacity="1.0" stroke-width="3.0"/>
    <path d="M 113.2034683227539 3.001580238342285 C 167.932861328125 36.3945426940918 139.66168212890625 26.809429168701172 163.98500061035156 36.938045501708984" fill="none" stroke="rgb(0, 0, 0)" stroke-linecap="round" stroke-linejoin="round" stroke-opacity="1.0" stroke-width="3.0"/>
    <path d="M 120.84667205810547 19.850341796875 C 136.3189697265625 31.0872859954834 111.0922622680664 17.787364959716797 145.54566955566406 58.104461669921875" fill="none" stroke="rgb(0, 0, 0)" stroke-linecap="round" stroke-linejoin="round" stroke-opacity="1.0" stroke-width="3.0"/>
  </g>
</svg>
