<?xml version="1.0" ?>
<svg height="224" version="1.1" width="224" xmlns="http://www.w3.org/2000/svg">
  <defs/>
  <g>
    <path d="M 35.7907600402832 50.659523010253906 C 76.9742660522461 77.35248565673828 45.941097259521484 59.32756805419922 90.40393829345703 102.70521545410156" fill="none" stroke="rgb(0, 0, 0)" stroke-linecap="round" stroke-linejoin="round" stroke-opacity="1.0" stroke-width="3.0"/>
    <path d="M 26.165260314941406 112.2717514038086 C 71.74131774902344 188.42340087890625 56.03684997558594 125.59048461914062 76.75592803955078 189.2133331298828" fill="none" stroke="rgb(0, 0, 0)" stroke-linecap="round" stroke-linejoin="round" stroke-opacity="1.0" stroke-width="3.0"/>
    <path d="M 94.57315063476562 109.92942810058594 C 65.63846588134766 63.8396110534668 86.12379455566406 111.09333801269531 116.52687072753906 74.79022216796875" fill="none" stroke="rgb(0, 0, 0)" stroke-linecap="round" stroke-linejoin="round" stroke-opacity="1.0" stroke-width="3.0"/>
    <path d="M 107.84321594238281 42.97201919555664 C 127.67149353027344 104.04045104980469 107.42443084716797 84.81328582763672 96.38159942626953 114.01628875732422" fill="none" stroke="rgb(0, 0, 0)" stroke-linecap="round" stroke-linejoin="round" stroke-opacity="1.0" stroke-width="3.0"/>
    <path d="M 71.01948547363281 48.14902877807617 C 70.03740692138672 47.68378448486328 158.23806762695312 41.368865966796875 85.7464599609375 61.5526237487793" fill="none" stroke="rgb(0, 0, 0)" stroke-linecap="round" stroke-linejoin="round" stroke-opacity="1.0" stroke-width="3.0"/>
    <path d="M 153.39271545410156 98.4719009399414 C 142.63967895507812 107.32646942138672 136.2483673095703 128.09458923339844 126.9765625 163.8452606201172" fill="none" stroke="rgb(0, 0, 0)" stroke-linecap="round" stroke-linejoin="round" stroke-opacity="1.0" stroke-width="3.0"/>
    <path d="M 68.65218353271484 54.040523529052734 C 97.31890106201172 27.785472869873047 87.56564331054688 62.91496658325195 103.38973999023438 42.479835510253906" fill="none" stroke="rgb(0, 0, 0)" stroke-linecap="round" stroke-linejoin="round" stroke-opacity="1.0" stroke-width="3.0"/>
    <path d="M 57.238502502441406 206.21002197265625 C 24.014198303222656 206.6451416015625 31.514209747314453 205.61996459960938 13.94883918762207 179.5714569091797" fill="none" stroke="rgb(0, 0, 0)" stroke-linecap="round" stroke-linejoin="round" stroke-opacity="1.0" stroke-width="3.0"/>
    <path d="M 102.76693725585938 202.05746459960938 C 86.9906997680664 218.2154541015625 110.3974609375 201.26022338867188 72.35086822509766 226.5409393310547" fill="none" stroke="rgb(0, 0, 0)" stroke-linecap="round" stroke-linejoin="round" stroke-opacity="1.0" stroke-width="3.0"/>
    <path d="M 43.73466491699219 35.50065994262695 C 67.23612976074219 10.32886791229248 45.75434875488281 38.611080169677734 83.55902862548828 6.458892345428467" fill="none" stroke="rgb(0, 0, 0)" stroke-linecap="round" stroke-linejoin="round" stroke-opacity="1.0" stroke-width="3.0"/>
    <path d="M 169.96778869628906 162.9624481201172 C 166.96609497070312 112.7358627319336 192.00018310546875 134.74359130859375 159.77587890625 92.67210388183594" fill="none" stroke="rgb(0, 0, 0)" stroke-linecap="round" stroke-linejoin="round" stroke-opacity="1.0" stroke-width="3.0"/>
    <path d="M 112.59196472167969 53.3996467590332 C 102.61530303955078 77.80889129638672 183.15740966796875 102.79678344726562 144.1558837890625 67.9228515625" fill="none" stroke="rgb(0, 0, 0)" stroke-linecap="round" stroke-linejoin="round" stroke-opacity="1.0" stroke-width="3.0"/>
    <path d="M 134.71444702148438 39.38368606567383 C 154.22044372558594 88.05681610107422 145.75341796875 85.29564666748047 161.94442749023438 95.41484069824219" fill="none" stroke="rgb(0, 0, 0)" stroke-linecap="round" stroke-linejoin="round" stroke-opacity="1.0" stroke-width="3.0"/>
    <path d="M 169.94204711914062 163.21139526367188 C 149.3343048095703 227.30709838867188 155.22239685058594 171.5970458984375 160.9632568359375 225.71286010742188" fill="none" stroke="rgb(0, 0, 0)" stroke-linecap="round" stroke-linejoin="round" stroke-opacity="1.0" stroke-width="3.0"/>
    <path d="M 110.5987319946289 6.298696517944336 C 163.5475616455078 39.31057357788086 137.8524169921875 28.514068603515625 162.46417236328125 37.617835998535156" fill="none" stroke="rgb(0, 0, 0)" stroke-linecap="round" stroke-linejoin="round" stroke-opacity="1.0" stroke-width="3.0"/>
    <path d="M 113.71395111083984 19.142139434814453 C 137.60391235351562 38.225563049316406 109.48151397705078 19.701427459716797 148.48963928222656 54.52146911621094" fill="none" stroke="rgb(0, 0, 0)" stroke-linecap="round" stroke-linejoin="round" stroke-opacity="1.0" stroke-width="3.0"/>
  </g>
</svg>
