<?xml version="1.0" ?>
<svg height="224" version="1.1" width="224" xmlns="http://www.w3.org/2000/svg">
  <defs/>
  <g>
    <path d="M 39.947906494140625 41.89166259765625 C 50.18397521972656 47.814022064208984 7.938969135284424 44.575077056884766 80.73551177978516 86.46797180175781" fill="none" stroke="rgb(0, 0, 0)" stroke-linecap="round" stroke-linejoin="round" stroke-opacity="1.0" stroke-width="3.0"/>
    <path d="M 29.310386657714844 113.18036651611328 C 63.541770935058594 178.48782348632812 46.49517822265625 138.85972595214844 85.43036651611328 166.08416748046875" fill="none" stroke="rgb(0, 0, 0)" stroke-linecap="round" stroke-linejoin="round" stroke-opacity="1.0" stroke-width="3.0"/>
    <path d="M 94.62814331054688 110.97232055664062 C 28.984161376953125 44.19275665283203 114.48641204833984 132.88168334960938 117.55599212646484 42.30232620239258" fill="none" stroke="rgb(0, 0, 0)" stroke-linecap="round" stroke-linejoin="round" stroke-opacity="1.0" stroke-width="3.0"/>
    <path d="M 112.73446655273438 13.298303604125977 C 129.82647705078125 119.84512329101562 95.01548767089844 92.98086547851562 93.78668975830078 114.78422546386719" fill="none" stroke="rgb(0, 0, 0)" stroke-linecap="round" stroke-linejoin="round" stroke-opacity="1.0" stroke-width="3.0"/>
    <path d="M 94.12104034423828 73.39038848876953 C 69.89065551757812 72.47898864746094 116.95954895019531 72.2271728515625 99.31846618652344 70.09725952148438" fill="none" stroke="rgb(0, 0, 0)" stroke-linecap="round" stroke-linejoin="round" stroke-opacity="1.0" stroke-width="3.0"/>
    <path d="M 150.468505859375 101.35749816894531 C 142.93540954589844 108.30657958984375 133.68174743652344 136.59054565429688 128.65077209472656 159.8230743408203" fill="none" stroke="rgb(0, 0, 0)" stroke-linecap="round" stroke-linejoin="round" stroke-opacity="1.0" stroke-width="3.0"/>
    <path d="M 93.81053924560547 46.54957580566406 C 148.33860778808594 67.38204193115234 16.23695945739746 62.71259307861328 111.56907653808594 53.27363967895508" fill="none" stroke="rgb(0, 0, 0)" stroke-linecap="round" stroke-linejoin="round" stroke-opacity="1.0" stroke-width="3.0"/>
    <path d="M 66.18850708007812 224.69720458984375 C 4.159331321716309 212.0677490234375 29.123199462890625 199.73118591308594 19.481637954711914 168.75173950195312" fill="none" stroke="rgb(0, 0, 0)" stroke-linecap="round" stroke-linejoin="round" stroke-opacity="1.0" stroke-width="3.0"/>
    <path d="M 104.10951232910156 197.4110870361328 C 90.33859252929688 217.79318237304688 108.52987670898438 189.60377502441406 65.58125305175781 231.5117950439453" fill="none" stroke="rgb(0, 0, 0)" stroke-linecap="round" stroke-linejoin="round" stroke-opacity="1.0" stroke-width="3.0"/>
    <path d="M 39.95600509643555 40.066993713378906 C 64.1715087890625 21.806650161743164 31.110376358032227 32.50894546508789 83.67012786865234 9.808616638183594" fill="none" stroke="rgb(0, 0, 0)" stroke-linecap="round" stroke-linejoin="round" stroke-opacity="1.0" stroke-width="3.0"/>
    <path d="M 172.1168975830078 152.16787719726562 C 167.41098022460938 112.88267517089844 186.35488891601562 133.70790100097656 163.66151428222656 99.85147094726562" fill="none" stroke="rgb(0, 0, 0)" stroke-linecap="round" stroke-linejoin="round" stroke-opacity="1.0" stroke-width="3.0"/>
    <path d="M 115.31031036376953 74.86687469482422 C 110.6634521484375 77.86102294921875 174.2779541015625 102.5548324584961 144.5724639892578 66.41900634765625" fill="none" stroke="rgb(0, 0, 0)" stroke-linecap="round" stroke-linejoin="round" stroke-opacity="1.0" stroke-width="3.0"/>
    <path d="M 143.88385009765625 44.43745040893555 C 153.96124267578125 102.36573028564453 140.11000061035156 82.6009750366211 162.79666137695312 99.8626708984375" fill="none" stroke="rgb(0, 0, 0)" stroke-linecap="round" stroke-linejoin="round" stroke-opacity="1.0" stroke-width="3.0"/>
    <path d="M 172.16455078125 151.03392028808594 C 164.32925415039062 208.22877502441406 162.05226135253906 167.3713836669922 153.35922241210938 234.5250244140625" fill="none" stroke="rgb(0, 0, 0)" stroke-linecap="round" stroke-linejoin="round" stroke-opacity="1.0" stroke-width="3.0"/>
    <path d="M 81.59501647949219 12.483665466308594 C 136.1271209716797 1.3013789653778076 137.81996154785156 34.632511138916016 158.60076904296875 39.61540985107422" fill="none" stroke="rgb(0, 0, 0)" stroke-linecap="round" stroke-linejoin="round" stroke-opacity="1.0" stroke-width="3.0"/>
    <path d="M 91.86097717285156 9.577376365661621 C 156.1732940673828 34.07219696044922 122.03218841552734 19.80251121520996 148.71066284179688 56.31696319580078" fill="none" stroke="rgb(0, 0, 0)" stroke-linecap="round" stroke-linejoin="round" stroke-opacity="1.0" stroke-width="3.0"/>
  </g>
</svg>
