<?xml version="1.0" ?>
<svg height="224" version="1.1" width="224" xmlns="http://www.w3.org/2000/svg">
  <defs/>
  <g>
    <path d="M 41.996009826660156 65.01133728027344 C 66.3770523071289 84.52747344970703 38.96137619018555 74.21562957763672 61.47710037231445 97.33350372314453" fill="none" stroke="rgb(0, 0, 0)" stroke-linecap="round" stroke-linejoin="round" stroke-opacity="1.0" stroke-width="3.0"/>
    <path d="M 22.680686950683594 140.08547973632812 C 57.90044021606445 163.18710327148438 67.51178741455078 153.7194061279297 83.91744995117188 165.66839599609375" fill="none" stroke="rgb(0, 0, 0)" stroke-linecap="round" stroke-linejoin="round" stroke-opacity="1.0" stroke-width="3.0"/>
    <path d="M 89.7750473022461 107.66358184814453 C 81.12980651855469 99.95439910888672 86.8439712524414 100.38160705566406 99.38365936279297 117.92926788330078" fill="none" stroke="rgb(0, 0, 0)" stroke-linecap="round" stroke-linejoin="round" stroke-opacity="1.0" stroke-width="3.0"/>
    <path d="M 107.65033721923828 63.74342727661133 C 101.241943359375 95.21747589111328 94.95487976074219 81.00474548339844 100.0931396484375 113.24124908447266" fill="none" stroke="rgb(0, 0, 0)" stroke-linecap="round" stroke-linejoin="round" stroke-opacity="1.0" stroke-width="3.0"/>
    <path d="M 56.6569938659668 44.21308135986328 C 77.70877838134766 46.617149353027344 87.85145568847656 38.856109619140625 70.86921691894531 46.745323181152344" fill="none" stroke="rgb(0, 0, 0)" stroke-linecap="round" stroke-linejoin="round" stroke-opacity="1.0" stroke-width="3.0"/>
    <path d="M 164.24546813964844 101.21289825439453 C 155.64317321777344 112.18661499023438 156.5935516357422 111.52800750732422 153.85096740722656 119.31988525390625" fill="none" stroke="rgb(0, 0, 0)" stroke-linecap="round" stroke-linejoin="round" stroke-opacity="1.0" stroke-width="3.0"/>
    <path d="M 68.6148452758789 52.956356048583984 C 80.38455963134766 35.93705749511719 105.83522033691406 34.8929328918457 86.07656860351562 52.10212326049805" fill="none" stroke="rgb(0, 0, 0)" stroke-linecap="round" stroke-linejoin="round" stroke-opacity="1.0" stroke-width="3.0"/>
    <path d="M 59.53801727294922 186.44967651367188 C 59.62503433227539 187.99295043945312 68.88903045654297 189.25350952148438 17.292804718017578 202.62103271484375" fill="none" stroke="rgb(0, 0, 0)" stroke-linecap="round" stroke-linejoin="round" stroke-opacity="1.0" stroke-width="3.0"/>
    <path d="M 110.90192413330078 189.48207092285156 C 89.4204330444336 202.0226593017578 102.16600799560547 198.147705078125 98.20380401611328 221.02037048339844" fill="none" stroke="rgb(0, 0, 0)" stroke-linecap="round" stroke-linejoin="round" stroke-opacity="1.0" stroke-width="3.0"/>
    <path d="M 42.00153732299805 36.37022399902344 C 47.05167007446289 44.01274108886719 62.37625503540039 48.894927978515625 52.97041320800781 44.20683288574219" fill="none" stroke="rgb(0, 0, 0)" stroke-linecap="round" stroke-linejoin="round" stroke-opacity="1.0" stroke-width="3.0"/>
    <path d="M 158.13294982910156 182.85557556152344 C 171.10963439941406 154.59088134765625 163.6380157470703 165.85581970214844 171.77101135253906 145.80784606933594" fill="none" stroke="rgb(0, 0, 0)" stroke-linecap="round" stroke-linejoin="round" stroke-opacity="1.0" stroke-width="3.0"/>
    <path d="M 154.04698181152344 71.74053955078125 C 157.01007080078125 74.18634033203125 157.0220489501953 73.50045013427734 149.43511962890625 68.45257568359375" fill="none" stroke="rgb(0, 0, 0)" stroke-linecap="round" stroke-linejoin="round" stroke-opacity="1.0" stroke-width="3.0"/>
    <path d="M 143.46444702148438 71.07542419433594 C 152.0808868408203 82.42958068847656 144.18295288085938 77.92412567138672 149.9141845703125 82.82756042480469" fill="none" stroke="rgb(0, 0, 0)" stroke-linecap="round" stroke-linejoin="round" stroke-opacity="1.0" stroke-width="3.0"/>
    <path d="M 158.97459411621094 188.02532958984375 C 155.6323699951172 202.3282928466797 162.42971801757812 196.75405883789062 158.2057647705078 221.8660888671875" fill="none" stroke="rgb(0, 0, 0)" stroke-linecap="round" stroke-linejoin="round" stroke-opacity="1.0" stroke-width="3.0"/>
    <path d="M 154.1962890625 29.696428298950195 C 156.15570068359375 30.28267478942871 152.25094604492188 27.651565551757812 161.11192321777344 38.873069763183594" fill="none" stroke="rgb(0, 0, 0)" stroke-linecap="round" stroke-linejoin="round" stroke-opacity="1.0" stroke-width="3.0"/>
    <path d="M 128.5494842529297 9.739745140075684 C 142.86793518066406 31.051931381225586 139.9165496826172 27.233423233032227 142.15768432617188 43.847469329833984" fill="none" stroke="rgb(0, 0, 0)" stroke-linecap="round" stroke-linejoin="round" stroke-opacity="1.0" stroke-width="3.0"/>
  </g>
</svg>
