<?xml version="1.0" ?>
<svg height="224" version="1.1" width="224" xmlns="http://www.w3.org/2000/svg">
  <defs/>
  <g>
    <path d="M 32.50141906738281 55.44568634033203 C 84.39436340332031 88.78227233886719 44.31620407104492 65.16651916503906 80.89251708984375 98.24674987792969" fill="none" stroke="rgb(0, 0, 0)" stroke-linecap="round" stroke-linejoin="round" stroke-opacity="1.0" stroke-width="3.0"/>
    <path d="M 24.877872467041016 118.04584503173828 C 66.55542755126953 179.7042236328125 67.16825103759766 142.5312957763672 71.68363189697266 183.95960998535156" fill="none" stroke="rgb(0, 0, 0)" stroke-linecap="round" stroke-linejoin="round" stroke-opacity="1.0" stroke-width="3.0"/>
    <path d="M 91.43061065673828 112.26162719726562 C 66.64322662353516 80.5323486328125 84.69020080566406 108.9223861694336 116.58698272705078 92.78018951416016" fill="none" stroke="rgb(0, 0, 0)" stroke-linecap="round" stroke-linejoin="round" stroke-opacity="1.0" stroke-width="3.0"/>
    <path d="M 127.3569564819336 44.953269958496094 C 138.06068420410156 101.88129425048828 127.32259368896484 71.96589660644531 98.12329864501953 112.24383544921875" fill="none" stroke="rgb(0, 0, 0)" stroke-linecap="round" stroke-linejoin="round" stroke-opacity="1.0" stroke-width="3.0"/>
    <path d="M 56.004905700683594 39.81045913696289 C 78.33171081542969 45.50159454345703 94.64787292480469 32.241668701171875 72.3406982421875 48.21797561645508" fill="none" stroke="rgb(0, 0, 0)" stroke-linecap="round" stroke-linejoin="round" stroke-opacity="1.0" stroke-width="3.0"/>
    <path d="M 152.54383850097656 99.68103790283203 C 144.5167236328125 108.0805892944336 140.9124755859375 114.83625793457031 131.6462860107422 156.80848693847656" fill="none" stroke="rgb(0, 0, 0)" stroke-linecap="round" stroke-linejoin="round" stroke-opacity="1.0" stroke-width="3.0"/>
    <path d="M 82.47637939453125 39.70343017578125 C 90.13382720947266 28.161439895629883 111.63066864013672 34.841426849365234 107.3416748046875 22.618667602539062" fill="none" stroke="rgb(0, 0, 0)" stroke-linecap="round" stroke-linejoin="round" stroke-opacity="1.0" stroke-width="3.0"/>
    <path d="M 58.29164123535156 198.49183654785156 C 23.256277084350586 196.3389892578125 35.707420349121094 198.36793518066406 18.340364456176758 188.60848999023438" fill="none" stroke="rgb(0, 0, 0)" stroke-linecap="round" stroke-linejoin="round" stroke-opacity="1.0" stroke-width="3.0"/>
    <path d="M 113.15257263183594 196.70191955566406 C 102.93025207519531 213.51034545898438 118.45499420166016 194.93919372558594 74.28123474121094 216.46969604492188" fill="none" stroke="rgb(0, 0, 0)" stroke-linecap="round" stroke-linejoin="round" stroke-opacity="1.0" stroke-width="3.0"/>
    <path d="M 43.79931640625 32.67374038696289 C 64.79940795898438 42.22554397583008 67.20539855957031 41.266571044921875 64.87409210205078 26.341609954833984" fill="none" stroke="rgb(0, 0, 0)" stroke-linecap="round" stroke-linejoin="round" stroke-opacity="1.0" stroke-width="3.0"/>
    <path d="M 163.65676879882812 188.0362091064453 C 177.38433837890625 144.85821533203125 182.37181091308594 167.29461669921875 168.5855712890625 109.88304138183594" fill="none" stroke="rgb(0, 0, 0)" stroke-linecap="round" stroke-linejoin="round" stroke-opacity="1.0" stroke-width="3.0"/>
    <path d="M 128.55845642089844 58.0508918762207 C 119.05534362792969 72.81421661376953 159.44427490234375 99.95002746582031 141.0247344970703 71.93350982666016" fill="none" stroke="rgb(0, 0, 0)" stroke-linecap="round" stroke-linejoin="round" stroke-opacity="1.0" stroke-width="3.0"/>
    <path d="M 142.9107208251953 44.15968704223633 C 148.03329467773438 100.90830993652344 135.84695434570312 78.08479309082031 149.31597900390625 89.51115417480469" fill="none" stroke="rgb(0, 0, 0)" stroke-linecap="round" stroke-linejoin="round" stroke-opacity="1.0" stroke-width="3.0"/>
    <path d="M 162.9184112548828 189.9719696044922 C 150.0785369873047 209.76710510253906 154.423828125 180.56849670410156 157.98031616210938 221.48907470703125" fill="none" stroke="rgb(0, 0, 0)" stroke-linecap="round" stroke-linejoin="round" stroke-opacity="1.0" stroke-width="3.0"/>
    <path d="M 133.32763671875 15.27489185333252 C 156.77784729003906 39.24468994140625 139.0581512451172 29.169288635253906 164.08123779296875 36.51398849487305" fill="none" stroke="rgb(0, 0, 0)" stroke-linecap="round" stroke-linejoin="round" stroke-opacity="1.0" stroke-width="3.0"/>
    <path d="M 129.873779296875 19.099592208862305 C 146.8007049560547 42.16643142700195 126.87690734863281 28.02417755126953 147.12832641601562 57.11088180541992" fill="none" stroke="rgb(0, 0, 0)" stroke-linecap="round" stroke-linejoin="round" stroke-opacity="1.0" stroke-width="3.0"/>
  </g>
</svg>
