<?xml version="1.0" ?>
<svg height="224" version="1.1" width="224" xmlns="http://www.w3.org/2000/svg">
  <defs/>
  <g>
    <path d="M 36.156517028808594 48.87565231323242 C 67.3202896118164 75.70030212402344 19.01894187927246 34.239219665527344 94.80584716796875 89.07395935058594" fill="none" stroke="rgb(0, 0, 0)" stroke-linecap="round" stroke-linejoin="round" stroke-opacity="1.0" stroke-width="3.0"/>
    <path d="M 27.65755271911621 117.21826171875 C 69.81868743896484 181.0872802734375 51.786949157714844 139.10484313964844 74.71967315673828 181.5421142578125" fill="none" stroke="rgb(0, 0, 0)" stroke-linecap="round" stroke-linejoin="round" stroke-opacity="1.0" stroke-width="3.0"/>
    <path d="M 96.71593475341797 109.86685180664062 C 40.67769241333008 39.09955596923828 106.509765625 116.0449447631836 114.32778930664062 57.077571868896484" fill="none" stroke="rgb(0, 0, 0)" stroke-linecap="round" stroke-linejoin="round" stroke-opacity="1.0" stroke-width="3.0"/>
    <path d="M 108.51637268066406 20.15643882751465 C 131.55032348632812 119.4971923828125 102.08758544921875 88.71483612060547 95.72453308105469 118.4052734375" fill="none" stroke="rgb(0, 0, 0)" stroke-linecap="round" stroke-linejoin="round" stroke-opacity="1.0" stroke-width="3.0"/>
    <path d="M 73.69734191894531 56.219970703125 C 75.42031860351562 43.334110260009766 142.79800415039062 61.721405029296875 89.0841293334961 60.46589279174805" fill="none" stroke="rgb(0, 0, 0)" stroke-linecap="round" stroke-linejoin="round" stroke-opacity="1.0" stroke-width="3.0"/>
    <path d="M 148.03538513183594 99.91495513916016 C 142.43008422851562 101.90547943115234 133.38101196289062 128.94644165039062 128.82972717285156 159.20545959472656" fill="none" stroke="rgb(0, 0, 0)" stroke-linecap="round" stroke-linejoin="round" stroke-opacity="1.0" stroke-width="3.0"/>
    <path d="M 79.0182876586914 39.85822296142578 C 131.05052185058594 32.00314712524414 46.239261627197266 80.16901397705078 105.98357391357422 33.93331527709961" fill="none" stroke="rgb(0, 0, 0)" stroke-linecap="round" stroke-linejoin="round" stroke-opacity="1.0" stroke-width="3.0"/>
    <path d="M 65.88380432128906 226.02394104003906 C 10.912551879882812 210.66470336914062 28.232126235961914 208.92686462402344 18.139631271362305 173.59169006347656" fill="none" stroke="rgb(0, 0, 0)" stroke-linecap="round" stroke-linejoin="round" stroke-opacity="1.0" stroke-width="3.0"/>
    <path d="M 116.0965347290039 206.6419677734375 C 103.33472442626953 224.3521728515625 123.12662506103516 200.4036865234375 79.91299438476562 238.0430145263672" fill="none" stroke="rgb(0, 0, 0)" stroke-linecap="round" stroke-linejoin="round" stroke-opacity="1.0" stroke-width="3.0"/>
    <path d="M 41.843177795410156 42.237178802490234 C 73.53107452392578 13.874105453491211 34.97990417480469 35.074832916259766 88.58109283447266 4.685027122497559" fill="none" stroke="rgb(0, 0, 0)" stroke-linecap="round" stroke-linejoin="round" stroke-opacity="1.0" stroke-width="3.0"/>
    <path d="M 169.81365966796875 156.0254669189453 C 167.9318389892578 116.49549865722656 186.02952575683594 133.4806365966797 164.1427459716797 100.90300750732422" fill="none" stroke="rgb(0, 0, 0)" stroke-linecap="round" stroke-linejoin="round" stroke-opacity="1.0" stroke-width="3.0"/>
    <path d="M 117.3511962890625 64.73296356201172 C 109.59182739257812 82.26685333251953 178.38070678710938 105.000732421875 145.9305419921875 65.62105560302734" fill="none" stroke="rgb(0, 0, 0)" stroke-linecap="round" stroke-linejoin="round" stroke-opacity="1.0" stroke-width="3.0"/>
    <path d="M 141.6419677734375 43.29482650756836 C 158.4923858642578 102.35121154785156 137.68850708007812 81.00051879882812 163.990966796875 100.28067779541016" fill="none" stroke="rgb(0, 0, 0)" stroke-linecap="round" stroke-linejoin="round" stroke-opacity="1.0" stroke-width="3.0"/>
    <path d="M 170.42556762695312 155.9290313720703 C 147.4510040283203 231.9166259765625 149.89651489257812 165.14105224609375 157.58335876464844 230.31178283691406" fill="none" stroke="rgb(0, 0, 0)" stroke-linecap="round" stroke-linejoin="round" stroke-opacity="1.0" stroke-width="3.0"/>
    <path d="M 96.12489318847656 5.057311058044434 C 166.21388244628906 27.42941665649414 132.78785705566406 30.174028396606445 164.2406463623047 36.99578094482422" fill="none" stroke="rgb(0, 0, 0)" stroke-linecap="round" stroke-linejoin="round" stroke-opacity="1.0" stroke-width="3.0"/>
    <path d="M 112.74053955078125 11.929573059082031 C 144.0632781982422 42.418888092041016 108.83045196533203 12.884984970092773 150.47950744628906 56.12116241455078" fill="none" stroke="rgb(0, 0, 0)" stroke-linecap="round" stroke-linejoin="round" stroke-opacity="1.0" stroke-width="3.0"/>
  </g>
</svg>
