<?xml version="1.0" ?>
<svg height="224" version="1.1" width="224" xmlns="http://www.w3.org/2000/svg">
  <defs/>
  <g>
    <path d="M 38.63694381713867 46.21932601928711 C 69.42971801757812 70.54735565185547 15.427384376525879 37.17970657348633 85.12152862548828 88.25879669189453" fill="none" stroke="rgb(0, 0, 0)" stroke-linecap="round" stroke-linejoin="round" stroke-opacity="1.0" stroke-width="3.0"/>
    <path d="M 38.52949142456055 111.70394134521484 C 68.9703598022461 181.06085205078125 55.17719650268555 132.8563690185547 74.39476013183594 188.41091918945312" fill="none" stroke="rgb(0, 0, 0)" stroke-linecap="round" stroke-linejoin="round" stroke-opacity="1.0" stroke-width="3.0"/>
    <path d="M 95.33436584472656 109.2627944946289 C 40.79010772705078 41.47124099731445 110.64334106445312 134.19805908203125 117.54411315917969 45.311092376708984" fill="none" stroke="rgb(0, 0, 0)" stroke-linecap="round" stroke-linejoin="round" stroke-opacity="1.0" stroke-width="3.0"/>
    <path d="M 110.26583862304688 12.429122924804688 C 130.28237915039062 113.26551055908203 100.68824768066406 87.09974670410156 94.72331237792969 117.11551666259766" fill="none" stroke="rgb(0, 0, 0)" stroke-linecap="round" stroke-linejoin="round" stroke-opacity="1.0" stroke-width="3.0"/>
    <path d="M 80.8940200805664 63.25823211669922 C 53.121273040771484 57.8408203125 138.4125518798828 62.9119758605957 89.66793060302734 68.51494598388672" fill="none" stroke="rgb(0, 0, 0)" stroke-linecap="round" stroke-linejoin="round" stroke-opacity="1.0" stroke-width="3.0"/>
    <path d="M 149.8262939453125 98.55116271972656 C 141.09844970703125 101.31082153320312 130.74639892578125 127.41876220703125 124.34907531738281 154.72824096679688" fill="none" stroke="rgb(0, 0, 0)" stroke-linecap="round" stroke-linejoin="round" stroke-opacity="1.0" stroke-width="3.0"/>
    <path d="M 80.8190689086914 32.69944763183594 C 121.95927429199219 35.590179443359375 40.2887077331543 55.32516098022461 109.715087890625 32.481510162353516" fill="none" stroke="rgb(0, 0, 0)" stroke-linecap="round" stroke-linejoin="round" stroke-opacity="1.0" stroke-width="3.0"/>
    <path d="M 62.9779167175293 224.84434509277344 C 2.377685308456421 209.32235717773438 26.866613388061523 206.43324279785156 18.104658126831055 164.4011993408203" fill="none" stroke="rgb(0, 0, 0)" stroke-linecap="round" stroke-linejoin="round" stroke-opacity="1.0" stroke-width="3.0"/>
    <path d="M 106.28312683105469 198.05392456054688 C 90.03311157226562 219.3387451171875 109.1475830078125 192.2958984375 64.48141479492188 230.17657470703125" fill="none" stroke="rgb(0, 0, 0)" stroke-linecap="round" stroke-linejoin="round" stroke-opacity="1.0" stroke-width="3.0"/>
    <path d="M 40.998321533203125 40.3402099609375 C 65.28446197509766 22.57791519165039 29.872575759887695 33.10857009887695 89.10478973388672 4.445422649383545" fill="none" stroke="rgb(0, 0, 0)" stroke-linecap="round" stroke-linejoin="round" stroke-opacity="1.0" stroke-width="3.0"/>
    <path d="M 170.20718383789062 156.92242431640625 C 167.2518310546875 113.41747283935547 185.38099670410156 134.15301513671875 164.99209594726562 99.59699249267578" fill="none" stroke="rgb(0, 0, 0)" stroke-linecap="round" stroke-linejoin="round" stroke-opacity="1.0" stroke-width="3.0"/>
    <path d="M 116.3282699584961 72.87358856201172 C 104.41434478759766 82.61369323730469 179.1786346435547 105.4301986694336 143.06224060058594 69.0279541015625" fill="none" stroke="rgb(0, 0, 0)" stroke-linecap="round" stroke-linejoin="round" stroke-opacity="1.0" stroke-width="3.0"/>
    <path d="M 142.795166015625 43.327369689941406 C 155.3920135498047 100.96344757080078 141.9832000732422 82.0867691040039 163.75848388671875 98.48157501220703" fill="none" stroke="rgb(0, 0, 0)" stroke-linecap="round" stroke-linejoin="round" stroke-opacity="1.0" stroke-width="3.0"/>
    <path d="M 169.93418884277344 157.99923706054688 C 149.84829711914062 230.03623962402344 150.2156219482422 156.59156799316406 156.56594848632812 229.89276123046875" fill="none" stroke="rgb(0, 0, 0)" stroke-linecap="round" stroke-linejoin="round" stroke-opacity="1.0" stroke-width="3.0"/>
    <path d="M 81.69100952148438 11.295421600341797 C 152.9502716064453 12.706277847290039 133.603271484375 32.188392639160156 160.15798950195312 39.823612213134766" fill="none" stroke="rgb(0, 0, 0)" stroke-linecap="round" stroke-linejoin="round" stroke-opacity="1.0" stroke-width="3.0"/>
    <path d="M 104.16313934326172 5.709538459777832 C 155.22543334960938 38.19144821166992 114.86436462402344 19.56637191772461 149.30966186523438 57.733154296875" fill="none" stroke="rgb(0, 0, 0)" stroke-linecap="round" stroke-linejoin="round" stroke-opacity="1.0" stroke-width="3.0"/>
  </g>
</svg>
