<?xml version="1.0" ?>
<svg height="224" version="1.1" width="224" xmlns="http://www.w3.org/2000/svg">
  <defs/>
  <g>
    <path d="M 41.72782897949219 42.50845718383789 C 78.87303161621094 85.78640747070312 50.24839782714844 67.99785614013672 86.1202621459961 103.03472137451172" fill="none" stroke="rgb(0, 0, 0)" stroke-linecap="round" stroke-linejoin="round" stroke-opacity="1.0" stroke-width="3.0"/>
    <path d="M 29.43107032775879 117.37977600097656 C 75.68304443359375 183.2715606689453 50.057899475097656 129.84742736816406 84.37885284423828 190.20655822753906" fill="none" stroke="rgb(0, 0, 0)" stroke-linecap="round" stroke-linejoin="round" stroke-opacity="1.0" stroke-width="3.0"/>
    <path d="M 95.82788848876953 111.77527618408203 C 57.45631790161133 67.94054412841797 88.03627014160156 110.97599792480469 120.2535400390625 86.99829864501953" fill="none" stroke="rgb(0, 0, 0)" stroke-linecap="round" stroke-linejoin="round" stroke-opacity="1.0" stroke-width="3.0"/>
    <path d="M 119.88726806640625 39.82855224609375 C 132.28927612304688 100.74768829345703 122.4094009399414 79.97914123535156 95.33790588378906 112.36114501953125" fill="none" stroke="rgb(0, 0, 0)" stroke-linecap="round" stroke-linejoin="round" stroke-opacity="1.0" stroke-width="3.0"/>
    <path d="M 77.41133117675781 40.304683685302734 C 85.03450775146484 54.23868942260742 139.52066040039062 31.39444351196289 81.99626159667969 62.86882019042969" fill="none" stroke="rgb(0, 0, 0)" stroke-linecap="round" stroke-linejoin="round" stroke-opacity="1.0" stroke-width="3.0"/>
    <path d="M 143.8309783935547 100.68059539794922 C 136.0647735595703 107.26712799072266 130.68182373046875 115.61702728271484 120.34312438964844 159.1027069091797" fill="none" stroke="rgb(0, 0, 0)" stroke-linecap="round" stroke-linejoin="round" stroke-opacity="1.0" stroke-width="3.0"/>
    <path d="M 85.04100799560547 49.984092712402344 C 90.82896423339844 30.733448028564453 105.05115509033203 64.14203643798828 112.22260284423828 39.63886260986328" fill="none" stroke="rgb(0, 0, 0)" stroke-linecap="round" stroke-linejoin="round" stroke-opacity="1.0" stroke-width="3.0"/>
    <path d="M 64.66921997070312 199.99984741210938 C 24.559484481811523 194.53053283691406 32.88335037231445 201.04786682128906 10.372729301452637 179.48329162597656" fill="none" stroke="rgb(0, 0, 0)" stroke-linecap="round" stroke-linejoin="round" stroke-opacity="1.0" stroke-width="3.0"/>
    <path d="M 110.52560424804688 197.7790985107422 C 93.29425048828125 213.96022033691406 115.77481079101562 200.2774658203125 78.97278594970703 230.54209899902344" fill="none" stroke="rgb(0, 0, 0)" stroke-linecap="round" stroke-linejoin="round" stroke-opacity="1.0" stroke-width="3.0"/>
    <path d="M 50.61152267456055 31.957672119140625 C 70.43473815917969 9.059096336364746 64.76976013183594 30.85146713256836 82.51268768310547 9.825764656066895" fill="none" stroke="rgb(0, 0, 0)" stroke-linecap="round" stroke-linejoin="round" stroke-opacity="1.0" stroke-width="3.0"/>
    <path d="M 165.42822265625 178.20254516601562 C 171.53175354003906 120.36865234375 183.1027374267578 135.26971435546875 167.4047088623047 103.32091522216797" fill="none" stroke="rgb(0, 0, 0)" stroke-linecap="round" stroke-linejoin="round" stroke-opacity="1.0" stroke-width="3.0"/>
    <path d="M 126.67457580566406 56.899871826171875 C 104.9076919555664 84.63954162597656 180.59471130371094 96.88551330566406 140.73397827148438 71.34803771972656" fill="none" stroke="rgb(0, 0, 0)" stroke-linecap="round" stroke-linejoin="round" stroke-opacity="1.0" stroke-width="3.0"/>
    <path d="M 139.67286682128906 48.95573043823242 C 144.55149841308594 93.06551361083984 144.12387084960938 81.88937377929688 154.14430236816406 92.43512725830078" fill="none" stroke="rgb(0, 0, 0)" stroke-linecap="round" stroke-linejoin="round" stroke-opacity="1.0" stroke-width="3.0"/>
    <path d="M 165.52793884277344 180.20838928222656 C 152.14991760253906 216.81454467773438 154.25450134277344 180.7894744873047 160.4757843017578 227.01229858398438" fill="none" stroke="rgb(0, 0, 0)" stroke-linecap="round" stroke-linejoin="round" stroke-opacity="1.0" stroke-width="3.0"/>
    <path d="M 128.52772521972656 11.696162223815918 C 163.20167541503906 33.77908706665039 143.50155639648438 25.453022003173828 163.57186889648438 36.381473541259766" fill="none" stroke="rgb(0, 0, 0)" stroke-linecap="round" stroke-linejoin="round" stroke-opacity="1.0" stroke-width="3.0"/>
    <path d="M 127.09033203125 22.73497200012207 C 142.37506103515625 46.435951232910156 119.68193054199219 27.94775390625 145.06048583984375 60.05900192260742" fill="none" stroke="rgb(0, 0, 0)" stroke-linecap="round" stroke-linejoin="round" stroke-opacity="1.0" stroke-width="3.0"/>
  </g>
</svg>
