<?xml version="1.0" ?>
<svg height="224" version="1.1" width="224" xmlns="http://www.w3.org/2000/svg">
  <defs/>
  <g>
    <path d="M 37.861698150634766 46.05848693847656 C 65.67855834960938 63.48518371582031 16.829612731933594 40.00477600097656 81.43968963623047 83.62247467041016" fill="none" stroke="rgb(0, 0, 0)" stroke-linecap="round" stroke-linejoin="round" stroke-opacity="1.0" stroke-width="3.0"/>
    <path d="M 30.458452224731445 109.1153793334961 C 60.14582443237305 184.5098876953125 49.86425018310547 137.13119506835938 83.30681610107422 163.75730895996094" fill="none" stroke="rgb(0, 0, 0)" stroke-linecap="round" stroke-linejoin="round" stroke-opacity="1.0" stroke-width="3.0"/>
    <path d="M 93.2005615234375 114.82244873046875 C 32.93360137939453 39.745635986328125 112.36579895019531 130.52130126953125 116.16059875488281 45.0687141418457" fill="none" stroke="rgb(0, 0, 0)" stroke-linecap="round" stroke-linejoin="round" stroke-opacity="1.0" stroke-width="3.0"/>
    <path d="M 109.41205596923828 21.951335906982422 C 129.83213806152344 119.64191436767578 99.39718627929688 96.05970001220703 94.20886993408203 120.8525390625" fill="none" stroke="rgb(0, 0, 0)" stroke-linecap="round" stroke-linejoin="round" stroke-opacity="1.0" stroke-width="3.0"/>
    <path d="M 89.8834457397461 68.85635375976562 C 55.915218353271484 63.36536407470703 114.29637145996094 63.20309829711914 87.01042938232422 63.73030090332031" fill="none" stroke="rgb(0, 0, 0)" stroke-linecap="round" stroke-linejoin="round" stroke-opacity="1.0" stroke-width="3.0"/>
    <path d="M 147.13107299804688 100.22339630126953 C 140.49664306640625 109.34960174560547 133.0806427001953 131.88580322265625 131.5086669921875 159.60047912597656" fill="none" stroke="rgb(0, 0, 0)" stroke-linecap="round" stroke-linejoin="round" stroke-opacity="1.0" stroke-width="3.0"/>
    <path d="M 81.22698211669922 34.738346099853516 C 132.17938232421875 46.01603317260742 35.62601852416992 50.39935302734375 107.60308074951172 39.282955169677734" fill="none" stroke="rgb(0, 0, 0)" stroke-linecap="round" stroke-linejoin="round" stroke-opacity="1.0" stroke-width="3.0"/>
    <path d="M 61.95315933227539 225.6588134765625 C 0.1513288915157318 208.91017150878906 27.110136032104492 202.422607421875 18.80624771118164 167.60719299316406" fill="none" stroke="rgb(0, 0, 0)" stroke-linecap="round" stroke-linejoin="round" stroke-opacity="1.0" stroke-width="3.0"/>
    <path d="M 103.23306274414062 198.06639099121094 C 92.59951782226562 218.47164916992188 105.03353881835938 189.25436401367188 70.20990753173828 234.61636352539062" fill="none" stroke="rgb(0, 0, 0)" stroke-linecap="round" stroke-linejoin="round" stroke-opacity="1.0" stroke-width="3.0"/>
    <path d="M 40.513771057128906 40.77086639404297 C 62.58655548095703 18.61579704284668 31.35541534423828 31.070737838745117 85.03166198730469 7.853418350219727" fill="none" stroke="rgb(0, 0, 0)" stroke-linecap="round" stroke-linejoin="round" stroke-opacity="1.0" stroke-width="3.0"/>
    <path d="M 170.48355102539062 148.27272033691406 C 171.40704345703125 122.8494644165039 188.58937072753906 130.4337615966797 163.4411163330078 99.81315612792969" fill="none" stroke="rgb(0, 0, 0)" stroke-linecap="round" stroke-linejoin="round" stroke-opacity="1.0" stroke-width="3.0"/>
    <path d="M 117.89810180664062 78.7923583984375 C 114.09689331054688 73.9080581665039 170.88597106933594 104.70954895019531 144.6708221435547 67.31525421142578" fill="none" stroke="rgb(0, 0, 0)" stroke-linecap="round" stroke-linejoin="round" stroke-opacity="1.0" stroke-width="3.0"/>
    <path d="M 143.54542541503906 42.228153228759766 C 157.52523803710938 102.72576904296875 138.66802978515625 81.00205993652344 163.00389099121094 98.88349914550781" fill="none" stroke="rgb(0, 0, 0)" stroke-linecap="round" stroke-linejoin="round" stroke-opacity="1.0" stroke-width="3.0"/>
    <path d="M 171.7553253173828 146.7462921142578 C 156.30538940429688 201.69239807128906 177.87155151367188 146.05307006835938 150.82656860351562 226.79209899902344" fill="none" stroke="rgb(0, 0, 0)" stroke-linecap="round" stroke-linejoin="round" stroke-opacity="1.0" stroke-width="3.0"/>
    <path d="M 82.88691711425781 9.743173599243164 C 138.0543975830078 4.408150672912598 137.36058044433594 28.95107078552246 162.74478149414062 36.80195999145508" fill="none" stroke="rgb(0, 0, 0)" stroke-linecap="round" stroke-linejoin="round" stroke-opacity="1.0" stroke-width="3.0"/>
    <path d="M 95.94706726074219 7.4736762046813965 C 150.4036102294922 32.58181381225586 120.80310821533203 15.142894744873047 150.98800659179688 56.63298416137695" fill="none" stroke="rgb(0, 0, 0)" stroke-linecap="round" stroke-linejoin="round" stroke-opacity="1.0" stroke-width="3.0"/>
  </g>
</svg>
