<?xml version="1.0" ?>
<svg height="224" version="1.1" width="224" xmlns="http://www.w3.org/2000/svg">
  <defs/>
  <g>
    <path d="M 36.2336540222168 50.718055725097656 C 81.27224731445312 83.05110931396484 37.03765106201172 66.59449005126953 73.2013168334961 95.84555053710938" fill="none" stroke="rgb(0, 0, 0)" stroke-linecap="round" stroke-linejoin="round" stroke-opacity="1.0" stroke-width="3.0"/>
    <path d="M 29.873857498168945 127.22216033935547 C 66.9134750366211 169.5706024169922 69.98600769042969 145.27915954589844 73.78953552246094 169.98861694335938" fill="none" stroke="rgb(0, 0, 0)" stroke-linecap="round" stroke-linejoin="round" stroke-opacity="1.0" stroke-width="3.0"/>
    <path d="M 97.03704833984375 109.55197143554688 C 82.79070281982422 112.49750518798828 96.12053680419922 114.59114074707031 106.65531921386719 101.14363098144531" fill="none" stroke="rgb(0, 0, 0)" stroke-linecap="round" stroke-linejoin="round" stroke-opacity="1.0" stroke-width="3.0"/>
    <path d="M 137.076904296875 60.378787994384766 C 133.375732421875 85.10916137695312 117.36187744140625 86.55207824707031 102.74600219726562 106.17958068847656" fill="none" stroke="rgb(0, 0, 0)" stroke-linecap="round" stroke-linejoin="round" stroke-opacity="1.0" stroke-width="3.0"/>
    <path d="M 52.58842849731445 35.60740661621094 C 78.35376739501953 46.79785919189453 87.91282653808594 35.202735900878906 71.698486328125 40.81304931640625" fill="none" stroke="rgb(0, 0, 0)" stroke-linecap="round" stroke-linejoin="round" stroke-opacity="1.0" stroke-width="3.0"/>
    <path d="M 157.22755432128906 99.4043197631836 C 148.876708984375 105.55337524414062 140.50347900390625 107.751220703125 124.12672424316406 151.83995056152344" fill="none" stroke="rgb(0, 0, 0)" stroke-linecap="round" stroke-linejoin="round" stroke-opacity="1.0" stroke-width="3.0"/>
    <path d="M 72.13790893554688 43.30409622192383 C 76.6353988647461 38.13705825805664 118.55380249023438 33.551414489746094 93.66464233398438 45.271331787109375" fill="none" stroke="rgb(0, 0, 0)" stroke-linecap="round" stroke-linejoin="round" stroke-opacity="1.0" stroke-width="3.0"/>
    <path d="M 67.50489044189453 185.49424743652344 C 42.76403045654297 189.97560119628906 66.26356506347656 193.03082275390625 13.068710327148438 193.5393524169922" fill="none" stroke="rgb(0, 0, 0)" stroke-linecap="round" stroke-linejoin="round" stroke-opacity="1.0" stroke-width="3.0"/>
    <path d="M 116.16117858886719 193.48245239257812 C 106.74629974365234 215.02511596679688 117.4866943359375 201.06283569335938 106.41361999511719 222.15414428710938" fill="none" stroke="rgb(0, 0, 0)" stroke-linecap="round" stroke-linejoin="round" stroke-opacity="1.0" stroke-width="3.0"/>
    <path d="M 44.454471588134766 31.16661834716797 C 57.52283477783203 38.31501388549805 74.40984344482422 40.43762969970703 58.44743728637695 25.959522247314453" fill="none" stroke="rgb(0, 0, 0)" stroke-linecap="round" stroke-linejoin="round" stroke-opacity="1.0" stroke-width="3.0"/>
    <path d="M 163.35231018066406 190.66021728515625 C 175.0952911376953 144.74069213867188 172.8678436279297 165.0792236328125 172.4030303955078 115.12007904052734" fill="none" stroke="rgb(0, 0, 0)" stroke-linecap="round" stroke-linejoin="round" stroke-opacity="1.0" stroke-width="3.0"/>
    <path d="M 148.33067321777344 71.23558807373047 C 141.7034912109375 69.04399871826172 154.53952026367188 82.08255767822266 143.55917358398438 65.99696350097656" fill="none" stroke="rgb(0, 0, 0)" stroke-linecap="round" stroke-linejoin="round" stroke-opacity="1.0" stroke-width="3.0"/>
    <path d="M 142.36480712890625 51.37079620361328 C 154.59634399414062 86.1053466796875 132.6303253173828 76.91963195800781 153.0971221923828 89.11697387695312" fill="none" stroke="rgb(0, 0, 0)" stroke-linecap="round" stroke-linejoin="round" stroke-opacity="1.0" stroke-width="3.0"/>
    <path d="M 163.54296875 190.0673828125 C 156.3418426513672 209.74124145507812 161.70436096191406 187.110107421875 161.50039672851562 221.6649627685547" fill="none" stroke="rgb(0, 0, 0)" stroke-linecap="round" stroke-linejoin="round" stroke-opacity="1.0" stroke-width="3.0"/>
    <path d="M 155.9860076904297 33.73228454589844 C 156.055908203125 32.202781677246094 149.12637329101562 31.726333618164062 162.13531494140625 36.935081481933594" fill="none" stroke="rgb(0, 0, 0)" stroke-linecap="round" stroke-linejoin="round" stroke-opacity="1.0" stroke-width="3.0"/>
    <path d="M 124.7704849243164 11.044075965881348 C 147.85073852539062 42.59907913208008 129.02134704589844 34.382442474365234 144.9030303955078 51.23231887817383" fill="none" stroke="rgb(0, 0, 0)" stroke-linecap="round" stroke-linejoin="round" stroke-opacity="1.0" stroke-width="3.0"/>
  </g>
</svg>
