<?xml version="1.0" ?>
<svg height="224" version="1.1" width="224" xmlns="http://www.w3.org/2000/svg">
  <defs/>
  <g>
    <path d="M 39.149085998535156 42.13749694824219 C 78.80077362060547 88.8335189819336 51.16449737548828 68.83161163330078 82.28971862792969 103.81822967529297" fill="none" stroke="rgb(0, 0, 0)" stroke-linecap="round" stroke-linejoin="round" stroke-opacity="1.0" stroke-width="3.0"/>
    <path d="M 25.023357391357422 118.6128921508789 C 76.58173370361328 179.4506072998047 54.770896911621094 126.24291229248047 84.21285247802734 194.0155029296875" fill="none" stroke="rgb(0, 0, 0)" stroke-linecap="round" stroke-linejoin="round" stroke-opacity="1.0" stroke-width="3.0"/>
    <path d="M 97.45173645019531 112.36505126953125 C 53.182151794433594 73.82160949707031 86.51262664794922 115.60531616210938 119.62958526611328 89.89334869384766" fill="none" stroke="rgb(0, 0, 0)" stroke-linecap="round" stroke-linejoin="round" stroke-opacity="1.0" stroke-width="3.0"/>
    <path d="M 121.4862060546875 36.36658477783203 C 131.57525634765625 101.14574432373047 125.18287658691406 81.88459777832031 96.23844146728516 113.16641998291016" fill="none" stroke="rgb(0, 0, 0)" stroke-linecap="round" stroke-linejoin="round" stroke-opacity="1.0" stroke-width="3.0"/>
    <path d="M 74.22271728515625 39.492454528808594 C 91.1283950805664 51.498958587646484 139.61647033691406 32.93543243408203 81.49954986572266 60.48896026611328" fill="none" stroke="rgb(0, 0, 0)" stroke-linecap="round" stroke-linejoin="round" stroke-opacity="1.0" stroke-width="3.0"/>
    <path d="M 145.1267852783203 98.51189422607422 C 137.6915740966797 108.06005859375 133.5839080810547 117.85564422607422 123.69341278076172 156.4596405029297" fill="none" stroke="rgb(0, 0, 0)" stroke-linecap="round" stroke-linejoin="round" stroke-opacity="1.0" stroke-width="3.0"/>
    <path d="M 88.24439239501953 48.304630279541016 C 89.04716491699219 29.192935943603516 104.73609161376953 56.41530227661133 115.30482482910156 35.643280029296875" fill="none" stroke="rgb(0, 0, 0)" stroke-linecap="round" stroke-linejoin="round" stroke-opacity="1.0" stroke-width="3.0"/>
    <path d="M 63.092369079589844 200.7466583251953 C 25.859695434570312 196.1688232421875 32.88496780395508 200.96812438964844 12.278554916381836 176.24752807617188" fill="none" stroke="rgb(0, 0, 0)" stroke-linecap="round" stroke-linejoin="round" stroke-opacity="1.0" stroke-width="3.0"/>
    <path d="M 108.10708618164062 197.31881713867188 C 93.93879699707031 214.7622528076172 117.868408203125 201.8467254638672 80.65115356445312 231.75546264648438" fill="none" stroke="rgb(0, 0, 0)" stroke-linecap="round" stroke-linejoin="round" stroke-opacity="1.0" stroke-width="3.0"/>
    <path d="M 53.4495849609375 32.22058868408203 C 71.61974334716797 9.161225318908691 64.17816162109375 33.55113220214844 82.99462127685547 9.724364280700684" fill="none" stroke="rgb(0, 0, 0)" stroke-linecap="round" stroke-linejoin="round" stroke-opacity="1.0" stroke-width="3.0"/>
    <path d="M 164.9139862060547 182.17822265625 C 170.877685546875 126.70701599121094 182.62889099121094 146.73289489746094 168.4827117919922 104.8102798461914" fill="none" stroke="rgb(0, 0, 0)" stroke-linecap="round" stroke-linejoin="round" stroke-opacity="1.0" stroke-width="3.0"/>
    <path d="M 128.28036499023438 56.77458572387695 C 105.23075103759766 86.91343688964844 177.57298278808594 96.05841064453125 141.34677124023438 69.7483139038086" fill="none" stroke="rgb(0, 0, 0)" stroke-linecap="round" stroke-linejoin="round" stroke-opacity="1.0" stroke-width="3.0"/>
    <path d="M 140.30218505859375 48.11315155029297 C 148.19906616210938 91.82383728027344 145.8308563232422 84.70613098144531 153.7760772705078 90.76868438720703" fill="none" stroke="rgb(0, 0, 0)" stroke-linecap="round" stroke-linejoin="round" stroke-opacity="1.0" stroke-width="3.0"/>
    <path d="M 164.09291076660156 183.80418395996094 C 153.4742431640625 216.7909393310547 156.83203125 180.30430603027344 160.2247772216797 226.8965606689453" fill="none" stroke="rgb(0, 0, 0)" stroke-linecap="round" stroke-linejoin="round" stroke-opacity="1.0" stroke-width="3.0"/>
    <path d="M 130.98611450195312 15.466161727905273 C 160.52008056640625 37.7406005859375 139.2977294921875 29.213407516479492 164.58790588378906 36.2657470703125" fill="none" stroke="rgb(0, 0, 0)" stroke-linecap="round" stroke-linejoin="round" stroke-opacity="1.0" stroke-width="3.0"/>
    <path d="M 124.994873046875 22.515737533569336 C 143.42391967773438 46.80183792114258 119.00543975830078 25.503202438354492 146.5882110595703 61.23428726196289" fill="none" stroke="rgb(0, 0, 0)" stroke-linecap="round" stroke-linejoin="round" stroke-opacity="1.0" stroke-width="3.0"/>
  </g>
</svg>
