<?xml version="1.0" ?>
<svg height="224" version="1.1" width="224" xmlns="http://www.w3.org/2000/svg">
  <defs/>
  <g>
    <path d="M 43.39924621582031 59.66354751586914 C 70.82148742675781 81.9384765625 37.957942962646484 71.35684204101562 59.75973129272461 97.4180679321289" fill="none" stroke="rgb(0, 0, 0)" stroke-linecap="round" stroke-linejoin="round" stroke-opacity="1.0" stroke-width="3.0"/>
    <path d="M 22.949630737304688 138.27272033691406 C 61.314029693603516 160.5393829345703 70.51589965820312 150.7401580810547 83.31018829345703 165.43719482421875" fill="none" stroke="rgb(0, 0, 0)" stroke-linecap="round" stroke-linejoin="round" stroke-opacity="1.0" stroke-width="3.0"/>
    <path d="M 90.61695861816406 107.08207702636719 C 77.31024169921875 104.50981140136719 86.92333984375 101.77099609375 98.28001403808594 118.22655487060547" fill="none" stroke="rgb(0, 0, 0)" stroke-linecap="round" stroke-linejoin="round" stroke-opacity="1.0" stroke-width="3.0"/>
    <path d="M 105.3310775756836 63.34697723388672 C 102.74026489257812 94.39537048339844 91.48342895507812 78.65754699707031 101.97390747070312 112.51966857910156" fill="none" stroke="rgb(0, 0, 0)" stroke-linecap="round" stroke-linejoin="round" stroke-opacity="1.0" stroke-width="3.0"/>
    <path d="M 53.096012115478516 44.45378875732422 C 77.50715637207031 44.60786819458008 87.55440521240234 37.45922088623047 72.52523803710938 46.15504837036133" fill="none" stroke="rgb(0, 0, 0)" stroke-linecap="round" stroke-linejoin="round" stroke-opacity="1.0" stroke-width="3.0"/>
    <path d="M 165.4969482421875 100.69232940673828 C 156.02903747558594 112.9251708984375 158.0414276123047 111.90101623535156 153.071044921875 126.70389556884766" fill="none" stroke="rgb(0, 0, 0)" stroke-linecap="round" stroke-linejoin="round" stroke-opacity="1.0" stroke-width="3.0"/>
    <path d="M 66.79933166503906 51.59772491455078 C 79.41947174072266 37.336402893066406 106.30298614501953 36.31595230102539 87.65475463867188 50.03429412841797" fill="none" stroke="rgb(0, 0, 0)" stroke-linecap="round" stroke-linejoin="round" stroke-opacity="1.0" stroke-width="3.0"/>
    <path d="M 61.50861358642578 187.3624267578125 C 56.98256301879883 189.90740966796875 69.51143646240234 192.7202911376953 16.79353141784668 203.94500732421875" fill="none" stroke="rgb(0, 0, 0)" stroke-linecap="round" stroke-linejoin="round" stroke-opacity="1.0" stroke-width="3.0"/>
    <path d="M 108.46240234375 186.52484130859375 C 90.86418914794922 201.76268005371094 109.45712280273438 197.3175811767578 96.65840911865234 221.1973419189453" fill="none" stroke="rgb(0, 0, 0)" stroke-linecap="round" stroke-linejoin="round" stroke-opacity="1.0" stroke-width="3.0"/>
    <path d="M 44.24555969238281 34.80894470214844 C 45.929317474365234 46.46858596801758 62.021480560302734 48.98584747314453 54.25797653198242 44.383602142333984" fill="none" stroke="rgb(0, 0, 0)" stroke-linecap="round" stroke-linejoin="round" stroke-opacity="1.0" stroke-width="3.0"/>
    <path d="M 156.0924835205078 183.14292907714844 C 170.72694396972656 154.058349609375 159.2244873046875 164.6077880859375 168.99818420410156 144.2720489501953" fill="none" stroke="rgb(0, 0, 0)" stroke-linecap="round" stroke-linejoin="round" stroke-opacity="1.0" stroke-width="3.0"/>
    <path d="M 155.17320251464844 72.47669219970703 C 157.3426055908203 74.60047149658203 156.72434997558594 74.47616577148438 150.90000915527344 69.33882141113281" fill="none" stroke="rgb(0, 0, 0)" stroke-linecap="round" stroke-linejoin="round" stroke-opacity="1.0" stroke-width="3.0"/>
    <path d="M 143.99867248535156 69.43602752685547 C 148.90489196777344 84.06184387207031 148.7047882080078 76.2190170288086 148.803466796875 80.14004516601562" fill="none" stroke="rgb(0, 0, 0)" stroke-linecap="round" stroke-linejoin="round" stroke-opacity="1.0" stroke-width="3.0"/>
    <path d="M 160.18698120117188 186.4164276123047 C 155.23890686035156 203.2137451171875 161.7216033935547 196.10812377929688 161.05645751953125 221.40560913085938" fill="none" stroke="rgb(0, 0, 0)" stroke-linecap="round" stroke-linejoin="round" stroke-opacity="1.0" stroke-width="3.0"/>
    <path d="M 155.08070373535156 30.17481231689453 C 155.173583984375 30.797147750854492 151.98226928710938 27.442110061645508 161.10011291503906 35.898048400878906" fill="none" stroke="rgb(0, 0, 0)" stroke-linecap="round" stroke-linejoin="round" stroke-opacity="1.0" stroke-width="3.0"/>
    <path d="M 127.77142333984375 10.935579299926758 C 143.90074157714844 29.850730895996094 138.62437438964844 26.679975509643555 141.40200805664062 42.88431167602539" fill="none" stroke="rgb(0, 0, 0)" stroke-linecap="round" stroke-linejoin="round" stroke-opacity="1.0" stroke-width="3.0"/>
  </g>
</svg>
