<?xml version="1.0" ?>
<svg height="224" version="1.1" width="224" xmlns="http://www.w3.org/2000/svg">
  <defs/>
  <g>
    <path d="M 34.632747650146484 51.08556365966797 C 81.97621154785156 90.5907211303711 42.6646842956543 66.1431884765625 83.22817993164062 98.5743179321289" fill="none" stroke="rgb(0, 0, 0)" stroke-linecap="round" stroke-linejoin="round" stroke-opacity="1.0" stroke-width="3.0"/>
    <path d="M 25.49799156188965 121.0134048461914 C 67.9986572265625 177.62841796875 64.77239227294922 148.15643310546875 69.9731674194336 179.75563049316406" fill="none" stroke="rgb(0, 0, 0)" stroke-linecap="round" stroke-linejoin="round" stroke-opacity="1.0" stroke-width="3.0"/>
    <path d="M 92.90648651123047 113.16183471679688 C 72.16423034667969 82.45952606201172 83.9210433959961 108.55888366699219 116.05911254882812 92.08362579345703" fill="none" stroke="rgb(0, 0, 0)" stroke-linecap="round" stroke-linejoin="round" stroke-opacity="1.0" stroke-width="3.0"/>
    <path d="M 129.8844757080078 44.29248809814453 C 138.53753662109375 102.35308074951172 124.38611602783203 71.72689819335938 97.2245864868164 112.04393005371094" fill="none" stroke="rgb(0, 0, 0)" stroke-linecap="round" stroke-linejoin="round" stroke-opacity="1.0" stroke-width="3.0"/>
    <path d="M 54.675880432128906 41.57872009277344 C 80.28207397460938 49.578433990478516 95.28964233398438 35.30714416503906 71.6479721069336 49.270809173583984" fill="none" stroke="rgb(0, 0, 0)" stroke-linecap="round" stroke-linejoin="round" stroke-opacity="1.0" stroke-width="3.0"/>
    <path d="M 153.337158203125 101.49603271484375 C 145.3695068359375 107.7589111328125 138.09854125976562 113.2625503540039 125.49153137207031 153.14328002929688" fill="none" stroke="rgb(0, 0, 0)" stroke-linecap="round" stroke-linejoin="round" stroke-opacity="1.0" stroke-width="3.0"/>
    <path d="M 85.68865966796875 40.29847717285156 C 87.10262298583984 30.3985652923584 106.88996124267578 34.253421783447266 100.95368957519531 29.404178619384766" fill="none" stroke="rgb(0, 0, 0)" stroke-linecap="round" stroke-linejoin="round" stroke-opacity="1.0" stroke-width="3.0"/>
    <path d="M 56.89558029174805 203.99124145507812 C 21.60785484313965 195.58482360839844 33.20280838012695 200.59512329101562 14.000171661376953 187.11351013183594" fill="none" stroke="rgb(0, 0, 0)" stroke-linecap="round" stroke-linejoin="round" stroke-opacity="1.0" stroke-width="3.0"/>
    <path d="M 115.02715301513672 196.96200561523438 C 102.30040740966797 212.56954956054688 119.10690307617188 196.0133056640625 79.67787170410156 221.0474395751953" fill="none" stroke="rgb(0, 0, 0)" stroke-linecap="round" stroke-linejoin="round" stroke-opacity="1.0" stroke-width="3.0"/>
    <path d="M 43.263336181640625 35.03580093383789 C 62.17033767700195 46.79401779174805 63.191585540771484 41.91749954223633 65.9087905883789 21.473125457763672" fill="none" stroke="rgb(0, 0, 0)" stroke-linecap="round" stroke-linejoin="round" stroke-opacity="1.0" stroke-width="3.0"/>
    <path d="M 162.8164520263672 187.6539764404297 C 174.24278259277344 140.83975219726562 183.93048095703125 166.273681640625 169.21429443359375 110.27473449707031" fill="none" stroke="rgb(0, 0, 0)" stroke-linecap="round" stroke-linejoin="round" stroke-opacity="1.0" stroke-width="3.0"/>
    <path d="M 128.05038452148438 57.933876037597656 C 125.4320297241211 67.72673797607422 162.1127166748047 94.8886489868164 142.8565673828125 68.01324462890625" fill="none" stroke="rgb(0, 0, 0)" stroke-linecap="round" stroke-linejoin="round" stroke-opacity="1.0" stroke-width="3.0"/>
    <path d="M 139.74295043945312 48.10763931274414 C 147.55166625976562 99.41390228271484 132.7229766845703 74.28514099121094 150.17665100097656 88.6514892578125" fill="none" stroke="rgb(0, 0, 0)" stroke-linecap="round" stroke-linejoin="round" stroke-opacity="1.0" stroke-width="3.0"/>
    <path d="M 161.59654235839844 189.3153839111328 C 150.202880859375 213.61854553222656 154.1588897705078 183.82041931152344 156.7352752685547 222.11138916015625" fill="none" stroke="rgb(0, 0, 0)" stroke-linecap="round" stroke-linejoin="round" stroke-opacity="1.0" stroke-width="3.0"/>
    <path d="M 136.577880859375 14.491912841796875 C 159.42803955078125 31.59178352355957 143.2623291015625 28.061086654663086 163.39488220214844 36.506622314453125" fill="none" stroke="rgb(0, 0, 0)" stroke-linecap="round" stroke-linejoin="round" stroke-opacity="1.0" stroke-width="3.0"/>
    <path d="M 130.04718017578125 21.363027572631836 C 145.90142822265625 40.21133041381836 125.2099838256836 31.331932067871094 144.73597717285156 57.171024322509766" fill="none" stroke="rgb(0, 0, 0)" stroke-linecap="round" stroke-linejoin="round" stroke-opacity="1.0" stroke-width="3.0"/>
  </g>
</svg>
