<?xml version="1.0" ?>
<svg height="224" version="1.1" width="224" xmlns="http://www.w3.org/2000/svg">
  <defs/>
  <g>
    <path d="M 36.722206115722656 52.18779373168945 C 80.62537384033203 78.24281311035156 49.380149841308594 64.92106628417969 89.88461303710938 99.76042175292969" fill="none" stroke="rgb(0, 0, 0)" stroke-linecap="round" stroke-linejoin="round" stroke-opacity="1.0" stroke-width="3.0"/>
    <path d="M 32.44126510620117 114.25655364990234 C 70.38721466064453 188.51165771484375 45.91948699951172 130.4528045654297 71.4776840209961 192.0578155517578" fill="none" stroke="rgb(0, 0, 0)" stroke-linecap="round" stroke-linejoin="round" stroke-opacity="1.0" stroke-width="3.0"/>
    <path d="M 96.6270523071289 110.44979095458984 C 69.84785461425781 62.9951057434082 82.69020080566406 111.52578735351562 118.97505187988281 84.15145874023438" fill="none" stroke="rgb(0, 0, 0)" stroke-linecap="round" stroke-linejoin="round" stroke-opacity="1.0" stroke-width="3.0"/>
    <path d="M 116.9912338256836 32.060115814208984 C 130.93951416015625 100.97503662109375 119.1259536743164 81.9997787475586 95.8051528930664 114.1333236694336" fill="none" stroke="rgb(0, 0, 0)" stroke-linecap="round" stroke-linejoin="round" stroke-opacity="1.0" stroke-width="3.0"/>
    <path d="M 74.40869903564453 37.922149658203125 C 81.90145111083984 53.11988830566406 147.5799102783203 36.08736038208008 84.41405487060547 59.23284149169922" fill="none" stroke="rgb(0, 0, 0)" stroke-linecap="round" stroke-linejoin="round" stroke-opacity="1.0" stroke-width="3.0"/>
    <path d="M 146.2376251220703 101.7572250366211 C 139.94789123535156 111.8050308227539 133.23410034179688 118.4170913696289 123.19020080566406 164.2091827392578" fill="none" stroke="rgb(0, 0, 0)" stroke-linecap="round" stroke-linejoin="round" stroke-opacity="1.0" stroke-width="3.0"/>
    <path d="M 78.78720092773438 48.965484619140625 C 95.31392669677734 28.93144989013672 92.51777648925781 58.63424301147461 105.17019653320312 41.90845489501953" fill="none" stroke="rgb(0, 0, 0)" stroke-linecap="round" stroke-linejoin="round" stroke-opacity="1.0" stroke-width="3.0"/>
    <path d="M 56.447357177734375 201.43862915039062 C 23.373126983642578 197.0998992919922 31.591405868530273 198.846923828125 13.148114204406738 183.46226501464844" fill="none" stroke="rgb(0, 0, 0)" stroke-linecap="round" stroke-linejoin="round" stroke-opacity="1.0" stroke-width="3.0"/>
    <path d="M 109.9458999633789 199.89056396484375 C 95.32234954833984 217.5961151123047 117.97508239746094 202.94386291503906 79.35099792480469 231.2620849609375" fill="none" stroke="rgb(0, 0, 0)" stroke-linecap="round" stroke-linejoin="round" stroke-opacity="1.0" stroke-width="3.0"/>
    <path d="M 44.347557067871094 36.56580352783203 C 72.14122009277344 6.881479740142822 59.64936828613281 33.397552490234375 81.15558624267578 9.063202857971191" fill="none" stroke="rgb(0, 0, 0)" stroke-linecap="round" stroke-linejoin="round" stroke-opacity="1.0" stroke-width="3.0"/>
    <path d="M 167.9044189453125 172.99810791015625 C 170.40599060058594 118.51300811767578 188.23716735839844 126.37862396240234 163.4906768798828 102.99739074707031" fill="none" stroke="rgb(0, 0, 0)" stroke-linecap="round" stroke-linejoin="round" stroke-opacity="1.0" stroke-width="3.0"/>
    <path d="M 126.13842010498047 59.154335021972656 C 106.35431671142578 85.53455352783203 180.70196533203125 95.2420425415039 136.23573303222656 67.24931335449219" fill="none" stroke="rgb(0, 0, 0)" stroke-linecap="round" stroke-linejoin="round" stroke-opacity="1.0" stroke-width="3.0"/>
    <path d="M 138.2189178466797 45.116336822509766 C 144.67373657226562 90.70830535888672 146.7722930908203 84.59058380126953 156.58755493164062 91.40531158447266" fill="none" stroke="rgb(0, 0, 0)" stroke-linecap="round" stroke-linejoin="round" stroke-opacity="1.0" stroke-width="3.0"/>
    <path d="M 168.2669677734375 172.22003173828125 C 152.35824584960938 223.73399353027344 154.54266357421875 177.05197143554688 158.1719207763672 226.89901733398438" fill="none" stroke="rgb(0, 0, 0)" stroke-linecap="round" stroke-linejoin="round" stroke-opacity="1.0" stroke-width="3.0"/>
    <path d="M 121.29744720458984 7.875677108764648 C 163.4678955078125 39.037776947021484 140.39944458007812 30.150896072387695 164.12429809570312 37.467533111572266" fill="none" stroke="rgb(0, 0, 0)" stroke-linecap="round" stroke-linejoin="round" stroke-opacity="1.0" stroke-width="3.0"/>
    <path d="M 124.82473754882812 20.47273826599121 C 141.71580505371094 36.91695785522461 114.38980102539062 24.6766300201416 144.4136962890625 62.92372512817383" fill="none" stroke="rgb(0, 0, 0)" stroke-linecap="round" stroke-linejoin="round" stroke-opacity="1.0" stroke-width="3.0"/>
  </g>
</svg>
