<?xml version="1.0" ?>
<svg height="224" version="1.1" width="224" xmlns="http://www.w3.org/2000/svg">
  <defs/>
  <g>
    <path d="M 35.72696304321289 55.914798736572266 C 85.590087890625 86.47893524169922 42.985862731933594 68.06405639648438 80.76888275146484 98.01445770263672" fill="none" stroke="rgb(0, 0, 0)" stroke-linecap="round" stroke-linejoin="round" stroke-opacity="1.0" stroke-width="3.0"/>
    <path d="M 27.60653305053711 116.70796966552734 C 67.61476135253906 183.05430603027344 63.7343635559082 143.25694274902344 69.7731704711914 183.8314971923828" fill="none" stroke="rgb(0, 0, 0)" stroke-linecap="round" stroke-linejoin="round" stroke-opacity="1.0" stroke-width="3.0"/>
    <path d="M 94.504150390625 111.03243255615234 C 60.14826965332031 79.56456756591797 83.43017578125 104.34356689453125 116.86306762695312 89.08136749267578" fill="none" stroke="rgb(0, 0, 0)" stroke-linecap="round" stroke-linejoin="round" stroke-opacity="1.0" stroke-width="3.0"/>
    <path d="M 127.69371032714844 38.26852798461914 C 133.87242126464844 102.00174713134766 126.14318084716797 72.24517059326172 98.91568756103516 109.47856140136719" fill="none" stroke="rgb(0, 0, 0)" stroke-linecap="round" stroke-linejoin="round" stroke-opacity="1.0" stroke-width="3.0"/>
    <path d="M 61.94739532470703 39.980777740478516 C 75.75831604003906 43.99367141723633 99.4952621459961 32.346893310546875 69.92423248291016 48.50525665283203" fill="none" stroke="rgb(0, 0, 0)" stroke-linecap="round" stroke-linejoin="round" stroke-opacity="1.0" stroke-width="3.0"/>
    <path d="M 157.9929962158203 100.11671447753906 C 140.53314208984375 107.35398864746094 136.03627014160156 111.64643859863281 126.18824005126953 151.86834716796875" fill="none" stroke="rgb(0, 0, 0)" stroke-linecap="round" stroke-linejoin="round" stroke-opacity="1.0" stroke-width="3.0"/>
    <path d="M 83.96896362304688 38.90265655517578 C 88.93096160888672 24.820369720458984 113.55912780761719 36.22721862792969 115.00299835205078 22.222843170166016" fill="none" stroke="rgb(0, 0, 0)" stroke-linecap="round" stroke-linejoin="round" stroke-opacity="1.0" stroke-width="3.0"/>
    <path d="M 58.52095413208008 201.82418823242188 C 30.160419464111328 195.3231658935547 41.46204376220703 193.1704559326172 20.407575607299805 180.4408721923828" fill="none" stroke="rgb(0, 0, 0)" stroke-linecap="round" stroke-linejoin="round" stroke-opacity="1.0" stroke-width="3.0"/>
    <path d="M 114.13666534423828 199.94358825683594 C 103.3114013671875 215.21339416503906 119.52702331542969 203.97821044921875 78.71983337402344 221.29345703125" fill="none" stroke="rgb(0, 0, 0)" stroke-linecap="round" stroke-linejoin="round" stroke-opacity="1.0" stroke-width="3.0"/>
    <path d="M 45.179744720458984 28.33958625793457 C 63.121070861816406 44.453372955322266 70.35253143310547 40.53964614868164 65.02536010742188 29.047578811645508" fill="none" stroke="rgb(0, 0, 0)" stroke-linecap="round" stroke-linejoin="round" stroke-opacity="1.0" stroke-width="3.0"/>
    <path d="M 162.5703582763672 187.39779663085938 C 174.7105255126953 146.2406005859375 178.82325744628906 166.59092712402344 167.47463989257812 110.60420989990234" fill="none" stroke="rgb(0, 0, 0)" stroke-linecap="round" stroke-linejoin="round" stroke-opacity="1.0" stroke-width="3.0"/>
    <path d="M 130.47096252441406 56.0974006652832 C 115.76122283935547 79.99362182617188 166.0128173828125 99.70726776123047 141.91812133789062 70.63341522216797" fill="none" stroke="rgb(0, 0, 0)" stroke-linecap="round" stroke-linejoin="round" stroke-opacity="1.0" stroke-width="3.0"/>
    <path d="M 140.8759307861328 40.70366287231445 C 149.70147705078125 99.7656478881836 140.33592224121094 78.12960052490234 151.45535278320312 90.46961212158203" fill="none" stroke="rgb(0, 0, 0)" stroke-linecap="round" stroke-linejoin="round" stroke-opacity="1.0" stroke-width="3.0"/>
    <path d="M 161.89422607421875 188.7537078857422 C 149.8716583251953 209.60256958007812 152.72207641601562 182.20269775390625 160.20834350585938 222.6305694580078" fill="none" stroke="rgb(0, 0, 0)" stroke-linecap="round" stroke-linejoin="round" stroke-opacity="1.0" stroke-width="3.0"/>
    <path d="M 137.20310974121094 14.49431037902832 C 165.28041076660156 35.80276870727539 144.6567840576172 24.81161880493164 163.6733856201172 36.59581756591797" fill="none" stroke="rgb(0, 0, 0)" stroke-linecap="round" stroke-linejoin="round" stroke-opacity="1.0" stroke-width="3.0"/>
    <path d="M 130.89759826660156 16.23993492126465 C 148.00555419921875 42.42885971069336 127.6555404663086 25.507492065429688 147.89651489257812 58.20256423950195" fill="none" stroke="rgb(0, 0, 0)" stroke-linecap="round" stroke-linejoin="round" stroke-opacity="1.0" stroke-width="3.0"/>
  </g>
</svg>
