<?xml version="1.0" ?>
<svg height="224" version="1.1" width="224" xmlns="http://www.w3.org/2000/svg">
  <defs/>
  <g>
    <path d="M 40.24189376831055 44.382789611816406 C 69.61511993408203 74.15121459960938 14.056612014770508 36.28895950317383 88.00267028808594 87.83154296875" fill="none" stroke="rgb(0, 0, 0)" stroke-linecap="round" stroke-linejoin="round" stroke-opacity="1.0" stroke-width="3.0"/>
    <path d="M 38.24856948852539 110.88111114501953 C 68.65214538574219 179.8964385986328 56.10068893432617 130.31883239746094 79.86897277832031 183.38526916503906" fill="none" stroke="rgb(0, 0, 0)" stroke-linecap="round" stroke-linejoin="round" stroke-opacity="1.0" stroke-width="3.0"/>
    <path d="M 92.40331268310547 111.80484771728516 C 33.74553298950195 35.84086608886719 107.93258666992188 123.75996398925781 116.10771942138672 47.23401641845703" fill="none" stroke="rgb(0, 0, 0)" stroke-linecap="round" stroke-linejoin="round" stroke-opacity="1.0" stroke-width="3.0"/>
    <path d="M 108.39002227783203 15.041190147399902 C 130.7266387939453 108.84630584716797 104.5224838256836 85.7706069946289 93.79936981201172 115.95531463623047" fill="none" stroke="rgb(0, 0, 0)" stroke-linecap="round" stroke-linejoin="round" stroke-opacity="1.0" stroke-width="3.0"/>
    <path d="M 82.72197723388672 60.817665100097656 C 53.59538650512695 44.037418365478516 137.19395446777344 59.66071319580078 89.55935668945312 62.52354431152344" fill="none" stroke="rgb(0, 0, 0)" stroke-linecap="round" stroke-linejoin="round" stroke-opacity="1.0" stroke-width="3.0"/>
    <path d="M 152.6867218017578 101.9046401977539 C 147.43174743652344 103.49207305908203 135.884521484375 132.88070678710938 131.63441467285156 161.55001831054688" fill="none" stroke="rgb(0, 0, 0)" stroke-linecap="round" stroke-linejoin="round" stroke-opacity="1.0" stroke-width="3.0"/>
    <path d="M 81.11000061035156 40.41910934448242 C 123.75666809082031 35.633323669433594 46.348419189453125 68.38451385498047 107.62725830078125 32.8402099609375" fill="none" stroke="rgb(0, 0, 0)" stroke-linecap="round" stroke-linejoin="round" stroke-opacity="1.0" stroke-width="3.0"/>
    <path d="M 62.32129669189453 226.47952270507812 C 6.403619766235352 206.2804412841797 26.847501754760742 209.20127868652344 17.10055160522461 168.80821228027344" fill="none" stroke="rgb(0, 0, 0)" stroke-linecap="round" stroke-linejoin="round" stroke-opacity="1.0" stroke-width="3.0"/>
    <path d="M 102.91886138916016 198.1237030029297 C 89.5271987915039 218.7222137451172 106.99112701416016 190.33059692382812 64.90523529052734 229.77642822265625" fill="none" stroke="rgb(0, 0, 0)" stroke-linecap="round" stroke-linejoin="round" stroke-opacity="1.0" stroke-width="3.0"/>
    <path d="M 39.14752197265625 39.881954193115234 C 65.92271423339844 22.074813842773438 31.064786911010742 32.92445755004883 91.95040130615234 8.201934814453125" fill="none" stroke="rgb(0, 0, 0)" stroke-linecap="round" stroke-linejoin="round" stroke-opacity="1.0" stroke-width="3.0"/>
    <path d="M 172.09161376953125 155.09385681152344 C 167.39385986328125 114.26151275634766 186.4716033935547 131.92835998535156 160.83975219726562 98.07875061035156" fill="none" stroke="rgb(0, 0, 0)" stroke-linecap="round" stroke-linejoin="round" stroke-opacity="1.0" stroke-width="3.0"/>
    <path d="M 116.31389617919922 67.10548400878906 C 105.26875305175781 74.06795501708984 174.90460205078125 105.99710083007812 143.5948028564453 69.01856994628906" fill="none" stroke="rgb(0, 0, 0)" stroke-linecap="round" stroke-linejoin="round" stroke-opacity="1.0" stroke-width="3.0"/>
    <path d="M 141.6720428466797 43.489593505859375 C 155.6900634765625 99.7308349609375 136.38235473632812 81.43901824951172 160.0189971923828 95.6696548461914" fill="none" stroke="rgb(0, 0, 0)" stroke-linecap="round" stroke-linejoin="round" stroke-opacity="1.0" stroke-width="3.0"/>
    <path d="M 172.27369689941406 155.54183959960938 C 151.25912475585938 232.6070556640625 153.97166442871094 166.47314453125 158.1250457763672 231.54080200195312" fill="none" stroke="rgb(0, 0, 0)" stroke-linecap="round" stroke-linejoin="round" stroke-opacity="1.0" stroke-width="3.0"/>
    <path d="M 82.37948608398438 10.494258880615234 C 159.84686279296875 18.70122528076172 129.42626953125 31.88445281982422 163.19204711914062 37.44637680053711" fill="none" stroke="rgb(0, 0, 0)" stroke-linecap="round" stroke-linejoin="round" stroke-opacity="1.0" stroke-width="3.0"/>
    <path d="M 108.91397857666016 6.2014384269714355 C 156.92327880859375 48.85692596435547 115.35726928710938 14.584595680236816 148.90155029296875 55.05220031738281" fill="none" stroke="rgb(0, 0, 0)" stroke-linecap="round" stroke-linejoin="round" stroke-opacity="1.0" stroke-width="3.0"/>
  </g>
</svg>
