<?xml version="1.0" ?>
<svg height="224" version="1.1" width="224" xmlns="http://www.w3.org/2000/svg">
  <defs/>
  <g>
    <path d="M 35.80793380737305 48.59907150268555 C 62.19057083129883 77.67491912841797 15.414495468139648 34.14823913574219 88.347900390625 91.27316284179688" fill="none" stroke="rgb(0, 0, 0)" stroke-linecap="round" stroke-linejoin="round" stroke-opacity="1.0" stroke-width="3.0"/>
    <path d="M 36.539405822753906 109.43383026123047 C 70.90444946289062 183.30625915527344 55.40715026855469 129.49749755859375 77.07251739501953 180.19241333007812" fill="none" stroke="rgb(0, 0, 0)" stroke-linecap="round" stroke-linejoin="round" stroke-opacity="1.0" stroke-width="3.0"/>
    <path d="M 93.5838623046875 112.04541015625 C 34.04682540893555 40.85667419433594 114.68902587890625 127.2243881225586 114.85132598876953 49.04359817504883" fill="none" stroke="rgb(0, 0, 0)" stroke-linecap="round" stroke-linejoin="round" stroke-opacity="1.0" stroke-width="3.0"/>
    <path d="M 109.3831787109375 15.043540000915527 C 128.06161499023438 111.74229431152344 104.45059204101562 85.29670715332031 93.25806427001953 116.0621337890625" fill="none" stroke="rgb(0, 0, 0)" stroke-linecap="round" stroke-linejoin="round" stroke-opacity="1.0" stroke-width="3.0"/>
    <path d="M 82.68755340576172 69.2172622680664 C 58.47706604003906 44.618892669677734 134.69039916992188 62.42757797241211 88.41421508789062 60.42683792114258" fill="none" stroke="rgb(0, 0, 0)" stroke-linecap="round" stroke-linejoin="round" stroke-opacity="1.0" stroke-width="3.0"/>
    <path d="M 153.0290985107422 98.80867004394531 C 142.94789123535156 101.56473541259766 132.78419494628906 128.41561889648438 126.10472869873047 157.6727294921875" fill="none" stroke="rgb(0, 0, 0)" stroke-linecap="round" stroke-linejoin="round" stroke-opacity="1.0" stroke-width="3.0"/>
    <path d="M 81.01618194580078 39.27783203125 C 128.61375427246094 31.486806869506836 48.652408599853516 71.0412368774414 109.05947875976562 35.82462692260742" fill="none" stroke="rgb(0, 0, 0)" stroke-linecap="round" stroke-linejoin="round" stroke-opacity="1.0" stroke-width="3.0"/>
    <path d="M 60.93210983276367 228.7066192626953 C 10.663702011108398 209.11732482910156 27.831993103027344 207.92440795898438 18.842409133911133 166.83705139160156" fill="none" stroke="rgb(0, 0, 0)" stroke-linecap="round" stroke-linejoin="round" stroke-opacity="1.0" stroke-width="3.0"/>
    <path d="M 104.05974578857422 194.66615295410156 C 90.66411590576172 218.5983123779297 106.99507904052734 188.62550354003906 64.89511108398438 228.59840393066406" fill="none" stroke="rgb(0, 0, 0)" stroke-linecap="round" stroke-linejoin="round" stroke-opacity="1.0" stroke-width="3.0"/>
    <path d="M 39.87879943847656 44.413307189941406 C 66.39369201660156 22.21187973022461 28.172670364379883 31.455663681030273 95.1487808227539 3.3879804611206055" fill="none" stroke="rgb(0, 0, 0)" stroke-linecap="round" stroke-linejoin="round" stroke-opacity="1.0" stroke-width="3.0"/>
    <path d="M 171.41151428222656 155.6546173095703 C 167.4199981689453 111.52748107910156 187.21673583984375 131.07191467285156 162.14321899414062 96.7525405883789" fill="none" stroke="rgb(0, 0, 0)" stroke-linecap="round" stroke-linejoin="round" stroke-opacity="1.0" stroke-width="3.0"/>
    <path d="M 115.79501342773438 65.8199691772461 C 106.81201934814453 74.6936264038086 176.21652221679688 107.0141830444336 146.14024353027344 68.93429565429688" fill="none" stroke="rgb(0, 0, 0)" stroke-linecap="round" stroke-linejoin="round" stroke-opacity="1.0" stroke-width="3.0"/>
    <path d="M 143.34744262695312 43.93596267700195 C 158.6755828857422 99.83057403564453 139.0823211669922 81.73715209960938 160.49720764160156 96.48664093017578" fill="none" stroke="rgb(0, 0, 0)" stroke-linecap="round" stroke-linejoin="round" stroke-opacity="1.0" stroke-width="3.0"/>
    <path d="M 171.65733337402344 157.2890625 C 152.97616577148438 232.21339416503906 154.59951782226562 167.54473876953125 157.82684326171875 231.87925720214844" fill="none" stroke="rgb(0, 0, 0)" stroke-linecap="round" stroke-linejoin="round" stroke-opacity="1.0" stroke-width="3.0"/>
    <path d="M 86.07453918457031 9.704297065734863 C 162.63372802734375 19.46059799194336 128.977783203125 31.264265060424805 164.64865112304688 36.74981689453125" fill="none" stroke="rgb(0, 0, 0)" stroke-linecap="round" stroke-linejoin="round" stroke-opacity="1.0" stroke-width="3.0"/>
    <path d="M 109.2994155883789 4.367406368255615 C 158.7716827392578 47.15670394897461 113.59039306640625 14.08920955657959 151.0019073486328 55.97856140136719" fill="none" stroke="rgb(0, 0, 0)" stroke-linecap="round" stroke-linejoin="round" stroke-opacity="1.0" stroke-width="3.0"/>
  </g>
</svg>
