<?xml version="1.0" ?>
<svg height="224" version="1.1" width="224" xmlns="http://www.w3.org/2000/svg">
  <defs/>
  <g>
    <path d="M 40.327266693115234 42.237239837646484 C 78.20677185058594 91.95492553710938 47.82930374145508 73.10508728027344 78.6085205078125 104.35537719726562" fill="none" stroke="rgb(0, 0, 0)" stroke-linecap="round" stroke-linejoin="round" stroke-opacity="1.0" stroke-width="3.0"/>
    <path d="M 27.317304611206055 119.9864501953125 C 72.78621673583984 184.39279174804688 54.32408905029297 128.78724670410156 81.73359680175781 191.58413696289062" fill="none" stroke="rgb(0, 0, 0)" stroke-linecap="round" stroke-linejoin="round" stroke-opacity="1.0" stroke-width="3.0"/>
    <path d="M 96.20852661132812 114.14888763427734 C 49.2586669921875 77.40489959716797 83.270751953125 117.77423095703125 119.54983520507812 92.01533508300781" fill="none" stroke="rgb(0, 0, 0)" stroke-linecap="round" stroke-linejoin="round" stroke-opacity="1.0" stroke-width="3.0"/>
    <path d="M 120.65595245361328 30.461759567260742 C 134.15892028808594 101.02116394042969 129.00010681152344 81.48795318603516 96.0088119506836 115.18733215332031" fill="none" stroke="rgb(0, 0, 0)" stroke-linecap="round" stroke-linejoin="round" stroke-opacity="1.0" stroke-width="3.0"/>
    <path d="M 75.328857421875 34.3155517578125 C 89.1982650756836 48.95854568481445 123.70030975341797 28.666170120239258 77.02070617675781 58.04320526123047" fill="none" stroke="rgb(0, 0, 0)" stroke-linecap="round" stroke-linejoin="round" stroke-opacity="1.0" stroke-width="3.0"/>
    <path d="M 152.3317413330078 101.62178802490234 C 141.5967254638672 111.0515365600586 138.44451904296875 121.60527038574219 125.53657531738281 156.39915466308594" fill="none" stroke="rgb(0, 0, 0)" stroke-linecap="round" stroke-linejoin="round" stroke-opacity="1.0" stroke-width="3.0"/>
    <path d="M 85.54249572753906 44.632625579833984 C 93.69850158691406 29.64476776123047 109.76026153564453 50.85470199584961 111.25626373291016 30.833696365356445" fill="none" stroke="rgb(0, 0, 0)" stroke-linecap="round" stroke-linejoin="round" stroke-opacity="1.0" stroke-width="3.0"/>
    <path d="M 62.460693359375 202.13262939453125 C 27.223392486572266 199.76133728027344 35.25730895996094 198.76588439941406 15.677000045776367 177.55641174316406" fill="none" stroke="rgb(0, 0, 0)" stroke-linecap="round" stroke-linejoin="round" stroke-opacity="1.0" stroke-width="3.0"/>
    <path d="M 110.54740142822266 198.07379150390625 C 96.13357543945312 213.96478271484375 119.18356323242188 198.64393615722656 81.83097839355469 231.99942016601562" fill="none" stroke="rgb(0, 0, 0)" stroke-linecap="round" stroke-linejoin="round" stroke-opacity="1.0" stroke-width="3.0"/>
    <path d="M 53.95869445800781 33.72325897216797 C 80.89188385009766 19.059412002563477 64.84358978271484 39.082279205322266 82.34700775146484 19.632490158081055" fill="none" stroke="rgb(0, 0, 0)" stroke-linecap="round" stroke-linejoin="round" stroke-opacity="1.0" stroke-width="3.0"/>
    <path d="M 165.08961486816406 186.3999481201172 C 175.2374725341797 132.74085998535156 184.98489379882812 154.89932250976562 166.0638885498047 105.898681640625" fill="none" stroke="rgb(0, 0, 0)" stroke-linecap="round" stroke-linejoin="round" stroke-opacity="1.0" stroke-width="3.0"/>
    <path d="M 127.66816711425781 55.49207305908203 C 109.65492248535156 84.20381164550781 177.60479736328125 97.51651000976562 138.8312530517578 69.71793365478516" fill="none" stroke="rgb(0, 0, 0)" stroke-linecap="round" stroke-linejoin="round" stroke-opacity="1.0" stroke-width="3.0"/>
    <path d="M 138.86447143554688 49.02094650268555 C 144.5721893310547 94.16357421875 144.3682861328125 81.43798065185547 152.65625 89.62308502197266" fill="none" stroke="rgb(0, 0, 0)" stroke-linecap="round" stroke-linejoin="round" stroke-opacity="1.0" stroke-width="3.0"/>
    <path d="M 165.8328094482422 184.2428741455078 C 151.23150634765625 214.5138702392578 157.10018920898438 180.05084228515625 160.2328643798828 226.80319213867188" fill="none" stroke="rgb(0, 0, 0)" stroke-linecap="round" stroke-linejoin="round" stroke-opacity="1.0" stroke-width="3.0"/>
    <path d="M 135.9003143310547 15.69178581237793 C 162.2400360107422 36.05736541748047 140.4980926513672 25.643173217773438 162.53501892089844 40.472930908203125" fill="none" stroke="rgb(0, 0, 0)" stroke-linecap="round" stroke-linejoin="round" stroke-opacity="1.0" stroke-width="3.0"/>
    <path d="M 125.80347442626953 19.488069534301758 C 144.62106323242188 47.21121597290039 118.99702453613281 21.537918090820312 144.31861877441406 60.20222473144531" fill="none" stroke="rgb(0, 0, 0)" stroke-linecap="round" stroke-linejoin="round" stroke-opacity="1.0" stroke-width="3.0"/>
  </g>
</svg>
