<?xml version="1.0" ?>
<svg height="224" version="1.1" width="224" xmlns="http://www.w3.org/2000/svg">
  <defs/>
  <g>
    <path d="M 47.751800537109375 81.57584381103516 C 61.65922164916992 87.72794342041016 41.62584686279297 78.16506958007812 62.82273864746094 87.60696411132812" fill="none" stroke="rgb(0, 0, 0)" stroke-linecap="round" stroke-linejoin="round" stroke-opacity="1.0" stroke-width="3.0"/>
    <path d="M 50.66059112548828 134.2987060546875 C 64.16863250732422 149.60520935058594 68.79924011230469 145.1583709716797 88.53632354736328 161.17495727539062" fill="none" stroke="rgb(0, 0, 0)" stroke-linecap="round" stroke-linejoin="round" stroke-opacity="1.0" stroke-width="3.0"/>
    <path d="M 85.19092559814453 103.96141815185547 C 74.3267593383789 96.64119720458984 76.72950744628906 101.77909088134766 90.16053009033203 108.75404357910156" fill="none" stroke="rgb(0, 0, 0)" stroke-linecap="round" stroke-linejoin="round" stroke-opacity="1.0" stroke-width="3.0"/>
    <path d="M 108.08662414550781 73.73171997070312 C 100.91175842285156 100.14039611816406 92.61681365966797 91.17377471923828 91.73331451416016 101.34797668457031" fill="none" stroke="rgb(0, 0, 0)" stroke-linecap="round" stroke-linejoin="round" stroke-opacity="1.0" stroke-width="3.0"/>
    <path d="M 56.544612884521484 54.22599792480469 C 78.03470611572266 50.0327033996582 90.02043914794922 50.661468505859375 72.35675048828125 52.08908462524414" fill="none" stroke="rgb(0, 0, 0)" stroke-linecap="round" stroke-linejoin="round" stroke-opacity="1.0" stroke-width="3.0"/>
    <path d="M 164.60997009277344 97.5374755859375 C 156.27542114257812 114.10235595703125 159.3254852294922 122.60291290283203 158.3031005859375 115.89080047607422" fill="none" stroke="rgb(0, 0, 0)" stroke-linecap="round" stroke-linejoin="round" stroke-opacity="1.0" stroke-width="3.0"/>
    <path d="M 67.82888793945312 57.3209342956543 C 80.35550689697266 46.90044021606445 92.75634002685547 49.61286926269531 87.50201416015625 55.85945129394531" fill="none" stroke="rgb(0, 0, 0)" stroke-linecap="round" stroke-linejoin="round" stroke-opacity="1.0" stroke-width="3.0"/>
    <path d="M 64.97360229492188 192.12265014648438 C 65.32157135009766 183.4100799560547 71.19377136230469 187.3276824951172 45.2838249206543 211.86651611328125" fill="none" stroke="rgb(0, 0, 0)" stroke-linecap="round" stroke-linejoin="round" stroke-opacity="1.0" stroke-width="3.0"/>
    <path d="M 103.61959838867188 198.87924194335938 C 77.91691589355469 205.99838256835938 88.21559143066406 202.61932373046875 88.67180633544922 203.20880126953125" fill="none" stroke="rgb(0, 0, 0)" stroke-linecap="round" stroke-linejoin="round" stroke-opacity="1.0" stroke-width="3.0"/>
    <path d="M 36.055564880371094 33.737125396728516 C 41.192039489746094 56.395267486572266 60.92847442626953 47.83195877075195 55.80705642700195 54.44784927368164" fill="none" stroke="rgb(0, 0, 0)" stroke-linecap="round" stroke-linejoin="round" stroke-opacity="1.0" stroke-width="3.0"/>
    <path d="M 151.4301300048828 175.14547729492188 C 166.6862335205078 157.55862426757812 162.8667449951172 168.47091674804688 168.1854705810547 149.83139038085938" fill="none" stroke="rgb(0, 0, 0)" stroke-linecap="round" stroke-linejoin="round" stroke-opacity="1.0" stroke-width="3.0"/>
    <path d="M 152.28321838378906 71.77320861816406 C 157.29315185546875 73.81238555908203 156.118896484375 74.78024291992188 148.5635528564453 69.5254898071289" fill="none" stroke="rgb(0, 0, 0)" stroke-linecap="round" stroke-linejoin="round" stroke-opacity="1.0" stroke-width="3.0"/>
    <path d="M 141.8206787109375 75.664306640625 C 145.5414276123047 87.63690948486328 144.5015869140625 81.24081420898438 143.83343505859375 81.91818237304688" fill="none" stroke="rgb(0, 0, 0)" stroke-linecap="round" stroke-linejoin="round" stroke-opacity="1.0" stroke-width="3.0"/>
    <path d="M 147.8600311279297 194.20399475097656 C 149.47299194335938 204.27671813964844 156.12510681152344 204.34144592285156 158.1488800048828 223.35986328125" fill="none" stroke="rgb(0, 0, 0)" stroke-linecap="round" stroke-linejoin="round" stroke-opacity="1.0" stroke-width="3.0"/>
    <path d="M 151.6190643310547 30.65150260925293 C 155.76748657226562 33.26215744018555 149.00144958496094 30.978919982910156 160.81130981445312 37.677738189697266" fill="none" stroke="rgb(0, 0, 0)" stroke-linecap="round" stroke-linejoin="round" stroke-opacity="1.0" stroke-width="3.0"/>
    <path d="M 124.737548828125 10.078618049621582 C 145.02786254882812 31.98602294921875 136.9779052734375 31.5623779296875 141.86428833007812 44.7066764831543" fill="none" stroke="rgb(0, 0, 0)" stroke-linecap="round" stroke-linejoin="round" stroke-opacity="1.0" stroke-width="3.0"/>
  </g>
</svg>
