<?xml version="1.0" ?>
<svg height="224" version="1.1" width="224" xmlns="http://www.w3.org/2000/svg">
  <defs/>
  <g>
    <path d="M 39.63329315185547 44.39159393310547 C 58.3175163269043 65.41293334960938 13.522706031799316 36.0034294128418 82.27960205078125 85.89196014404297" fill="none" stroke="rgb(0, 0, 0)" stroke-linecap="round" stroke-linejoin="round" stroke-opacity="1.0" stroke-width="3.0"/>
    <path d="M 30.216869354248047 112.99227142333984 C 64.26814270019531 169.26495361328125 48.51571273803711 135.59085083007812 83.2833023071289 164.47694396972656" fill="none" stroke="rgb(0, 0, 0)" stroke-linecap="round" stroke-linejoin="round" stroke-opacity="1.0" stroke-width="3.0"/>
    <path d="M 94.4400863647461 111.35538482666016 C 30.331436157226562 41.64997482299805 109.17072296142578 131.9962615966797 117.73723602294922 47.578311920166016" fill="none" stroke="rgb(0, 0, 0)" stroke-linecap="round" stroke-linejoin="round" stroke-opacity="1.0" stroke-width="3.0"/>
    <path d="M 111.0055923461914 15.122730255126953 C 130.32879638671875 126.18279266357422 97.36695098876953 98.10246276855469 95.24347686767578 117.36227416992188" fill="none" stroke="rgb(0, 0, 0)" stroke-linecap="round" stroke-linejoin="round" stroke-opacity="1.0" stroke-width="3.0"/>
    <path d="M 90.91555786132812 70.3643569946289 C 59.19241714477539 64.872802734375 116.1766357421875 71.10572052001953 91.18828582763672 67.4224853515625" fill="none" stroke="rgb(0, 0, 0)" stroke-linecap="round" stroke-linejoin="round" stroke-opacity="1.0" stroke-width="3.0"/>
    <path d="M 148.23365783691406 98.53536987304688 C 138.493408203125 107.41818237304688 130.2572021484375 131.10543823242188 127.83242797851562 152.77735900878906" fill="none" stroke="rgb(0, 0, 0)" stroke-linecap="round" stroke-linejoin="round" stroke-opacity="1.0" stroke-width="3.0"/>
    <path d="M 85.66886901855469 41.3719596862793 C 140.47894287109375 58.223297119140625 31.880237579345703 52.32136917114258 110.21549224853516 39.37609100341797" fill="none" stroke="rgb(0, 0, 0)" stroke-linecap="round" stroke-linejoin="round" stroke-opacity="1.0" stroke-width="3.0"/>
    <path d="M 61.4649658203125 225.41244506835938 C 2.0516397953033447 212.74656677246094 28.895557403564453 202.29676818847656 18.631603240966797 166.33502197265625" fill="none" stroke="rgb(0, 0, 0)" stroke-linecap="round" stroke-linejoin="round" stroke-opacity="1.0" stroke-width="3.0"/>
    <path d="M 103.0675277709961 198.7618408203125 C 92.3779525756836 217.67013549804688 107.96485137939453 190.15953063964844 69.09613037109375 234.07485961914062" fill="none" stroke="rgb(0, 0, 0)" stroke-linecap="round" stroke-linejoin="round" stroke-opacity="1.0" stroke-width="3.0"/>
    <path d="M 40.60830307006836 40.737457275390625 C 64.9423599243164 22.96270751953125 32.00363540649414 33.10261535644531 85.26481628417969 8.537182807922363" fill="none" stroke="rgb(0, 0, 0)" stroke-linecap="round" stroke-linejoin="round" stroke-opacity="1.0" stroke-width="3.0"/>
    <path d="M 172.44749450683594 151.49496459960938 C 167.89866638183594 113.55756378173828 185.81727600097656 130.61224365234375 163.4467315673828 99.15371704101562" fill="none" stroke="rgb(0, 0, 0)" stroke-linecap="round" stroke-linejoin="round" stroke-opacity="1.0" stroke-width="3.0"/>
    <path d="M 116.15447998046875 78.47227478027344 C 114.05640411376953 74.60520935058594 175.5990753173828 104.89348602294922 144.75070190429688 67.81249237060547" fill="none" stroke="rgb(0, 0, 0)" stroke-linecap="round" stroke-linejoin="round" stroke-opacity="1.0" stroke-width="3.0"/>
    <path d="M 142.2997589111328 44.21035385131836 C 156.97024536132812 100.11116027832031 137.86134338378906 79.96705627441406 164.22840881347656 99.12704467773438" fill="none" stroke="rgb(0, 0, 0)" stroke-linecap="round" stroke-linejoin="round" stroke-opacity="1.0" stroke-width="3.0"/>
    <path d="M 172.9217529296875 151.2187957763672 C 164.3141326904297 203.49896240234375 169.69813537597656 153.45718383789062 150.4496307373047 229.7898712158203" fill="none" stroke="rgb(0, 0, 0)" stroke-linecap="round" stroke-linejoin="round" stroke-opacity="1.0" stroke-width="3.0"/>
    <path d="M 80.31501770019531 12.161473274230957 C 138.08383178710938 2.970494270324707 137.42681884765625 34.77800369262695 162.56175231933594 36.45103073120117" fill="none" stroke="rgb(0, 0, 0)" stroke-linecap="round" stroke-linejoin="round" stroke-opacity="1.0" stroke-width="3.0"/>
    <path d="M 97.18661499023438 8.986223220825195 C 150.34060668945312 31.51571273803711 118.4390869140625 19.29259490966797 148.59498596191406 54.976966857910156" fill="none" stroke="rgb(0, 0, 0)" stroke-linecap="round" stroke-linejoin="round" stroke-opacity="1.0" stroke-width="3.0"/>
  </g>
</svg>
