<?xml version="1.0" ?>
<svg height="224" version="1.1" width="224" xmlns="http://www.w3.org/2000/svg">
  <defs/>
  <g>
    <path d="M 36.157386779785156 49.946956634521484 C 77.20954132080078 81.26438903808594 45.848411560058594 64.66575622558594 85.80720520019531 100.28506469726562" fill="none" stroke="rgb(0, 0, 0)" stroke-linecap="round" stroke-linejoin="round" stroke-opacity="1.0" stroke-width="3.0"/>
    <path d="M 31.557849884033203 115.79341125488281 C 69.49693298339844 189.3646240234375 45.22576904296875 129.51161193847656 70.17028045654297 192.29470825195312" fill="none" stroke="rgb(0, 0, 0)" stroke-linecap="round" stroke-linejoin="round" stroke-opacity="1.0" stroke-width="3.0"/>
    <path d="M 96.26731872558594 111.79332733154297 C 66.82259368896484 64.4483642578125 82.20768737792969 111.68909454345703 120.9602279663086 83.57991027832031" fill="none" stroke="rgb(0, 0, 0)" stroke-linecap="round" stroke-linejoin="round" stroke-opacity="1.0" stroke-width="3.0"/>
    <path d="M 118.0791015625 31.223590850830078 C 127.49787902832031 99.66771697998047 112.82009887695312 81.14952087402344 96.01802062988281 114.4989013671875" fill="none" stroke="rgb(0, 0, 0)" stroke-linecap="round" stroke-linejoin="round" stroke-opacity="1.0" stroke-width="3.0"/>
    <path d="M 74.38219451904297 41.58686065673828 C 79.01277160644531 48.68389129638672 154.13059997558594 32.64684295654297 87.68457794189453 62.83721923828125" fill="none" stroke="rgb(0, 0, 0)" stroke-linecap="round" stroke-linejoin="round" stroke-opacity="1.0" stroke-width="3.0"/>
    <path d="M 150.7020263671875 102.46295166015625 C 139.68507385253906 111.70291900634766 133.18609619140625 120.56278228759766 118.33776092529297 160.25076293945312" fill="none" stroke="rgb(0, 0, 0)" stroke-linecap="round" stroke-linejoin="round" stroke-opacity="1.0" stroke-width="3.0"/>
    <path d="M 76.43321990966797 48.40898132324219 C 96.8840560913086 26.421390533447266 92.20161437988281 58.140777587890625 98.88194274902344 40.932125091552734" fill="none" stroke="rgb(0, 0, 0)" stroke-linecap="round" stroke-linejoin="round" stroke-opacity="1.0" stroke-width="3.0"/>
    <path d="M 57.663299560546875 196.90359497070312 C 26.322694778442383 197.17825317382812 34.29528045654297 196.85169982910156 14.09743881225586 184.7476043701172" fill="none" stroke="rgb(0, 0, 0)" stroke-linecap="round" stroke-linejoin="round" stroke-opacity="1.0" stroke-width="3.0"/>
    <path d="M 107.52559661865234 200.754150390625 C 92.76570892333984 216.5429229736328 114.78865814208984 199.3892364501953 75.97367095947266 228.3477325439453" fill="none" stroke="rgb(0, 0, 0)" stroke-linecap="round" stroke-linejoin="round" stroke-opacity="1.0" stroke-width="3.0"/>
    <path d="M 43.645904541015625 36.9443244934082 C 72.85487365722656 6.115119457244873 54.350555419921875 32.50459671020508 83.46366882324219 6.218472957611084" fill="none" stroke="rgb(0, 0, 0)" stroke-linecap="round" stroke-linejoin="round" stroke-opacity="1.0" stroke-width="3.0"/>
    <path d="M 168.41407775878906 167.6051483154297 C 165.40272521972656 117.28376770019531 185.5147705078125 126.43343353271484 164.2089385986328 101.66454315185547" fill="none" stroke="rgb(0, 0, 0)" stroke-linecap="round" stroke-linejoin="round" stroke-opacity="1.0" stroke-width="3.0"/>
    <path d="M 122.0922622680664 53.98121643066406 C 106.23893737792969 85.39236450195312 174.3232421875 100.64844512939453 135.9656982421875 63.260807037353516" fill="none" stroke="rgb(0, 0, 0)" stroke-linecap="round" stroke-linejoin="round" stroke-opacity="1.0" stroke-width="3.0"/>
    <path d="M 137.58392333984375 42.09489822387695 C 144.3966827392578 92.95672607421875 145.0090789794922 85.52989959716797 152.13624572753906 91.90172576904297" fill="none" stroke="rgb(0, 0, 0)" stroke-linecap="round" stroke-linejoin="round" stroke-opacity="1.0" stroke-width="3.0"/>
    <path d="M 168.0201416015625 169.7053680419922 C 150.2698974609375 221.6420440673828 154.15432739257812 175.20645141601562 161.1058349609375 226.4662628173828" fill="none" stroke="rgb(0, 0, 0)" stroke-linecap="round" stroke-linejoin="round" stroke-opacity="1.0" stroke-width="3.0"/>
    <path d="M 118.93927001953125 3.216224431991577 C 164.75701904296875 38.969261169433594 141.04922485351562 28.219179153442383 164.52838134765625 37.20254898071289" fill="none" stroke="rgb(0, 0, 0)" stroke-linecap="round" stroke-linejoin="round" stroke-opacity="1.0" stroke-width="3.0"/>
    <path d="M 124.43099975585938 19.210201263427734 C 140.465576171875 38.974464416503906 115.18893432617188 23.827829360961914 147.18873596191406 59.20327377319336" fill="none" stroke="rgb(0, 0, 0)" stroke-linecap="round" stroke-linejoin="round" stroke-opacity="1.0" stroke-width="3.0"/>
  </g>
</svg>
