<?xml version="1.0" ?>
<svg height="224" version="1.1" width="224" xmlns="http://www.w3.org/2000/svg">
  <defs/>
  <g>
    <path d="M 39.01945877075195 50.840030670166016 C 81.10498809814453 79.27960205078125 47.634761810302734 61.073158264160156 89.36092376708984 99.64240264892578" fill="none" stroke="rgb(0, 0, 0)" stroke-linecap="round" stroke-linejoin="round" stroke-opacity="1.0" stroke-width="3.0"/>
    <path d="M 26.470613479614258 113.39726257324219 C 71.88077545166016 185.91062927246094 49.22773742675781 125.58930969238281 70.85183715820312 191.9422607421875" fill="none" stroke="rgb(0, 0, 0)" stroke-linecap="round" stroke-linejoin="round" stroke-opacity="1.0" stroke-width="3.0"/>
    <path d="M 97.01703643798828 109.432373046875 C 65.59017944335938 64.56190490722656 82.23193359375 109.2280502319336 121.35973358154297 77.60792541503906" fill="none" stroke="rgb(0, 0, 0)" stroke-linecap="round" stroke-linejoin="round" stroke-opacity="1.0" stroke-width="3.0"/>
    <path d="M 116.5650863647461 36.735069274902344 C 128.28028869628906 102.98544311523438 108.8841781616211 79.71009063720703 95.8297348022461 112.15817260742188" fill="none" stroke="rgb(0, 0, 0)" stroke-linecap="round" stroke-linejoin="round" stroke-opacity="1.0" stroke-width="3.0"/>
    <path d="M 77.41505432128906 48.51676940917969 C 78.0987777709961 46.870906829833984 162.05397033691406 32.096534729003906 85.07124328613281 61.310646057128906" fill="none" stroke="rgb(0, 0, 0)" stroke-linecap="round" stroke-linejoin="round" stroke-opacity="1.0" stroke-width="3.0"/>
    <path d="M 152.57525634765625 99.46531677246094 C 140.53497314453125 110.02476501464844 134.59869384765625 124.55696868896484 122.89263916015625 162.25759887695312" fill="none" stroke="rgb(0, 0, 0)" stroke-linecap="round" stroke-linejoin="round" stroke-opacity="1.0" stroke-width="3.0"/>
    <path d="M 77.71064758300781 52.812068939208984 C 94.5146713256836 28.903409957885742 86.0065689086914 61.182342529296875 103.30467224121094 40.600337982177734" fill="none" stroke="rgb(0, 0, 0)" stroke-linecap="round" stroke-linejoin="round" stroke-opacity="1.0" stroke-width="3.0"/>
    <path d="M 56.33033752441406 202.58412170410156 C 24.045793533325195 195.5198516845703 32.25868606567383 201.38787841796875 17.103303909301758 182.6984100341797" fill="none" stroke="rgb(0, 0, 0)" stroke-linecap="round" stroke-linejoin="round" stroke-opacity="1.0" stroke-width="3.0"/>
    <path d="M 112.69329071044922 205.78814697265625 C 93.08866882324219 220.5176544189453 117.45097351074219 206.88050842285156 78.62559509277344 232.81082153320312" fill="none" stroke="rgb(0, 0, 0)" stroke-linecap="round" stroke-linejoin="round" stroke-opacity="1.0" stroke-width="3.0"/>
    <path d="M 46.11233901977539 40.034420013427734 C 71.6551742553711 6.260702133178711 49.87794876098633 36.95168685913086 80.0672607421875 6.1659369468688965" fill="none" stroke="rgb(0, 0, 0)" stroke-linecap="round" stroke-linejoin="round" stroke-opacity="1.0" stroke-width="3.0"/>
    <path d="M 169.26495361328125 162.8369598388672 C 164.24856567382812 115.29843139648438 186.73739624023438 130.8755340576172 160.8104705810547 98.94073486328125" fill="none" stroke="rgb(0, 0, 0)" stroke-linecap="round" stroke-linejoin="round" stroke-opacity="1.0" stroke-width="3.0"/>
    <path d="M 118.18185424804688 48.90119934082031 C 105.19064331054688 78.67842864990234 182.86647033691406 101.94873809814453 142.0602264404297 69.91007232666016" fill="none" stroke="rgb(0, 0, 0)" stroke-linecap="round" stroke-linejoin="round" stroke-opacity="1.0" stroke-width="3.0"/>
    <path d="M 134.55624389648438 44.87924575805664 C 148.8646697998047 92.6585922241211 146.36241149902344 83.39669036865234 158.28932189941406 92.62628936767578" fill="none" stroke="rgb(0, 0, 0)" stroke-linecap="round" stroke-linejoin="round" stroke-opacity="1.0" stroke-width="3.0"/>
    <path d="M 169.68276977539062 163.8584442138672 C 153.2546844482422 226.13182067871094 153.2037353515625 172.95579528808594 158.74526977539062 226.4735870361328" fill="none" stroke="rgb(0, 0, 0)" stroke-linecap="round" stroke-linejoin="round" stroke-opacity="1.0" stroke-width="3.0"/>
    <path d="M 114.7396011352539 6.672343730926514 C 168.7397918701172 36.120548248291016 139.7023162841797 27.142148971557617 164.19528198242188 36.7284049987793" fill="none" stroke="rgb(0, 0, 0)" stroke-linecap="round" stroke-linejoin="round" stroke-opacity="1.0" stroke-width="3.0"/>
    <path d="M 121.16939544677734 19.773643493652344 C 134.66990661621094 36.17420959472656 109.0712890625 20.003419876098633 144.95933532714844 57.87522506713867" fill="none" stroke="rgb(0, 0, 0)" stroke-linecap="round" stroke-linejoin="round" stroke-opacity="1.0" stroke-width="3.0"/>
  </g>
</svg>
