<?xml version="1.0" ?>
<svg height="224" version="1.1" width="224" xmlns="http://www.w3.org/2000/svg">
  <defs/>
  <g>
    <path d="M 36.27132797241211 52.45349884033203 C 80.12659454345703 83.96405029296875 34.76082229614258 70.23527526855469 75.35970306396484 88.2366943359375" fill="none" stroke="rgb(0, 0, 0)" stroke-linecap="round" stroke-linejoin="round" stroke-opacity="1.0" stroke-width="3.0"/>
    <path d="M 28.637371063232422 128.2017822265625 C 70.55813598632812 167.73211669921875 77.5469970703125 147.84304809570312 77.46158599853516 166.45071411132812" fill="none" stroke="rgb(0, 0, 0)" stroke-linecap="round" stroke-linejoin="round" stroke-opacity="1.0" stroke-width="3.0"/>
    <path d="M 96.59801483154297 103.9994888305664 C 80.8582763671875 100.43209075927734 96.616455078125 110.03423309326172 108.06656646728516 102.1058578491211" fill="none" stroke="rgb(0, 0, 0)" stroke-linecap="round" stroke-linejoin="round" stroke-opacity="1.0" stroke-width="3.0"/>
    <path d="M 129.96717834472656 59.791107177734375 C 133.14793395996094 79.24081420898438 116.76024627685547 84.75431823730469 103.4323959350586 111.75761413574219" fill="none" stroke="rgb(0, 0, 0)" stroke-linecap="round" stroke-linejoin="round" stroke-opacity="1.0" stroke-width="3.0"/>
    <path d="M 53.09410858154297 34.71843719482422 C 76.18775939941406 46.944908142089844 84.6951904296875 42.0493278503418 69.20610046386719 40.237300872802734" fill="none" stroke="rgb(0, 0, 0)" stroke-linecap="round" stroke-linejoin="round" stroke-opacity="1.0" stroke-width="3.0"/>
    <path d="M 158.77352905273438 99.76677703857422 C 149.5466766357422 105.6446304321289 144.04986572265625 107.49431610107422 129.80917358398438 156.53086853027344" fill="none" stroke="rgb(0, 0, 0)" stroke-linecap="round" stroke-linejoin="round" stroke-opacity="1.0" stroke-width="3.0"/>
    <path d="M 71.92292785644531 45.78773498535156 C 74.31111145019531 38.962493896484375 102.7766342163086 39.981441497802734 88.57032012939453 47.901512145996094" fill="none" stroke="rgb(0, 0, 0)" stroke-linecap="round" stroke-linejoin="round" stroke-opacity="1.0" stroke-width="3.0"/>
    <path d="M 68.79534912109375 184.1156463623047 C 40.477203369140625 190.5996856689453 67.2702407836914 196.61697387695312 12.971142768859863 196.9685516357422" fill="none" stroke="rgb(0, 0, 0)" stroke-linecap="round" stroke-linejoin="round" stroke-opacity="1.0" stroke-width="3.0"/>
    <path d="M 120.9038314819336 190.96664428710938 C 108.02997589111328 210.42056274414062 121.87772369384766 196.6129913330078 106.96601867675781 221.03103637695312" fill="none" stroke="rgb(0, 0, 0)" stroke-linecap="round" stroke-linejoin="round" stroke-opacity="1.0" stroke-width="3.0"/>
    <path d="M 46.703269958496094 27.24285888671875 C 53.56581115722656 41.68918991088867 68.47277069091797 37.515411376953125 53.634891510009766 35.81326675415039" fill="none" stroke="rgb(0, 0, 0)" stroke-linecap="round" stroke-linejoin="round" stroke-opacity="1.0" stroke-width="3.0"/>
    <path d="M 164.4350128173828 188.68455505371094 C 178.50099182128906 146.92652893066406 172.473876953125 165.7234344482422 175.93580627441406 119.34020233154297" fill="none" stroke="rgb(0, 0, 0)" stroke-linecap="round" stroke-linejoin="round" stroke-opacity="1.0" stroke-width="3.0"/>
    <path d="M 155.14389038085938 72.83419036865234 C 156.5802764892578 67.85775756835938 159.91566467285156 75.58303833007812 148.65611267089844 67.9913558959961" fill="none" stroke="rgb(0, 0, 0)" stroke-linecap="round" stroke-linejoin="round" stroke-opacity="1.0" stroke-width="3.0"/>
    <path d="M 145.8916015625 56.63905334472656 C 154.92041015625 85.13162994384766 142.39190673828125 76.44441986083984 154.89630126953125 88.43268585205078" fill="none" stroke="rgb(0, 0, 0)" stroke-linecap="round" stroke-linejoin="round" stroke-opacity="1.0" stroke-width="3.0"/>
    <path d="M 163.3694610595703 189.76966857910156 C 155.3564910888672 210.34519958496094 156.3042449951172 190.04391479492188 162.35446166992188 221.70523071289062" fill="none" stroke="rgb(0, 0, 0)" stroke-linecap="round" stroke-linejoin="round" stroke-opacity="1.0" stroke-width="3.0"/>
    <path d="M 159.12103271484375 34.52109909057617 C 158.51014709472656 33.17942810058594 152.91305541992188 31.4899845123291 162.94102478027344 35.6150016784668" fill="none" stroke="rgb(0, 0, 0)" stroke-linecap="round" stroke-linejoin="round" stroke-opacity="1.0" stroke-width="3.0"/>
    <path d="M 124.74571228027344 9.29647445678711 C 147.7792205810547 40.250057220458984 137.30929565429688 32.256866455078125 147.19100952148438 49.93034744262695" fill="none" stroke="rgb(0, 0, 0)" stroke-linecap="round" stroke-linejoin="round" stroke-opacity="1.0" stroke-width="3.0"/>
  </g>
</svg>
