<?xml version="1.0" ?>
<svg height="224" version="1.1" width="224" xmlns="http://www.w3.org/2000/svg">
  <defs/>
  <g>
    <path d="M 34.82653045654297 54.83230209350586 C 87.5704116821289 85.84937286376953 42.34465026855469 68.56755828857422 80.12091827392578 98.1102066040039" fill="none" stroke="rgb(0, 0, 0)" stroke-linecap="round" stroke-linejoin="round" stroke-opacity="1.0" stroke-width="3.0"/>
    <path d="M 25.06295394897461 115.74969482421875 C 68.01317596435547 184.8299560546875 63.88190841674805 143.806640625 69.11280822753906 185.9338836669922" fill="none" stroke="rgb(0, 0, 0)" stroke-linecap="round" stroke-linejoin="round" stroke-opacity="1.0" stroke-width="3.0"/>
    <path d="M 93.92318725585938 110.29563903808594 C 57.94304656982422 80.05023193359375 83.0426254272461 105.66686248779297 116.925048828125 88.90494537353516" fill="none" stroke="rgb(0, 0, 0)" stroke-linecap="round" stroke-linejoin="round" stroke-opacity="1.0" stroke-width="3.0"/>
    <path d="M 123.99617004394531 34.53743362426758 C 131.8407745361328 101.57193756103516 125.92230987548828 71.80157470703125 99.23917388916016 110.10711669921875" fill="none" stroke="rgb(0, 0, 0)" stroke-linecap="round" stroke-linejoin="round" stroke-opacity="1.0" stroke-width="3.0"/>
    <path d="M 64.4619140625 40.20781326293945 C 75.8379135131836 43.5568962097168 101.59729766845703 32.58992385864258 69.21504211425781 51.797576904296875" fill="none" stroke="rgb(0, 0, 0)" stroke-linecap="round" stroke-linejoin="round" stroke-opacity="1.0" stroke-width="3.0"/>
    <path d="M 158.1069793701172 99.81147003173828 C 140.78475952148438 108.82508087158203 138.1964111328125 113.54611206054688 126.33868408203125 152.88821411132812" fill="none" stroke="rgb(0, 0, 0)" stroke-linecap="round" stroke-linejoin="round" stroke-opacity="1.0" stroke-width="3.0"/>
    <path d="M 84.9390869140625 38.86982345581055 C 87.54685974121094 24.233118057250977 109.11257934570312 34.9946403503418 116.49463653564453 21.26858139038086" fill="none" stroke="rgb(0, 0, 0)" stroke-linecap="round" stroke-linejoin="round" stroke-opacity="1.0" stroke-width="3.0"/>
    <path d="M 57.877685546875 203.41363525390625 C 29.083776473999023 195.90756225585938 41.7457160949707 193.92892456054688 19.417200088500977 180.87660217285156" fill="none" stroke="rgb(0, 0, 0)" stroke-linecap="round" stroke-linejoin="round" stroke-opacity="1.0" stroke-width="3.0"/>
    <path d="M 114.40719604492188 199.35511779785156 C 100.29900360107422 213.20079040527344 118.46759796142578 202.87368774414062 80.4784164428711 224.945068359375" fill="none" stroke="rgb(0, 0, 0)" stroke-linecap="round" stroke-linejoin="round" stroke-opacity="1.0" stroke-width="3.0"/>
    <path d="M 44.81195068359375 29.693323135375977 C 63.90099334716797 46.252498626708984 69.03492736816406 43.42786407470703 66.1161117553711 27.77667808532715" fill="none" stroke="rgb(0, 0, 0)" stroke-linecap="round" stroke-linejoin="round" stroke-opacity="1.0" stroke-width="3.0"/>
    <path d="M 162.74725341796875 187.62109375 C 174.3414306640625 144.7548370361328 179.730224609375 170.08628845214844 169.92893981933594 111.17371368408203" fill="none" stroke="rgb(0, 0, 0)" stroke-linecap="round" stroke-linejoin="round" stroke-opacity="1.0" stroke-width="3.0"/>
    <path d="M 131.89205932617188 55.7140007019043 C 114.92678833007812 80.9556884765625 169.97592163085938 100.0905532836914 139.2987060546875 73.5732650756836" fill="none" stroke="rgb(0, 0, 0)" stroke-linecap="round" stroke-linejoin="round" stroke-opacity="1.0" stroke-width="3.0"/>
    <path d="M 143.2500457763672 41.77065658569336 C 153.00340270996094 99.15452575683594 138.90855407714844 81.55702209472656 154.4022216796875 92.29570007324219" fill="none" stroke="rgb(0, 0, 0)" stroke-linecap="round" stroke-linejoin="round" stroke-opacity="1.0" stroke-width="3.0"/>
    <path d="M 161.79371643066406 188.54156494140625 C 152.66688537597656 210.7256622314453 154.02748107910156 181.7871856689453 157.392822265625 221.46365356445312" fill="none" stroke="rgb(0, 0, 0)" stroke-linecap="round" stroke-linejoin="round" stroke-opacity="1.0" stroke-width="3.0"/>
    <path d="M 140.31243896484375 13.81429386138916 C 166.017578125 33.99293899536133 143.25537109375 24.01034927368164 164.2877197265625 36.68816375732422" fill="none" stroke="rgb(0, 0, 0)" stroke-linecap="round" stroke-linejoin="round" stroke-opacity="1.0" stroke-width="3.0"/>
    <path d="M 130.1927032470703 18.75680160522461 C 150.1683807373047 39.57890701293945 125.92427825927734 23.108816146850586 148.22181701660156 57.287757873535156" fill="none" stroke="rgb(0, 0, 0)" stroke-linecap="round" stroke-linejoin="round" stroke-opacity="1.0" stroke-width="3.0"/>
  </g>
</svg>
