<?xml version="1.0" ?>
<svg height="224" version="1.1" width="224" xmlns="http://www.w3.org/2000/svg">
  <defs/>
  <g>
    <path d="M 35.290496826171875 52.96869659423828 C 69.64889526367188 83.93132781982422 23.323389053344727 39.572513580322266 93.84606170654297 90.39100646972656" fill="none" stroke="rgb(0, 0, 0)" stroke-linecap="round" stroke-linejoin="round" stroke-opacity="1.0" stroke-width="3.0"/>
    <path d="M 32.34610366821289 114.15045166015625 C 76.61308288574219 185.6398162841797 54.26041030883789 129.7711639404297 74.2159194946289 183.73646545410156" fill="none" stroke="rgb(0, 0, 0)" stroke-linecap="round" stroke-linejoin="round" stroke-opacity="1.0" stroke-width="3.0"/>
    <path d="M 96.37112426757812 113.52069854736328 C 49.62263488769531 44.3663444519043 100.56221771240234 116.03963470458984 115.42020416259766 62.016197204589844" fill="none" stroke="rgb(0, 0, 0)" stroke-linecap="round" stroke-linejoin="round" stroke-opacity="1.0" stroke-width="3.0"/>
    <path d="M 110.0299072265625 17.732942581176758 C 129.03285217285156 111.34585571289062 102.76530456542969 88.20684051513672 94.91202545166016 117.93318176269531" fill="none" stroke="rgb(0, 0, 0)" stroke-linecap="round" stroke-linejoin="round" stroke-opacity="1.0" stroke-width="3.0"/>
    <path d="M 73.29324340820312 47.83384704589844 C 76.55177307128906 28.727020263671875 145.9393768310547 69.30440521240234 85.31143188476562 60.95104217529297" fill="none" stroke="rgb(0, 0, 0)" stroke-linecap="round" stroke-linejoin="round" stroke-opacity="1.0" stroke-width="3.0"/>
    <path d="M 152.27651977539062 99.5609130859375 C 145.4653778076172 104.77727508544922 135.9351806640625 130.54183959960938 130.2313995361328 155.46849060058594" fill="none" stroke="rgb(0, 0, 0)" stroke-linecap="round" stroke-linejoin="round" stroke-opacity="1.0" stroke-width="3.0"/>
    <path d="M 74.74494934082031 38.03213882446289 C 129.74168395996094 32.56205368041992 56.453941345214844 62.8719482421875 108.43297576904297 34.689640045166016" fill="none" stroke="rgb(0, 0, 0)" stroke-linecap="round" stroke-linejoin="round" stroke-opacity="1.0" stroke-width="3.0"/>
    <path d="M 58.39335250854492 229.98590087890625 C 17.167152404785156 209.62222290039062 21.030921936035156 217.36367797851562 19.14937400817871 168.5590362548828" fill="none" stroke="rgb(0, 0, 0)" stroke-linecap="round" stroke-linejoin="round" stroke-opacity="1.0" stroke-width="3.0"/>
    <path d="M 110.46487426757812 197.40048217773438 C 98.6875 218.5113067626953 119.34603118896484 195.08265686035156 75.63350677490234 232.55789184570312" fill="none" stroke="rgb(0, 0, 0)" stroke-linecap="round" stroke-linejoin="round" stroke-opacity="1.0" stroke-width="3.0"/>
    <path d="M 34.89714431762695 47.516456604003906 C 59.870418548583984 14.954144477844238 42.56917953491211 31.733070373535156 87.68360137939453 3.4386746883392334" fill="none" stroke="rgb(0, 0, 0)" stroke-linecap="round" stroke-linejoin="round" stroke-opacity="1.0" stroke-width="3.0"/>
    <path d="M 171.97720336914062 157.86790466308594 C 167.86090087890625 112.42981719970703 186.1400604248047 133.819091796875 165.9856414794922 102.40697479248047" fill="none" stroke="rgb(0, 0, 0)" stroke-linecap="round" stroke-linejoin="round" stroke-opacity="1.0" stroke-width="3.0"/>
    <path d="M 115.92654418945312 69.81635284423828 C 105.34854888916016 80.55786895751953 172.0613555908203 106.8327407836914 142.74876403808594 70.02957153320312" fill="none" stroke="rgb(0, 0, 0)" stroke-linecap="round" stroke-linejoin="round" stroke-opacity="1.0" stroke-width="3.0"/>
    <path d="M 142.23828125 45.01152038574219 C 151.8024444580078 104.81392669677734 133.39610290527344 75.95156860351562 164.77647399902344 101.24652099609375" fill="none" stroke="rgb(0, 0, 0)" stroke-linecap="round" stroke-linejoin="round" stroke-opacity="1.0" stroke-width="3.0"/>
    <path d="M 170.72683715820312 159.9386749267578 C 152.64639282226562 232.87127685546875 150.7723388671875 171.0397491455078 158.3154754638672 229.8626251220703" fill="none" stroke="rgb(0, 0, 0)" stroke-linecap="round" stroke-linejoin="round" stroke-opacity="1.0" stroke-width="3.0"/>
    <path d="M 99.81877899169922 1.8352468013763428 C 169.24647521972656 28.028244018554688 133.38311767578125 32.047119140625 165.04074096679688 35.67832946777344" fill="none" stroke="rgb(0, 0, 0)" stroke-linecap="round" stroke-linejoin="round" stroke-opacity="1.0" stroke-width="3.0"/>
    <path d="M 123.2212905883789 12.941327095031738 C 147.9605712890625 43.00627517700195 119.1375961303711 16.855932235717773 148.03897094726562 57.52452087402344" fill="none" stroke="rgb(0, 0, 0)" stroke-linecap="round" stroke-linejoin="round" stroke-opacity="1.0" stroke-width="3.0"/>
  </g>
</svg>
